G75*
%MOIN*%
%OFA0B0*%
%FSLAX25Y25*%
%IPPOS*%
%LPD*%
%AMOC8*
5,1,8,0,0,1.08239X$1,22.5*
%
%ADD10C,0.01100*%
%ADD11R,0.00750X0.00750*%
%ADD12R,0.00750X0.01500*%
%ADD13R,0.00750X0.06000*%
%ADD14R,0.00750X0.05250*%
%ADD15R,0.00750X0.03000*%
%ADD16R,0.00750X0.02250*%
%ADD17R,0.00750X0.06750*%
%ADD18R,0.00750X0.04500*%
%ADD19R,0.00750X0.03750*%
%ADD20R,0.00750X0.11250*%
%ADD21R,0.00750X0.08250*%
%ADD22R,0.00750X0.07500*%
%ADD23R,0.00750X0.09000*%
%ADD24R,0.00750X0.09750*%
%ADD25R,0.00750X0.10500*%
%ADD26R,0.00750X0.14250*%
%ADD27R,0.00750X0.17250*%
%ADD28R,0.00750X0.18750*%
%ADD29R,0.00750X0.20250*%
%ADD30R,0.00750X0.21750*%
%ADD31R,0.00750X0.23250*%
%ADD32R,0.00750X0.24000*%
%ADD33R,0.00750X0.24750*%
%ADD34R,0.00750X0.12000*%
%ADD35R,0.00750X0.30750*%
%ADD36R,0.00750X0.12750*%
%ADD37R,0.00750X0.29250*%
%ADD38R,0.00750X0.13500*%
%ADD39R,0.00750X0.28500*%
%ADD40R,0.00750X0.27750*%
%ADD41R,0.00750X0.16500*%
%ADD42R,0.00750X0.15750*%
%ADD43R,0.00750X0.15000*%
%ADD44C,0.00500*%
%ADD45C,0.00185*%
D10*
X0127520Y0132850D02*
X0126535Y0133834D01*
X0126535Y0137771D01*
X0127520Y0138755D01*
X0130472Y0138755D01*
X0130472Y0132850D01*
X0127520Y0132850D01*
X0132981Y0132850D02*
X0134949Y0134818D01*
X0133965Y0134818D02*
X0136918Y0134818D01*
X0136918Y0132850D02*
X0136918Y0138755D01*
X0133965Y0138755D01*
X0132981Y0137771D01*
X0132981Y0135803D01*
X0133965Y0134818D01*
X0139426Y0135803D02*
X0143363Y0135803D01*
X0143363Y0136787D02*
X0143363Y0132850D01*
X0145872Y0133834D02*
X0145872Y0137771D01*
X0146856Y0138755D01*
X0148824Y0138755D01*
X0149809Y0137771D01*
X0149809Y0133834D01*
X0148824Y0132850D01*
X0146856Y0132850D01*
X0145872Y0133834D01*
X0143363Y0136787D02*
X0141395Y0138755D01*
X0139426Y0136787D01*
X0139426Y0132850D01*
X0152317Y0133834D02*
X0153302Y0132850D01*
X0156254Y0132850D01*
X0156254Y0138755D01*
X0153302Y0138755D01*
X0152317Y0137771D01*
X0152317Y0136787D01*
X0153302Y0135803D01*
X0156254Y0135803D01*
X0153302Y0135803D02*
X0152317Y0134818D01*
X0152317Y0133834D01*
X0165208Y0132850D02*
X0165208Y0138755D01*
X0169145Y0138755D02*
X0165208Y0132850D01*
X0169145Y0132850D02*
X0169145Y0138755D01*
X0171654Y0137771D02*
X0172638Y0138755D01*
X0174606Y0138755D01*
X0175591Y0137771D01*
X0175591Y0133834D01*
X0174606Y0132850D01*
X0172638Y0132850D01*
X0171654Y0133834D01*
X0171654Y0137771D01*
X0175771Y0143350D02*
X0175771Y0149255D01*
X0177739Y0149255D02*
X0173802Y0149255D01*
X0180248Y0148271D02*
X0181232Y0149255D01*
X0183200Y0149255D01*
X0184185Y0148271D01*
X0184185Y0147287D01*
X0183200Y0146303D01*
X0181232Y0146303D01*
X0180248Y0145318D01*
X0180248Y0144334D01*
X0181232Y0143350D01*
X0183200Y0143350D01*
X0184185Y0144334D01*
X0186693Y0144334D02*
X0186693Y0148271D01*
X0187678Y0149255D01*
X0189646Y0149255D01*
X0190630Y0148271D01*
X0190630Y0144334D01*
X0189646Y0143350D01*
X0187678Y0143350D01*
X0186693Y0144334D01*
X0186333Y0138755D02*
X0182396Y0138755D01*
X0184365Y0138755D02*
X0184365Y0132850D01*
X0188842Y0132850D02*
X0188842Y0136787D01*
X0190810Y0138755D01*
X0192779Y0136787D01*
X0192779Y0132850D01*
X0195287Y0133834D02*
X0196272Y0132850D01*
X0198240Y0132850D01*
X0199224Y0133834D01*
X0199224Y0137771D01*
X0198240Y0138755D01*
X0196272Y0138755D01*
X0195287Y0137771D01*
X0192779Y0135803D02*
X0188842Y0135803D01*
X0194123Y0143350D02*
X0193139Y0144334D01*
X0193139Y0148271D01*
X0194123Y0149255D01*
X0196091Y0149255D01*
X0197076Y0148271D01*
X0197076Y0144334D01*
X0196091Y0143350D01*
X0194123Y0143350D01*
X0199584Y0144334D02*
X0200569Y0143350D01*
X0203521Y0143350D01*
X0203521Y0149255D01*
X0200569Y0149255D01*
X0199584Y0148271D01*
X0199584Y0147287D01*
X0200569Y0146303D01*
X0203521Y0146303D01*
X0200569Y0146303D02*
X0199584Y0145318D01*
X0199584Y0144334D01*
X0201553Y0138755D02*
X0203521Y0138755D01*
X0202537Y0138755D02*
X0202537Y0132850D01*
X0203521Y0132850D02*
X0201553Y0132850D01*
X0206030Y0132850D02*
X0206030Y0138755D01*
X0209967Y0138755D02*
X0206030Y0132850D01*
X0209967Y0132850D02*
X0209967Y0138755D01*
X0212475Y0138755D02*
X0212475Y0133834D01*
X0213460Y0132850D01*
X0215428Y0132850D01*
X0216412Y0133834D01*
X0216412Y0138755D01*
X0218921Y0138755D02*
X0218921Y0132850D01*
X0222858Y0132850D02*
X0222858Y0138755D01*
X0220889Y0136787D01*
X0218921Y0138755D01*
X0218921Y0143350D02*
X0222858Y0143350D01*
X0222858Y0149255D01*
X0218921Y0149255D01*
X0216412Y0149255D02*
X0216412Y0143350D01*
X0216412Y0145318D02*
X0213460Y0145318D01*
X0212475Y0146303D01*
X0212475Y0148271D01*
X0213460Y0149255D01*
X0216412Y0149255D01*
X0214444Y0145318D02*
X0212475Y0143350D01*
X0220889Y0146303D02*
X0222858Y0146303D01*
X0225366Y0149255D02*
X0225366Y0143350D01*
X0227335Y0145318D01*
X0229303Y0143350D01*
X0229303Y0149255D01*
X0231812Y0148271D02*
X0232796Y0149255D01*
X0234764Y0149255D01*
X0235749Y0148271D01*
X0235749Y0144334D01*
X0234764Y0143350D01*
X0232796Y0143350D01*
X0231812Y0144334D01*
X0231812Y0148271D01*
X0238257Y0148271D02*
X0238257Y0146303D01*
X0239242Y0145318D01*
X0242194Y0145318D01*
X0242194Y0143350D02*
X0242194Y0149255D01*
X0239242Y0149255D01*
X0238257Y0148271D01*
X0239242Y0138755D02*
X0241210Y0138755D01*
X0242194Y0137771D01*
X0242194Y0133834D01*
X0241210Y0132850D01*
X0239242Y0132850D01*
X0238257Y0133834D01*
X0235749Y0133834D02*
X0235749Y0137771D01*
X0234764Y0138755D01*
X0232796Y0138755D01*
X0231812Y0137771D01*
X0231812Y0133834D01*
X0232796Y0132850D01*
X0234764Y0132850D01*
X0235749Y0133834D01*
X0238257Y0137771D02*
X0239242Y0138755D01*
X0229303Y0138755D02*
X0229303Y0132850D01*
X0225366Y0132850D02*
X0225366Y0138755D01*
X0227335Y0136787D01*
X0229303Y0138755D01*
X0262139Y0132850D02*
X0266076Y0132850D01*
X0264107Y0132850D02*
X0264107Y0138755D01*
X0266076Y0136787D01*
X0268584Y0137771D02*
X0272521Y0133834D01*
X0271537Y0132850D01*
X0269569Y0132850D01*
X0268584Y0133834D01*
X0268584Y0137771D01*
X0269569Y0138755D01*
X0271537Y0138755D01*
X0272521Y0137771D01*
X0272521Y0133834D01*
X0275030Y0135803D02*
X0278967Y0135803D01*
X0281475Y0135803D02*
X0284428Y0135803D01*
X0285412Y0136787D01*
X0285412Y0137771D01*
X0284428Y0138755D01*
X0282460Y0138755D01*
X0281475Y0137771D01*
X0281475Y0133834D01*
X0282460Y0132850D01*
X0284428Y0132850D01*
X0285412Y0133834D01*
X0287921Y0133834D02*
X0288905Y0132850D01*
X0290873Y0132850D01*
X0291858Y0133834D01*
X0291858Y0135803D02*
X0289889Y0136787D01*
X0288905Y0136787D01*
X0287921Y0135803D01*
X0287921Y0133834D01*
X0291858Y0135803D02*
X0291858Y0138755D01*
X0287921Y0138755D01*
X0291858Y0143850D02*
X0291858Y0144834D01*
X0287921Y0148771D01*
X0287921Y0149755D01*
X0291858Y0149755D01*
X0296335Y0149755D02*
X0296335Y0143850D01*
X0298303Y0143850D02*
X0294366Y0143850D01*
X0295351Y0138755D02*
X0294366Y0137771D01*
X0294366Y0136787D01*
X0295351Y0135803D01*
X0294366Y0134818D01*
X0294366Y0133834D01*
X0295351Y0132850D01*
X0297319Y0132850D01*
X0298303Y0133834D01*
X0300812Y0133834D02*
X0301796Y0132850D01*
X0303764Y0132850D01*
X0304749Y0133834D01*
X0304749Y0135803D02*
X0302780Y0136787D01*
X0301796Y0136787D01*
X0300812Y0135803D01*
X0300812Y0133834D01*
X0304749Y0135803D02*
X0304749Y0138755D01*
X0300812Y0138755D01*
X0298303Y0137771D02*
X0297319Y0138755D01*
X0295351Y0138755D01*
X0295351Y0135803D02*
X0296335Y0135803D01*
X0301796Y0143850D02*
X0300812Y0144834D01*
X0300812Y0148771D01*
X0304749Y0144834D01*
X0303764Y0143850D01*
X0301796Y0143850D01*
X0304749Y0144834D02*
X0304749Y0148771D01*
X0303764Y0149755D01*
X0301796Y0149755D01*
X0300812Y0148771D01*
X0298303Y0147787D02*
X0296335Y0149755D01*
X0307257Y0146803D02*
X0311194Y0146803D01*
X0308242Y0149755D01*
X0308242Y0143850D01*
X0309226Y0138755D02*
X0309226Y0132850D01*
X0311194Y0132850D02*
X0307257Y0132850D01*
X0311194Y0136787D02*
X0309226Y0138755D01*
X0179888Y0138755D02*
X0177919Y0138755D01*
X0178903Y0138755D02*
X0178903Y0132850D01*
X0177919Y0132850D02*
X0179888Y0132850D01*
D11*
X0165994Y0232800D03*
X0159994Y0277050D03*
X0168994Y0307800D03*
X0168994Y0318300D03*
X0163744Y0328050D03*
X0163744Y0331050D03*
X0163744Y0333300D03*
X0162994Y0333300D03*
X0163744Y0336300D03*
X0165994Y0334050D03*
X0168994Y0334800D03*
X0168994Y0329550D03*
X0165994Y0330300D03*
X0138994Y0334050D03*
X0103744Y0259050D03*
X0102994Y0259050D03*
X0107494Y0256050D03*
X0108244Y0254550D03*
X0096244Y0251550D03*
X0108244Y0233550D03*
X0107494Y0232050D03*
X0108994Y0231300D03*
X0108244Y0229800D03*
D12*
X0107494Y0228675D03*
X0106744Y0227175D03*
X0105994Y0226425D03*
X0105244Y0225675D03*
X0104494Y0225675D03*
X0103744Y0224925D03*
X0102994Y0224925D03*
X0099994Y0224925D03*
X0101494Y0229425D03*
X0102244Y0229425D03*
X0102994Y0229425D03*
X0103744Y0229425D03*
X0104494Y0229425D03*
X0105244Y0229425D03*
X0105994Y0230175D03*
X0106744Y0230925D03*
X0105244Y0233175D03*
X0104494Y0233175D03*
X0103744Y0233175D03*
X0102244Y0233925D03*
X0101494Y0234675D03*
X0105994Y0233925D03*
X0106744Y0234675D03*
X0107494Y0235425D03*
X0096244Y0236175D03*
X0099994Y0251175D03*
X0101494Y0253425D03*
X0102244Y0254175D03*
X0102994Y0254925D03*
X0103744Y0254925D03*
X0104494Y0254925D03*
X0105244Y0254925D03*
X0105994Y0254175D03*
X0106744Y0253425D03*
X0107494Y0252675D03*
X0106744Y0257175D03*
X0105994Y0257925D03*
X0105244Y0258675D03*
X0104494Y0258675D03*
X0102244Y0258675D03*
X0101494Y0258675D03*
X0099244Y0263175D03*
X0101494Y0263925D03*
X0102244Y0263925D03*
X0103744Y0263175D03*
X0104494Y0263175D03*
X0105244Y0262425D03*
X0105994Y0261675D03*
X0106744Y0260925D03*
X0107494Y0260175D03*
X0108244Y0258675D03*
X0108994Y0257175D03*
X0093244Y0254925D03*
X0161494Y0247425D03*
X0162994Y0247425D03*
X0165994Y0248175D03*
X0166744Y0248175D03*
X0167494Y0247425D03*
X0167494Y0242175D03*
X0166744Y0242175D03*
X0165994Y0242175D03*
X0162244Y0242175D03*
X0162244Y0232425D03*
X0161494Y0232425D03*
X0161494Y0227175D03*
X0162244Y0227175D03*
X0165994Y0226425D03*
X0166744Y0226425D03*
X0167494Y0227175D03*
X0166744Y0232425D03*
X0166744Y0263175D03*
X0165994Y0263175D03*
X0165244Y0263175D03*
X0162994Y0263175D03*
X0162244Y0263175D03*
X0161494Y0263175D03*
X0167494Y0263175D03*
X0167494Y0292425D03*
X0166744Y0292425D03*
X0165994Y0292425D03*
X0165244Y0292425D03*
X0162994Y0292425D03*
X0162244Y0292425D03*
X0161494Y0292425D03*
X0162244Y0302175D03*
X0162994Y0302175D03*
X0163744Y0302925D03*
X0165994Y0303675D03*
X0167494Y0302925D03*
X0168994Y0302175D03*
X0168244Y0308175D03*
X0167494Y0308175D03*
X0166744Y0308175D03*
X0165994Y0308175D03*
X0163744Y0308175D03*
X0162994Y0308175D03*
X0162244Y0308175D03*
X0161494Y0308175D03*
X0161494Y0317925D03*
X0160744Y0317925D03*
X0159994Y0317925D03*
X0162244Y0317925D03*
X0162994Y0317925D03*
X0163744Y0317925D03*
X0164494Y0317925D03*
X0165244Y0317925D03*
X0165994Y0317925D03*
X0166744Y0317925D03*
X0167494Y0317925D03*
X0168244Y0317925D03*
X0162994Y0327675D03*
X0162244Y0327675D03*
X0161494Y0327675D03*
X0160744Y0326925D03*
X0159994Y0326925D03*
X0164494Y0328425D03*
X0165244Y0328425D03*
X0165994Y0328425D03*
X0165244Y0330675D03*
X0164494Y0330675D03*
X0162994Y0331425D03*
X0160744Y0332175D03*
X0159994Y0332175D03*
X0161494Y0336675D03*
X0162244Y0336675D03*
X0162994Y0336675D03*
X0164494Y0335925D03*
X0165244Y0335925D03*
X0165994Y0335925D03*
X0165244Y0333675D03*
X0164494Y0333675D03*
X0160744Y0337425D03*
X0159994Y0337425D03*
D13*
X0159994Y0305925D03*
X0165244Y0305925D03*
X0163744Y0290175D03*
X0168994Y0289425D03*
X0163744Y0260925D03*
X0159994Y0260175D03*
X0168994Y0260175D03*
X0168244Y0245175D03*
X0160744Y0245175D03*
X0160744Y0229425D03*
X0168244Y0229425D03*
D14*
X0168994Y0274800D03*
D15*
X0168994Y0245175D03*
X0168994Y0229425D03*
X0099244Y0230925D03*
X0097744Y0233175D03*
X0096994Y0234675D03*
X0093994Y0231675D03*
X0094744Y0230175D03*
X0096244Y0227925D03*
X0096994Y0253425D03*
X0097744Y0254925D03*
X0099244Y0257175D03*
X0095494Y0259425D03*
X0094744Y0257925D03*
X0093994Y0256425D03*
X0161494Y0332175D03*
X0162244Y0332175D03*
X0140494Y0334425D03*
D16*
X0139744Y0334050D03*
X0166744Y0334800D03*
X0167494Y0334800D03*
X0168244Y0334800D03*
X0168244Y0329550D03*
X0167494Y0329550D03*
X0166744Y0329550D03*
X0166744Y0303300D03*
X0168244Y0302550D03*
X0161494Y0302550D03*
X0161494Y0277050D03*
X0160744Y0277050D03*
X0162244Y0277050D03*
X0162994Y0277050D03*
X0163744Y0277050D03*
X0164494Y0277050D03*
X0165244Y0277050D03*
X0165994Y0277050D03*
X0166744Y0277050D03*
X0167494Y0277050D03*
X0162244Y0247800D03*
X0161494Y0242550D03*
X0165244Y0242550D03*
X0162994Y0232050D03*
X0167494Y0232050D03*
X0165244Y0227550D03*
X0102994Y0233550D03*
X0100744Y0235800D03*
X0099994Y0237300D03*
X0098494Y0232050D03*
X0099994Y0230550D03*
X0100744Y0229800D03*
X0099244Y0225300D03*
X0098494Y0225300D03*
X0097744Y0226050D03*
X0096994Y0226800D03*
X0095494Y0229050D03*
X0093244Y0233550D03*
X0100744Y0224550D03*
X0101494Y0224550D03*
X0102244Y0224550D03*
X0100744Y0252300D03*
X0098494Y0256050D03*
X0099994Y0257550D03*
X0100744Y0258300D03*
X0096994Y0261300D03*
X0096244Y0260550D03*
X0097744Y0262050D03*
X0098494Y0262800D03*
X0099994Y0263550D03*
X0100744Y0263550D03*
X0102994Y0263550D03*
D17*
X0117244Y0278550D03*
X0117994Y0278550D03*
X0120994Y0279300D03*
X0123994Y0280050D03*
X0124744Y0280050D03*
X0127744Y0280800D03*
X0128494Y0280800D03*
X0130744Y0281550D03*
X0131494Y0281550D03*
X0132244Y0281550D03*
X0134494Y0282300D03*
X0135244Y0282300D03*
X0135994Y0282300D03*
X0135994Y0289800D03*
X0135244Y0289800D03*
X0132994Y0290550D03*
X0132244Y0290550D03*
X0131494Y0290550D03*
X0129994Y0291300D03*
X0129244Y0291300D03*
X0128494Y0291300D03*
X0126244Y0292050D03*
X0125494Y0292050D03*
X0124744Y0292050D03*
X0122494Y0292800D03*
X0121744Y0292800D03*
X0118744Y0293550D03*
X0151744Y0328800D03*
X0160744Y0305550D03*
X0164494Y0305550D03*
X0164494Y0289800D03*
X0160744Y0289800D03*
X0159994Y0289800D03*
X0168244Y0289800D03*
X0168244Y0274800D03*
X0168244Y0260550D03*
X0164494Y0260550D03*
X0160744Y0260550D03*
D18*
X0163744Y0245925D03*
X0164494Y0244425D03*
X0159994Y0245175D03*
X0164494Y0228675D03*
X0141244Y0334425D03*
D19*
X0163744Y0230550D03*
X0159994Y0229800D03*
D20*
X0104494Y0244050D03*
X0141994Y0286050D03*
X0142744Y0286050D03*
X0143494Y0286050D03*
X0150994Y0328800D03*
D21*
X0150994Y0302550D03*
X0150244Y0286050D03*
X0149494Y0286050D03*
X0148744Y0286050D03*
X0129994Y0252300D03*
X0126994Y0251550D03*
X0123994Y0250800D03*
X0123244Y0250800D03*
X0120994Y0250050D03*
X0120244Y0250050D03*
X0119494Y0250050D03*
X0117994Y0249300D03*
X0117244Y0249300D03*
X0116494Y0249300D03*
X0114994Y0248550D03*
X0114244Y0248550D03*
X0113494Y0248550D03*
X0113494Y0239550D03*
X0114244Y0239550D03*
X0114994Y0239550D03*
X0115744Y0239550D03*
X0116494Y0238800D03*
X0117244Y0238800D03*
X0117994Y0238800D03*
X0118744Y0238800D03*
X0119494Y0238050D03*
X0120244Y0238050D03*
X0120994Y0238050D03*
X0121744Y0238050D03*
X0123244Y0237300D03*
X0123994Y0237300D03*
X0124744Y0237300D03*
X0126994Y0236550D03*
D22*
X0112744Y0239925D03*
X0112744Y0248175D03*
X0115744Y0248925D03*
X0118744Y0278925D03*
X0119494Y0278925D03*
X0120244Y0278925D03*
X0121744Y0279675D03*
X0122494Y0279675D03*
X0123244Y0279675D03*
X0125494Y0280425D03*
X0126244Y0280425D03*
X0126994Y0280425D03*
X0129244Y0281175D03*
X0129994Y0281175D03*
X0132994Y0281925D03*
X0133744Y0281925D03*
X0133744Y0290175D03*
X0134494Y0290175D03*
X0130744Y0290925D03*
X0127744Y0291675D03*
X0126994Y0291675D03*
X0123994Y0292425D03*
X0123244Y0292425D03*
X0120994Y0293175D03*
X0120244Y0293175D03*
X0119494Y0293175D03*
X0150994Y0286425D03*
X0141994Y0334425D03*
D23*
X0141994Y0302175D03*
X0141244Y0302175D03*
X0140494Y0302175D03*
X0139744Y0302175D03*
X0138994Y0302175D03*
X0138244Y0302175D03*
X0137494Y0302175D03*
X0136744Y0302175D03*
X0135994Y0302175D03*
X0135244Y0302175D03*
X0134494Y0302175D03*
X0133744Y0302175D03*
X0132994Y0302175D03*
X0132244Y0302175D03*
X0131494Y0302175D03*
X0130744Y0302175D03*
X0129994Y0302175D03*
X0129244Y0302175D03*
X0128494Y0302175D03*
X0127744Y0302175D03*
X0126994Y0302175D03*
X0126244Y0302175D03*
X0125494Y0302175D03*
X0124744Y0302175D03*
X0123994Y0302175D03*
X0123244Y0302175D03*
X0122494Y0302175D03*
X0121744Y0302175D03*
X0120994Y0302175D03*
X0120244Y0302175D03*
X0119494Y0302175D03*
X0118744Y0302175D03*
X0104494Y0319425D03*
X0142744Y0302175D03*
X0143494Y0302175D03*
X0144244Y0302175D03*
X0144994Y0302175D03*
X0145744Y0302175D03*
X0146494Y0302175D03*
X0147244Y0302175D03*
X0147994Y0302175D03*
X0148744Y0302175D03*
X0149494Y0302175D03*
X0150244Y0302175D03*
X0147994Y0286425D03*
X0147994Y0269925D03*
X0147244Y0269925D03*
X0146494Y0269925D03*
X0145744Y0269925D03*
X0144994Y0269925D03*
X0144244Y0269925D03*
X0143494Y0269925D03*
X0142744Y0269925D03*
X0141994Y0269925D03*
X0141244Y0269925D03*
X0140494Y0269925D03*
X0139744Y0269925D03*
X0138994Y0269925D03*
X0138244Y0269925D03*
X0137494Y0269925D03*
X0136744Y0269925D03*
X0135994Y0269925D03*
X0135244Y0269925D03*
X0134494Y0269925D03*
X0133744Y0269925D03*
X0132994Y0269925D03*
X0132244Y0269925D03*
X0131494Y0269925D03*
X0130744Y0269925D03*
X0129994Y0269925D03*
X0129244Y0269925D03*
X0128494Y0269925D03*
X0127744Y0269925D03*
X0126994Y0269925D03*
X0126244Y0269925D03*
X0125494Y0269925D03*
X0124744Y0269925D03*
X0123994Y0269925D03*
X0123244Y0269925D03*
X0122494Y0269925D03*
X0121744Y0269925D03*
X0120994Y0269925D03*
X0120244Y0269925D03*
X0119494Y0269925D03*
X0118744Y0269925D03*
X0117994Y0269925D03*
X0117244Y0269925D03*
X0121744Y0250425D03*
X0122494Y0250425D03*
X0124744Y0251175D03*
X0125494Y0251175D03*
X0126244Y0251175D03*
X0127744Y0251925D03*
X0128494Y0251925D03*
X0129244Y0251925D03*
X0130744Y0252675D03*
X0131494Y0252675D03*
X0132244Y0252675D03*
X0118744Y0249675D03*
X0122494Y0237675D03*
X0125494Y0236925D03*
X0126244Y0236925D03*
X0127744Y0236175D03*
X0128494Y0236175D03*
X0129244Y0236175D03*
X0129994Y0236175D03*
X0130744Y0235425D03*
X0131494Y0235425D03*
X0132244Y0235425D03*
X0132994Y0235425D03*
X0148744Y0269925D03*
X0149494Y0269925D03*
X0150244Y0269925D03*
X0150994Y0269925D03*
D24*
X0150994Y0257550D03*
X0149494Y0256800D03*
X0148744Y0256800D03*
X0147994Y0256800D03*
X0146494Y0256050D03*
X0145744Y0256050D03*
X0144994Y0256050D03*
X0144244Y0256050D03*
X0143494Y0255300D03*
X0142744Y0255300D03*
X0141994Y0255300D03*
X0132994Y0253050D03*
X0141994Y0232800D03*
X0142744Y0232800D03*
X0143494Y0232800D03*
X0144244Y0232800D03*
X0144994Y0232050D03*
X0145744Y0232050D03*
X0146494Y0232050D03*
X0147244Y0232050D03*
X0148744Y0231300D03*
X0149494Y0231300D03*
X0150244Y0231300D03*
X0147244Y0286050D03*
X0146494Y0286050D03*
X0145744Y0286050D03*
X0144994Y0286050D03*
X0138994Y0319050D03*
X0138244Y0319050D03*
X0137494Y0319050D03*
X0136744Y0319050D03*
X0135994Y0319050D03*
X0135244Y0319050D03*
X0134494Y0319050D03*
X0133744Y0319050D03*
X0132994Y0319050D03*
X0132244Y0319050D03*
X0131494Y0319050D03*
X0130744Y0319050D03*
X0129994Y0319050D03*
X0129244Y0319050D03*
X0128494Y0319050D03*
X0127744Y0319050D03*
X0126994Y0319050D03*
X0126244Y0319050D03*
X0125494Y0319050D03*
X0124744Y0319050D03*
X0123994Y0319050D03*
X0123244Y0319050D03*
X0122494Y0319050D03*
X0121744Y0319050D03*
X0120994Y0319050D03*
X0120244Y0319050D03*
X0119494Y0319050D03*
X0118744Y0319050D03*
X0117994Y0319050D03*
X0117244Y0319050D03*
X0116494Y0319050D03*
X0115744Y0319050D03*
X0114994Y0319050D03*
X0114244Y0319050D03*
X0113494Y0319050D03*
X0112744Y0319050D03*
X0111994Y0319050D03*
X0111244Y0319050D03*
X0110494Y0319050D03*
X0109744Y0319050D03*
X0108994Y0319050D03*
X0108244Y0319050D03*
X0107494Y0319050D03*
X0106744Y0319050D03*
X0105994Y0319050D03*
X0105244Y0319050D03*
X0139744Y0319800D03*
X0140494Y0319800D03*
D25*
X0141244Y0320175D03*
X0144244Y0286425D03*
X0150244Y0257175D03*
X0147244Y0256425D03*
X0147994Y0231675D03*
X0150994Y0230925D03*
D26*
X0109744Y0244050D03*
X0108994Y0244050D03*
X0108244Y0244050D03*
X0106744Y0272550D03*
X0105994Y0272550D03*
X0105244Y0272550D03*
X0105244Y0299550D03*
X0105994Y0299550D03*
X0106744Y0299550D03*
X0107494Y0299550D03*
X0136744Y0286050D03*
X0150244Y0328800D03*
D27*
X0149494Y0328800D03*
D28*
X0148744Y0328800D03*
D29*
X0147994Y0328800D03*
D30*
X0147244Y0328800D03*
D31*
X0146494Y0328800D03*
X0142744Y0327300D03*
D32*
X0143494Y0327675D03*
X0145744Y0329175D03*
D33*
X0144994Y0328800D03*
X0144244Y0328050D03*
D34*
X0141994Y0320925D03*
X0141244Y0286425D03*
D35*
X0141244Y0244050D03*
X0140494Y0244050D03*
X0139744Y0244050D03*
X0138994Y0244050D03*
D36*
X0106744Y0244050D03*
X0105994Y0244050D03*
X0105244Y0244050D03*
X0138244Y0286050D03*
X0138994Y0286050D03*
X0139744Y0286050D03*
X0140494Y0286050D03*
D37*
X0138244Y0244050D03*
X0137494Y0244050D03*
X0136744Y0244050D03*
D38*
X0107494Y0244425D03*
X0104494Y0272175D03*
X0104494Y0299925D03*
X0137494Y0286425D03*
D39*
X0135994Y0244425D03*
D40*
X0135244Y0244050D03*
X0134494Y0244050D03*
X0133744Y0244050D03*
D41*
X0116494Y0273675D03*
X0115744Y0273675D03*
X0114994Y0273675D03*
X0115744Y0298425D03*
X0116494Y0298425D03*
X0117244Y0298425D03*
X0117994Y0298425D03*
D42*
X0114994Y0298800D03*
X0114244Y0298800D03*
X0113494Y0298800D03*
X0112744Y0298800D03*
X0111994Y0298800D03*
X0111994Y0273300D03*
X0111244Y0273300D03*
X0112744Y0273300D03*
X0113494Y0273300D03*
X0114244Y0273300D03*
X0111994Y0244050D03*
X0111244Y0244050D03*
X0110494Y0244050D03*
D43*
X0110494Y0272925D03*
X0109744Y0272925D03*
X0108994Y0272925D03*
X0108244Y0272925D03*
X0107494Y0272925D03*
X0108244Y0299175D03*
X0108994Y0299175D03*
X0109744Y0299175D03*
X0110494Y0299175D03*
X0111244Y0299175D03*
D44*
X0080244Y0281426D02*
X0080244Y0351426D01*
X0056894Y0351426D01*
X0054492Y0353828D01*
X0049768Y0353828D01*
X0047406Y0351465D01*
X0016244Y0351465D01*
X0016244Y0281387D01*
X0047406Y0281387D01*
X0049768Y0279024D01*
X0054492Y0279024D01*
X0056894Y0281426D01*
X0080244Y0281426D01*
X0069244Y0290926D02*
X0066244Y0290926D01*
X0066244Y0285926D01*
X0064496Y0287126D02*
X0064046Y0286676D01*
X0063596Y0286676D01*
X0063145Y0287126D01*
X0063145Y0288478D01*
X0062244Y0288478D02*
X0064046Y0288478D01*
X0064496Y0288027D01*
X0064496Y0287126D01*
X0062244Y0286676D02*
X0061794Y0287126D01*
X0061794Y0288027D01*
X0062244Y0288478D01*
X0063244Y0290926D02*
X0066244Y0290926D01*
X0063244Y0296926D01*
X0066244Y0296926D01*
X0069244Y0296926D01*
X0066244Y0290926D01*
X0066244Y0296926D02*
X0066244Y0301926D01*
X0043496Y0302577D02*
X0040794Y0302577D01*
X0040794Y0301676D02*
X0040794Y0303478D01*
X0042596Y0301676D02*
X0043496Y0302577D01*
X0061444Y0329729D02*
X0061895Y0329729D01*
X0062345Y0330180D01*
X0062345Y0331081D01*
X0061895Y0331531D01*
X0061444Y0331531D01*
X0060994Y0331081D01*
X0060994Y0330180D01*
X0061444Y0329729D01*
X0062345Y0330180D02*
X0062796Y0329729D01*
X0063246Y0329729D01*
X0063696Y0330180D01*
X0063696Y0331081D01*
X0063246Y0331531D01*
X0062796Y0331531D01*
X0062345Y0331081D01*
X0066744Y0332426D02*
X0066744Y0337426D01*
X0063744Y0337426D01*
X0066744Y0337426D02*
X0063744Y0343426D01*
X0066744Y0343426D01*
X0069744Y0343426D01*
X0066744Y0337426D01*
X0069744Y0337426D01*
X0066744Y0343426D02*
X0066744Y0348426D01*
X0064996Y0348573D02*
X0064546Y0348123D01*
X0064996Y0348573D02*
X0064996Y0349474D01*
X0064546Y0349924D01*
X0064096Y0349924D01*
X0062294Y0348123D01*
X0062294Y0349924D01*
X0062294Y0346978D02*
X0062294Y0345176D01*
X0062294Y0346077D02*
X0064996Y0346077D01*
X0064096Y0345176D01*
X0391244Y0341300D02*
X0391244Y0411300D01*
X0414594Y0411300D01*
X0416996Y0413702D01*
X0421720Y0413702D01*
X0424083Y0411339D01*
X0455244Y0411339D01*
X0455244Y0341261D01*
X0424083Y0341261D01*
X0421720Y0338898D01*
X0416996Y0338898D01*
X0414594Y0341300D01*
X0391244Y0341300D01*
X0391244Y0333300D02*
X0391244Y0263300D01*
X0414594Y0263300D01*
X0416996Y0260898D01*
X0421720Y0260898D01*
X0424083Y0263261D01*
X0455244Y0263261D01*
X0455244Y0333339D01*
X0424083Y0333339D01*
X0421720Y0335702D01*
X0416996Y0335702D01*
X0414594Y0333300D01*
X0391244Y0333300D01*
X0402244Y0323800D02*
X0405244Y0323800D01*
X0405244Y0328800D01*
X0406994Y0326955D02*
X0407444Y0327405D01*
X0409246Y0327405D01*
X0409696Y0326955D01*
X0409696Y0326054D01*
X0409246Y0325603D01*
X0408796Y0325603D01*
X0408345Y0326054D01*
X0408345Y0327405D01*
X0406994Y0326955D02*
X0406994Y0326054D01*
X0407444Y0325603D01*
X0408244Y0323800D02*
X0405244Y0323800D01*
X0408244Y0317800D01*
X0405244Y0317800D01*
X0402244Y0317800D01*
X0405244Y0323800D01*
X0405244Y0317800D02*
X0405244Y0312800D01*
X0427994Y0312405D02*
X0427994Y0310603D01*
X0427994Y0311504D02*
X0430696Y0311504D01*
X0429796Y0310603D01*
X0410046Y0284352D02*
X0409596Y0284352D01*
X0409145Y0283901D01*
X0409145Y0283000D01*
X0409596Y0282550D01*
X0410046Y0282550D01*
X0410496Y0283000D01*
X0410496Y0283901D01*
X0410046Y0284352D01*
X0409145Y0283901D02*
X0408695Y0284352D01*
X0408244Y0284352D01*
X0407794Y0283901D01*
X0407794Y0283000D01*
X0408244Y0282550D01*
X0408695Y0282550D01*
X0409145Y0283000D01*
X0404744Y0282300D02*
X0404744Y0277300D01*
X0407744Y0277300D01*
X0404744Y0277300D02*
X0401744Y0277300D01*
X0404744Y0277300D02*
X0407744Y0271300D01*
X0404744Y0271300D01*
X0401744Y0271300D01*
X0404744Y0277300D01*
X0404744Y0271300D02*
X0404744Y0266300D01*
X0406494Y0265959D02*
X0406494Y0264157D01*
X0406494Y0265058D02*
X0409196Y0265058D01*
X0408296Y0264157D01*
X0408746Y0267103D02*
X0409196Y0267554D01*
X0409196Y0268455D01*
X0408746Y0268905D01*
X0408296Y0268905D01*
X0406494Y0267103D01*
X0406494Y0268905D01*
X0406494Y0342157D02*
X0406494Y0343959D01*
X0406494Y0343058D02*
X0409196Y0343058D01*
X0408296Y0342157D01*
X0408746Y0345103D02*
X0409196Y0345554D01*
X0409196Y0346455D01*
X0408746Y0346905D01*
X0408296Y0346905D01*
X0406494Y0345103D01*
X0406494Y0346905D01*
X0407744Y0349300D02*
X0404744Y0349300D01*
X0401744Y0349300D01*
X0404744Y0355300D01*
X0404744Y0360300D01*
X0407794Y0361000D02*
X0408244Y0360550D01*
X0408695Y0360550D01*
X0409145Y0361000D01*
X0409145Y0361901D01*
X0408695Y0362352D01*
X0408244Y0362352D01*
X0407794Y0361901D01*
X0407794Y0361000D01*
X0409145Y0361000D02*
X0409596Y0360550D01*
X0410046Y0360550D01*
X0410496Y0361000D01*
X0410496Y0361901D01*
X0410046Y0362352D01*
X0409596Y0362352D01*
X0409145Y0361901D01*
X0407744Y0355300D02*
X0404744Y0355300D01*
X0401744Y0355300D01*
X0404744Y0355300D02*
X0407744Y0349300D01*
X0404744Y0349300D02*
X0404744Y0344300D01*
X0427994Y0388603D02*
X0427994Y0390405D01*
X0427994Y0389504D02*
X0430696Y0389504D01*
X0429796Y0388603D01*
X0409696Y0404054D02*
X0409246Y0403603D01*
X0408796Y0403603D01*
X0408345Y0404054D01*
X0408345Y0405405D01*
X0407444Y0405405D02*
X0409246Y0405405D01*
X0409696Y0404955D01*
X0409696Y0404054D01*
X0407444Y0403603D02*
X0406994Y0404054D01*
X0406994Y0404955D01*
X0407444Y0405405D01*
X0405244Y0406800D02*
X0405244Y0401800D01*
X0408244Y0401800D01*
X0405244Y0401800D02*
X0402244Y0401800D01*
X0405244Y0401800D02*
X0402244Y0395800D01*
X0405244Y0395800D01*
X0408244Y0395800D01*
X0405244Y0401800D01*
X0405244Y0395800D02*
X0405244Y0390800D01*
D45*
X0222700Y0188078D02*
X0215276Y0175272D01*
X0215276Y0174901D01*
X0224185Y0173231D01*
X0224370Y0173045D01*
X0228268Y0169519D01*
X0228639Y0169519D01*
X0232351Y0171375D01*
X0222700Y0188078D01*
X0222672Y0188030D02*
X0222727Y0188030D01*
X0222833Y0187847D02*
X0222565Y0187847D01*
X0222459Y0187663D02*
X0222940Y0187663D01*
X0223046Y0187480D02*
X0222352Y0187480D01*
X0222246Y0187296D02*
X0223152Y0187296D01*
X0223258Y0187112D02*
X0222140Y0187112D01*
X0222033Y0186929D02*
X0223364Y0186929D01*
X0223470Y0186745D02*
X0221927Y0186745D01*
X0221820Y0186562D02*
X0223576Y0186562D01*
X0223682Y0186378D02*
X0221714Y0186378D01*
X0221608Y0186195D02*
X0223788Y0186195D01*
X0223894Y0186011D02*
X0221501Y0186011D01*
X0221395Y0185828D02*
X0224000Y0185828D01*
X0224106Y0185644D02*
X0221288Y0185644D01*
X0221182Y0185460D02*
X0224212Y0185460D01*
X0224318Y0185277D02*
X0221076Y0185277D01*
X0220969Y0185093D02*
X0224424Y0185093D01*
X0224530Y0184910D02*
X0220863Y0184910D01*
X0220756Y0184726D02*
X0224636Y0184726D01*
X0224742Y0184543D02*
X0220650Y0184543D01*
X0220544Y0184359D02*
X0224849Y0184359D01*
X0224955Y0184176D02*
X0220437Y0184176D01*
X0220331Y0183992D02*
X0225061Y0183992D01*
X0225167Y0183809D02*
X0220224Y0183809D01*
X0220118Y0183625D02*
X0225273Y0183625D01*
X0225379Y0183441D02*
X0220012Y0183441D01*
X0219905Y0183258D02*
X0225485Y0183258D01*
X0225591Y0183074D02*
X0219799Y0183074D01*
X0219692Y0182891D02*
X0225697Y0182891D01*
X0225803Y0182707D02*
X0219586Y0182707D01*
X0219480Y0182524D02*
X0225909Y0182524D01*
X0226015Y0182340D02*
X0219373Y0182340D01*
X0219267Y0182157D02*
X0226121Y0182157D01*
X0226227Y0181973D02*
X0219160Y0181973D01*
X0219054Y0181789D02*
X0226333Y0181789D01*
X0226439Y0181606D02*
X0218948Y0181606D01*
X0218841Y0181422D02*
X0226545Y0181422D01*
X0226651Y0181239D02*
X0218735Y0181239D01*
X0218628Y0181055D02*
X0226757Y0181055D01*
X0226864Y0180872D02*
X0218522Y0180872D01*
X0218416Y0180688D02*
X0226970Y0180688D01*
X0227076Y0180505D02*
X0218309Y0180505D01*
X0218203Y0180321D02*
X0227182Y0180321D01*
X0227288Y0180138D02*
X0218096Y0180138D01*
X0217990Y0179954D02*
X0227394Y0179954D01*
X0227500Y0179770D02*
X0217883Y0179770D01*
X0217777Y0179587D02*
X0227606Y0179587D01*
X0227712Y0179403D02*
X0217671Y0179403D01*
X0217564Y0179220D02*
X0227818Y0179220D01*
X0227924Y0179036D02*
X0217458Y0179036D01*
X0217351Y0178853D02*
X0228030Y0178853D01*
X0228136Y0178669D02*
X0217245Y0178669D01*
X0217139Y0178486D02*
X0228242Y0178486D01*
X0228348Y0178302D02*
X0217032Y0178302D01*
X0216926Y0178118D02*
X0228454Y0178118D01*
X0228560Y0177935D02*
X0216819Y0177935D01*
X0216713Y0177751D02*
X0228666Y0177751D01*
X0228773Y0177568D02*
X0216607Y0177568D01*
X0216500Y0177384D02*
X0228879Y0177384D01*
X0228985Y0177201D02*
X0216394Y0177201D01*
X0216287Y0177017D02*
X0229091Y0177017D01*
X0229197Y0176834D02*
X0216181Y0176834D01*
X0216075Y0176650D02*
X0229303Y0176650D01*
X0229409Y0176467D02*
X0215968Y0176467D01*
X0215862Y0176283D02*
X0229515Y0176283D01*
X0229621Y0176099D02*
X0215755Y0176099D01*
X0215649Y0175916D02*
X0229727Y0175916D01*
X0229833Y0175732D02*
X0215543Y0175732D01*
X0215436Y0175549D02*
X0229939Y0175549D01*
X0230045Y0175365D02*
X0215330Y0175365D01*
X0215276Y0175182D02*
X0230151Y0175182D01*
X0230257Y0174998D02*
X0215276Y0174998D01*
X0215738Y0174815D02*
X0230363Y0174815D01*
X0230469Y0174631D02*
X0216717Y0174631D01*
X0217696Y0174447D02*
X0230575Y0174447D01*
X0230681Y0174264D02*
X0218675Y0174264D01*
X0219653Y0174080D02*
X0230788Y0174080D01*
X0230894Y0173897D02*
X0220632Y0173897D01*
X0221611Y0173713D02*
X0231000Y0173713D01*
X0231106Y0173530D02*
X0222590Y0173530D01*
X0223569Y0173346D02*
X0231212Y0173346D01*
X0231318Y0173163D02*
X0224253Y0173163D01*
X0224443Y0172979D02*
X0231424Y0172979D01*
X0231530Y0172795D02*
X0224646Y0172795D01*
X0224849Y0172612D02*
X0231636Y0172612D01*
X0231742Y0172428D02*
X0225052Y0172428D01*
X0225255Y0172245D02*
X0231848Y0172245D01*
X0231954Y0172061D02*
X0225458Y0172061D01*
X0225661Y0171878D02*
X0232060Y0171878D01*
X0232166Y0171694D02*
X0225863Y0171694D01*
X0226066Y0171511D02*
X0232272Y0171511D01*
X0232255Y0171327D02*
X0226269Y0171327D01*
X0226472Y0171144D02*
X0231888Y0171144D01*
X0231521Y0170960D02*
X0226675Y0170960D01*
X0226878Y0170776D02*
X0231154Y0170776D01*
X0230787Y0170593D02*
X0227081Y0170593D01*
X0227284Y0170409D02*
X0230420Y0170409D01*
X0230053Y0170226D02*
X0227486Y0170226D01*
X0227689Y0170042D02*
X0229686Y0170042D01*
X0229319Y0169859D02*
X0227892Y0169859D01*
X0228095Y0169675D02*
X0228951Y0169675D01*
X0230495Y0167663D02*
X0231052Y0166735D01*
X0231237Y0166364D01*
X0231237Y0164879D01*
X0230680Y0157455D01*
X0230309Y0157455D01*
X0229752Y0157826D01*
X0229381Y0158569D01*
X0229010Y0159682D01*
X0228824Y0161353D01*
X0228824Y0164879D01*
X0227896Y0166178D01*
X0227340Y0166178D01*
X0222329Y0163765D01*
X0222329Y0163580D01*
X0225855Y0160425D01*
X0226597Y0159311D01*
X0226969Y0158569D01*
X0226969Y0158012D01*
X0226783Y0157641D01*
X0226597Y0157455D01*
X0226226Y0157455D01*
X0224927Y0158198D01*
X0223442Y0159126D01*
X0222143Y0160054D01*
X0220472Y0161167D01*
X0218988Y0162095D01*
X0218617Y0162095D01*
X0203212Y0155043D01*
X0203212Y0154671D01*
X0242373Y0154671D01*
X0234021Y0169333D01*
X0230495Y0167663D01*
X0230499Y0167656D02*
X0234977Y0167656D01*
X0235081Y0167473D02*
X0230609Y0167473D01*
X0230719Y0167289D02*
X0235186Y0167289D01*
X0235290Y0167105D02*
X0230829Y0167105D01*
X0230939Y0166922D02*
X0235395Y0166922D01*
X0235499Y0166738D02*
X0231050Y0166738D01*
X0231142Y0166555D02*
X0235604Y0166555D01*
X0235708Y0166371D02*
X0231233Y0166371D01*
X0231237Y0166188D02*
X0235813Y0166188D01*
X0235917Y0166004D02*
X0231237Y0166004D01*
X0231237Y0165821D02*
X0236022Y0165821D01*
X0236127Y0165637D02*
X0231237Y0165637D01*
X0231237Y0165453D02*
X0236231Y0165453D01*
X0236336Y0165270D02*
X0231237Y0165270D01*
X0231237Y0165086D02*
X0236440Y0165086D01*
X0236545Y0164903D02*
X0231237Y0164903D01*
X0231225Y0164719D02*
X0236649Y0164719D01*
X0236754Y0164536D02*
X0231211Y0164536D01*
X0231198Y0164352D02*
X0236858Y0164352D01*
X0236963Y0164169D02*
X0231184Y0164169D01*
X0231170Y0163985D02*
X0237068Y0163985D01*
X0237172Y0163802D02*
X0231156Y0163802D01*
X0231142Y0163618D02*
X0237277Y0163618D01*
X0237381Y0163434D02*
X0231129Y0163434D01*
X0231115Y0163251D02*
X0237486Y0163251D01*
X0237590Y0163067D02*
X0231101Y0163067D01*
X0231087Y0162884D02*
X0237695Y0162884D01*
X0237799Y0162700D02*
X0231074Y0162700D01*
X0231060Y0162517D02*
X0237904Y0162517D01*
X0238009Y0162333D02*
X0231046Y0162333D01*
X0231032Y0162150D02*
X0238113Y0162150D01*
X0238218Y0161966D02*
X0231019Y0161966D01*
X0231005Y0161782D02*
X0238322Y0161782D01*
X0238427Y0161599D02*
X0230991Y0161599D01*
X0230977Y0161415D02*
X0238531Y0161415D01*
X0238636Y0161232D02*
X0230964Y0161232D01*
X0230950Y0161048D02*
X0238740Y0161048D01*
X0238845Y0160865D02*
X0230936Y0160865D01*
X0230922Y0160681D02*
X0238950Y0160681D01*
X0239054Y0160498D02*
X0230908Y0160498D01*
X0230895Y0160314D02*
X0239159Y0160314D01*
X0239263Y0160130D02*
X0230881Y0160130D01*
X0230867Y0159947D02*
X0239368Y0159947D01*
X0239472Y0159763D02*
X0230853Y0159763D01*
X0230840Y0159580D02*
X0239577Y0159580D01*
X0239681Y0159396D02*
X0230826Y0159396D01*
X0230812Y0159213D02*
X0239786Y0159213D01*
X0239891Y0159029D02*
X0230798Y0159029D01*
X0230785Y0158846D02*
X0239995Y0158846D01*
X0240100Y0158662D02*
X0230771Y0158662D01*
X0230757Y0158479D02*
X0240204Y0158479D01*
X0240309Y0158295D02*
X0230743Y0158295D01*
X0230730Y0158111D02*
X0240413Y0158111D01*
X0240518Y0157928D02*
X0230716Y0157928D01*
X0230702Y0157744D02*
X0240622Y0157744D01*
X0240727Y0157561D02*
X0230688Y0157561D01*
X0230151Y0157561D02*
X0226703Y0157561D01*
X0226835Y0157744D02*
X0229875Y0157744D01*
X0229702Y0157928D02*
X0226927Y0157928D01*
X0226969Y0158111D02*
X0229610Y0158111D01*
X0229518Y0158295D02*
X0226969Y0158295D01*
X0226969Y0158479D02*
X0229426Y0158479D01*
X0229350Y0158662D02*
X0226922Y0158662D01*
X0226830Y0158846D02*
X0229289Y0158846D01*
X0229228Y0159029D02*
X0226738Y0159029D01*
X0226646Y0159213D02*
X0229166Y0159213D01*
X0229105Y0159396D02*
X0226540Y0159396D01*
X0226418Y0159580D02*
X0229044Y0159580D01*
X0229001Y0159763D02*
X0226296Y0159763D01*
X0226173Y0159947D02*
X0228980Y0159947D01*
X0228960Y0160130D02*
X0226051Y0160130D01*
X0225929Y0160314D02*
X0228940Y0160314D01*
X0228919Y0160498D02*
X0225773Y0160498D01*
X0225568Y0160681D02*
X0228899Y0160681D01*
X0228879Y0160865D02*
X0225363Y0160865D01*
X0225158Y0161048D02*
X0228858Y0161048D01*
X0228838Y0161232D02*
X0224953Y0161232D01*
X0224748Y0161415D02*
X0228824Y0161415D01*
X0228824Y0161599D02*
X0224543Y0161599D01*
X0224337Y0161782D02*
X0228824Y0161782D01*
X0228824Y0161966D02*
X0224132Y0161966D01*
X0223927Y0162150D02*
X0228824Y0162150D01*
X0228824Y0162333D02*
X0223722Y0162333D01*
X0223517Y0162517D02*
X0228824Y0162517D01*
X0228824Y0162700D02*
X0223312Y0162700D01*
X0223107Y0162884D02*
X0228824Y0162884D01*
X0228824Y0163067D02*
X0222902Y0163067D01*
X0222696Y0163251D02*
X0228824Y0163251D01*
X0228824Y0163434D02*
X0222491Y0163434D01*
X0222329Y0163618D02*
X0228824Y0163618D01*
X0228824Y0163802D02*
X0222404Y0163802D01*
X0222785Y0163985D02*
X0228824Y0163985D01*
X0228824Y0164169D02*
X0223166Y0164169D01*
X0223548Y0164352D02*
X0228824Y0164352D01*
X0228824Y0164536D02*
X0223929Y0164536D01*
X0224310Y0164719D02*
X0228824Y0164719D01*
X0228807Y0164903D02*
X0224691Y0164903D01*
X0225073Y0165086D02*
X0228676Y0165086D01*
X0228545Y0165270D02*
X0225454Y0165270D01*
X0225835Y0165453D02*
X0228414Y0165453D01*
X0228283Y0165637D02*
X0226216Y0165637D01*
X0226597Y0165821D02*
X0228152Y0165821D01*
X0228021Y0166004D02*
X0226979Y0166004D01*
X0224927Y0167663D02*
X0221030Y0165807D01*
X0220658Y0166364D01*
X0220472Y0167106D01*
X0220844Y0167663D01*
X0221400Y0168034D01*
X0223257Y0168591D01*
X0223628Y0168591D01*
X0224927Y0167663D01*
X0224912Y0167656D02*
X0220839Y0167656D01*
X0220717Y0167473D02*
X0224527Y0167473D01*
X0224679Y0167840D02*
X0221109Y0167840D01*
X0221384Y0168023D02*
X0224422Y0168023D01*
X0224166Y0168207D02*
X0221976Y0168207D01*
X0222588Y0168390D02*
X0223909Y0168390D01*
X0223652Y0168574D02*
X0223200Y0168574D01*
X0223756Y0167105D02*
X0220473Y0167105D01*
X0220519Y0166922D02*
X0223370Y0166922D01*
X0222985Y0166738D02*
X0220565Y0166738D01*
X0220610Y0166555D02*
X0222600Y0166555D01*
X0222214Y0166371D02*
X0220656Y0166371D01*
X0220776Y0166188D02*
X0221829Y0166188D01*
X0221443Y0166004D02*
X0220898Y0166004D01*
X0221021Y0165821D02*
X0221058Y0165821D01*
X0220594Y0167289D02*
X0224141Y0167289D01*
X0230868Y0167840D02*
X0234872Y0167840D01*
X0234767Y0168023D02*
X0231255Y0168023D01*
X0231643Y0168207D02*
X0234663Y0168207D01*
X0234558Y0168390D02*
X0232031Y0168390D01*
X0232418Y0168574D02*
X0234454Y0168574D01*
X0234349Y0168757D02*
X0232806Y0168757D01*
X0233193Y0168941D02*
X0234245Y0168941D01*
X0234140Y0169124D02*
X0233581Y0169124D01*
X0233968Y0169308D02*
X0234036Y0169308D01*
X0223063Y0159396D02*
X0212722Y0159396D01*
X0212321Y0159213D02*
X0223320Y0159213D01*
X0223596Y0159029D02*
X0211920Y0159029D01*
X0211519Y0158846D02*
X0223890Y0158846D01*
X0224184Y0158662D02*
X0211118Y0158662D01*
X0210717Y0158479D02*
X0224477Y0158479D01*
X0224771Y0158295D02*
X0210317Y0158295D01*
X0209916Y0158111D02*
X0225078Y0158111D01*
X0225399Y0157928D02*
X0209515Y0157928D01*
X0209114Y0157744D02*
X0225720Y0157744D01*
X0226041Y0157561D02*
X0208713Y0157561D01*
X0208312Y0157377D02*
X0240831Y0157377D01*
X0240936Y0157194D02*
X0207911Y0157194D01*
X0207510Y0157010D02*
X0241041Y0157010D01*
X0241145Y0156827D02*
X0207109Y0156827D01*
X0206708Y0156643D02*
X0241250Y0156643D01*
X0241354Y0156459D02*
X0206307Y0156459D01*
X0205906Y0156276D02*
X0241459Y0156276D01*
X0241563Y0156092D02*
X0205505Y0156092D01*
X0205104Y0155909D02*
X0241668Y0155909D01*
X0241772Y0155725D02*
X0204704Y0155725D01*
X0204303Y0155542D02*
X0241877Y0155542D01*
X0241982Y0155358D02*
X0203902Y0155358D01*
X0203501Y0155175D02*
X0242086Y0155175D01*
X0242191Y0154991D02*
X0203212Y0154991D01*
X0203212Y0154808D02*
X0242295Y0154808D01*
X0222806Y0159580D02*
X0213123Y0159580D01*
X0213524Y0159763D02*
X0222549Y0159763D01*
X0222292Y0159947D02*
X0213925Y0159947D01*
X0214326Y0160130D02*
X0222027Y0160130D01*
X0221752Y0160314D02*
X0214727Y0160314D01*
X0215128Y0160498D02*
X0221477Y0160498D01*
X0221201Y0160681D02*
X0215529Y0160681D01*
X0215929Y0160865D02*
X0220926Y0160865D01*
X0220651Y0161048D02*
X0216330Y0161048D01*
X0216731Y0161232D02*
X0220369Y0161232D01*
X0220075Y0161415D02*
X0217132Y0161415D01*
X0217533Y0161599D02*
X0219781Y0161599D01*
X0219488Y0161782D02*
X0217934Y0161782D01*
X0218335Y0161966D02*
X0219194Y0161966D01*
X0215461Y0163580D02*
X0215461Y0163765D01*
X0211378Y0168220D01*
X0206182Y0159126D01*
X0215461Y0163580D01*
X0215461Y0163618D02*
X0208749Y0163618D01*
X0208854Y0163802D02*
X0215428Y0163802D01*
X0215260Y0163985D02*
X0208959Y0163985D01*
X0209064Y0164169D02*
X0215092Y0164169D01*
X0214924Y0164352D02*
X0209168Y0164352D01*
X0209273Y0164536D02*
X0214755Y0164536D01*
X0214587Y0164719D02*
X0209378Y0164719D01*
X0209483Y0164903D02*
X0214419Y0164903D01*
X0214251Y0165086D02*
X0209588Y0165086D01*
X0209693Y0165270D02*
X0214082Y0165270D01*
X0213914Y0165453D02*
X0209798Y0165453D01*
X0209903Y0165637D02*
X0213746Y0165637D01*
X0213578Y0165821D02*
X0210007Y0165821D01*
X0210112Y0166004D02*
X0213409Y0166004D01*
X0213241Y0166188D02*
X0210217Y0166188D01*
X0210322Y0166371D02*
X0213073Y0166371D01*
X0212905Y0166555D02*
X0210427Y0166555D01*
X0210532Y0166738D02*
X0212736Y0166738D01*
X0212568Y0166922D02*
X0210637Y0166922D01*
X0210742Y0167105D02*
X0212400Y0167105D01*
X0212231Y0167289D02*
X0210847Y0167289D01*
X0210951Y0167473D02*
X0212063Y0167473D01*
X0211895Y0167656D02*
X0211056Y0167656D01*
X0211161Y0167840D02*
X0211727Y0167840D01*
X0211558Y0168023D02*
X0211266Y0168023D01*
X0211371Y0168207D02*
X0211390Y0168207D01*
X0208644Y0163434D02*
X0215158Y0163434D01*
X0214776Y0163251D02*
X0208539Y0163251D01*
X0208434Y0163067D02*
X0214394Y0163067D01*
X0214011Y0162884D02*
X0208329Y0162884D01*
X0208224Y0162700D02*
X0213629Y0162700D01*
X0213246Y0162517D02*
X0208120Y0162517D01*
X0208015Y0162333D02*
X0212864Y0162333D01*
X0212482Y0162150D02*
X0207910Y0162150D01*
X0207805Y0161966D02*
X0212099Y0161966D01*
X0211717Y0161782D02*
X0207700Y0161782D01*
X0207595Y0161599D02*
X0211334Y0161599D01*
X0210952Y0161415D02*
X0207490Y0161415D01*
X0207385Y0161232D02*
X0210570Y0161232D01*
X0210187Y0161048D02*
X0207281Y0161048D01*
X0207176Y0160865D02*
X0209805Y0160865D01*
X0209423Y0160681D02*
X0207071Y0160681D01*
X0206966Y0160498D02*
X0209040Y0160498D01*
X0208658Y0160314D02*
X0206861Y0160314D01*
X0206756Y0160130D02*
X0208275Y0160130D01*
X0207893Y0159947D02*
X0206651Y0159947D01*
X0206546Y0159763D02*
X0207511Y0159763D01*
X0207128Y0159580D02*
X0206441Y0159580D01*
X0206337Y0159396D02*
X0206746Y0159396D01*
X0206363Y0159213D02*
X0206232Y0159213D01*
M02*
