G75*
%MOIN*%
%OFA0B0*%
%FSLAX25Y25*%
%IPPOS*%
%LPD*%
%AMOC8*
5,1,8,0,0,1.08239X$1,22.5*
%
%ADD10R,0.00945X0.05669*%
%ADD11R,0.05669X0.00945*%
%ADD12C,0.00449*%
%ADD13C,0.00488*%
%ADD14C,0.00709*%
%ADD15R,0.03120X0.12220*%
%ADD16C,0.00394*%
%ADD17R,0.01890X0.03858*%
%ADD18R,0.04724X0.08268*%
%ADD19C,0.00748*%
%ADD20C,0.01339*%
%ADD21C,0.01181*%
%ADD22C,0.00827*%
%ADD23R,0.12995X0.03200*%
%ADD24R,0.26394X0.34701*%
%ADD25R,0.02520X0.02913*%
%ADD26R,0.07008X0.01890*%
%ADD27C,0.00906*%
D10*
X0233823Y0188143D03*
X0235791Y0188143D03*
X0237760Y0188143D03*
X0239728Y0188143D03*
X0241697Y0188143D03*
X0243665Y0188143D03*
X0245634Y0188143D03*
X0247602Y0188143D03*
X0249571Y0188143D03*
X0251539Y0188143D03*
X0253508Y0188143D03*
X0255476Y0188143D03*
X0257445Y0188143D03*
X0259413Y0188143D03*
X0261382Y0188143D03*
X0263350Y0188143D03*
X0265319Y0188143D03*
X0267287Y0188143D03*
X0269256Y0188143D03*
X0271224Y0188143D03*
X0273193Y0188143D03*
X0275161Y0188143D03*
X0277130Y0188143D03*
X0279098Y0188143D03*
X0281067Y0188143D03*
X0281067Y0248772D03*
X0279098Y0248772D03*
X0277130Y0248772D03*
X0275161Y0248772D03*
X0273193Y0248772D03*
X0271224Y0248772D03*
X0269256Y0248772D03*
X0267287Y0248772D03*
X0265319Y0248772D03*
X0263350Y0248772D03*
X0261382Y0248772D03*
X0259413Y0248772D03*
X0257445Y0248772D03*
X0255476Y0248772D03*
X0253508Y0248772D03*
X0251539Y0248772D03*
X0249571Y0248772D03*
X0247602Y0248772D03*
X0245634Y0248772D03*
X0243665Y0248772D03*
X0241697Y0248772D03*
X0239728Y0248772D03*
X0237760Y0248772D03*
X0235791Y0248772D03*
X0233823Y0248772D03*
D11*
X0227130Y0242080D03*
X0227130Y0240111D03*
X0227130Y0238143D03*
X0227130Y0236174D03*
X0227130Y0234206D03*
X0227130Y0232237D03*
X0227130Y0230269D03*
X0227130Y0228300D03*
X0227130Y0226331D03*
X0227130Y0224363D03*
X0227130Y0222394D03*
X0227130Y0220426D03*
X0227130Y0218457D03*
X0227130Y0216489D03*
X0227130Y0214520D03*
X0227130Y0212552D03*
X0227130Y0210583D03*
X0227130Y0208615D03*
X0227130Y0206646D03*
X0227130Y0204678D03*
X0227130Y0202709D03*
X0227130Y0200741D03*
X0227130Y0198772D03*
X0227130Y0196804D03*
X0227130Y0194835D03*
X0287760Y0194835D03*
X0287760Y0196804D03*
X0287760Y0198772D03*
X0287760Y0200741D03*
X0287760Y0202709D03*
X0287760Y0204678D03*
X0287760Y0206646D03*
X0287760Y0208615D03*
X0287760Y0210583D03*
X0287760Y0212552D03*
X0287760Y0214520D03*
X0287760Y0216489D03*
X0287760Y0218457D03*
X0287760Y0220426D03*
X0287760Y0222394D03*
X0287760Y0224363D03*
X0287760Y0226331D03*
X0287760Y0228300D03*
X0287760Y0230269D03*
X0287760Y0232237D03*
X0287760Y0234206D03*
X0287760Y0236174D03*
X0287760Y0238143D03*
X0287760Y0240111D03*
X0287760Y0242080D03*
D12*
X0314516Y0241863D02*
X0314516Y0240517D01*
X0312972Y0240517D01*
X0312972Y0241863D01*
X0314516Y0241863D01*
X0314516Y0240965D02*
X0312972Y0240965D01*
X0312972Y0241413D02*
X0314516Y0241413D01*
X0314516Y0241861D02*
X0312972Y0241861D01*
X0314516Y0238083D02*
X0314516Y0236737D01*
X0312972Y0236737D01*
X0312972Y0238083D01*
X0314516Y0238083D01*
X0314516Y0237185D02*
X0312972Y0237185D01*
X0312972Y0237633D02*
X0314516Y0237633D01*
X0314516Y0238081D02*
X0312972Y0238081D01*
X0318181Y0211072D02*
X0319527Y0211072D01*
X0319527Y0209528D01*
X0318181Y0209528D01*
X0318181Y0211072D01*
X0318181Y0209976D02*
X0319527Y0209976D01*
X0319527Y0210424D02*
X0318181Y0210424D01*
X0318181Y0210872D02*
X0319527Y0210872D01*
X0321961Y0211072D02*
X0323307Y0211072D01*
X0323307Y0209528D01*
X0321961Y0209528D01*
X0321961Y0211072D01*
X0321961Y0209976D02*
X0323307Y0209976D01*
X0323307Y0210424D02*
X0321961Y0210424D01*
X0321961Y0210872D02*
X0323307Y0210872D01*
X0323307Y0207072D02*
X0321961Y0207072D01*
X0323307Y0207072D02*
X0323307Y0205528D01*
X0321961Y0205528D01*
X0321961Y0207072D01*
X0321961Y0205976D02*
X0323307Y0205976D01*
X0323307Y0206424D02*
X0321961Y0206424D01*
X0321961Y0206872D02*
X0323307Y0206872D01*
X0319527Y0207072D02*
X0318181Y0207072D01*
X0319527Y0207072D02*
X0319527Y0205528D01*
X0318181Y0205528D01*
X0318181Y0207072D01*
X0318181Y0205976D02*
X0319527Y0205976D01*
X0319527Y0206424D02*
X0318181Y0206424D01*
X0318181Y0206872D02*
X0319527Y0206872D01*
X0319527Y0203072D02*
X0318181Y0203072D01*
X0319527Y0203072D02*
X0319527Y0201528D01*
X0318181Y0201528D01*
X0318181Y0203072D01*
X0318181Y0201976D02*
X0319527Y0201976D01*
X0319527Y0202424D02*
X0318181Y0202424D01*
X0318181Y0202872D02*
X0319527Y0202872D01*
X0321961Y0203072D02*
X0323307Y0203072D01*
X0323307Y0201528D01*
X0321961Y0201528D01*
X0321961Y0203072D01*
X0321961Y0201976D02*
X0323307Y0201976D01*
X0323307Y0202424D02*
X0321961Y0202424D01*
X0321961Y0202872D02*
X0323307Y0202872D01*
X0323307Y0197528D02*
X0321961Y0197528D01*
X0321961Y0199072D01*
X0323307Y0199072D01*
X0323307Y0197528D01*
X0323307Y0197976D02*
X0321961Y0197976D01*
X0321961Y0198424D02*
X0323307Y0198424D01*
X0323307Y0198872D02*
X0321961Y0198872D01*
X0319527Y0197528D02*
X0318181Y0197528D01*
X0318181Y0199072D01*
X0319527Y0199072D01*
X0319527Y0197528D01*
X0319527Y0197976D02*
X0318181Y0197976D01*
X0318181Y0198424D02*
X0319527Y0198424D01*
X0319527Y0198872D02*
X0318181Y0198872D01*
X0318181Y0193528D02*
X0319527Y0193528D01*
X0318181Y0193528D02*
X0318181Y0195072D01*
X0319527Y0195072D01*
X0319527Y0193528D01*
X0319527Y0193976D02*
X0318181Y0193976D01*
X0318181Y0194424D02*
X0319527Y0194424D01*
X0319527Y0194872D02*
X0318181Y0194872D01*
X0321961Y0193528D02*
X0323307Y0193528D01*
X0321961Y0193528D02*
X0321961Y0195072D01*
X0323307Y0195072D01*
X0323307Y0193528D01*
X0323307Y0193976D02*
X0321961Y0193976D01*
X0321961Y0194424D02*
X0323307Y0194424D01*
X0323307Y0194872D02*
X0321961Y0194872D01*
X0317972Y0176863D02*
X0317972Y0175517D01*
X0317972Y0176863D02*
X0319516Y0176863D01*
X0319516Y0175517D01*
X0317972Y0175517D01*
X0317972Y0175965D02*
X0319516Y0175965D01*
X0319516Y0176413D02*
X0317972Y0176413D01*
X0317972Y0176861D02*
X0319516Y0176861D01*
X0317972Y0173083D02*
X0317972Y0171737D01*
X0317972Y0173083D02*
X0319516Y0173083D01*
X0319516Y0171737D01*
X0317972Y0171737D01*
X0317972Y0172185D02*
X0319516Y0172185D01*
X0319516Y0172633D02*
X0317972Y0172633D01*
X0317972Y0173081D02*
X0319516Y0173081D01*
X0313972Y0173083D02*
X0313972Y0171737D01*
X0313972Y0173083D02*
X0315516Y0173083D01*
X0315516Y0171737D01*
X0313972Y0171737D01*
X0313972Y0172185D02*
X0315516Y0172185D01*
X0315516Y0172633D02*
X0313972Y0172633D01*
X0313972Y0173081D02*
X0315516Y0173081D01*
X0313972Y0175517D02*
X0313972Y0176863D01*
X0315516Y0176863D01*
X0315516Y0175517D01*
X0313972Y0175517D01*
X0313972Y0175965D02*
X0315516Y0175965D01*
X0315516Y0176413D02*
X0313972Y0176413D01*
X0313972Y0176861D02*
X0315516Y0176861D01*
X0309972Y0176863D02*
X0309972Y0175517D01*
X0309972Y0176863D02*
X0311516Y0176863D01*
X0311516Y0175517D01*
X0309972Y0175517D01*
X0309972Y0175965D02*
X0311516Y0175965D01*
X0311516Y0176413D02*
X0309972Y0176413D01*
X0309972Y0176861D02*
X0311516Y0176861D01*
X0309972Y0173083D02*
X0309972Y0171737D01*
X0309972Y0173083D02*
X0311516Y0173083D01*
X0311516Y0171737D01*
X0309972Y0171737D01*
X0309972Y0172185D02*
X0311516Y0172185D01*
X0311516Y0172633D02*
X0309972Y0172633D01*
X0309972Y0173081D02*
X0311516Y0173081D01*
X0305972Y0173083D02*
X0305972Y0171737D01*
X0305972Y0173083D02*
X0307516Y0173083D01*
X0307516Y0171737D01*
X0305972Y0171737D01*
X0305972Y0172185D02*
X0307516Y0172185D01*
X0307516Y0172633D02*
X0305972Y0172633D01*
X0305972Y0173081D02*
X0307516Y0173081D01*
X0305972Y0175517D02*
X0305972Y0176863D01*
X0307516Y0176863D01*
X0307516Y0175517D01*
X0305972Y0175517D01*
X0305972Y0175965D02*
X0307516Y0175965D01*
X0307516Y0176413D02*
X0305972Y0176413D01*
X0305972Y0176861D02*
X0307516Y0176861D01*
X0293516Y0162863D02*
X0293516Y0161517D01*
X0291972Y0161517D01*
X0291972Y0162863D01*
X0293516Y0162863D01*
X0293516Y0161965D02*
X0291972Y0161965D01*
X0291972Y0162413D02*
X0293516Y0162413D01*
X0293516Y0162861D02*
X0291972Y0162861D01*
X0287972Y0162863D02*
X0287972Y0161517D01*
X0287972Y0162863D02*
X0289516Y0162863D01*
X0289516Y0161517D01*
X0287972Y0161517D01*
X0287972Y0161965D02*
X0289516Y0161965D01*
X0289516Y0162413D02*
X0287972Y0162413D01*
X0287972Y0162861D02*
X0289516Y0162861D01*
X0287972Y0159083D02*
X0287972Y0157737D01*
X0287972Y0159083D02*
X0289516Y0159083D01*
X0289516Y0157737D01*
X0287972Y0157737D01*
X0287972Y0158185D02*
X0289516Y0158185D01*
X0289516Y0158633D02*
X0287972Y0158633D01*
X0287972Y0159081D02*
X0289516Y0159081D01*
X0293516Y0159083D02*
X0293516Y0157737D01*
X0291972Y0157737D01*
X0291972Y0159083D01*
X0293516Y0159083D01*
X0293516Y0158185D02*
X0291972Y0158185D01*
X0291972Y0158633D02*
X0293516Y0158633D01*
X0293516Y0159081D02*
X0291972Y0159081D01*
X0285516Y0159083D02*
X0285516Y0157737D01*
X0283972Y0157737D01*
X0283972Y0159083D01*
X0285516Y0159083D01*
X0285516Y0158185D02*
X0283972Y0158185D01*
X0283972Y0158633D02*
X0285516Y0158633D01*
X0285516Y0159081D02*
X0283972Y0159081D01*
X0285516Y0161517D02*
X0285516Y0162863D01*
X0285516Y0161517D02*
X0283972Y0161517D01*
X0283972Y0162863D01*
X0285516Y0162863D01*
X0285516Y0161965D02*
X0283972Y0161965D01*
X0283972Y0162413D02*
X0285516Y0162413D01*
X0285516Y0162861D02*
X0283972Y0162861D01*
X0279972Y0162863D02*
X0279972Y0161517D01*
X0279972Y0162863D02*
X0281516Y0162863D01*
X0281516Y0161517D01*
X0279972Y0161517D01*
X0279972Y0161965D02*
X0281516Y0161965D01*
X0281516Y0162413D02*
X0279972Y0162413D01*
X0279972Y0162861D02*
X0281516Y0162861D01*
X0279972Y0159083D02*
X0279972Y0157737D01*
X0279972Y0159083D02*
X0281516Y0159083D01*
X0281516Y0157737D01*
X0279972Y0157737D01*
X0279972Y0158185D02*
X0281516Y0158185D01*
X0281516Y0158633D02*
X0279972Y0158633D01*
X0279972Y0159081D02*
X0281516Y0159081D01*
X0275972Y0159083D02*
X0275972Y0157737D01*
X0275972Y0159083D02*
X0277516Y0159083D01*
X0277516Y0157737D01*
X0275972Y0157737D01*
X0275972Y0158185D02*
X0277516Y0158185D01*
X0277516Y0158633D02*
X0275972Y0158633D01*
X0275972Y0159081D02*
X0277516Y0159081D01*
X0275972Y0161517D02*
X0275972Y0162863D01*
X0277516Y0162863D01*
X0277516Y0161517D01*
X0275972Y0161517D01*
X0275972Y0161965D02*
X0277516Y0161965D01*
X0277516Y0162413D02*
X0275972Y0162413D01*
X0275972Y0162861D02*
X0277516Y0162861D01*
X0273516Y0162863D02*
X0273516Y0161517D01*
X0271972Y0161517D01*
X0271972Y0162863D01*
X0273516Y0162863D01*
X0273516Y0161965D02*
X0271972Y0161965D01*
X0271972Y0162413D02*
X0273516Y0162413D01*
X0273516Y0162861D02*
X0271972Y0162861D01*
X0273516Y0159083D02*
X0273516Y0157737D01*
X0271972Y0157737D01*
X0271972Y0159083D01*
X0273516Y0159083D01*
X0273516Y0158185D02*
X0271972Y0158185D01*
X0271972Y0158633D02*
X0273516Y0158633D01*
X0273516Y0159081D02*
X0271972Y0159081D01*
X0236972Y0159737D02*
X0236972Y0161083D01*
X0238516Y0161083D01*
X0238516Y0159737D01*
X0236972Y0159737D01*
X0236972Y0160185D02*
X0238516Y0160185D01*
X0238516Y0160633D02*
X0236972Y0160633D01*
X0236972Y0161081D02*
X0238516Y0161081D01*
X0236972Y0163517D02*
X0236972Y0164863D01*
X0238516Y0164863D01*
X0238516Y0163517D01*
X0236972Y0163517D01*
X0236972Y0163965D02*
X0238516Y0163965D01*
X0238516Y0164413D02*
X0236972Y0164413D01*
X0236972Y0164861D02*
X0238516Y0164861D01*
X0230972Y0164863D02*
X0230972Y0163517D01*
X0230972Y0164863D02*
X0232516Y0164863D01*
X0232516Y0163517D01*
X0230972Y0163517D01*
X0230972Y0163965D02*
X0232516Y0163965D01*
X0232516Y0164413D02*
X0230972Y0164413D01*
X0230972Y0164861D02*
X0232516Y0164861D01*
X0230972Y0161083D02*
X0230972Y0159737D01*
X0230972Y0161083D02*
X0232516Y0161083D01*
X0232516Y0159737D01*
X0230972Y0159737D01*
X0230972Y0160185D02*
X0232516Y0160185D01*
X0232516Y0160633D02*
X0230972Y0160633D01*
X0230972Y0161081D02*
X0232516Y0161081D01*
X0207307Y0326528D02*
X0205961Y0326528D01*
X0205961Y0328072D01*
X0207307Y0328072D01*
X0207307Y0326528D01*
X0207307Y0326976D02*
X0205961Y0326976D01*
X0205961Y0327424D02*
X0207307Y0327424D01*
X0207307Y0327872D02*
X0205961Y0327872D01*
X0203527Y0326528D02*
X0202181Y0326528D01*
X0202181Y0328072D01*
X0203527Y0328072D01*
X0203527Y0326528D01*
X0203527Y0326976D02*
X0202181Y0326976D01*
X0202181Y0327424D02*
X0203527Y0327424D01*
X0203527Y0327872D02*
X0202181Y0327872D01*
D13*
X0281012Y0325804D02*
X0281012Y0324340D01*
X0281012Y0325804D02*
X0282476Y0325804D01*
X0282476Y0324340D01*
X0281012Y0324340D01*
X0281012Y0324827D02*
X0282476Y0324827D01*
X0282476Y0325314D02*
X0281012Y0325314D01*
X0281012Y0325801D02*
X0282476Y0325801D01*
X0281012Y0322260D02*
X0281012Y0320796D01*
X0281012Y0322260D02*
X0282476Y0322260D01*
X0282476Y0320796D01*
X0281012Y0320796D01*
X0281012Y0321283D02*
X0282476Y0321283D01*
X0282476Y0321770D02*
X0281012Y0321770D01*
X0281012Y0322257D02*
X0282476Y0322257D01*
X0284476Y0355796D02*
X0284476Y0357260D01*
X0284476Y0355796D02*
X0283012Y0355796D01*
X0283012Y0357260D01*
X0284476Y0357260D01*
X0284476Y0356283D02*
X0283012Y0356283D01*
X0283012Y0356770D02*
X0284476Y0356770D01*
X0284476Y0357257D02*
X0283012Y0357257D01*
X0284476Y0359340D02*
X0284476Y0360804D01*
X0284476Y0359340D02*
X0283012Y0359340D01*
X0283012Y0360804D01*
X0284476Y0360804D01*
X0284476Y0359827D02*
X0283012Y0359827D01*
X0283012Y0360314D02*
X0284476Y0360314D01*
X0284476Y0360801D02*
X0283012Y0360801D01*
X0280476Y0360804D02*
X0280476Y0359340D01*
X0279012Y0359340D01*
X0279012Y0360804D01*
X0280476Y0360804D01*
X0280476Y0359827D02*
X0279012Y0359827D01*
X0279012Y0360314D02*
X0280476Y0360314D01*
X0280476Y0360801D02*
X0279012Y0360801D01*
X0280476Y0357260D02*
X0280476Y0355796D01*
X0279012Y0355796D01*
X0279012Y0357260D01*
X0280476Y0357260D01*
X0280476Y0356283D02*
X0279012Y0356283D01*
X0279012Y0356770D02*
X0280476Y0356770D01*
X0280476Y0357257D02*
X0279012Y0357257D01*
X0344012Y0357340D02*
X0344012Y0358804D01*
X0345476Y0358804D01*
X0345476Y0357340D01*
X0344012Y0357340D01*
X0344012Y0357827D02*
X0345476Y0357827D01*
X0345476Y0358314D02*
X0344012Y0358314D01*
X0344012Y0358801D02*
X0345476Y0358801D01*
X0349476Y0358804D02*
X0349476Y0357340D01*
X0348012Y0357340D01*
X0348012Y0358804D01*
X0349476Y0358804D01*
X0349476Y0357827D02*
X0348012Y0357827D01*
X0348012Y0358314D02*
X0349476Y0358314D01*
X0349476Y0358801D02*
X0348012Y0358801D01*
X0349476Y0355260D02*
X0349476Y0353796D01*
X0348012Y0353796D01*
X0348012Y0355260D01*
X0349476Y0355260D01*
X0349476Y0354283D02*
X0348012Y0354283D01*
X0348012Y0354770D02*
X0349476Y0354770D01*
X0349476Y0355257D02*
X0348012Y0355257D01*
X0344012Y0355260D02*
X0344012Y0353796D01*
X0344012Y0355260D02*
X0345476Y0355260D01*
X0345476Y0353796D01*
X0344012Y0353796D01*
X0344012Y0354283D02*
X0345476Y0354283D01*
X0345476Y0354770D02*
X0344012Y0354770D01*
X0344012Y0355257D02*
X0345476Y0355257D01*
X0360012Y0352804D02*
X0360012Y0351340D01*
X0360012Y0352804D02*
X0361476Y0352804D01*
X0361476Y0351340D01*
X0360012Y0351340D01*
X0360012Y0351827D02*
X0361476Y0351827D01*
X0361476Y0352314D02*
X0360012Y0352314D01*
X0360012Y0352801D02*
X0361476Y0352801D01*
X0360012Y0349260D02*
X0360012Y0347796D01*
X0360012Y0349260D02*
X0361476Y0349260D01*
X0361476Y0347796D01*
X0360012Y0347796D01*
X0360012Y0348283D02*
X0361476Y0348283D01*
X0361476Y0348770D02*
X0360012Y0348770D01*
X0360012Y0349257D02*
X0361476Y0349257D01*
X0361476Y0332804D02*
X0361476Y0331340D01*
X0360012Y0331340D01*
X0360012Y0332804D01*
X0361476Y0332804D01*
X0361476Y0331827D02*
X0360012Y0331827D01*
X0360012Y0332314D02*
X0361476Y0332314D01*
X0361476Y0332801D02*
X0360012Y0332801D01*
X0361476Y0329260D02*
X0361476Y0327796D01*
X0360012Y0327796D01*
X0360012Y0329260D01*
X0361476Y0329260D01*
X0361476Y0328283D02*
X0360012Y0328283D01*
X0360012Y0328770D02*
X0361476Y0328770D01*
X0361476Y0329257D02*
X0360012Y0329257D01*
X0344012Y0324804D02*
X0344012Y0323340D01*
X0344012Y0324804D02*
X0345476Y0324804D01*
X0345476Y0323340D01*
X0344012Y0323340D01*
X0344012Y0323827D02*
X0345476Y0323827D01*
X0345476Y0324314D02*
X0344012Y0324314D01*
X0344012Y0324801D02*
X0345476Y0324801D01*
X0344012Y0321260D02*
X0344012Y0319796D01*
X0344012Y0321260D02*
X0345476Y0321260D01*
X0345476Y0319796D01*
X0344012Y0319796D01*
X0344012Y0320283D02*
X0345476Y0320283D01*
X0345476Y0320770D02*
X0344012Y0320770D01*
X0344012Y0321257D02*
X0345476Y0321257D01*
X0309012Y0241804D02*
X0309012Y0240340D01*
X0309012Y0241804D02*
X0310476Y0241804D01*
X0310476Y0240340D01*
X0309012Y0240340D01*
X0309012Y0240827D02*
X0310476Y0240827D01*
X0310476Y0241314D02*
X0309012Y0241314D01*
X0309012Y0241801D02*
X0310476Y0241801D01*
X0309012Y0238260D02*
X0309012Y0236796D01*
X0309012Y0238260D02*
X0310476Y0238260D01*
X0310476Y0236796D01*
X0309012Y0236796D01*
X0309012Y0237283D02*
X0310476Y0237283D01*
X0310476Y0237770D02*
X0309012Y0237770D01*
X0309012Y0238257D02*
X0310476Y0238257D01*
X0148012Y0205804D02*
X0148012Y0204340D01*
X0148012Y0205804D02*
X0149476Y0205804D01*
X0149476Y0204340D01*
X0148012Y0204340D01*
X0148012Y0204827D02*
X0149476Y0204827D01*
X0149476Y0205314D02*
X0148012Y0205314D01*
X0148012Y0205801D02*
X0149476Y0205801D01*
X0148012Y0202260D02*
X0148012Y0200796D01*
X0148012Y0202260D02*
X0149476Y0202260D01*
X0149476Y0200796D01*
X0148012Y0200796D01*
X0148012Y0201283D02*
X0149476Y0201283D01*
X0149476Y0201770D02*
X0148012Y0201770D01*
X0148012Y0202257D02*
X0149476Y0202257D01*
X0144012Y0202260D02*
X0144012Y0200796D01*
X0144012Y0202260D02*
X0145476Y0202260D01*
X0145476Y0200796D01*
X0144012Y0200796D01*
X0144012Y0201283D02*
X0145476Y0201283D01*
X0145476Y0201770D02*
X0144012Y0201770D01*
X0144012Y0202257D02*
X0145476Y0202257D01*
X0144012Y0204340D02*
X0144012Y0205804D01*
X0145476Y0205804D01*
X0145476Y0204340D01*
X0144012Y0204340D01*
X0144012Y0204827D02*
X0145476Y0204827D01*
X0145476Y0205314D02*
X0144012Y0205314D01*
X0144012Y0205801D02*
X0145476Y0205801D01*
X0146476Y0237796D02*
X0146476Y0239260D01*
X0146476Y0237796D02*
X0145012Y0237796D01*
X0145012Y0239260D01*
X0146476Y0239260D01*
X0146476Y0238283D02*
X0145012Y0238283D01*
X0145012Y0238770D02*
X0146476Y0238770D01*
X0146476Y0239257D02*
X0145012Y0239257D01*
X0146476Y0241340D02*
X0146476Y0242804D01*
X0146476Y0241340D02*
X0145012Y0241340D01*
X0145012Y0242804D01*
X0146476Y0242804D01*
X0146476Y0241827D02*
X0145012Y0241827D01*
X0145012Y0242314D02*
X0146476Y0242314D01*
X0146476Y0242801D02*
X0145012Y0242801D01*
X0084976Y0243340D02*
X0084976Y0244804D01*
X0084976Y0243340D02*
X0083512Y0243340D01*
X0083512Y0244804D01*
X0084976Y0244804D01*
X0084976Y0243827D02*
X0083512Y0243827D01*
X0083512Y0244314D02*
X0084976Y0244314D01*
X0084976Y0244801D02*
X0083512Y0244801D01*
X0084976Y0241260D02*
X0084976Y0239796D01*
X0083512Y0239796D01*
X0083512Y0241260D01*
X0084976Y0241260D01*
X0084976Y0240283D02*
X0083512Y0240283D01*
X0083512Y0240770D02*
X0084976Y0240770D01*
X0084976Y0241257D02*
X0083512Y0241257D01*
X0065012Y0241340D02*
X0065012Y0242804D01*
X0066476Y0242804D01*
X0066476Y0241340D01*
X0065012Y0241340D01*
X0065012Y0241827D02*
X0066476Y0241827D01*
X0066476Y0242314D02*
X0065012Y0242314D01*
X0065012Y0242801D02*
X0066476Y0242801D01*
X0065012Y0239260D02*
X0065012Y0237796D01*
X0065012Y0239260D02*
X0066476Y0239260D01*
X0066476Y0237796D01*
X0065012Y0237796D01*
X0065012Y0238283D02*
X0066476Y0238283D01*
X0066476Y0238770D02*
X0065012Y0238770D01*
X0065012Y0239257D02*
X0066476Y0239257D01*
X0066476Y0222304D02*
X0066476Y0220840D01*
X0065012Y0220840D01*
X0065012Y0222304D01*
X0066476Y0222304D01*
X0066476Y0221327D02*
X0065012Y0221327D01*
X0065012Y0221814D02*
X0066476Y0221814D01*
X0066476Y0222301D02*
X0065012Y0222301D01*
X0066476Y0218760D02*
X0066476Y0217296D01*
X0065012Y0217296D01*
X0065012Y0218760D01*
X0066476Y0218760D01*
X0066476Y0217783D02*
X0065012Y0217783D01*
X0065012Y0218270D02*
X0066476Y0218270D01*
X0066476Y0218757D02*
X0065012Y0218757D01*
X0078476Y0211804D02*
X0078476Y0210340D01*
X0077012Y0210340D01*
X0077012Y0211804D01*
X0078476Y0211804D01*
X0078476Y0210827D02*
X0077012Y0210827D01*
X0077012Y0211314D02*
X0078476Y0211314D01*
X0078476Y0211801D02*
X0077012Y0211801D01*
X0078476Y0208260D02*
X0078476Y0206796D01*
X0077012Y0206796D01*
X0077012Y0208260D01*
X0078476Y0208260D01*
X0078476Y0207283D02*
X0077012Y0207283D01*
X0077012Y0207770D02*
X0078476Y0207770D01*
X0078476Y0208257D02*
X0077012Y0208257D01*
X0081012Y0208260D02*
X0081012Y0206796D01*
X0081012Y0208260D02*
X0082476Y0208260D01*
X0082476Y0206796D01*
X0081012Y0206796D01*
X0081012Y0207283D02*
X0082476Y0207283D01*
X0082476Y0207770D02*
X0081012Y0207770D01*
X0081012Y0208257D02*
X0082476Y0208257D01*
X0081012Y0210340D02*
X0081012Y0211804D01*
X0082476Y0211804D01*
X0082476Y0210340D01*
X0081012Y0210340D01*
X0081012Y0210827D02*
X0082476Y0210827D01*
X0082476Y0211314D02*
X0081012Y0211314D01*
X0081012Y0211801D02*
X0082476Y0211801D01*
D14*
X0200106Y0218394D02*
X0200106Y0220520D01*
X0200106Y0218394D02*
X0197784Y0218394D01*
X0197784Y0220520D01*
X0200106Y0220520D01*
X0200106Y0219102D02*
X0197784Y0219102D01*
X0197784Y0219810D02*
X0200106Y0219810D01*
X0200106Y0220518D02*
X0197784Y0220518D01*
X0200106Y0224394D02*
X0200106Y0226520D01*
X0200106Y0224394D02*
X0197784Y0224394D01*
X0197784Y0226520D01*
X0200106Y0226520D01*
X0200106Y0225102D02*
X0197784Y0225102D01*
X0197784Y0225810D02*
X0200106Y0225810D01*
X0200106Y0226518D02*
X0197784Y0226518D01*
X0205606Y0226520D02*
X0205606Y0224394D01*
X0203284Y0224394D01*
X0203284Y0226520D01*
X0205606Y0226520D01*
X0205606Y0225102D02*
X0203284Y0225102D01*
X0203284Y0225810D02*
X0205606Y0225810D01*
X0205606Y0226518D02*
X0203284Y0226518D01*
X0205606Y0220520D02*
X0205606Y0218394D01*
X0203284Y0218394D01*
X0203284Y0220520D01*
X0205606Y0220520D01*
X0205606Y0219102D02*
X0203284Y0219102D01*
X0203284Y0219810D02*
X0205606Y0219810D01*
X0205606Y0220518D02*
X0203284Y0220518D01*
X0242382Y0267296D02*
X0244508Y0267296D01*
X0242382Y0267296D02*
X0242382Y0269618D01*
X0244508Y0269618D01*
X0244508Y0267296D01*
X0244508Y0268004D02*
X0242382Y0268004D01*
X0242382Y0268712D02*
X0244508Y0268712D01*
X0244508Y0269420D02*
X0242382Y0269420D01*
X0242382Y0273296D02*
X0244508Y0273296D01*
X0242382Y0273296D02*
X0242382Y0275618D01*
X0244508Y0275618D01*
X0244508Y0273296D01*
X0244508Y0274004D02*
X0242382Y0274004D01*
X0242382Y0274712D02*
X0244508Y0274712D01*
X0244508Y0275420D02*
X0242382Y0275420D01*
X0248382Y0273296D02*
X0250508Y0273296D01*
X0248382Y0273296D02*
X0248382Y0275618D01*
X0250508Y0275618D01*
X0250508Y0273296D01*
X0250508Y0274004D02*
X0248382Y0274004D01*
X0248382Y0274712D02*
X0250508Y0274712D01*
X0250508Y0275420D02*
X0248382Y0275420D01*
X0248382Y0267296D02*
X0250508Y0267296D01*
X0248382Y0267296D02*
X0248382Y0269618D01*
X0250508Y0269618D01*
X0250508Y0267296D01*
X0250508Y0268004D02*
X0248382Y0268004D01*
X0248382Y0268712D02*
X0250508Y0268712D01*
X0250508Y0269420D02*
X0248382Y0269420D01*
X0262382Y0265296D02*
X0264508Y0265296D01*
X0262382Y0265296D02*
X0262382Y0267618D01*
X0264508Y0267618D01*
X0264508Y0265296D01*
X0264508Y0266004D02*
X0262382Y0266004D01*
X0262382Y0266712D02*
X0264508Y0266712D01*
X0264508Y0267420D02*
X0262382Y0267420D01*
X0262382Y0273618D02*
X0264508Y0273618D01*
X0264508Y0271296D01*
X0262382Y0271296D01*
X0262382Y0273618D01*
X0262382Y0272004D02*
X0264508Y0272004D01*
X0264508Y0272712D02*
X0262382Y0272712D01*
X0262382Y0273420D02*
X0264508Y0273420D01*
X0264557Y0277139D02*
X0262431Y0277139D01*
X0262431Y0279461D01*
X0264557Y0279461D01*
X0264557Y0277139D01*
X0264557Y0277847D02*
X0262431Y0277847D01*
X0262431Y0278555D02*
X0264557Y0278555D01*
X0264557Y0279263D02*
X0262431Y0279263D01*
X0268431Y0277139D02*
X0270557Y0277139D01*
X0268431Y0277139D02*
X0268431Y0279461D01*
X0270557Y0279461D01*
X0270557Y0277139D01*
X0270557Y0277847D02*
X0268431Y0277847D01*
X0268431Y0278555D02*
X0270557Y0278555D01*
X0270557Y0279263D02*
X0268431Y0279263D01*
X0268382Y0273618D02*
X0270508Y0273618D01*
X0270508Y0271296D01*
X0268382Y0271296D01*
X0268382Y0273618D01*
X0268382Y0272004D02*
X0270508Y0272004D01*
X0270508Y0272712D02*
X0268382Y0272712D01*
X0268382Y0273420D02*
X0270508Y0273420D01*
X0270508Y0265296D02*
X0268382Y0265296D01*
X0268382Y0267618D01*
X0270508Y0267618D01*
X0270508Y0265296D01*
X0270508Y0266004D02*
X0268382Y0266004D01*
X0268382Y0266712D02*
X0270508Y0266712D01*
X0270508Y0267420D02*
X0268382Y0267420D01*
X0263284Y0287394D02*
X0263284Y0289520D01*
X0265606Y0289520D01*
X0265606Y0287394D01*
X0263284Y0287394D01*
X0263284Y0288102D02*
X0265606Y0288102D01*
X0265606Y0288810D02*
X0263284Y0288810D01*
X0263284Y0289518D02*
X0265606Y0289518D01*
X0263284Y0293394D02*
X0263284Y0295520D01*
X0265606Y0295520D01*
X0265606Y0293394D01*
X0263284Y0293394D01*
X0263284Y0294102D02*
X0265606Y0294102D01*
X0265606Y0294810D02*
X0263284Y0294810D01*
X0263284Y0295518D02*
X0265606Y0295518D01*
X0247284Y0295520D02*
X0247284Y0293394D01*
X0247284Y0295520D02*
X0249606Y0295520D01*
X0249606Y0293394D01*
X0247284Y0293394D01*
X0247284Y0294102D02*
X0249606Y0294102D01*
X0249606Y0294810D02*
X0247284Y0294810D01*
X0247284Y0295518D02*
X0249606Y0295518D01*
X0247284Y0289520D02*
X0247284Y0287394D01*
X0247284Y0289520D02*
X0249606Y0289520D01*
X0249606Y0287394D01*
X0247284Y0287394D01*
X0247284Y0288102D02*
X0249606Y0288102D01*
X0249606Y0288810D02*
X0247284Y0288810D01*
X0247284Y0289518D02*
X0249606Y0289518D01*
X0240154Y0319611D02*
X0238028Y0319611D01*
X0238028Y0321933D01*
X0240154Y0321933D01*
X0240154Y0319611D01*
X0240154Y0320319D02*
X0238028Y0320319D01*
X0238028Y0321027D02*
X0240154Y0321027D01*
X0240154Y0321735D02*
X0238028Y0321735D01*
X0234154Y0319611D02*
X0232028Y0319611D01*
X0232028Y0321933D01*
X0234154Y0321933D01*
X0234154Y0319611D01*
X0234154Y0320319D02*
X0232028Y0320319D01*
X0232028Y0321027D02*
X0234154Y0321027D01*
X0234154Y0321735D02*
X0232028Y0321735D01*
X0232028Y0327485D02*
X0234154Y0327485D01*
X0232028Y0327485D02*
X0232028Y0329807D01*
X0234154Y0329807D01*
X0234154Y0327485D01*
X0234154Y0328193D02*
X0232028Y0328193D01*
X0232028Y0328901D02*
X0234154Y0328901D01*
X0234154Y0329609D02*
X0232028Y0329609D01*
X0238028Y0327485D02*
X0240154Y0327485D01*
X0238028Y0327485D02*
X0238028Y0329807D01*
X0240154Y0329807D01*
X0240154Y0327485D01*
X0240154Y0328193D02*
X0238028Y0328193D01*
X0238028Y0328901D02*
X0240154Y0328901D01*
X0240154Y0329609D02*
X0238028Y0329609D01*
X0200559Y0344583D02*
X0200559Y0346709D01*
X0202881Y0346709D01*
X0202881Y0344583D01*
X0200559Y0344583D01*
X0200559Y0345291D02*
X0202881Y0345291D01*
X0202881Y0345999D02*
X0200559Y0345999D01*
X0200559Y0346707D02*
X0202881Y0346707D01*
X0200559Y0350583D02*
X0200559Y0352709D01*
X0202881Y0352709D01*
X0202881Y0350583D01*
X0200559Y0350583D01*
X0200559Y0351291D02*
X0202881Y0351291D01*
X0202881Y0351999D02*
X0200559Y0351999D01*
X0200559Y0352707D02*
X0202881Y0352707D01*
X0194654Y0352709D02*
X0194654Y0350583D01*
X0194654Y0352709D02*
X0196976Y0352709D01*
X0196976Y0350583D01*
X0194654Y0350583D01*
X0194654Y0351291D02*
X0196976Y0351291D01*
X0196976Y0351999D02*
X0194654Y0351999D01*
X0194654Y0352707D02*
X0196976Y0352707D01*
X0194654Y0346709D02*
X0194654Y0344583D01*
X0194654Y0346709D02*
X0196976Y0346709D01*
X0196976Y0344583D01*
X0194654Y0344583D01*
X0194654Y0345291D02*
X0196976Y0345291D01*
X0196976Y0345999D02*
X0194654Y0345999D01*
X0194654Y0346707D02*
X0196976Y0346707D01*
X0217343Y0380950D02*
X0219469Y0380950D01*
X0217343Y0380950D02*
X0217343Y0383272D01*
X0219469Y0383272D01*
X0219469Y0380950D01*
X0219469Y0381658D02*
X0217343Y0381658D01*
X0217343Y0382366D02*
X0219469Y0382366D01*
X0219469Y0383074D02*
X0217343Y0383074D01*
X0223343Y0380950D02*
X0225469Y0380950D01*
X0223343Y0380950D02*
X0223343Y0383272D01*
X0225469Y0383272D01*
X0225469Y0380950D01*
X0225469Y0381658D02*
X0223343Y0381658D01*
X0223343Y0382366D02*
X0225469Y0382366D01*
X0225469Y0383074D02*
X0223343Y0383074D01*
X0115232Y0369492D02*
X0113106Y0369492D01*
X0115232Y0369492D02*
X0115232Y0367170D01*
X0113106Y0367170D01*
X0113106Y0369492D01*
X0113106Y0367878D02*
X0115232Y0367878D01*
X0115232Y0368586D02*
X0113106Y0368586D01*
X0113106Y0369294D02*
X0115232Y0369294D01*
X0115232Y0363587D02*
X0113106Y0363587D01*
X0115232Y0363587D02*
X0115232Y0361265D01*
X0113106Y0361265D01*
X0113106Y0363587D01*
X0113106Y0361973D02*
X0115232Y0361973D01*
X0115232Y0362681D02*
X0113106Y0362681D01*
X0113106Y0363389D02*
X0115232Y0363389D01*
X0109232Y0363587D02*
X0107106Y0363587D01*
X0109232Y0363587D02*
X0109232Y0361265D01*
X0107106Y0361265D01*
X0107106Y0363587D01*
X0107106Y0361973D02*
X0109232Y0361973D01*
X0109232Y0362681D02*
X0107106Y0362681D01*
X0107106Y0363389D02*
X0109232Y0363389D01*
X0109232Y0369492D02*
X0107106Y0369492D01*
X0109232Y0369492D02*
X0109232Y0367170D01*
X0107106Y0367170D01*
X0107106Y0369492D01*
X0107106Y0367878D02*
X0109232Y0367878D01*
X0109232Y0368586D02*
X0107106Y0368586D01*
X0107106Y0369294D02*
X0109232Y0369294D01*
X0247382Y0163618D02*
X0249508Y0163618D01*
X0249508Y0161296D01*
X0247382Y0161296D01*
X0247382Y0163618D01*
X0247382Y0162004D02*
X0249508Y0162004D01*
X0249508Y0162712D02*
X0247382Y0162712D01*
X0247382Y0163420D02*
X0249508Y0163420D01*
X0253382Y0163618D02*
X0255508Y0163618D01*
X0255508Y0161296D01*
X0253382Y0161296D01*
X0253382Y0163618D01*
X0253382Y0162004D02*
X0255508Y0162004D01*
X0255508Y0162712D02*
X0253382Y0162712D01*
X0253382Y0163420D02*
X0255508Y0163420D01*
X0259382Y0163618D02*
X0261508Y0163618D01*
X0261508Y0161296D01*
X0259382Y0161296D01*
X0259382Y0163618D01*
X0259382Y0162004D02*
X0261508Y0162004D01*
X0261508Y0162712D02*
X0259382Y0162712D01*
X0259382Y0163420D02*
X0261508Y0163420D01*
X0265382Y0163618D02*
X0267508Y0163618D01*
X0267508Y0161296D01*
X0265382Y0161296D01*
X0265382Y0163618D01*
X0265382Y0162004D02*
X0267508Y0162004D01*
X0267508Y0162712D02*
X0265382Y0162712D01*
X0265382Y0163420D02*
X0267508Y0163420D01*
X0267508Y0157618D02*
X0265382Y0157618D01*
X0267508Y0157618D02*
X0267508Y0155296D01*
X0265382Y0155296D01*
X0265382Y0157618D01*
X0265382Y0156004D02*
X0267508Y0156004D01*
X0267508Y0156712D02*
X0265382Y0156712D01*
X0265382Y0157420D02*
X0267508Y0157420D01*
X0261508Y0157618D02*
X0259382Y0157618D01*
X0261508Y0157618D02*
X0261508Y0155296D01*
X0259382Y0155296D01*
X0259382Y0157618D01*
X0259382Y0156004D02*
X0261508Y0156004D01*
X0261508Y0156712D02*
X0259382Y0156712D01*
X0259382Y0157420D02*
X0261508Y0157420D01*
X0255508Y0155296D02*
X0253382Y0155296D01*
X0253382Y0157618D01*
X0255508Y0157618D01*
X0255508Y0155296D01*
X0255508Y0156004D02*
X0253382Y0156004D01*
X0253382Y0156712D02*
X0255508Y0156712D01*
X0255508Y0157420D02*
X0253382Y0157420D01*
X0249508Y0155296D02*
X0247382Y0155296D01*
X0247382Y0157618D01*
X0249508Y0157618D01*
X0249508Y0155296D01*
X0249508Y0156004D02*
X0247382Y0156004D01*
X0247382Y0156712D02*
X0249508Y0156712D01*
X0249508Y0157420D02*
X0247382Y0157420D01*
X0314606Y0214394D02*
X0314606Y0216520D01*
X0314606Y0214394D02*
X0312284Y0214394D01*
X0312284Y0216520D01*
X0314606Y0216520D01*
X0314606Y0215102D02*
X0312284Y0215102D01*
X0312284Y0215810D02*
X0314606Y0215810D01*
X0314606Y0216518D02*
X0312284Y0216518D01*
X0314606Y0220394D02*
X0314606Y0222520D01*
X0314606Y0220394D02*
X0312284Y0220394D01*
X0312284Y0222520D01*
X0314606Y0222520D01*
X0314606Y0221102D02*
X0312284Y0221102D01*
X0312284Y0221810D02*
X0314606Y0221810D01*
X0314606Y0222518D02*
X0312284Y0222518D01*
X0320606Y0222520D02*
X0320606Y0220394D01*
X0318284Y0220394D01*
X0318284Y0222520D01*
X0320606Y0222520D01*
X0320606Y0221102D02*
X0318284Y0221102D01*
X0318284Y0221810D02*
X0320606Y0221810D01*
X0320606Y0222518D02*
X0318284Y0222518D01*
X0320606Y0216520D02*
X0320606Y0214394D01*
X0318284Y0214394D01*
X0318284Y0216520D01*
X0320606Y0216520D01*
X0320606Y0215102D02*
X0318284Y0215102D01*
X0318284Y0215810D02*
X0320606Y0215810D01*
X0320606Y0216518D02*
X0318284Y0216518D01*
X0339583Y0222237D02*
X0339583Y0224363D01*
X0341905Y0224363D01*
X0341905Y0222237D01*
X0339583Y0222237D01*
X0339583Y0222945D02*
X0341905Y0222945D01*
X0341905Y0223653D02*
X0339583Y0223653D01*
X0339583Y0224361D02*
X0341905Y0224361D01*
X0339583Y0228237D02*
X0339583Y0230363D01*
X0341905Y0230363D01*
X0341905Y0228237D01*
X0339583Y0228237D01*
X0339583Y0228945D02*
X0341905Y0228945D01*
X0341905Y0229653D02*
X0339583Y0229653D01*
X0339583Y0230361D02*
X0341905Y0230361D01*
X0385905Y0230363D02*
X0385905Y0228237D01*
X0383583Y0228237D01*
X0383583Y0230363D01*
X0385905Y0230363D01*
X0385905Y0228945D02*
X0383583Y0228945D01*
X0383583Y0229653D02*
X0385905Y0229653D01*
X0385905Y0230361D02*
X0383583Y0230361D01*
X0385905Y0224363D02*
X0385905Y0222237D01*
X0383583Y0222237D01*
X0383583Y0224363D01*
X0385905Y0224363D01*
X0385905Y0222945D02*
X0383583Y0222945D01*
X0383583Y0223653D02*
X0385905Y0223653D01*
X0385905Y0224361D02*
X0383583Y0224361D01*
X0387307Y0243107D02*
X0389433Y0243107D01*
X0389433Y0240785D01*
X0387307Y0240785D01*
X0387307Y0243107D01*
X0387307Y0241493D02*
X0389433Y0241493D01*
X0389433Y0242201D02*
X0387307Y0242201D01*
X0387307Y0242909D02*
X0389433Y0242909D01*
X0393307Y0243107D02*
X0395433Y0243107D01*
X0395433Y0240785D01*
X0393307Y0240785D01*
X0393307Y0243107D01*
X0393307Y0241493D02*
X0395433Y0241493D01*
X0395433Y0242201D02*
X0393307Y0242201D01*
X0393307Y0242909D02*
X0395433Y0242909D01*
X0395433Y0251107D02*
X0393307Y0251107D01*
X0395433Y0251107D02*
X0395433Y0248785D01*
X0393307Y0248785D01*
X0393307Y0251107D01*
X0393307Y0249493D02*
X0395433Y0249493D01*
X0395433Y0250201D02*
X0393307Y0250201D01*
X0393307Y0250909D02*
X0395433Y0250909D01*
X0389433Y0251107D02*
X0387307Y0251107D01*
X0389433Y0251107D02*
X0389433Y0248785D01*
X0387307Y0248785D01*
X0387307Y0251107D01*
X0387307Y0249493D02*
X0389433Y0249493D01*
X0389433Y0250201D02*
X0387307Y0250201D01*
X0387307Y0250909D02*
X0389433Y0250909D01*
D15*
X0392894Y0177200D03*
X0408594Y0177200D03*
X0408594Y0139400D03*
X0392894Y0139400D03*
D16*
X0335106Y0192816D02*
X0333926Y0192816D01*
X0333926Y0194784D01*
X0335106Y0194784D01*
X0335106Y0192816D01*
X0335106Y0193209D02*
X0333926Y0193209D01*
X0333926Y0193602D02*
X0335106Y0193602D01*
X0335106Y0193995D02*
X0333926Y0193995D01*
X0333926Y0194388D02*
X0335106Y0194388D01*
X0335106Y0194781D02*
X0333926Y0194781D01*
X0331562Y0192816D02*
X0330382Y0192816D01*
X0330382Y0194784D01*
X0331562Y0194784D01*
X0331562Y0192816D01*
X0331562Y0193209D02*
X0330382Y0193209D01*
X0330382Y0193602D02*
X0331562Y0193602D01*
X0331562Y0193995D02*
X0330382Y0193995D01*
X0330382Y0194388D02*
X0331562Y0194388D01*
X0331562Y0194781D02*
X0330382Y0194781D01*
X0330382Y0197066D02*
X0331562Y0197066D01*
X0330382Y0197066D02*
X0330382Y0199034D01*
X0331562Y0199034D01*
X0331562Y0197066D01*
X0331562Y0197459D02*
X0330382Y0197459D01*
X0330382Y0197852D02*
X0331562Y0197852D01*
X0331562Y0198245D02*
X0330382Y0198245D01*
X0330382Y0198638D02*
X0331562Y0198638D01*
X0331562Y0199031D02*
X0330382Y0199031D01*
X0330382Y0201316D02*
X0331562Y0201316D01*
X0330382Y0201316D02*
X0330382Y0203284D01*
X0331562Y0203284D01*
X0331562Y0201316D01*
X0331562Y0201709D02*
X0330382Y0201709D01*
X0330382Y0202102D02*
X0331562Y0202102D01*
X0331562Y0202495D02*
X0330382Y0202495D01*
X0330382Y0202888D02*
X0331562Y0202888D01*
X0331562Y0203281D02*
X0330382Y0203281D01*
X0330382Y0205566D02*
X0331562Y0205566D01*
X0330382Y0205566D02*
X0330382Y0207534D01*
X0331562Y0207534D01*
X0331562Y0205566D01*
X0331562Y0205959D02*
X0330382Y0205959D01*
X0330382Y0206352D02*
X0331562Y0206352D01*
X0331562Y0206745D02*
X0330382Y0206745D01*
X0330382Y0207138D02*
X0331562Y0207138D01*
X0331562Y0207531D02*
X0330382Y0207531D01*
X0330382Y0209816D02*
X0331562Y0209816D01*
X0330382Y0209816D02*
X0330382Y0211784D01*
X0331562Y0211784D01*
X0331562Y0209816D01*
X0331562Y0210209D02*
X0330382Y0210209D01*
X0330382Y0210602D02*
X0331562Y0210602D01*
X0331562Y0210995D02*
X0330382Y0210995D01*
X0330382Y0211388D02*
X0331562Y0211388D01*
X0331562Y0211781D02*
X0330382Y0211781D01*
X0333926Y0209816D02*
X0335106Y0209816D01*
X0333926Y0209816D02*
X0333926Y0211784D01*
X0335106Y0211784D01*
X0335106Y0209816D01*
X0335106Y0210209D02*
X0333926Y0210209D01*
X0333926Y0210602D02*
X0335106Y0210602D01*
X0335106Y0210995D02*
X0333926Y0210995D01*
X0333926Y0211388D02*
X0335106Y0211388D01*
X0335106Y0211781D02*
X0333926Y0211781D01*
X0333926Y0205566D02*
X0335106Y0205566D01*
X0333926Y0205566D02*
X0333926Y0207534D01*
X0335106Y0207534D01*
X0335106Y0205566D01*
X0335106Y0205959D02*
X0333926Y0205959D01*
X0333926Y0206352D02*
X0335106Y0206352D01*
X0335106Y0206745D02*
X0333926Y0206745D01*
X0333926Y0207138D02*
X0335106Y0207138D01*
X0335106Y0207531D02*
X0333926Y0207531D01*
X0333926Y0201316D02*
X0335106Y0201316D01*
X0333926Y0201316D02*
X0333926Y0203284D01*
X0335106Y0203284D01*
X0335106Y0201316D01*
X0335106Y0201709D02*
X0333926Y0201709D01*
X0333926Y0202102D02*
X0335106Y0202102D01*
X0335106Y0202495D02*
X0333926Y0202495D01*
X0333926Y0202888D02*
X0335106Y0202888D01*
X0335106Y0203281D02*
X0333926Y0203281D01*
X0333926Y0197066D02*
X0335106Y0197066D01*
X0333926Y0197066D02*
X0333926Y0199034D01*
X0335106Y0199034D01*
X0335106Y0197066D01*
X0335106Y0197459D02*
X0333926Y0197459D01*
X0333926Y0197852D02*
X0335106Y0197852D01*
X0335106Y0198245D02*
X0333926Y0198245D01*
X0333926Y0198638D02*
X0335106Y0198638D01*
X0335106Y0199031D02*
X0333926Y0199031D01*
X0236760Y0156662D02*
X0236760Y0155482D01*
X0236760Y0156662D02*
X0238728Y0156662D01*
X0238728Y0155482D01*
X0236760Y0155482D01*
X0236760Y0155875D02*
X0238728Y0155875D01*
X0238728Y0156268D02*
X0236760Y0156268D01*
X0236760Y0156661D02*
X0238728Y0156661D01*
X0236760Y0153118D02*
X0236760Y0151938D01*
X0236760Y0153118D02*
X0238728Y0153118D01*
X0238728Y0151938D01*
X0236760Y0151938D01*
X0236760Y0152331D02*
X0238728Y0152331D01*
X0238728Y0152724D02*
X0236760Y0152724D01*
X0236760Y0153117D02*
X0238728Y0153117D01*
X0230760Y0153118D02*
X0230760Y0151938D01*
X0230760Y0153118D02*
X0232728Y0153118D01*
X0232728Y0151938D01*
X0230760Y0151938D01*
X0230760Y0152331D02*
X0232728Y0152331D01*
X0232728Y0152724D02*
X0230760Y0152724D01*
X0230760Y0153117D02*
X0232728Y0153117D01*
X0230760Y0155482D02*
X0230760Y0156662D01*
X0232728Y0156662D01*
X0232728Y0155482D01*
X0230760Y0155482D01*
X0230760Y0155875D02*
X0232728Y0155875D01*
X0232728Y0156268D02*
X0230760Y0156268D01*
X0230760Y0156661D02*
X0232728Y0156661D01*
X0197106Y0328284D02*
X0195926Y0328284D01*
X0197106Y0328284D02*
X0197106Y0326316D01*
X0195926Y0326316D01*
X0195926Y0328284D01*
X0195926Y0326709D02*
X0197106Y0326709D01*
X0197106Y0327102D02*
X0195926Y0327102D01*
X0195926Y0327495D02*
X0197106Y0327495D01*
X0197106Y0327888D02*
X0195926Y0327888D01*
X0195926Y0328281D02*
X0197106Y0328281D01*
X0193562Y0328284D02*
X0192382Y0328284D01*
X0193562Y0328284D02*
X0193562Y0326316D01*
X0192382Y0326316D01*
X0192382Y0328284D01*
X0192382Y0326709D02*
X0193562Y0326709D01*
X0193562Y0327102D02*
X0192382Y0327102D01*
X0192382Y0327495D02*
X0193562Y0327495D01*
X0193562Y0327888D02*
X0192382Y0327888D01*
X0192382Y0328281D02*
X0193562Y0328281D01*
D17*
X0254673Y0286812D03*
X0258217Y0286812D03*
D18*
X0256445Y0308662D03*
D19*
X0093524Y0188772D02*
X0093524Y0186528D01*
X0093524Y0188772D02*
X0095964Y0188772D01*
X0095964Y0186528D01*
X0093524Y0186528D01*
X0093524Y0187275D02*
X0095964Y0187275D01*
X0095964Y0188022D02*
X0093524Y0188022D01*
X0093524Y0188769D02*
X0095964Y0188769D01*
X0093524Y0192828D02*
X0093524Y0195072D01*
X0095964Y0195072D01*
X0095964Y0192828D01*
X0093524Y0192828D01*
X0093524Y0193575D02*
X0095964Y0193575D01*
X0095964Y0194322D02*
X0093524Y0194322D01*
X0093524Y0195069D02*
X0095964Y0195069D01*
X0070524Y0220028D02*
X0070524Y0222272D01*
X0072964Y0222272D01*
X0072964Y0220028D01*
X0070524Y0220028D01*
X0070524Y0220775D02*
X0072964Y0220775D01*
X0072964Y0221522D02*
X0070524Y0221522D01*
X0070524Y0222269D02*
X0072964Y0222269D01*
X0070524Y0226328D02*
X0070524Y0228572D01*
X0072964Y0228572D01*
X0072964Y0226328D01*
X0070524Y0226328D01*
X0070524Y0227075D02*
X0072964Y0227075D01*
X0072964Y0227822D02*
X0070524Y0227822D01*
X0070524Y0228569D02*
X0072964Y0228569D01*
X0072964Y0232028D02*
X0072964Y0234272D01*
X0072964Y0232028D02*
X0070524Y0232028D01*
X0070524Y0234272D01*
X0072964Y0234272D01*
X0072964Y0232775D02*
X0070524Y0232775D01*
X0070524Y0233522D02*
X0072964Y0233522D01*
X0072964Y0234269D02*
X0070524Y0234269D01*
X0064524Y0234572D02*
X0064524Y0232328D01*
X0064524Y0234572D02*
X0066964Y0234572D01*
X0066964Y0232328D01*
X0064524Y0232328D01*
X0064524Y0233075D02*
X0066964Y0233075D01*
X0066964Y0233822D02*
X0064524Y0233822D01*
X0064524Y0234569D02*
X0066964Y0234569D01*
X0072964Y0238328D02*
X0072964Y0240572D01*
X0072964Y0238328D02*
X0070524Y0238328D01*
X0070524Y0240572D01*
X0072964Y0240572D01*
X0072964Y0239075D02*
X0070524Y0239075D01*
X0070524Y0239822D02*
X0072964Y0239822D01*
X0072964Y0240569D02*
X0070524Y0240569D01*
X0064524Y0228272D02*
X0064524Y0226028D01*
X0064524Y0228272D02*
X0066964Y0228272D01*
X0066964Y0226028D01*
X0064524Y0226028D01*
X0064524Y0226775D02*
X0066964Y0226775D01*
X0066964Y0227522D02*
X0064524Y0227522D01*
X0064524Y0228269D02*
X0066964Y0228269D01*
X0154472Y0230080D02*
X0156716Y0230080D01*
X0154472Y0230080D02*
X0154472Y0232520D01*
X0156716Y0232520D01*
X0156716Y0230080D01*
X0156716Y0230827D02*
X0154472Y0230827D01*
X0154472Y0231574D02*
X0156716Y0231574D01*
X0156716Y0232321D02*
X0154472Y0232321D01*
X0156964Y0226572D02*
X0156964Y0224328D01*
X0154524Y0224328D01*
X0154524Y0226572D01*
X0156964Y0226572D01*
X0156964Y0225075D02*
X0154524Y0225075D01*
X0154524Y0225822D02*
X0156964Y0225822D01*
X0156964Y0226569D02*
X0154524Y0226569D01*
X0160472Y0224080D02*
X0162716Y0224080D01*
X0160472Y0224080D02*
X0160472Y0226520D01*
X0162716Y0226520D01*
X0162716Y0224080D01*
X0162716Y0224827D02*
X0160472Y0224827D01*
X0160472Y0225574D02*
X0162716Y0225574D01*
X0162716Y0226321D02*
X0160472Y0226321D01*
X0160772Y0230080D02*
X0163016Y0230080D01*
X0160772Y0230080D02*
X0160772Y0232520D01*
X0163016Y0232520D01*
X0163016Y0230080D01*
X0163016Y0230827D02*
X0160772Y0230827D01*
X0160772Y0231574D02*
X0163016Y0231574D01*
X0163016Y0232321D02*
X0160772Y0232321D01*
X0166772Y0224080D02*
X0169016Y0224080D01*
X0166772Y0224080D02*
X0166772Y0226520D01*
X0169016Y0226520D01*
X0169016Y0224080D01*
X0169016Y0224827D02*
X0166772Y0224827D01*
X0166772Y0225574D02*
X0169016Y0225574D01*
X0169016Y0226321D02*
X0166772Y0226321D01*
X0166772Y0218080D02*
X0169016Y0218080D01*
X0166772Y0218080D02*
X0166772Y0220520D01*
X0169016Y0220520D01*
X0169016Y0218080D01*
X0169016Y0218827D02*
X0166772Y0218827D01*
X0166772Y0219574D02*
X0169016Y0219574D01*
X0169016Y0220321D02*
X0166772Y0220321D01*
X0162716Y0218080D02*
X0160472Y0218080D01*
X0160472Y0220520D01*
X0162716Y0220520D01*
X0162716Y0218080D01*
X0162716Y0218827D02*
X0160472Y0218827D01*
X0160472Y0219574D02*
X0162716Y0219574D01*
X0162716Y0220321D02*
X0160472Y0220321D01*
X0156964Y0220272D02*
X0156964Y0218028D01*
X0154524Y0218028D01*
X0154524Y0220272D01*
X0156964Y0220272D01*
X0156964Y0218775D02*
X0154524Y0218775D01*
X0154524Y0219522D02*
X0156964Y0219522D01*
X0156964Y0220269D02*
X0154524Y0220269D01*
X0154472Y0212080D02*
X0156716Y0212080D01*
X0154472Y0212080D02*
X0154472Y0214520D01*
X0156716Y0214520D01*
X0156716Y0212080D01*
X0156716Y0212827D02*
X0154472Y0212827D01*
X0154472Y0213574D02*
X0156716Y0213574D01*
X0156716Y0214321D02*
X0154472Y0214321D01*
X0160772Y0212080D02*
X0163016Y0212080D01*
X0160772Y0212080D02*
X0160772Y0214520D01*
X0163016Y0214520D01*
X0163016Y0212080D01*
X0163016Y0212827D02*
X0160772Y0212827D01*
X0160772Y0213574D02*
X0163016Y0213574D01*
X0163016Y0214321D02*
X0160772Y0214321D01*
X0269071Y0333079D02*
X0271315Y0333079D01*
X0271315Y0330639D01*
X0269071Y0330639D01*
X0269071Y0333079D01*
X0269071Y0331386D02*
X0271315Y0331386D01*
X0271315Y0332133D02*
X0269071Y0332133D01*
X0269071Y0332880D02*
X0271315Y0332880D01*
X0271315Y0338985D02*
X0269071Y0338985D01*
X0271315Y0338985D02*
X0271315Y0336545D01*
X0269071Y0336545D01*
X0269071Y0338985D01*
X0269071Y0337292D02*
X0271315Y0337292D01*
X0271315Y0338039D02*
X0269071Y0338039D01*
X0269071Y0338786D02*
X0271315Y0338786D01*
X0271315Y0344890D02*
X0269071Y0344890D01*
X0271315Y0344890D02*
X0271315Y0342450D01*
X0269071Y0342450D01*
X0269071Y0344890D01*
X0269071Y0343197D02*
X0271315Y0343197D01*
X0271315Y0343944D02*
X0269071Y0343944D01*
X0269071Y0344691D02*
X0271315Y0344691D01*
X0271315Y0350796D02*
X0269071Y0350796D01*
X0271315Y0350796D02*
X0271315Y0348356D01*
X0269071Y0348356D01*
X0269071Y0350796D01*
X0269071Y0349103D02*
X0271315Y0349103D01*
X0271315Y0349850D02*
X0269071Y0349850D01*
X0269071Y0350597D02*
X0271315Y0350597D01*
X0275370Y0350796D02*
X0277614Y0350796D01*
X0277614Y0348356D01*
X0275370Y0348356D01*
X0275370Y0350796D01*
X0275370Y0349103D02*
X0277614Y0349103D01*
X0277614Y0349850D02*
X0275370Y0349850D01*
X0275370Y0350597D02*
X0277614Y0350597D01*
X0277614Y0344890D02*
X0275370Y0344890D01*
X0277614Y0344890D02*
X0277614Y0342450D01*
X0275370Y0342450D01*
X0275370Y0344890D01*
X0275370Y0343197D02*
X0277614Y0343197D01*
X0277614Y0343944D02*
X0275370Y0343944D01*
X0275370Y0344691D02*
X0277614Y0344691D01*
X0277614Y0338985D02*
X0275370Y0338985D01*
X0277614Y0338985D02*
X0277614Y0336545D01*
X0275370Y0336545D01*
X0275370Y0338985D01*
X0275370Y0337292D02*
X0277614Y0337292D01*
X0277614Y0338039D02*
X0275370Y0338039D01*
X0275370Y0338786D02*
X0277614Y0338786D01*
X0277614Y0333079D02*
X0275370Y0333079D01*
X0277614Y0333079D02*
X0277614Y0330639D01*
X0275370Y0330639D01*
X0275370Y0333079D01*
X0275370Y0331386D02*
X0277614Y0331386D01*
X0277614Y0332133D02*
X0275370Y0332133D01*
X0275370Y0332880D02*
X0277614Y0332880D01*
X0348524Y0303822D02*
X0348524Y0301578D01*
X0348524Y0303822D02*
X0350964Y0303822D01*
X0350964Y0301578D01*
X0348524Y0301578D01*
X0348524Y0302325D02*
X0350964Y0302325D01*
X0350964Y0303072D02*
X0348524Y0303072D01*
X0348524Y0303819D02*
X0350964Y0303819D01*
X0348524Y0297522D02*
X0348524Y0295278D01*
X0348524Y0297522D02*
X0350964Y0297522D01*
X0350964Y0295278D01*
X0348524Y0295278D01*
X0348524Y0296025D02*
X0350964Y0296025D01*
X0350964Y0296772D02*
X0348524Y0296772D01*
X0348524Y0297519D02*
X0350964Y0297519D01*
X0353524Y0330028D02*
X0353524Y0332272D01*
X0355964Y0332272D01*
X0355964Y0330028D01*
X0353524Y0330028D01*
X0353524Y0330775D02*
X0355964Y0330775D01*
X0355964Y0331522D02*
X0353524Y0331522D01*
X0353524Y0332269D02*
X0355964Y0332269D01*
X0361964Y0336028D02*
X0361964Y0338272D01*
X0361964Y0336028D02*
X0359524Y0336028D01*
X0359524Y0338272D01*
X0361964Y0338272D01*
X0361964Y0336775D02*
X0359524Y0336775D01*
X0359524Y0337522D02*
X0361964Y0337522D01*
X0361964Y0338269D02*
X0359524Y0338269D01*
X0353524Y0338572D02*
X0353524Y0336328D01*
X0353524Y0338572D02*
X0355964Y0338572D01*
X0355964Y0336328D01*
X0353524Y0336328D01*
X0353524Y0337075D02*
X0355964Y0337075D01*
X0355964Y0337822D02*
X0353524Y0337822D01*
X0353524Y0338569D02*
X0355964Y0338569D01*
X0355964Y0342028D02*
X0355964Y0344272D01*
X0355964Y0342028D02*
X0353524Y0342028D01*
X0353524Y0344272D01*
X0355964Y0344272D01*
X0355964Y0342775D02*
X0353524Y0342775D01*
X0353524Y0343522D02*
X0355964Y0343522D01*
X0355964Y0344269D02*
X0353524Y0344269D01*
X0355964Y0348328D02*
X0355964Y0350572D01*
X0355964Y0348328D02*
X0353524Y0348328D01*
X0353524Y0350572D01*
X0355964Y0350572D01*
X0355964Y0349075D02*
X0353524Y0349075D01*
X0353524Y0349822D02*
X0355964Y0349822D01*
X0355964Y0350569D02*
X0353524Y0350569D01*
X0361964Y0344572D02*
X0361964Y0342328D01*
X0359524Y0342328D01*
X0359524Y0344572D01*
X0361964Y0344572D01*
X0361964Y0343075D02*
X0359524Y0343075D01*
X0359524Y0343822D02*
X0361964Y0343822D01*
X0361964Y0344569D02*
X0359524Y0344569D01*
X0366222Y0357080D02*
X0368466Y0357080D01*
X0366222Y0357080D02*
X0366222Y0359520D01*
X0368466Y0359520D01*
X0368466Y0357080D01*
X0368466Y0357827D02*
X0366222Y0357827D01*
X0366222Y0358574D02*
X0368466Y0358574D01*
X0368466Y0359321D02*
X0366222Y0359321D01*
X0372522Y0357080D02*
X0374766Y0357080D01*
X0372522Y0357080D02*
X0372522Y0359520D01*
X0374766Y0359520D01*
X0374766Y0357080D01*
X0374766Y0357827D02*
X0372522Y0357827D01*
X0372522Y0358574D02*
X0374766Y0358574D01*
X0374766Y0359321D02*
X0372522Y0359321D01*
X0372472Y0366020D02*
X0374716Y0366020D01*
X0374716Y0363580D01*
X0372472Y0363580D01*
X0372472Y0366020D01*
X0372472Y0364327D02*
X0374716Y0364327D01*
X0374716Y0365074D02*
X0372472Y0365074D01*
X0372472Y0365821D02*
X0374716Y0365821D01*
X0378772Y0366020D02*
X0381016Y0366020D01*
X0381016Y0363580D01*
X0378772Y0363580D01*
X0378772Y0366020D01*
X0378772Y0364327D02*
X0381016Y0364327D01*
X0381016Y0365074D02*
X0378772Y0365074D01*
X0378772Y0365821D02*
X0381016Y0365821D01*
D20*
X0116130Y0319473D02*
X0112114Y0319473D01*
X0112114Y0326639D01*
X0116130Y0326639D01*
X0116130Y0319473D01*
X0116130Y0320811D02*
X0112114Y0320811D01*
X0112114Y0322149D02*
X0116130Y0322149D01*
X0116130Y0323487D02*
X0112114Y0323487D01*
X0112114Y0324825D02*
X0116130Y0324825D01*
X0116130Y0326163D02*
X0112114Y0326163D01*
X0098414Y0319473D02*
X0094398Y0319473D01*
X0094398Y0326639D01*
X0098414Y0326639D01*
X0098414Y0319473D01*
X0098414Y0320811D02*
X0094398Y0320811D01*
X0094398Y0322149D02*
X0098414Y0322149D01*
X0098414Y0323487D02*
X0094398Y0323487D01*
X0094398Y0324825D02*
X0098414Y0324825D01*
X0098414Y0326163D02*
X0094398Y0326163D01*
D21*
X0132520Y0334481D02*
X0132520Y0338025D01*
X0132520Y0334481D02*
X0125432Y0334481D01*
X0125432Y0338025D01*
X0132520Y0338025D01*
X0132520Y0335661D02*
X0125432Y0335661D01*
X0125432Y0336841D02*
X0132520Y0336841D01*
X0132520Y0338021D02*
X0125432Y0338021D01*
X0132205Y0349048D02*
X0132205Y0352592D01*
X0132205Y0349048D02*
X0125747Y0349048D01*
X0125747Y0352592D01*
X0132205Y0352592D01*
X0132205Y0350228D02*
X0125747Y0350228D01*
X0125747Y0351408D02*
X0132205Y0351408D01*
X0132205Y0352588D02*
X0125747Y0352588D01*
X0198964Y0374237D02*
X0202508Y0374237D01*
X0202508Y0362425D01*
X0198964Y0362425D01*
X0198964Y0374237D01*
X0198964Y0363605D02*
X0202508Y0363605D01*
X0202508Y0364785D02*
X0198964Y0364785D01*
X0198964Y0365965D02*
X0202508Y0365965D01*
X0202508Y0367145D02*
X0198964Y0367145D01*
X0198964Y0368325D02*
X0202508Y0368325D01*
X0202508Y0369505D02*
X0198964Y0369505D01*
X0198964Y0370685D02*
X0202508Y0370685D01*
X0202508Y0371865D02*
X0198964Y0371865D01*
X0198964Y0373045D02*
X0202508Y0373045D01*
X0202508Y0374225D02*
X0198964Y0374225D01*
X0216681Y0374237D02*
X0220225Y0374237D01*
X0220225Y0362425D01*
X0216681Y0362425D01*
X0216681Y0374237D01*
X0216681Y0363605D02*
X0220225Y0363605D01*
X0220225Y0364785D02*
X0216681Y0364785D01*
X0216681Y0365965D02*
X0220225Y0365965D01*
X0220225Y0367145D02*
X0216681Y0367145D01*
X0216681Y0368325D02*
X0220225Y0368325D01*
X0220225Y0369505D02*
X0216681Y0369505D01*
X0216681Y0370685D02*
X0220225Y0370685D01*
X0220225Y0371865D02*
X0216681Y0371865D01*
X0216681Y0373045D02*
X0220225Y0373045D01*
X0220225Y0374225D02*
X0216681Y0374225D01*
X0221830Y0357702D02*
X0221830Y0354158D01*
X0221830Y0357702D02*
X0228918Y0357702D01*
X0228918Y0354158D01*
X0221830Y0354158D01*
X0221830Y0355338D02*
X0228918Y0355338D01*
X0228918Y0356518D02*
X0221830Y0356518D01*
X0221830Y0357698D02*
X0228918Y0357698D01*
X0222145Y0343135D02*
X0222145Y0339591D01*
X0222145Y0343135D02*
X0228603Y0343135D01*
X0228603Y0339591D01*
X0222145Y0339591D01*
X0222145Y0340771D02*
X0228603Y0340771D01*
X0228603Y0341951D02*
X0222145Y0341951D01*
X0222145Y0343131D02*
X0228603Y0343131D01*
D22*
X0208665Y0343666D02*
X0208665Y0346146D01*
X0212523Y0346146D01*
X0212523Y0343666D01*
X0208665Y0343666D01*
X0208665Y0344492D02*
X0212523Y0344492D01*
X0212523Y0345318D02*
X0208665Y0345318D01*
X0208665Y0346144D02*
X0212523Y0346144D01*
X0208665Y0351147D02*
X0208665Y0353627D01*
X0212523Y0353627D01*
X0212523Y0351147D01*
X0208665Y0351147D01*
X0208665Y0351973D02*
X0212523Y0351973D01*
X0212523Y0352799D02*
X0208665Y0352799D01*
X0208665Y0353625D02*
X0212523Y0353625D01*
X0195854Y0398973D02*
X0195854Y0401453D01*
X0199712Y0401453D01*
X0199712Y0398973D01*
X0195854Y0398973D01*
X0195854Y0399799D02*
X0199712Y0399799D01*
X0199712Y0400625D02*
X0195854Y0400625D01*
X0195854Y0401451D02*
X0199712Y0401451D01*
X0195854Y0406454D02*
X0195854Y0408934D01*
X0199712Y0408934D01*
X0199712Y0406454D01*
X0195854Y0406454D01*
X0195854Y0407280D02*
X0199712Y0407280D01*
X0199712Y0408106D02*
X0195854Y0408106D01*
X0195854Y0408932D02*
X0199712Y0408932D01*
X0208551Y0409194D02*
X0211031Y0409194D01*
X0211031Y0405336D01*
X0208551Y0405336D01*
X0208551Y0409194D01*
X0208551Y0406162D02*
X0211031Y0406162D01*
X0211031Y0406988D02*
X0208551Y0406988D01*
X0208551Y0407814D02*
X0211031Y0407814D01*
X0211031Y0408640D02*
X0208551Y0408640D01*
X0216032Y0409194D02*
X0218512Y0409194D01*
X0218512Y0405336D01*
X0216032Y0405336D01*
X0216032Y0409194D01*
X0216032Y0406162D02*
X0218512Y0406162D01*
X0218512Y0406988D02*
X0216032Y0406988D01*
X0216032Y0407814D02*
X0218512Y0407814D01*
X0218512Y0408640D02*
X0216032Y0408640D01*
X0131709Y0403631D02*
X0129229Y0403631D01*
X0131709Y0403631D02*
X0131709Y0399773D01*
X0129229Y0399773D01*
X0129229Y0403631D01*
X0129229Y0400599D02*
X0131709Y0400599D01*
X0131709Y0401425D02*
X0129229Y0401425D01*
X0129229Y0402251D02*
X0131709Y0402251D01*
X0131709Y0403077D02*
X0129229Y0403077D01*
X0124228Y0403631D02*
X0121748Y0403631D01*
X0124228Y0403631D02*
X0124228Y0399773D01*
X0121748Y0399773D01*
X0121748Y0403631D01*
X0121748Y0400599D02*
X0124228Y0400599D01*
X0124228Y0401425D02*
X0121748Y0401425D01*
X0121748Y0402251D02*
X0124228Y0402251D01*
X0124228Y0403077D02*
X0121748Y0403077D01*
X0089815Y0352280D02*
X0089815Y0349800D01*
X0089815Y0352280D02*
X0093673Y0352280D01*
X0093673Y0349800D01*
X0089815Y0349800D01*
X0089815Y0350626D02*
X0093673Y0350626D01*
X0093673Y0351452D02*
X0089815Y0351452D01*
X0089815Y0352278D02*
X0093673Y0352278D01*
X0089815Y0344800D02*
X0089815Y0342320D01*
X0089815Y0344800D02*
X0093673Y0344800D01*
X0093673Y0342320D01*
X0089815Y0342320D01*
X0089815Y0343146D02*
X0093673Y0343146D01*
X0093673Y0343972D02*
X0089815Y0343972D01*
X0089815Y0344798D02*
X0093673Y0344798D01*
X0116000Y0344579D02*
X0116000Y0342099D01*
X0112142Y0342099D01*
X0112142Y0344579D01*
X0116000Y0344579D01*
X0116000Y0342925D02*
X0112142Y0342925D01*
X0112142Y0343751D02*
X0116000Y0343751D01*
X0116000Y0344577D02*
X0112142Y0344577D01*
X0116000Y0337099D02*
X0116000Y0334619D01*
X0112142Y0334619D01*
X0112142Y0337099D01*
X0116000Y0337099D01*
X0116000Y0335445D02*
X0112142Y0335445D01*
X0112142Y0336271D02*
X0116000Y0336271D01*
X0116000Y0337097D02*
X0112142Y0337097D01*
X0101724Y0300229D02*
X0099244Y0300229D01*
X0101724Y0300229D02*
X0101724Y0296371D01*
X0099244Y0296371D01*
X0099244Y0300229D01*
X0099244Y0297197D02*
X0101724Y0297197D01*
X0101724Y0298023D02*
X0099244Y0298023D01*
X0099244Y0298849D02*
X0101724Y0298849D01*
X0101724Y0299675D02*
X0099244Y0299675D01*
X0094244Y0300229D02*
X0091764Y0300229D01*
X0094244Y0300229D02*
X0094244Y0296371D01*
X0091764Y0296371D01*
X0091764Y0300229D01*
X0091764Y0297197D02*
X0094244Y0297197D01*
X0094244Y0298023D02*
X0091764Y0298023D01*
X0091764Y0298849D02*
X0094244Y0298849D01*
X0094244Y0299675D02*
X0091764Y0299675D01*
X0370764Y0292871D02*
X0373244Y0292871D01*
X0370764Y0292871D02*
X0370764Y0296729D01*
X0373244Y0296729D01*
X0373244Y0292871D01*
X0373244Y0293697D02*
X0370764Y0293697D01*
X0370764Y0294523D02*
X0373244Y0294523D01*
X0373244Y0295349D02*
X0370764Y0295349D01*
X0370764Y0296175D02*
X0373244Y0296175D01*
X0378244Y0292871D02*
X0380724Y0292871D01*
X0378244Y0292871D02*
X0378244Y0296729D01*
X0380724Y0296729D01*
X0380724Y0292871D01*
X0380724Y0293697D02*
X0378244Y0293697D01*
X0378244Y0294523D02*
X0380724Y0294523D01*
X0380724Y0295349D02*
X0378244Y0295349D01*
X0378244Y0296175D02*
X0380724Y0296175D01*
X0380724Y0272371D02*
X0378244Y0272371D01*
X0378244Y0276229D01*
X0380724Y0276229D01*
X0380724Y0272371D01*
X0380724Y0273197D02*
X0378244Y0273197D01*
X0378244Y0274023D02*
X0380724Y0274023D01*
X0380724Y0274849D02*
X0378244Y0274849D01*
X0378244Y0275675D02*
X0380724Y0275675D01*
X0373244Y0272371D02*
X0370764Y0272371D01*
X0370764Y0276229D01*
X0373244Y0276229D01*
X0373244Y0272371D01*
X0373244Y0273197D02*
X0370764Y0273197D01*
X0370764Y0274023D02*
X0373244Y0274023D01*
X0373244Y0274849D02*
X0370764Y0274849D01*
X0370764Y0275675D02*
X0373244Y0275675D01*
X0373244Y0263371D02*
X0370764Y0263371D01*
X0370764Y0267229D01*
X0373244Y0267229D01*
X0373244Y0263371D01*
X0373244Y0264197D02*
X0370764Y0264197D01*
X0370764Y0265023D02*
X0373244Y0265023D01*
X0373244Y0265849D02*
X0370764Y0265849D01*
X0370764Y0266675D02*
X0373244Y0266675D01*
X0378244Y0263371D02*
X0380724Y0263371D01*
X0378244Y0263371D02*
X0378244Y0267229D01*
X0380724Y0267229D01*
X0380724Y0263371D01*
X0380724Y0264197D02*
X0378244Y0264197D01*
X0378244Y0265023D02*
X0380724Y0265023D01*
X0380724Y0265849D02*
X0378244Y0265849D01*
X0378244Y0266675D02*
X0380724Y0266675D01*
X0383315Y0399820D02*
X0383315Y0402300D01*
X0387173Y0402300D01*
X0387173Y0399820D01*
X0383315Y0399820D01*
X0383315Y0400646D02*
X0387173Y0400646D01*
X0387173Y0401472D02*
X0383315Y0401472D01*
X0383315Y0402298D02*
X0387173Y0402298D01*
X0383315Y0407300D02*
X0383315Y0409780D01*
X0387173Y0409780D01*
X0387173Y0407300D01*
X0383315Y0407300D01*
X0383315Y0408126D02*
X0387173Y0408126D01*
X0387173Y0408952D02*
X0383315Y0408952D01*
X0383315Y0409778D02*
X0387173Y0409778D01*
D23*
X0130496Y0385410D03*
X0130496Y0365410D03*
D24*
X0170705Y0375410D03*
D25*
X0209791Y0397891D03*
X0217272Y0397891D03*
X0213531Y0390017D03*
D26*
X0296256Y0358556D03*
X0296256Y0353556D03*
X0296256Y0348556D03*
X0296256Y0343556D03*
X0296256Y0338556D03*
X0296256Y0333556D03*
X0296256Y0328556D03*
X0296256Y0323556D03*
X0333264Y0323556D03*
X0333264Y0328556D03*
X0333264Y0333556D03*
X0333264Y0338556D03*
X0333264Y0343556D03*
X0333264Y0348556D03*
X0333264Y0353556D03*
X0333264Y0358556D03*
X0133248Y0239800D03*
X0133248Y0234800D03*
X0133248Y0229800D03*
X0133248Y0224800D03*
X0133248Y0219800D03*
X0133248Y0214800D03*
X0133248Y0209800D03*
X0133248Y0204800D03*
X0096240Y0204800D03*
X0096240Y0209800D03*
X0096240Y0214800D03*
X0096240Y0219800D03*
X0096240Y0224800D03*
X0096240Y0229800D03*
X0096240Y0234800D03*
X0096240Y0239800D03*
D27*
X0076296Y0239399D02*
X0076296Y0242115D01*
X0080192Y0242115D01*
X0080192Y0239399D01*
X0076296Y0239399D01*
X0076296Y0240304D02*
X0080192Y0240304D01*
X0080192Y0241209D02*
X0076296Y0241209D01*
X0076296Y0242114D02*
X0080192Y0242114D01*
X0076296Y0246485D02*
X0076296Y0249201D01*
X0080192Y0249201D01*
X0080192Y0246485D01*
X0076296Y0246485D01*
X0076296Y0247390D02*
X0080192Y0247390D01*
X0080192Y0248295D02*
X0076296Y0248295D01*
X0076296Y0249200D02*
X0080192Y0249200D01*
X0153692Y0247201D02*
X0153692Y0244485D01*
X0149796Y0244485D01*
X0149796Y0247201D01*
X0153692Y0247201D01*
X0153692Y0245390D02*
X0149796Y0245390D01*
X0149796Y0246295D02*
X0153692Y0246295D01*
X0153692Y0247200D02*
X0149796Y0247200D01*
X0153692Y0240115D02*
X0153692Y0237399D01*
X0149796Y0237399D01*
X0149796Y0240115D01*
X0153692Y0240115D01*
X0153692Y0238304D02*
X0149796Y0238304D01*
X0149796Y0239209D02*
X0153692Y0239209D01*
X0153692Y0240114D02*
X0149796Y0240114D01*
X0222796Y0309399D02*
X0222796Y0312115D01*
X0226692Y0312115D01*
X0226692Y0309399D01*
X0222796Y0309399D01*
X0222796Y0310304D02*
X0226692Y0310304D01*
X0226692Y0311209D02*
X0222796Y0311209D01*
X0222796Y0312114D02*
X0226692Y0312114D01*
X0222796Y0316485D02*
X0222796Y0319201D01*
X0226692Y0319201D01*
X0226692Y0316485D01*
X0222796Y0316485D01*
X0222796Y0317390D02*
X0226692Y0317390D01*
X0226692Y0318295D02*
X0222796Y0318295D01*
X0222796Y0319200D02*
X0226692Y0319200D01*
X0273796Y0319115D02*
X0273796Y0316399D01*
X0273796Y0319115D02*
X0277692Y0319115D01*
X0277692Y0316399D01*
X0273796Y0316399D01*
X0273796Y0317304D02*
X0277692Y0317304D01*
X0277692Y0318209D02*
X0273796Y0318209D01*
X0273796Y0319114D02*
X0277692Y0319114D01*
X0273796Y0323485D02*
X0273796Y0326201D01*
X0277692Y0326201D01*
X0277692Y0323485D01*
X0273796Y0323485D01*
X0273796Y0324390D02*
X0277692Y0324390D01*
X0277692Y0325295D02*
X0273796Y0325295D01*
X0273796Y0326200D02*
X0277692Y0326200D01*
X0352692Y0325201D02*
X0352692Y0322485D01*
X0348796Y0322485D01*
X0348796Y0325201D01*
X0352692Y0325201D01*
X0352692Y0323390D02*
X0348796Y0323390D01*
X0348796Y0324295D02*
X0352692Y0324295D01*
X0352692Y0325200D02*
X0348796Y0325200D01*
X0352692Y0318115D02*
X0352692Y0315399D01*
X0348796Y0315399D01*
X0348796Y0318115D01*
X0352692Y0318115D01*
X0352692Y0316304D02*
X0348796Y0316304D01*
X0348796Y0317209D02*
X0352692Y0317209D01*
X0352692Y0318114D02*
X0348796Y0318114D01*
M02*
