###############################################################################
#
# IAR C/C++ Compiler V6.50.4.971/W32 for MSP430           09/Mar/2018  17:01:48
# Copyright 1996-2016 IAR Systems AB.
# Network license: ENGENT (STD)
#
#    __rt_version  =  3
#    __double_size =  32
#    __reg_r4      =  free
#    __reg_r5      =  free
#    __pic         =  no
#    __core        =  430X
#    __data_model  =  small
#    __code_model  =  large
#    Source file   =  
#        C:\Users\rgandhi\Desktop\BS_VRS\Current_SenseDemo_V0\Firmware\Driver\ANALOG\analog.c
#    Command line  =  
#        C:\Users\rgandhi\Desktop\BS_VRS\Current_SenseDemo_V0\Firmware\Driver\ANALOG\analog.c
#        -lC
#        C:\Users\rgandhi\Desktop\BS_VRS\Current_SenseDemo_V0\Firmware\Debug\List
#        -lA
#        C:\Users\rgandhi\Desktop\BS_VRS\Current_SenseDemo_V0\Firmware\Debug\List
#        -o
#        C:\Users\rgandhi\Desktop\BS_VRS\Current_SenseDemo_V0\Firmware\Debug\Obj
#        --no_cse --no_unroll --no_inline --no_code_motion --no_tbaa --debug
#        -D__MSP430F5438A__ -e --double=32 --dlib_config "C:\Program Files
#        (x86)\IAR Systems\Embedded Workbench 7.4\430\lib\dlib\dl430xlsfn.h" -I
#        C:\Users\rgandhi\Desktop\BS_VRS\Current_SenseDemo_V0\Firmware\ -I
#        C:\Users\rgandhi\Desktop\BS_VRS\Current_SenseDemo_V0\Firmware\Application\
#        -I
#        C:\Users\rgandhi\Desktop\BS_VRS\Current_SenseDemo_V0\Firmware\Driver\
#        -I
#        C:\Users\rgandhi\Desktop\BS_VRS\Current_SenseDemo_V0\Firmware\Protocol\
#        -I
#        C:\Users\rgandhi\Desktop\BS_VRS\Current_SenseDemo_V0\Firmware\Processor\MSP430F5438A\
#        -I
#        C:\Users\rgandhi\Desktop\BS_VRS\Current_SenseDemo_V0\Firmware\Processor\
#        -I
#        C:\Users\rgandhi\Desktop\BS_VRS\Current_SenseDemo_V0\Firmware\Driver\ANALOG\
#        -I
#        C:\Users\rgandhi\Desktop\BS_VRS\Current_SenseDemo_V0\Firmware\Driver\DIGITAL\
#        -I
#        C:\Users\rgandhi\Desktop\BS_VRS\Current_SenseDemo_V0\Firmware\Driver\I2C\
#        -I
#        C:\Users\rgandhi\Desktop\BS_VRS\Current_SenseDemo_V0\Firmware\Driver\SPI\
#        -I
#        C:\Users\rgandhi\Desktop\BS_VRS\Current_SenseDemo_V0\Firmware\Driver\UART\
#        --core=430X --data_model=small -On --multiplier=32
#        --hw_workaround=CPU40 --hw_workaround=nop_after_lpm --code_model=large
#    Locale        =  English_United States.1252
#    List file     =  
#        C:\Users\rgandhi\Desktop\BS_VRS\Current_SenseDemo_V0\Firmware\Debug\List\analog.lst
#    Object file   =  
#        C:\Users\rgandhi\Desktop\BS_VRS\Current_SenseDemo_V0\Firmware\Debug\Obj\analog.r43
#
###############################################################################

C:\Users\rgandhi\Desktop\BS_VRS\Current_SenseDemo_V0\Firmware\Driver\ANALOG\analog.c
      1          #include "analog.h"

   \                                 In  segment DATA16_AN, at 0x700
   \   union <unnamed> _A_ADC12CTL0_L
   \                     _A_ADC12CTL0_L:
   \   000000                DS8 2

   \                                 In  segment DATA16_AN, at 0x702
   \   union <unnamed> _A_ADC12CTL1_L
   \                     _A_ADC12CTL1_L:
   \   000000                DS8 2

   \                                 In  segment DATA16_AN, at 0x704
   \   union <unnamed> _A_ADC12CTL2_L
   \                     _A_ADC12CTL2_L:
   \   000000                DS8 2

   \                                 In  segment DATA16_AN, at 0x720
   \   union <unnamed> _A_ADC12MEM0_L
   \                     _A_ADC12MEM0_L:
   \   000000                DS8 2

   \                                 In  segment DATA16_AN, at 0x710
   \   unsigned char volatile ADC12MCTL0
   \                     ADC12MCTL0:
   \   000000                DS8 1

   \                                 In  segment DATA16_AN, at 0x1b0
   \   union <unnamed> _A_REFCTL0_L
   \                     _A_REFCTL0_L:
   \   000000                DS8 2
      2          
      3          /***************************************************************************//**
      4           * @param Function      init_ADC()
      5           * @param Input         void
      6           * @param Return        void
      7           * @param Func_Type     Hardware - Processor
      8           * @param Description   Used to initialize ADC config
      9           ******************************************************************************/

   \                                 In  segment CODE, align 2
     10          void init_ADC(){
   \                     init_ADC:
     11              // Select internal ref = 2.5V
     12              REFCTL0 |= REFMSTR+REFVSEL_2+REFON+REFTCOFF; 
   \   000000   B2D0A900B001 BIS.W   #0xa9, &0x1b0
     13              // 32 ADC10CLKs; ADC ON
     14              ADC12CTL0 = ADC12SHT0_3 + ADC12ON + ADC12REFON + ADC12REF2_5V  + ADC12MSC;
   \   000006   B240F0030007 MOV.W   #0x3f0, &0x700
     15              // ADC sample and hold, ADC10 sourced from MCLK
     16              ADC12CTL1 = ADC12SHP + ADC12SSEL_2 + ADC12CONSEQ_2;
   \   00000C   B24014020207 MOV.W   #0x214, &0x702
     17              // Channel A0, internal Vref+
     18              ADC12MCTL0 = ADC12SREF_1 + ADC12INCH_0;  
   \   000012   F24010001007 MOV.B   #0x10, &0x710
     19              
     20              ADC12CTL2 = ADC12RES_2;
   \   000018   B24020000407 MOV.W   #0x20, &0x704
     21              // 75 us delay @ ~8MHz
     22              __delay_cycles(600);                       
   \   00001E                ////////////// Start of 600 cycles delay.
   \   00001E   0343         NOP
   \   000020   3F40C600     MOV.W   #0xc6, R15
   \                     ??init_ADC_0:
   \   000024   3F53         ADD.W   #0xffff, R15
   \   000026   FE2F         JC      ??init_ADC_0
   \   000028                ////////////// End of delay code.
     23              // Enable conversions
     24              ADC12CTL0 |= ADC12ENC;                    
   \   000028   A2D30007     BIS.W   #0x2, &0x700
     25          }
   \   00002C   1001         RETA
   \   00002E                REQUIRE _A_REFCTL0_L
   \   00002E                REQUIRE _A_ADC12CTL0_L
   \   00002E                REQUIRE _A_ADC12CTL1_L
   \   00002E                REQUIRE ADC12MCTL0
   \   00002E                REQUIRE _A_ADC12CTL2_L
     26          
     27          /***************************************************************************//**
     28           * @param Function      Start_TemperatureConversion()
     29           * @param Input         void
     30           * @param Return        void
     31           * @param Func_Type     Hardware - Processor
     32           * @param Description   Used to measure device temperature
     33           ******************************************************************************/

   \                                 In  segment CODE, align 2
     34          unsigned int Start_AnalogConversion(){
   \                     Start_AnalogConversion:
     35              unsigned long Current = 0x00;
   \   000000   0C43         MOV.W   #0x0, R12
   \   000002   0D43         MOV.W   #0x0, R13
     36              // Start sampling/conversion
     37             ADC12CTL0 |= (ADC12ON +ADC12ENC + ADC12SC);
   \   000004   B2D013000007 BIS.W   #0x13, &0x700
     38             __delay_cycles(1000);
   \   00000A                ////////////// Start of 1000 cycles delay.
   \                     ??Start_AnalogConversion_2:
   \   00000A   3F404B01     MOV.W   #0x14b, R15
   \                     ??Start_AnalogConversion_1:
   \   00000E   3F53         ADD.W   #0xffff, R15
   \   000010   FE2F         JC      ??Start_AnalogConversion_1
   \   000012                ////////////// End of delay code.
     39            if (!(ADC12CTL0 & ADC12TOVIE))
   \   000012   A2B20007     BIT.W   #0x4, &0x700
   \   000016   0D2C         JC      ??Start_AnalogConversion_3
     40            {
     41              Current = ADC12MEM0; 
   \   000018   1E422007     MOV.W   &0x720, R14
   \   00001C   0F43         MOV.W   #0x0, R15
   \   00001E   0C4E         MOV.W   R14, R12
   \   000020   0D4F         MOV.W   R15, R13
     42              if(Current < 0x4FF)
   \   000022   0D93         CMP.W   #0x0, R13
   \   000024   0428         JNC     ??Start_AnalogConversion_4
   \   000026   0620         JNE     ??Start_AnalogConversion_0
   \   000028   3C90FF04     CMP.W   #0x4ff, R12
   \   00002C   032C         JC      ??Start_AnalogConversion_0
     43              {
     44                __no_operation();
   \                     ??Start_AnalogConversion_4:
   \   00002E   0343         NOP
   \   000030   013C         JMP     ??Start_AnalogConversion_0
     45              }
     46            }
     47            else
     48            {
     49              __no_operation();
   \                     ??Start_AnalogConversion_3:
   \   000032   0343         NOP
     50            }
     51          //    for(char i = 0; i<3; i++)
     52          //    {
     53                
     54          //      // Get reading from ADC10
     55          //      Current = ((ADC10MEM0 + Current) >> 1);
     56          //    }
     57              // Stop Conversion
     58              ADC12CTL0 &= ~(ADC12ON +ADC12ENC + ADC12SC);
   \                     ??Start_AnalogConversion_0:
   \   000034   B2F0ECFF0007 AND.W   #0xffec, &0x700
     59              
     60              // Return temperature in celcius
     61              return Current;
   \   00003A   1001         RETA
   \   00003C                REQUIRE _A_ADC12CTL0_L
   \   00003C                REQUIRE _A_ADC12MEM0_L
     62          }

   Maximum stack usage in bytes:

   CSTACK Function
   ------ --------
      4   Start_AnalogConversion
      4   init_ADC


   Segment part sizes:

   Bytes  Function/Label
   -----  --------------
       1  ADC12MCTL0
      60  Start_AnalogConversion
       2  _A_ADC12CTL0_L
       2  _A_ADC12CTL1_L
       2  _A_ADC12CTL2_L
       2  _A_ADC12MEM0_L
       2  _A_REFCTL0_L
      46  init_ADC

 
 106 bytes in segment CODE
  11 bytes in segment DATA16_AN
 
 106 bytes of CODE memory
   0 bytes of DATA memory (+ 11 bytes shared)

Errors: none
Warnings: none
