###############################################################################
#
# IAR C/C++ Compiler V6.50.4.971/W32 for MSP430           18/Jan/2018  09:19:16
# Copyright 1996-2016 IAR Systems AB.
# Network license: ENGENT (STD)
#
#    __rt_version  =  3
#    __double_size =  32
#    __reg_r4      =  free
#    __reg_r5      =  free
#    __pic         =  no
#    __core        =  430X
#    __data_model  =  small
#    __code_model  =  large
#    Source file   =  
#        C:\Users\rgandhi\Desktop\BS_VRS\Current_SenseDemo_V0\Firmware\Processor\MSP430F5438A\sys_pmm.c
#    Command line  =  
#        C:\Users\rgandhi\Desktop\BS_VRS\Current_SenseDemo_V0\Firmware\Processor\MSP430F5438A\sys_pmm.c
#        -lC
#        C:\Users\rgandhi\Desktop\BS_VRS\Current_SenseDemo_V0\Firmware\Debug\List
#        -lA
#        C:\Users\rgandhi\Desktop\BS_VRS\Current_SenseDemo_V0\Firmware\Debug\List
#        -o
#        C:\Users\rgandhi\Desktop\BS_VRS\Current_SenseDemo_V0\Firmware\Debug\Obj
#        --no_cse --no_unroll --no_inline --no_code_motion --no_tbaa --debug
#        -D__MSP430F5438A__ -e --double=32 --dlib_config "C:\Program Files
#        (x86)\IAR Systems\Embedded Workbench 7.4\430\lib\dlib\dl430xlsfn.h" -I
#        C:\Users\rgandhi\Desktop\BS_VRS\Current_SenseDemo_V0\Firmware\ -I
#        C:\Users\rgandhi\Desktop\BS_VRS\Current_SenseDemo_V0\Firmware\Application\
#        -I
#        C:\Users\rgandhi\Desktop\BS_VRS\Current_SenseDemo_V0\Firmware\Driver\
#        -I
#        C:\Users\rgandhi\Desktop\BS_VRS\Current_SenseDemo_V0\Firmware\Protocol\
#        -I
#        C:\Users\rgandhi\Desktop\BS_VRS\Current_SenseDemo_V0\Firmware\Processor\MSP430F5438A\
#        -I
#        C:\Users\rgandhi\Desktop\BS_VRS\Current_SenseDemo_V0\Firmware\Processor\
#        -I
#        C:\Users\rgandhi\Desktop\BS_VRS\Current_SenseDemo_V0\Firmware\Driver\ANALOG\
#        -I
#        C:\Users\rgandhi\Desktop\BS_VRS\Current_SenseDemo_V0\Firmware\Driver\DIGITAL\
#        -I
#        C:\Users\rgandhi\Desktop\BS_VRS\Current_SenseDemo_V0\Firmware\Driver\I2C\
#        -I
#        C:\Users\rgandhi\Desktop\BS_VRS\Current_SenseDemo_V0\Firmware\Driver\SPI\
#        -I
#        C:\Users\rgandhi\Desktop\BS_VRS\Current_SenseDemo_V0\Firmware\Driver\UART\
#        --core=430X --data_model=small -On --multiplier=32
#        --hw_workaround=CPU40 --hw_workaround=nop_after_lpm --code_model=large
#    Locale        =  English_United States.1252
#    List file     =  
#        C:\Users\rgandhi\Desktop\BS_VRS\Current_SenseDemo_V0\Firmware\Debug\List\sys_pmm.lst
#    Object file   =  
#        C:\Users\rgandhi\Desktop\BS_VRS\Current_SenseDemo_V0\Firmware\Debug\Obj\sys_pmm.r43
#
###############################################################################

C:\Users\rgandhi\Desktop\BS_VRS\Current_SenseDemo_V0\Firmware\Processor\MSP430F5438A\sys_pmm.c
      1          /***************************************************************************//**
      2           *  \file         pmm.c (Power Management Module)
      3           *  \brief        Hardware dependant function for Power Management settings
      4           *  \author       RBG
      5           *  \date         September,2011
      6           *  \version      1.0.0
      7           ******************************************************************************/
      8          /***************************************************************************//**
      9           *                           FILE INCLUDES
     10           ******************************************************************************/
     11          #include "sys_pmm.h"

   \                                 In  segment DATA16_AN, at 0x120
   \   union <unnamed> _A_PMMCTL0_L
   \                     _A_PMMCTL0_L:
   \   000000                DS8 2

   \                                 In  segment DATA16_AN, at 0x124
   \   union <unnamed> _A_SVSMHCTL_L
   \                     _A_SVSMHCTL_L:
   \   000000                DS8 2

   \                                 In  segment DATA16_AN, at 0x126
   \   union <unnamed> _A_SVSMLCTL_L
   \                     _A_SVSMLCTL_L:
   \   000000                DS8 2

   \                                 In  segment DATA16_AN, at 0x12c
   \   union <unnamed> _A_PMMIFG_L
   \                     _A_PMMIFG_L:
   \   000000                DS8 2

   \                                 In  segment DATA16_AN, at 0x12e
   \   union <unnamed> _A_PMMRIE_L
   \                     _A_PMMRIE_L:
   \   000000                DS8 2

   \                                 In  segment DATA16_AN, at 0x15c
   \   union <unnamed> _A_WDTCTL_L
   \                     _A_WDTCTL_L:
   \   000000                DS8 2
     12          
     13          /***************************************************************************//**
     14           *                           VARIABLE DECLARATION
     15           ******************************************************************************/
     16          #define _HAL_PMM_DISABLE_SVML_
     17          #define _HAL_PMM_DISABLE_SVSL_
     18          #define _HAL_PMM_DISABLE_FULL_PERFORMANCE_
     19          
     20          //****************************************************************************//
     21          #ifdef _HAL_PMM_DISABLE_SVML_
     22          #define _HAL_PMM_SVMLE SVMLE
     23          #else
     24          #define _HAL_PMM_SVMLE 0
     25          #endif
     26          #ifdef _HAL_PMM_DISABLE_SVSL_
     27          #define _HAL_PMM_SVSLE SVSLE
     28          #else
     29          #define _HAL_PMM_SVSLE 0
     30          #endif
     31          #ifdef _HAL_PMM_DISABLE_FULL_PERFORMANCE_
     32          #define _HAL_PMM_SVSFP SVSLFP
     33          #else
     34          #define _HAL_PMM_SVSFP 0
     35          #endif
     36          
     37          /***************************************************************************//**
     38           *                           FUNCTION DEFINATION
     39           ******************************************************************************/
     40          /***************************************************************************//**
     41           * @param Function      unsigned short int SetVCore (unsigned char)
     42           * @param Input         unsigned char     level     Set new power level
     43           * @param Return        unsigned short int    status    Return current status value
     44           * @param Calling_Func  pmm.c (only)
     45           * @param Description   This hardware dependant function used to set VCore power level
     46           ******************************************************************************/

   \                                 In  segment CODE, align 2
     47          unsigned short int SetVCore (unsigned char level)
   \                     SetVCore:
     48          {
   \   000000   3B15         PUSHM.W #0x4, R11
   \   000002   4B4C         MOV.B   R12, R11
     49            unsigned short int actlevel;
     50            unsigned short int status = 0;
   \   000004   0843         MOV.W   #0x0, R8
     51            level &= PMMCOREV_3;                       // Set Mask for Max. level
   \   000006   7BF00300     AND.B   #0x3, R11
     52            actlevel = (PMMCTL0 & PMMCOREV_3);         // Get actual VCore
   \   00000A   1F422001     MOV.W   &0x120, R15
   \   00000E   3FF00300     AND.W   #0x3, R15
   \   000012   0A4F         MOV.W   R15, R10
     53          
     54            while (((level != actlevel) && (status == 0)) || (level < actlevel))		// step by step increase or decrease
   \                     ??SetVCore_0:
   \   000014   4B4B         MOV.B   R11, R11
   \   000016   0B9A         CMP.W   R10, R11
   \   000018   0224         JEQ     ??SetVCore_1
   \   00001A   0893         CMP.W   #0x0, R8
   \   00001C   0324         JEQ     ??SetVCore_2
   \                     ??SetVCore_1:
   \   00001E   4B4B         MOV.B   R11, R11
   \   000020   0B9A         CMP.W   R10, R11
   \   000022   152C         JC      ??SetVCore_3
     55            {
     56              if (level > actlevel)
   \                     ??SetVCore_2:
   \   000024   4B4B         MOV.B   R11, R11
   \   000026   0A9B         CMP.W   R11, R10
   \   000028   092C         JC      ??SetVCore_4
     57                status = SetVCoreUp(++actlevel);
   \   00002A   1A53         ADD.W   #0x1, R10
   \   00002C   0C12         PUSH.W  R12
   \   00002E   C14A0000     MOV.B   R10, 0(SP)
   \   000032   3C41         POP.W   R12
   \   000034   ........     CALLA   #SetVCoreUp
   \   000038   084C         MOV.W   R12, R8
   \   00003A   EC3F         JMP     ??SetVCore_0
     58              else
     59                status = SetVCoreDown(--actlevel);
   \                     ??SetVCore_4:
   \   00003C   3A53         ADD.W   #0xffff, R10
   \   00003E   0C12         PUSH.W  R12
   \   000040   C14A0000     MOV.B   R10, 0(SP)
   \   000044   3C41         POP.W   R12
   \   000046   ........     CALLA   #SetVCoreDown
   \   00004A   084C         MOV.W   R12, R8
   \   00004C   E33F         JMP     ??SetVCore_0
     60            }
     61            return status;
   \                     ??SetVCore_3:
   \   00004E   0C48         MOV.W   R8, R12
   \   000050   3817         POPM.W  #0x4, R11
   \   000052   1001         RETA
   \   000054                REQUIRE _A_PMMCTL0_L
     62          }
     63          
     64          /***************************************************************************//**
     65           * @param Function      unsigned short int SetVCoreUp (unsigned char)
     66           * @param Input         unsigned char     level           Set new power level
     67           * @param Return        unsigned short int    status          Returns Success or Failure
     68           * @param Calling_Func  pmm.c (only)
     69           * @param Description   This hardware dependant function used to initialize and
     70           *                configure VCORE power to increase level
     71           ******************************************************************************/

   \                                 In  segment CODE, align 2
     72          unsigned short int SetVCoreUp (unsigned char level)
   \                     SetVCoreUp:
     73          {
   \   000000   0A12         PUSH.W  R10
   \   000002   4E4C         MOV.B   R12, R14
     74            unsigned short int PMMRIE_backup,SVSMHCTL_backup;
     75          
     76            // Open PMM registers for write access
     77            PMMCTL0_H = 0xA5;
   \   000004   F240A5002101 MOV.B   #0xa5, &0x121
     78          
     79            // Disable dedicated Interrupts to prevent that needed flags will be cleared
     80            PMMRIE_backup = PMMRIE;
   \   00000A   1F422E01     MOV.W   &0x12e, R15
     81            PMMRIE &= ~(SVSMHDLYIE | SVSMLDLYIE | SVMLVLRIE | SVMHVLRIE | SVMHVLRPE);
   \   00000E   B2F0AADF2E01 AND.W   #0xdfaa, &0x12e
     82            // Set SVM highside to new level and check if a VCore increase is possible
     83            SVSMHCTL_backup = SVSMHCTL;
   \   000014   1D422401     MOV.W   &0x124, R13
     84            PMMIFG &= ~(SVMHIFG | SVSMHDLYIFG);
   \   000018   B2F0CFFF2C01 AND.W   #0xffcf, &0x12c
     85            SVSMHCTL = SVMHE | SVMHFP | (SVSMHRRL0 * level);
   \   00001E   4C4E         MOV.B   R14, R12
   \   000020   3CD000C0     BIS.W   #0xc000, R12
   \   000024   824C2401     MOV.W   R12, &0x124
     86            // Wait until SVM highside is settled
     87            while ((PMMIFG & SVSMHDLYIFG) == 0);
   \                     ??SetVCoreUp_0:
   \   000028   B2B010002C01 BIT.W   #0x10, &0x12c
   \   00002E   FC2B         JNC     ??SetVCoreUp_0
     88            // Disable full-performance mode to save energy
     89            SVSMHCTL &= ~_HAL_PMM_SVSFP ;
   \   000030   B2C000082401 BIC.W   #0x800, &0x124
     90            // Check if a VCore increase is possible
     91            if ((PMMIFG & SVMHIFG) == SVMHIFG){			//-> Vcc is to low for a Vcore increase
   \   000036   B2B020002C01 BIT.W   #0x20, &0x12c
   \   00003C   1228         JNC     ??SetVCoreUp_6
     92            	// recover the previous settings
     93            	PMMIFG &= ~SVSMHDLYIFG;
   \   00003E   B2C010002C01 BIC.W   #0x10, &0x12c
     94            	SVSMHCTL = SVSMHCTL_backup;
   \   000044   824D2401     MOV.W   R13, &0x124
     95            	// Wait until SVM highside is settled
     96            	while ((PMMIFG & SVSMHDLYIFG) == 0);
   \                     ??SetVCoreUp_1:
   \   000048   B2B010002C01 BIT.W   #0x10, &0x12c
   \   00004E   FC2B         JNC     ??SetVCoreUp_1
     97            	// Clear all Flags
     98            	PMMIFG &= ~(SVMHVLRIFG | SVMHIFG | SVSMHDLYIFG | SVMLVLRIFG | SVMLIFG | SVSMLDLYIFG);
   \   000050   B2F088FF2C01 AND.W   #0xff88, &0x12c
     99            	// backup PMM-Interrupt-Register
    100            	PMMRIE = PMMRIE_backup;
   \   000056   824F2E01     MOV.W   R15, &0x12e
    101            	
    102            	// Lock PMM registers for write access
    103            	PMMCTL0_H = 0x00;
   \   00005A   C2432101     MOV.B   #0x0, &0x121
    104            	return PMM_STATUS_ERROR;                       // return: voltage not set
   \   00005E   1C43         MOV.W   #0x1, R12
   \   000060   333C         JMP     ??SetVCoreUp_5
    105            }
    106            // Set also SVS highside to new level			//-> Vcc is high enough for a Vcore increase
    107            SVSMHCTL |= SVSHE | (SVSHRVL0 * level);
   \                     ??SetVCoreUp_6:
   \   000062   4C4E         MOV.B   R14, R12
   \   000064   3CF0FF00     AND.W   #0xff, R12
   \   000068   8C10         SWPB    R12
   \   00006A   3CD00004     BIS.W   #0x400, R12
   \   00006E   82DC2401     BIS.W   R12, &0x124
    108            // Set SVM low side to new level
    109            SVSMLCTL = SVMLE | SVMLFP | (SVSMLRRL0 * level);
   \   000072   4A4E         MOV.B   R14, R10
   \   000074   3AD000C0     BIS.W   #0xc000, R10
   \   000078   824A2601     MOV.W   R10, &0x126
    110            // Wait until SVM low side is settled
    111            while ((PMMIFG & SVSMLDLYIFG) == 0);
   \                     ??SetVCoreUp_2:
   \   00007C   92B32C01     BIT.W   #0x1, &0x12c
   \   000080   FD2B         JNC     ??SetVCoreUp_2
    112            // Clear already set flags
    113            PMMIFG &= ~(SVMLVLRIFG | SVMLIFG);
   \   000082   B2F0F9FF2C01 AND.W   #0xfff9, &0x12c
    114            // Set VCore to new level
    115            PMMCTL0_L = PMMCOREV0 * level;
   \   000088   C24E2001     MOV.B   R14, &0x120
    116            // Wait until new level reached
    117            if (PMMIFG & SVMLIFG)
   \   00008C   A2B32C01     BIT.W   #0x2, &0x12c
   \   000090   0328         JNC     ??SetVCoreUp_7
    118            while ((PMMIFG & SVMLVLRIFG) == 0);
   \                     ??SetVCoreUp_3:
   \   000092   A2B22C01     BIT.W   #0x4, &0x12c
   \   000096   FD2B         JNC     ??SetVCoreUp_3
    119            // Set also SVS/SVM low side to new level
    120            PMMIFG &= ~SVSMLDLYIFG;
   \                     ??SetVCoreUp_7:
   \   000098   92C32C01     BIC.W   #0x1, &0x12c
    121            SVSMLCTL |= SVSLE | (SVSLRVL0 * level);
   \   00009C   4A4E         MOV.B   R14, R10
   \   00009E   3AF0FF00     AND.W   #0xff, R10
   \   0000A2   8A10         SWPB    R10
   \   0000A4   3AD00004     BIS.W   #0x400, R10
   \   0000A8   82DA2601     BIS.W   R10, &0x126
    122            // wait for lowside delay flags
    123            while ((PMMIFG & SVSMLDLYIFG) == 0);
   \                     ??SetVCoreUp_4:
   \   0000AC   92B32C01     BIT.W   #0x1, &0x12c
   \   0000B0   FD2B         JNC     ??SetVCoreUp_4
    124          
    125          // Disable SVS/SVM Low
    126          // Disable full-performance mode to save energy
    127            SVSMLCTL &= ~(_HAL_PMM_DISABLE_SVSL_+_HAL_PMM_DISABLE_SVML_+_HAL_PMM_SVSFP );
   \   0000B2   B2C000082601 BIC.W   #0x800, &0x126
    128          
    129            // Clear all Flags
    130            PMMIFG &= ~(SVMHVLRIFG | SVMHIFG | SVSMHDLYIFG | SVMLVLRIFG | SVMLIFG | SVSMLDLYIFG);
   \   0000B8   B2F088FF2C01 AND.W   #0xff88, &0x12c
    131            // backup PMM-Interrupt-Register
    132            PMMRIE = PMMRIE_backup;
   \   0000BE   824F2E01     MOV.W   R15, &0x12e
    133          
    134            // Lock PMM registers for write access
    135            PMMCTL0_H = 0x00;
   \   0000C2   C2432101     MOV.B   #0x0, &0x121
    136            return PMM_STATUS_OK;                               // return: OK
   \   0000C6   0C43         MOV.W   #0x0, R12
   \                     ??SetVCoreUp_5:
   \   0000C8   3A41         POP.W   R10
   \   0000CA   1001         RETA
   \   0000CC                REQUIRE _A_PMMCTL0_L
   \   0000CC                REQUIRE _A_PMMRIE_L
   \   0000CC                REQUIRE _A_SVSMHCTL_L
   \   0000CC                REQUIRE _A_PMMIFG_L
   \   0000CC                REQUIRE _A_SVSMLCTL_L
    137          }
    138          
    139          /***************************************************************************//**
    140           * @param Function      unsigned short int SetVCoreDown (unsigned char level)
    141           * @param Input         unsigned char     level           Set new power level
    142           * @param Return        unsigned short int    status          Returns Success or Failure
    143           * @param Calling_Func  pmm.c (only)
    144           * @param Description   This hardware dependant function used to initialize and
    145           *                configure VCORE power to decrease level
    146           ******************************************************************************/

   \                                 In  segment CODE, align 2
    147          unsigned short int SetVCoreDown (unsigned char level)
   \                     SetVCoreDown:
    148          {
   \   000000   4E4C         MOV.B   R12, R14
    149            unsigned short int PMMRIE_backup;
    150          
    151            // Open PMM registers for write access
    152            PMMCTL0_H = 0xA5;
   \   000002   F240A5002101 MOV.B   #0xa5, &0x121
    153          
    154            // Disable dedicated Interrupts to prevent that needed flags will be cleared
    155            PMMRIE_backup = PMMRIE;
   \   000008   1F422E01     MOV.W   &0x12e, R15
    156            PMMRIE &= ~(SVSMHDLYIE | SVSMLDLYIE | SVMLVLRIE | SVMHVLRIE | SVMHVLRPE);
   \   00000C   B2F0AADF2E01 AND.W   #0xdfaa, &0x12e
    157          
    158            // Set SVM high side and SVM low side to new level
    159            PMMIFG &= ~(SVMHIFG | SVSMHDLYIFG | SVMLIFG | SVSMLDLYIFG);
   \   000012   B2F0CCFF2C01 AND.W   #0xffcc, &0x12c
    160            SVSMHCTL = SVMHE | SVMHFP | (SVSMHRRL0 * level);
   \   000018   4D4E         MOV.B   R14, R13
   \   00001A   3DD000C0     BIS.W   #0xc000, R13
   \   00001E   824D2401     MOV.W   R13, &0x124
    161            SVSMLCTL = SVMLE | SVMLFP | (SVSMLRRL0 * level);
   \   000022   4D4E         MOV.B   R14, R13
   \   000024   3DD000C0     BIS.W   #0xc000, R13
   \   000028   824D2601     MOV.W   R13, &0x126
    162            // Wait until SVM high side and SVM low side is settled
    163            while ((PMMIFG & SVSMHDLYIFG) == 0 || (PMMIFG & SVSMLDLYIFG) == 0);
   \                     ??SetVCoreDown_0:
   \   00002C   B2B010002C01 BIT.W   #0x10, &0x12c
   \   000032   FC2B         JNC     ??SetVCoreDown_0
   \   000034   92B32C01     BIT.W   #0x1, &0x12c
   \   000038   F92B         JNC     ??SetVCoreDown_0
    164          
    165            // Set VCore to new level
    166            PMMCTL0_L = PMMCOREV0 * level;
   \   00003A   C24E2001     MOV.B   R14, &0x120
    167          
    168            // Set also SVS highside and SVS low side to new level
    169            PMMIFG &= ~(SVSHIFG | SVSMHDLYIFG | SVSLIFG | SVSMLDLYIFG);
   \   00003E   B2F0EECF2C01 AND.W   #0xcfee, &0x12c
    170            SVSMHCTL |= SVSHE | SVSHFP | (SVSHRVL0 * level);
   \   000044   4D4E         MOV.B   R14, R13
   \   000046   3DF0FF00     AND.W   #0xff, R13
   \   00004A   8D10         SWPB    R13
   \   00004C   3DD0000C     BIS.W   #0xc00, R13
   \   000050   82DD2401     BIS.W   R13, &0x124
    171            SVSMLCTL |= SVSLE | SVSLFP | (SVSLRVL0 * level);
   \   000054   4D4E         MOV.B   R14, R13
   \   000056   3DF0FF00     AND.W   #0xff, R13
   \   00005A   8D10         SWPB    R13
   \   00005C   3DD0000C     BIS.W   #0xc00, R13
   \   000060   82DD2601     BIS.W   R13, &0x126
    172            // Wait until SVS high side and SVS low side is settled
    173            while ((PMMIFG & SVSMHDLYIFG) == 0 || (PMMIFG & SVSMLDLYIFG) == 0);
   \                     ??SetVCoreDown_1:
   \   000064   B2B010002C01 BIT.W   #0x10, &0x12c
   \   00006A   FC2B         JNC     ??SetVCoreDown_1
   \   00006C   92B32C01     BIT.W   #0x1, &0x12c
   \   000070   F92B         JNC     ??SetVCoreDown_1
    174            // Disable full-performance mode to save energy
    175            SVSMHCTL &= ~_HAL_PMM_SVSFP;
   \   000072   B2C000082401 BIC.W   #0x800, &0x124
    176          // Disable SVS/SVM Low
    177          // Disable full-performance mode to save energy
    178            SVSMLCTL &= ~(_HAL_PMM_DISABLE_SVSL_+_HAL_PMM_DISABLE_SVML_+_HAL_PMM_SVSFP );
   \   000078   B2C000082601 BIC.W   #0x800, &0x126
    179          	
    180            // Clear all Flags
    181            PMMIFG &= ~(SVMHVLRIFG | SVMHIFG | SVSMHDLYIFG | SVMLVLRIFG | SVMLIFG | SVSMLDLYIFG);
   \   00007E   B2F088FF2C01 AND.W   #0xff88, &0x12c
    182            // backup PMM-Interrupt-Register
    183            PMMRIE = PMMRIE_backup;
   \   000084   824F2E01     MOV.W   R15, &0x12e
    184            // Lock PMM registers for write access
    185            PMMCTL0_H = 0x00;
   \   000088   C2432101     MOV.B   #0x0, &0x121
    186          
    187            if ((PMMIFG & SVMHIFG) == SVMHIFG)
   \   00008C   B2B020002C01 BIT.W   #0x20, &0x12c
   \   000092   0228         JNC     ??SetVCoreDown_2
    188              return PMM_STATUS_ERROR;					 	// Highside is still to low for the adjusted VCore Level
   \   000094   1C43         MOV.W   #0x1, R12
   \   000096   1001         RETA
    189            else return PMM_STATUS_OK;						// Return: OK
   \                     ??SetVCoreDown_2:
   \   000098   0C43         MOV.W   #0x0, R12
   \   00009A   1001         RETA
   \   00009C                REQUIRE _A_PMMCTL0_L
   \   00009C                REQUIRE _A_PMMRIE_L
   \   00009C                REQUIRE _A_PMMIFG_L
   \   00009C                REQUIRE _A_SVSMHCTL_L
   \   00009C                REQUIRE _A_SVSMLCTL_L
    190          }
    191          
    192          

   \                                 In  segment CODE, align 2
    193          void Stop_WatchDog_Timer(){
   \                     Stop_WatchDog_Timer:
    194            WDTCTL = WDTPW + WDTHOLD;
   \   000000   B240805A5C01 MOV.W   #0x5a80, &0x15c
    195          }
   \   000006   1001         RETA
   \   000008                REQUIRE _A_WDTCTL_L
    196          

   \                                 In  segment CODE, align 2
    197          void Software_Reset(){
   \                     Software_Reset:
    198           WDTCTL = WDT_MRST_0_064;    // Perform software reset in 0.064ms
   \   000000   B2400F5A5C01 MOV.W   #0x5a0f, &0x15c
    199          }
   \   000006   1001         RETA
   \   000008                REQUIRE _A_WDTCTL_L
    200          
    201          
    202          //#pragma vector=RESET_VECTOR
    203          //__interrupt void RESET_ISR(void)
    204          //{
    205          //
    206          //__no_operation();
    207          //}
    208          
    209          #pragma vector=SYSNMI_VECTOR

   \                                 In  segment ISR_CODE, align 2
    210          __interrupt void SYSNMI_ISR(void)
   \                     SYSNMI_ISR:
    211          {
    212          __no_operation();
   \   000000   0343         NOP
    213          // write current state to FLASH
    214          
    215          
    216          }
   \   000002   0013         RETI

   \                                 In  segment INTVEC, offset 0x7c, root
   \                     `??SYSNMI_ISR::??INTVEC 124`:
   \   00007C   ....         DC16    SYSNMI_ISR
    217          /***************************************************************************//**
    218           *                         End of Function
    219           ******************************************************************************/

   Maximum stack usage in bytes:

   CSTACK Function
   ------ --------
      4   SYSNMI_ISR
     14   SetVCore
       12   -> SetVCoreDown
       12   -> SetVCoreUp
      4   SetVCoreDown
      6   SetVCoreUp
      4   Software_Reset
      4   Stop_WatchDog_Timer


   Segment part sizes:

   Bytes  Function/Label
   -----  --------------
       4  SYSNMI_ISR
       2  SYSNMI_ISR::??INTVEC 124
      84  SetVCore
     156  SetVCoreDown
     204  SetVCoreUp
       8  Software_Reset
       8  Stop_WatchDog_Timer
       2  _A_PMMCTL0_L
       2  _A_PMMIFG_L
       2  _A_PMMRIE_L
       2  _A_SVSMHCTL_L
       2  _A_SVSMLCTL_L
       2  _A_WDTCTL_L

 
 460 bytes in segment CODE
  12 bytes in segment DATA16_AN
   2 bytes in segment INTVEC
   4 bytes in segment ISR_CODE
 
 464 bytes of CODE  memory
   0 bytes of CONST memory (+  2 bytes shared)
   0 bytes of DATA  memory (+ 12 bytes shared)

Errors: none
Warnings: none
