<?xml version="1.0" encoding="utf-8"?>
<!DOCTYPE eagle SYSTEM "eagle.dtd">
<eagle version="8.7.0">
<drawing>
<settings>
<setting alwaysvectorfont="no"/>
<setting verticaltext="up"/>
</settings>
<grid distance="25" unitdist="mil" unit="mil" style="lines" multiple="1" display="no" altdistance="0.01" altunitdist="inch" altunit="inch"/>
<layers>
<layer number="1" name="Top" color="4" fill="1" visible="yes" active="yes"/>
<layer number="2" name="Route2" color="1" fill="3" visible="yes" active="yes"/>
<layer number="3" name="Route3" color="4" fill="3" visible="no" active="yes"/>
<layer number="4" name="Route4" color="1" fill="4" visible="no" active="yes"/>
<layer number="5" name="Route5" color="4" fill="4" visible="no" active="yes"/>
<layer number="6" name="Route6" color="1" fill="8" visible="no" active="yes"/>
<layer number="7" name="Route7" color="4" fill="8" visible="no" active="yes"/>
<layer number="8" name="Route8" color="1" fill="2" visible="no" active="yes"/>
<layer number="9" name="Route9" color="4" fill="2" visible="no" active="yes"/>
<layer number="10" name="Route10" color="1" fill="7" visible="no" active="yes"/>
<layer number="11" name="Route11" color="4" fill="7" visible="no" active="yes"/>
<layer number="12" name="Route12" color="1" fill="5" visible="no" active="yes"/>
<layer number="13" name="Route13" color="4" fill="5" visible="no" active="yes"/>
<layer number="14" name="Route14" color="1" fill="6" visible="no" active="yes"/>
<layer number="15" name="Route15" color="4" fill="6" visible="yes" active="yes"/>
<layer number="16" name="Bottom" color="1" fill="1" visible="yes" active="yes"/>
<layer number="17" name="Pads" color="2" fill="1" visible="yes" active="yes"/>
<layer number="18" name="Vias" color="2" fill="1" visible="yes" active="yes"/>
<layer number="19" name="Unrouted" color="6" fill="1" visible="no" active="yes"/>
<layer number="20" name="Dimension" color="24" fill="1" visible="yes" active="yes"/>
<layer number="21" name="tPlace" color="7" fill="1" visible="yes" active="yes"/>
<layer number="22" name="bPlace" color="7" fill="1" visible="yes" active="yes"/>
<layer number="23" name="tOrigins" color="15" fill="1" visible="yes" active="yes"/>
<layer number="24" name="bOrigins" color="15" fill="1" visible="yes" active="yes"/>
<layer number="25" name="tNames" color="7" fill="1" visible="yes" active="yes"/>
<layer number="26" name="bNames" color="7" fill="1" visible="no" active="yes"/>
<layer number="27" name="tValues" color="7" fill="1" visible="yes" active="yes"/>
<layer number="28" name="bValues" color="7" fill="1" visible="no" active="yes"/>
<layer number="29" name="tStop" color="7" fill="3" visible="yes" active="yes"/>
<layer number="30" name="bStop" color="7" fill="6" visible="yes" active="yes"/>
<layer number="31" name="tCream" color="7" fill="4" visible="yes" active="yes"/>
<layer number="32" name="bCream" color="7" fill="5" visible="no" active="yes"/>
<layer number="33" name="tFinish" color="6" fill="3" visible="no" active="yes"/>
<layer number="34" name="bFinish" color="6" fill="6" visible="no" active="yes"/>
<layer number="35" name="tGlue" color="7" fill="4" visible="no" active="yes"/>
<layer number="36" name="bGlue" color="7" fill="5" visible="no" active="yes"/>
<layer number="37" name="tTest" color="7" fill="1" visible="no" active="yes"/>
<layer number="38" name="bTest" color="7" fill="1" visible="no" active="yes"/>
<layer number="39" name="tKeepout" color="4" fill="11" visible="yes" active="yes"/>
<layer number="40" name="bKeepout" color="1" fill="11" visible="yes" active="yes"/>
<layer number="41" name="tRestrict" color="4" fill="10" visible="yes" active="yes"/>
<layer number="42" name="bRestrict" color="1" fill="10" visible="yes" active="yes"/>
<layer number="43" name="vRestrict" color="2" fill="10" visible="no" active="yes"/>
<layer number="44" name="Drills" color="7" fill="1" visible="yes" active="yes"/>
<layer number="45" name="Holes" color="7" fill="1" visible="yes" active="yes"/>
<layer number="46" name="Milling" color="3" fill="1" visible="no" active="yes"/>
<layer number="47" name="Measures" color="7" fill="1" visible="no" active="yes"/>
<layer number="48" name="Document" color="7" fill="1" visible="no" active="yes"/>
<layer number="49" name="Reference" color="7" fill="1" visible="no" active="yes"/>
<layer number="51" name="tDocu" color="7" fill="1" visible="yes" active="yes"/>
<layer number="52" name="bDocu" color="7" fill="1" visible="no" active="yes"/>
<layer number="88" name="SimResults" color="9" fill="1" visible="yes" active="yes"/>
<layer number="89" name="SimProbes" color="9" fill="1" visible="yes" active="yes"/>
<layer number="90" name="Modules" color="5" fill="1" visible="yes" active="yes"/>
<layer number="91" name="Nets" color="2" fill="1" visible="yes" active="yes"/>
<layer number="92" name="Busses" color="1" fill="1" visible="yes" active="yes"/>
<layer number="93" name="Pins" color="2" fill="1" visible="no" active="yes"/>
<layer number="94" name="Symbols" color="4" fill="1" visible="yes" active="yes"/>
<layer number="95" name="Names" color="7" fill="1" visible="yes" active="yes"/>
<layer number="96" name="Values" color="7" fill="1" visible="yes" active="yes"/>
<layer number="97" name="Info" color="7" fill="1" visible="yes" active="yes"/>
<layer number="98" name="Guide" color="6" fill="1" visible="yes" active="yes"/>
<layer number="144" name="DrillLegend" color="7" fill="1" visible="yes" active="yes"/>
</layers>
<library>
<packages>
<package name="DL26498881">
<text x="0.6604" y="0.5588" size="1.778" layer="144" font="vector" ratio="5">Sym</text>
<wire x1="0" y1="0" x2="5.842" y2="0" width="0.1016" layer="144"/>
<wire x1="5.842" y1="0" x2="5.842" y2="2.921" width="0.1016" layer="144"/>
<text x="6.2484" y="0.5588" size="1.778" layer="144" font="vector" ratio="5">N°</text>
<wire x1="5.842" y1="0" x2="9.652" y2="0" width="0.1016" layer="144"/>
<wire x1="9.652" y1="0" x2="9.652" y2="2.921" width="0.1016" layer="144"/>
<text x="23.7744" y="0.5588" size="1.778" layer="144" font="vector" ratio="5">MM</text>
<wire x1="29.21" y1="0" x2="29.21" y2="2.921" width="0.1016" layer="144"/>
<text x="12.4714" y="0.5588" size="1.778" layer="144" font="vector" ratio="5">Mils</text>
<wire x1="9.652" y1="0" x2="21.336" y2="0" width="0.1016" layer="144"/>
<wire x1="21.336" y1="0" x2="21.336" y2="2.921" width="0.1016" layer="144"/>
<text x="29.8704" y="0.5588" size="1.778" layer="144" font="vector" ratio="5">Qty</text>
<wire x1="29.21" y1="0" x2="35.052" y2="0" width="0.1016" layer="144"/>
<wire x1="35.052" y1="0" x2="35.052" y2="2.921" width="0.1016" layer="144"/>
<text x="36.3728" y="0.5588" size="1.778" layer="144" font="vector" ratio="5">Plated</text>
<wire x1="35.052" y1="0" x2="46.736" y2="0" width="0.1016" layer="144"/>
<wire x1="46.736" y1="0" x2="46.736" y2="2.921" width="0.1016" layer="144"/>
<text x="51.3334" y="0.5588" size="1.778" layer="144" font="vector" ratio="5">Tol</text>
<wire x1="46.736" y1="0" x2="60.452" y2="0" width="0.1016" layer="144"/>
<wire x1="2.921" y1="-0.9652" x2="2.921" y2="-1.9812" width="0.1016" layer="144"/>
<wire x1="2.413" y1="-1.4732" x2="3.429" y2="-1.4732" width="0.1016" layer="144"/>
<wire x1="0" y1="-2.921" x2="5.842" y2="-2.921" width="0.1016" layer="144"/>
<wire x1="5.842" y1="-2.921" x2="5.842" y2="0" width="0.1016" layer="144"/>
<text x="6.985" y="-2.3622" size="1.778" layer="144" font="vector" ratio="5">1</text>
<wire x1="5.842" y1="-2.921" x2="9.652" y2="-2.921" width="0.1016" layer="144"/>
<wire x1="9.652" y1="-2.921" x2="9.652" y2="0" width="0.1016" layer="144"/>
<text x="22.2504" y="-2.3622" size="1.778" layer="144" font="vector" ratio="5">0.25</text>
<wire x1="29.21" y1="-2.921" x2="29.21" y2="0" width="0.1016" layer="144"/>
<text x="11.7094" y="-2.3622" size="1.778" layer="144" font="vector" ratio="5">10.00</text>
<wire x1="9.652" y1="-2.921" x2="21.336" y2="-2.921" width="0.1016" layer="144"/>
<wire x1="21.336" y1="-2.921" x2="29.21" y2="-2.921" width="0.1016" layer="144"/>
<wire x1="21.336" y1="-2.921" x2="21.336" y2="0" width="0.1016" layer="144"/>
<text x="29.8704" y="-2.3622" size="1.778" layer="144" font="vector" ratio="5">171</text>
<wire x1="29.21" y1="-2.921" x2="35.052" y2="-2.921" width="0.1016" layer="144"/>
<wire x1="35.052" y1="-2.921" x2="35.052" y2="0" width="0.1016" layer="144"/>
<text x="38.6334" y="-2.3622" size="1.778" layer="144" font="vector" ratio="5">YES</text>
<wire x1="35.052" y1="-2.921" x2="46.736" y2="-2.921" width="0.1016" layer="144"/>
<wire x1="46.736" y1="-2.921" x2="46.736" y2="0" width="0.1016" layer="144"/>
<text x="48.3108" y="-2.3622" size="1.778" layer="144" font="vector" ratio="5">-/+0.05</text>
<wire x1="46.736" y1="-2.921" x2="60.452" y2="-2.921" width="0.1016" layer="144"/>
<wire x1="60.452" y1="-2.921" x2="60.452" y2="0" width="0.1016" layer="144"/>
<wire x1="2.413" y1="-3.8862" x2="3.429" y2="-4.9022" width="0.1016" layer="144"/>
<wire x1="3.429" y1="-3.8862" x2="2.413" y2="-4.9022" width="0.1016" layer="144"/>
<wire x1="0" y1="-5.842" x2="5.842" y2="-5.842" width="0.1016" layer="144"/>
<wire x1="5.842" y1="-5.842" x2="5.842" y2="-2.921" width="0.1016" layer="144"/>
<text x="6.985" y="-5.2832" size="1.778" layer="144" font="vector" ratio="5">2</text>
<wire x1="5.842" y1="-5.842" x2="9.652" y2="-5.842" width="0.1016" layer="144"/>
<wire x1="9.652" y1="-5.842" x2="9.652" y2="-2.921" width="0.1016" layer="144"/>
<text x="22.2504" y="-5.2832" size="1.778" layer="144" font="vector" ratio="5">0.35</text>
<wire x1="29.21" y1="-5.842" x2="29.21" y2="-2.921" width="0.1016" layer="144"/>
<text x="11.7094" y="-5.2832" size="1.778" layer="144" font="vector" ratio="5">13.78</text>
<wire x1="9.652" y1="-5.842" x2="21.336" y2="-5.842" width="0.1016" layer="144"/>
<wire x1="21.336" y1="-5.842" x2="29.21" y2="-5.842" width="0.1016" layer="144"/>
<wire x1="21.336" y1="-5.842" x2="21.336" y2="-2.921" width="0.1016" layer="144"/>
<text x="31.369" y="-5.2832" size="1.778" layer="144" font="vector" ratio="5">6</text>
<wire x1="29.21" y1="-5.842" x2="35.052" y2="-5.842" width="0.1016" layer="144"/>
<wire x1="35.052" y1="-5.842" x2="35.052" y2="-2.921" width="0.1016" layer="144"/>
<text x="38.6334" y="-5.2832" size="1.778" layer="144" font="vector" ratio="5">YES</text>
<wire x1="35.052" y1="-5.842" x2="46.736" y2="-5.842" width="0.1016" layer="144"/>
<wire x1="46.736" y1="-5.842" x2="46.736" y2="-2.921" width="0.1016" layer="144"/>
<text x="48.3108" y="-5.2832" size="1.778" layer="144" font="vector" ratio="5">-/+0.05</text>
<wire x1="46.736" y1="-5.842" x2="60.452" y2="-5.842" width="0.1016" layer="144"/>
<wire x1="60.452" y1="-5.842" x2="60.452" y2="-2.921" width="0.1016" layer="144"/>
<wire x1="2.921" y1="-7.3152" x2="2.921" y2="-6.8072" width="0.1016" layer="144"/>
<wire x1="2.921" y1="-6.8072" x2="3.429" y2="-6.8072" width="0.1016" layer="144"/>
<wire x1="3.429" y1="-6.8072" x2="3.429" y2="-7.8232" width="0.1016" layer="144"/>
<wire x1="3.429" y1="-7.8232" x2="2.413" y2="-7.8232" width="0.1016" layer="144"/>
<wire x1="2.413" y1="-7.8232" x2="2.413" y2="-6.8072" width="0.1016" layer="144"/>
<wire x1="2.413" y1="-6.8072" x2="2.921" y2="-6.8072" width="0.1016" layer="144"/>
<wire x1="0" y1="-8.763" x2="5.842" y2="-8.763" width="0.1016" layer="144"/>
<wire x1="5.842" y1="-8.763" x2="5.842" y2="-5.842" width="0.1016" layer="144"/>
<text x="6.985" y="-8.2042" size="1.778" layer="144" font="vector" ratio="5">3</text>
<wire x1="5.842" y1="-8.763" x2="9.652" y2="-8.763" width="0.1016" layer="144"/>
<wire x1="9.652" y1="-8.763" x2="9.652" y2="-5.842" width="0.1016" layer="144"/>
<text x="22.2504" y="-8.2042" size="1.778" layer="144" font="vector" ratio="5">0.70</text>
<wire x1="29.21" y1="-8.763" x2="29.21" y2="-5.842" width="0.1016" layer="144"/>
<text x="11.7094" y="-8.2042" size="1.778" layer="144" font="vector" ratio="5">27.56</text>
<wire x1="9.652" y1="-8.763" x2="21.336" y2="-8.763" width="0.1016" layer="144"/>
<wire x1="21.336" y1="-8.763" x2="29.21" y2="-8.763" width="0.1016" layer="144"/>
<wire x1="21.336" y1="-8.763" x2="21.336" y2="-5.842" width="0.1016" layer="144"/>
<text x="30.6324" y="-8.2042" size="1.778" layer="144" font="vector" ratio="5">28</text>
<wire x1="29.21" y1="-8.763" x2="35.052" y2="-8.763" width="0.1016" layer="144"/>
<wire x1="35.052" y1="-8.763" x2="35.052" y2="-5.842" width="0.1016" layer="144"/>
<text x="38.6334" y="-8.2042" size="1.778" layer="144" font="vector" ratio="5">YES</text>
<wire x1="35.052" y1="-8.763" x2="46.736" y2="-8.763" width="0.1016" layer="144"/>
<wire x1="46.736" y1="-8.763" x2="46.736" y2="-5.842" width="0.1016" layer="144"/>
<text x="48.3108" y="-8.2042" size="1.778" layer="144" font="vector" ratio="5">-/+0.05</text>
<wire x1="46.736" y1="-8.763" x2="60.452" y2="-8.763" width="0.1016" layer="144"/>
<wire x1="60.452" y1="-8.763" x2="60.452" y2="-5.842" width="0.1016" layer="144"/>
<wire x1="2.921" y1="-10.2362" x2="2.921" y2="-9.7282" width="0.1016" layer="144"/>
<wire x1="2.921" y1="-9.7282" x2="3.429" y2="-10.2362" width="0.1016" layer="144"/>
<wire x1="3.429" y1="-10.2362" x2="2.921" y2="-10.7442" width="0.1016" layer="144"/>
<wire x1="2.921" y1="-10.7442" x2="2.413" y2="-10.2362" width="0.1016" layer="144"/>
<wire x1="2.413" y1="-10.2362" x2="2.921" y2="-9.7282" width="0.1016" layer="144"/>
<wire x1="0" y1="-11.684" x2="5.842" y2="-11.684" width="0.1016" layer="144"/>
<wire x1="5.842" y1="-11.684" x2="5.842" y2="-8.763" width="0.1016" layer="144"/>
<text x="6.985" y="-11.1252" size="1.778" layer="144" font="vector" ratio="5">4</text>
<wire x1="5.842" y1="-11.684" x2="9.652" y2="-11.684" width="0.1016" layer="144"/>
<wire x1="9.652" y1="-11.684" x2="9.652" y2="-8.763" width="0.1016" layer="144"/>
<text x="22.2504" y="-11.1252" size="1.778" layer="144" font="vector" ratio="5">0.89</text>
<wire x1="29.21" y1="-11.684" x2="29.21" y2="-8.763" width="0.1016" layer="144"/>
<text x="11.7094" y="-11.1252" size="1.778" layer="144" font="vector" ratio="5">35.00</text>
<wire x1="9.652" y1="-11.684" x2="21.336" y2="-11.684" width="0.1016" layer="144"/>
<wire x1="21.336" y1="-11.684" x2="29.21" y2="-11.684" width="0.1016" layer="144"/>
<wire x1="21.336" y1="-11.684" x2="21.336" y2="-8.763" width="0.1016" layer="144"/>
<text x="30.6324" y="-11.1252" size="1.778" layer="144" font="vector" ratio="5">36</text>
<wire x1="29.21" y1="-11.684" x2="35.052" y2="-11.684" width="0.1016" layer="144"/>
<wire x1="35.052" y1="-11.684" x2="35.052" y2="-8.763" width="0.1016" layer="144"/>
<text x="38.6334" y="-11.1252" size="1.778" layer="144" font="vector" ratio="5">YES</text>
<wire x1="35.052" y1="-11.684" x2="46.736" y2="-11.684" width="0.1016" layer="144"/>
<wire x1="46.736" y1="-11.684" x2="46.736" y2="-8.763" width="0.1016" layer="144"/>
<text x="48.3108" y="-11.1252" size="1.778" layer="144" font="vector" ratio="5">-/+0.05</text>
<wire x1="46.736" y1="-11.684" x2="60.452" y2="-11.684" width="0.1016" layer="144"/>
<wire x1="60.452" y1="-11.684" x2="60.452" y2="-8.763" width="0.1016" layer="144"/>
<wire x1="2.413" y1="-12.6492" x2="3.429" y2="-12.6492" width="0.1016" layer="144"/>
<wire x1="3.429" y1="-12.6492" x2="2.413" y2="-13.6652" width="0.1016" layer="144"/>
<wire x1="2.413" y1="-13.6652" x2="3.429" y2="-13.6652" width="0.1016" layer="144"/>
<wire x1="3.429" y1="-13.6652" x2="2.413" y2="-12.6492" width="0.1016" layer="144"/>
<wire x1="0" y1="-14.605" x2="5.842" y2="-14.605" width="0.1016" layer="144"/>
<wire x1="5.842" y1="-14.605" x2="5.842" y2="-11.684" width="0.1016" layer="144"/>
<text x="6.985" y="-14.0462" size="1.778" layer="144" font="vector" ratio="5">5</text>
<wire x1="5.842" y1="-14.605" x2="9.652" y2="-14.605" width="0.1016" layer="144"/>
<wire x1="9.652" y1="-14.605" x2="9.652" y2="-11.684" width="0.1016" layer="144"/>
<text x="22.2504" y="-14.0462" size="1.778" layer="144" font="vector" ratio="5">1.00</text>
<wire x1="29.21" y1="-14.605" x2="29.21" y2="-11.684" width="0.1016" layer="144"/>
<text x="11.7094" y="-14.0462" size="1.778" layer="144" font="vector" ratio="5">39.37</text>
<wire x1="9.652" y1="-14.605" x2="21.336" y2="-14.605" width="0.1016" layer="144"/>
<wire x1="21.336" y1="-14.605" x2="29.21" y2="-14.605" width="0.1016" layer="144"/>
<wire x1="21.336" y1="-14.605" x2="21.336" y2="-11.684" width="0.1016" layer="144"/>
<text x="30.6324" y="-14.0462" size="1.778" layer="144" font="vector" ratio="5">27</text>
<wire x1="29.21" y1="-14.605" x2="35.052" y2="-14.605" width="0.1016" layer="144"/>
<wire x1="35.052" y1="-14.605" x2="35.052" y2="-11.684" width="0.1016" layer="144"/>
<text x="38.6334" y="-14.0462" size="1.778" layer="144" font="vector" ratio="5">YES</text>
<wire x1="35.052" y1="-14.605" x2="46.736" y2="-14.605" width="0.1016" layer="144"/>
<wire x1="46.736" y1="-14.605" x2="46.736" y2="-11.684" width="0.1016" layer="144"/>
<text x="48.3108" y="-14.0462" size="1.778" layer="144" font="vector" ratio="5">-/+0.05</text>
<wire x1="46.736" y1="-14.605" x2="60.452" y2="-14.605" width="0.1016" layer="144"/>
<wire x1="60.452" y1="-14.605" x2="60.452" y2="-11.684" width="0.1016" layer="144"/>
<wire x1="2.413" y1="-15.5702" x2="3.429" y2="-16.5862" width="0.1016" layer="144"/>
<wire x1="3.429" y1="-16.5862" x2="3.429" y2="-15.5702" width="0.1016" layer="144"/>
<wire x1="3.429" y1="-15.5702" x2="2.413" y2="-16.5862" width="0.1016" layer="144"/>
<wire x1="2.413" y1="-16.5862" x2="2.413" y2="-15.5702" width="0.1016" layer="144"/>
<wire x1="0" y1="-17.526" x2="5.842" y2="-17.526" width="0.1016" layer="144"/>
<wire x1="5.842" y1="-17.526" x2="5.842" y2="-14.605" width="0.1016" layer="144"/>
<text x="6.985" y="-16.9672" size="1.778" layer="144" font="vector" ratio="5">6</text>
<wire x1="5.842" y1="-17.526" x2="9.652" y2="-17.526" width="0.1016" layer="144"/>
<wire x1="9.652" y1="-17.526" x2="9.652" y2="-14.605" width="0.1016" layer="144"/>
<text x="22.2504" y="-16.9672" size="1.778" layer="144" font="vector" ratio="5">1.20</text>
<wire x1="29.21" y1="-17.526" x2="29.21" y2="-14.605" width="0.1016" layer="144"/>
<text x="11.7094" y="-16.9672" size="1.778" layer="144" font="vector" ratio="5">47.24</text>
<wire x1="9.652" y1="-17.526" x2="21.336" y2="-17.526" width="0.1016" layer="144"/>
<wire x1="21.336" y1="-17.526" x2="29.21" y2="-17.526" width="0.1016" layer="144"/>
<wire x1="21.336" y1="-17.526" x2="21.336" y2="-14.605" width="0.1016" layer="144"/>
<text x="31.369" y="-16.9672" size="1.778" layer="144" font="vector" ratio="5">3</text>
<wire x1="29.21" y1="-17.526" x2="35.052" y2="-17.526" width="0.1016" layer="144"/>
<wire x1="35.052" y1="-17.526" x2="35.052" y2="-14.605" width="0.1016" layer="144"/>
<text x="38.6334" y="-16.9672" size="1.778" layer="144" font="vector" ratio="5">YES</text>
<wire x1="35.052" y1="-17.526" x2="46.736" y2="-17.526" width="0.1016" layer="144"/>
<wire x1="46.736" y1="-17.526" x2="46.736" y2="-14.605" width="0.1016" layer="144"/>
<text x="48.3108" y="-16.9672" size="1.778" layer="144" font="vector" ratio="5">-/+0.05</text>
<wire x1="46.736" y1="-17.526" x2="60.452" y2="-17.526" width="0.1016" layer="144"/>
<wire x1="60.452" y1="-17.526" x2="60.452" y2="-14.605" width="0.1016" layer="144"/>
<wire x1="2.413" y1="-18.9992" x2="3.429" y2="-18.9992" width="0.1016" layer="144"/>
<wire x1="3.429" y1="-18.9992" x2="2.921" y2="-18.4912" width="0.1016" layer="144"/>
<wire x1="2.921" y1="-18.4912" x2="2.921" y2="-19.5072" width="0.1016" layer="144"/>
<wire x1="2.921" y1="-19.5072" x2="2.413" y2="-18.9992" width="0.1016" layer="144"/>
<wire x1="0" y1="-20.447" x2="5.842" y2="-20.447" width="0.1016" layer="144"/>
<wire x1="5.842" y1="-20.447" x2="5.842" y2="-17.526" width="0.1016" layer="144"/>
<text x="6.985" y="-19.8882" size="1.778" layer="144" font="vector" ratio="5">7</text>
<wire x1="5.842" y1="-20.447" x2="9.652" y2="-20.447" width="0.1016" layer="144"/>
<wire x1="9.652" y1="-20.447" x2="9.652" y2="-17.526" width="0.1016" layer="144"/>
<text x="22.2504" y="-19.8882" size="1.778" layer="144" font="vector" ratio="5">1.60</text>
<wire x1="29.21" y1="-20.447" x2="29.21" y2="-17.526" width="0.1016" layer="144"/>
<text x="11.7094" y="-19.8882" size="1.778" layer="144" font="vector" ratio="5">62.99</text>
<wire x1="9.652" y1="-20.447" x2="21.336" y2="-20.447" width="0.1016" layer="144"/>
<wire x1="21.336" y1="-20.447" x2="29.21" y2="-20.447" width="0.1016" layer="144"/>
<wire x1="21.336" y1="-20.447" x2="21.336" y2="-17.526" width="0.1016" layer="144"/>
<text x="31.369" y="-19.8882" size="1.778" layer="144" font="vector" ratio="5">6</text>
<wire x1="29.21" y1="-20.447" x2="35.052" y2="-20.447" width="0.1016" layer="144"/>
<wire x1="35.052" y1="-20.447" x2="35.052" y2="-17.526" width="0.1016" layer="144"/>
<text x="38.6334" y="-19.8882" size="1.778" layer="144" font="vector" ratio="5">YES</text>
<wire x1="35.052" y1="-20.447" x2="46.736" y2="-20.447" width="0.1016" layer="144"/>
<wire x1="46.736" y1="-20.447" x2="46.736" y2="-17.526" width="0.1016" layer="144"/>
<text x="48.3108" y="-19.8882" size="1.778" layer="144" font="vector" ratio="5">-/+0.05</text>
<wire x1="46.736" y1="-20.447" x2="60.452" y2="-20.447" width="0.1016" layer="144"/>
<wire x1="60.452" y1="-20.447" x2="60.452" y2="-17.526" width="0.1016" layer="144"/>
<wire x1="2.921" y1="-21.4122" x2="2.921" y2="-22.4282" width="0.1016" layer="144"/>
<wire x1="2.921" y1="-22.4282" x2="3.429" y2="-21.9202" width="0.1016" layer="144"/>
<wire x1="3.429" y1="-21.9202" x2="2.413" y2="-21.9202" width="0.1016" layer="144"/>
<wire x1="2.413" y1="-21.9202" x2="2.921" y2="-21.4122" width="0.1016" layer="144"/>
<wire x1="0" y1="-23.368" x2="5.842" y2="-23.368" width="0.1016" layer="144"/>
<wire x1="5.842" y1="-23.368" x2="5.842" y2="-20.447" width="0.1016" layer="144"/>
<text x="6.985" y="-22.8092" size="1.778" layer="144" font="vector" ratio="5">8</text>
<wire x1="5.842" y1="-23.368" x2="9.652" y2="-23.368" width="0.1016" layer="144"/>
<wire x1="9.652" y1="-23.368" x2="9.652" y2="-20.447" width="0.1016" layer="144"/>
<text x="22.2504" y="-22.8092" size="1.778" layer="144" font="vector" ratio="5">3.25</text>
<wire x1="29.21" y1="-23.368" x2="29.21" y2="-20.447" width="0.1016" layer="144"/>
<text x="10.9728" y="-22.8092" size="1.778" layer="144" font="vector" ratio="5">128.00</text>
<wire x1="9.652" y1="-23.368" x2="21.336" y2="-23.368" width="0.1016" layer="144"/>
<wire x1="21.336" y1="-23.368" x2="29.21" y2="-23.368" width="0.1016" layer="144"/>
<wire x1="21.336" y1="-23.368" x2="21.336" y2="-20.447" width="0.1016" layer="144"/>
<text x="31.369" y="-22.8092" size="1.778" layer="144" font="vector" ratio="5">6</text>
<wire x1="29.21" y1="-23.368" x2="35.052" y2="-23.368" width="0.1016" layer="144"/>
<wire x1="35.052" y1="-23.368" x2="35.052" y2="-20.447" width="0.1016" layer="144"/>
<text x="38.6334" y="-22.8092" size="1.778" layer="144" font="vector" ratio="5">NOT</text>
<wire x1="35.052" y1="-23.368" x2="46.736" y2="-23.368" width="0.1016" layer="144"/>
<wire x1="46.736" y1="-23.368" x2="46.736" y2="-20.447" width="0.1016" layer="144"/>
<text x="48.3108" y="-22.8092" size="1.778" layer="144" font="vector" ratio="5">-/+0.05</text>
<wire x1="46.736" y1="-23.368" x2="60.452" y2="-23.368" width="0.1016" layer="144"/>
<wire x1="60.452" y1="-23.368" x2="60.452" y2="-20.447" width="0.1016" layer="144"/>
<wire x1="2.413" y1="-24.3332" x2="3.429" y2="-25.3492" width="0.1016" layer="144"/>
<wire x1="3.429" y1="-24.3332" x2="2.413" y2="-25.3492" width="0.1016" layer="144"/>
<wire x1="2.921" y1="-24.3332" x2="2.921" y2="-25.3492" width="0.1016" layer="144"/>
<wire x1="0" y1="-26.289" x2="5.842" y2="-26.289" width="0.1016" layer="144"/>
<wire x1="5.842" y1="-26.289" x2="5.842" y2="-23.368" width="0.1016" layer="144"/>
<text x="6.985" y="-25.7302" size="1.778" layer="144" font="vector" ratio="5">9</text>
<wire x1="5.842" y1="-26.289" x2="9.652" y2="-26.289" width="0.1016" layer="144"/>
<wire x1="9.652" y1="-26.289" x2="9.652" y2="-23.368" width="0.1016" layer="144"/>
<text x="22.2504" y="-25.7302" size="1.778" layer="144" font="vector" ratio="5">3.96</text>
<wire x1="29.21" y1="-26.289" x2="29.21" y2="-23.368" width="0.1016" layer="144"/>
<text x="10.9728" y="-25.7302" size="1.778" layer="144" font="vector" ratio="5">156.00</text>
<wire x1="9.652" y1="-26.289" x2="21.336" y2="-26.289" width="0.1016" layer="144"/>
<wire x1="21.336" y1="-26.289" x2="29.21" y2="-26.289" width="0.1016" layer="144"/>
<wire x1="21.336" y1="-26.289" x2="21.336" y2="-23.368" width="0.1016" layer="144"/>
<text x="31.369" y="-25.7302" size="1.778" layer="144" font="vector" ratio="5">4</text>
<wire x1="29.21" y1="-26.289" x2="35.052" y2="-26.289" width="0.1016" layer="144"/>
<wire x1="35.052" y1="-26.289" x2="35.052" y2="-23.368" width="0.1016" layer="144"/>
<text x="38.6334" y="-25.7302" size="1.778" layer="144" font="vector" ratio="5">NOT</text>
<wire x1="35.052" y1="-26.289" x2="46.736" y2="-26.289" width="0.1016" layer="144"/>
<wire x1="46.736" y1="-26.289" x2="46.736" y2="-23.368" width="0.1016" layer="144"/>
<text x="48.3108" y="-25.7302" size="1.778" layer="144" font="vector" ratio="5">-/+0.05</text>
<wire x1="46.736" y1="-26.289" x2="60.452" y2="-26.289" width="0.1016" layer="144"/>
<wire x1="60.452" y1="-26.289" x2="60.452" y2="-23.368" width="0.1016" layer="144"/>
<wire x1="21.336" y1="0" x2="29.21" y2="0" width="0.1016" layer="144"/>
<wire x1="60.452" y1="0" x2="60.452" y2="2.921" width="0.1016" layer="144"/>
<wire x1="0" y1="2.921" x2="0" y2="0" width="0.1016" layer="144"/>
<wire x1="0" y1="-26.289" x2="60.452" y2="-26.289" width="0.2032" layer="144"/>
<wire x1="60.452" y1="-26.289" x2="60.452" y2="2.921" width="0.2032" layer="144"/>
<wire x1="60.452" y1="2.921" x2="0" y2="2.921" width="0.2032" layer="144"/>
<wire x1="0" y1="2.921" x2="0" y2="-26.289" width="0.2032" layer="144"/>
</package>
<package name="DRILEGEND">
<text x="0.6604" y="0.5588" size="1.778" layer="144" font="vector" ratio="5">Sym</text>
<wire x1="0" y1="0" x2="5.842" y2="0" width="0.1016" layer="144"/>
<wire x1="5.842" y1="0" x2="5.842" y2="2.921" width="0.1016" layer="144"/>
<text x="6.2484" y="0.5588" size="1.778" layer="144" font="vector" ratio="5">N°</text>
<wire x1="5.842" y1="0" x2="9.652" y2="0" width="0.1016" layer="144"/>
<wire x1="9.652" y1="0" x2="9.652" y2="2.921" width="0.1016" layer="144"/>
<text x="23.7744" y="0.5588" size="1.778" layer="144" font="vector" ratio="5">MM</text>
<wire x1="29.21" y1="0" x2="29.21" y2="2.921" width="0.1016" layer="144"/>
<text x="12.4714" y="0.5588" size="1.778" layer="144" font="vector" ratio="5">Mils</text>
<wire x1="9.652" y1="0" x2="21.336" y2="0" width="0.1016" layer="144"/>
<wire x1="21.336" y1="0" x2="21.336" y2="2.921" width="0.1016" layer="144"/>
<text x="29.8704" y="0.5588" size="1.778" layer="144" font="vector" ratio="5">Qty</text>
<wire x1="29.21" y1="0" x2="35.052" y2="0" width="0.1016" layer="144"/>
<wire x1="35.052" y1="0" x2="35.052" y2="2.921" width="0.1016" layer="144"/>
<text x="36.3728" y="0.5588" size="1.778" layer="144" font="vector" ratio="5">Plated</text>
<wire x1="35.052" y1="0" x2="46.736" y2="0" width="0.1016" layer="144"/>
<wire x1="46.736" y1="0" x2="46.736" y2="2.921" width="0.1016" layer="144"/>
<text x="51.3334" y="0.5588" size="1.778" layer="144" font="vector" ratio="5">Tol</text>
<wire x1="46.736" y1="0" x2="60.452" y2="0" width="0.1016" layer="144"/>
<wire x1="2.921" y1="-0.9652" x2="2.921" y2="-1.9812" width="0.1016" layer="144"/>
<wire x1="2.413" y1="-1.4732" x2="3.429" y2="-1.4732" width="0.1016" layer="144"/>
<wire x1="0" y1="-2.921" x2="5.842" y2="-2.921" width="0.1016" layer="144"/>
<wire x1="5.842" y1="-2.921" x2="5.842" y2="0" width="0.1016" layer="144"/>
<text x="6.985" y="-2.3622" size="1.778" layer="144" font="vector" ratio="5">1</text>
<wire x1="5.842" y1="-2.921" x2="9.652" y2="-2.921" width="0.1016" layer="144"/>
<wire x1="9.652" y1="-2.921" x2="9.652" y2="0" width="0.1016" layer="144"/>
<text x="22.2504" y="-2.3622" size="1.778" layer="144" font="vector" ratio="5">0.25</text>
<wire x1="29.21" y1="-2.921" x2="29.21" y2="0" width="0.1016" layer="144"/>
<text x="11.7094" y="-2.3622" size="1.778" layer="144" font="vector" ratio="5">10.00</text>
<wire x1="9.652" y1="-2.921" x2="21.336" y2="-2.921" width="0.1016" layer="144"/>
<wire x1="21.336" y1="-2.921" x2="29.21" y2="-2.921" width="0.1016" layer="144"/>
<wire x1="21.336" y1="-2.921" x2="21.336" y2="0" width="0.1016" layer="144"/>
<text x="29.8704" y="-2.3622" size="1.778" layer="144" font="vector" ratio="5">171</text>
<wire x1="29.21" y1="-2.921" x2="35.052" y2="-2.921" width="0.1016" layer="144"/>
<wire x1="35.052" y1="-2.921" x2="35.052" y2="0" width="0.1016" layer="144"/>
<text x="38.6334" y="-2.3622" size="1.778" layer="144" font="vector" ratio="5">YES</text>
<wire x1="35.052" y1="-2.921" x2="46.736" y2="-2.921" width="0.1016" layer="144"/>
<wire x1="46.736" y1="-2.921" x2="46.736" y2="0" width="0.1016" layer="144"/>
<text x="48.3108" y="-2.3622" size="1.778" layer="144" font="vector" ratio="5">-/+0.05</text>
<wire x1="46.736" y1="-2.921" x2="60.452" y2="-2.921" width="0.1016" layer="144"/>
<wire x1="60.452" y1="-2.921" x2="60.452" y2="0" width="0.1016" layer="144"/>
<wire x1="2.413" y1="-3.8862" x2="3.429" y2="-4.9022" width="0.1016" layer="144"/>
<wire x1="3.429" y1="-3.8862" x2="2.413" y2="-4.9022" width="0.1016" layer="144"/>
<wire x1="0" y1="-5.842" x2="5.842" y2="-5.842" width="0.1016" layer="144"/>
<wire x1="5.842" y1="-5.842" x2="5.842" y2="-2.921" width="0.1016" layer="144"/>
<text x="6.985" y="-5.2832" size="1.778" layer="144" font="vector" ratio="5">2</text>
<wire x1="5.842" y1="-5.842" x2="9.652" y2="-5.842" width="0.1016" layer="144"/>
<wire x1="9.652" y1="-5.842" x2="9.652" y2="-2.921" width="0.1016" layer="144"/>
<text x="22.2504" y="-5.2832" size="1.778" layer="144" font="vector" ratio="5">0.35</text>
<wire x1="29.21" y1="-5.842" x2="29.21" y2="-2.921" width="0.1016" layer="144"/>
<text x="11.7094" y="-5.2832" size="1.778" layer="144" font="vector" ratio="5">13.78</text>
<wire x1="9.652" y1="-5.842" x2="21.336" y2="-5.842" width="0.1016" layer="144"/>
<wire x1="21.336" y1="-5.842" x2="29.21" y2="-5.842" width="0.1016" layer="144"/>
<wire x1="21.336" y1="-5.842" x2="21.336" y2="-2.921" width="0.1016" layer="144"/>
<text x="31.369" y="-5.2832" size="1.778" layer="144" font="vector" ratio="5">6</text>
<wire x1="29.21" y1="-5.842" x2="35.052" y2="-5.842" width="0.1016" layer="144"/>
<wire x1="35.052" y1="-5.842" x2="35.052" y2="-2.921" width="0.1016" layer="144"/>
<text x="38.6334" y="-5.2832" size="1.778" layer="144" font="vector" ratio="5">YES</text>
<wire x1="35.052" y1="-5.842" x2="46.736" y2="-5.842" width="0.1016" layer="144"/>
<wire x1="46.736" y1="-5.842" x2="46.736" y2="-2.921" width="0.1016" layer="144"/>
<text x="48.3108" y="-5.2832" size="1.778" layer="144" font="vector" ratio="5">-/+0.05</text>
<wire x1="46.736" y1="-5.842" x2="60.452" y2="-5.842" width="0.1016" layer="144"/>
<wire x1="60.452" y1="-5.842" x2="60.452" y2="-2.921" width="0.1016" layer="144"/>
<wire x1="2.921" y1="-7.3152" x2="2.921" y2="-6.8072" width="0.1016" layer="144"/>
<wire x1="2.921" y1="-6.8072" x2="3.429" y2="-6.8072" width="0.1016" layer="144"/>
<wire x1="3.429" y1="-6.8072" x2="3.429" y2="-7.8232" width="0.1016" layer="144"/>
<wire x1="3.429" y1="-7.8232" x2="2.413" y2="-7.8232" width="0.1016" layer="144"/>
<wire x1="2.413" y1="-7.8232" x2="2.413" y2="-6.8072" width="0.1016" layer="144"/>
<wire x1="2.413" y1="-6.8072" x2="2.921" y2="-6.8072" width="0.1016" layer="144"/>
<wire x1="0" y1="-8.763" x2="5.842" y2="-8.763" width="0.1016" layer="144"/>
<wire x1="5.842" y1="-8.763" x2="5.842" y2="-5.842" width="0.1016" layer="144"/>
<text x="6.985" y="-8.2042" size="1.778" layer="144" font="vector" ratio="5">3</text>
<wire x1="5.842" y1="-8.763" x2="9.652" y2="-8.763" width="0.1016" layer="144"/>
<wire x1="9.652" y1="-8.763" x2="9.652" y2="-5.842" width="0.1016" layer="144"/>
<text x="22.2504" y="-8.2042" size="1.778" layer="144" font="vector" ratio="5">0.70</text>
<wire x1="29.21" y1="-8.763" x2="29.21" y2="-5.842" width="0.1016" layer="144"/>
<text x="11.7094" y="-8.2042" size="1.778" layer="144" font="vector" ratio="5">27.56</text>
<wire x1="9.652" y1="-8.763" x2="21.336" y2="-8.763" width="0.1016" layer="144"/>
<wire x1="21.336" y1="-8.763" x2="29.21" y2="-8.763" width="0.1016" layer="144"/>
<wire x1="21.336" y1="-8.763" x2="21.336" y2="-5.842" width="0.1016" layer="144"/>
<text x="30.6324" y="-8.2042" size="1.778" layer="144" font="vector" ratio="5">28</text>
<wire x1="29.21" y1="-8.763" x2="35.052" y2="-8.763" width="0.1016" layer="144"/>
<wire x1="35.052" y1="-8.763" x2="35.052" y2="-5.842" width="0.1016" layer="144"/>
<text x="38.6334" y="-8.2042" size="1.778" layer="144" font="vector" ratio="5">YES</text>
<wire x1="35.052" y1="-8.763" x2="46.736" y2="-8.763" width="0.1016" layer="144"/>
<wire x1="46.736" y1="-8.763" x2="46.736" y2="-5.842" width="0.1016" layer="144"/>
<text x="48.3108" y="-8.2042" size="1.778" layer="144" font="vector" ratio="5">-/+0.05</text>
<wire x1="46.736" y1="-8.763" x2="60.452" y2="-8.763" width="0.1016" layer="144"/>
<wire x1="60.452" y1="-8.763" x2="60.452" y2="-5.842" width="0.1016" layer="144"/>
<wire x1="2.921" y1="-10.2362" x2="2.921" y2="-9.7282" width="0.1016" layer="144"/>
<wire x1="2.921" y1="-9.7282" x2="3.429" y2="-10.2362" width="0.1016" layer="144"/>
<wire x1="3.429" y1="-10.2362" x2="2.921" y2="-10.7442" width="0.1016" layer="144"/>
<wire x1="2.921" y1="-10.7442" x2="2.413" y2="-10.2362" width="0.1016" layer="144"/>
<wire x1="2.413" y1="-10.2362" x2="2.921" y2="-9.7282" width="0.1016" layer="144"/>
<wire x1="0" y1="-11.684" x2="5.842" y2="-11.684" width="0.1016" layer="144"/>
<wire x1="5.842" y1="-11.684" x2="5.842" y2="-8.763" width="0.1016" layer="144"/>
<text x="6.985" y="-11.1252" size="1.778" layer="144" font="vector" ratio="5">4</text>
<wire x1="5.842" y1="-11.684" x2="9.652" y2="-11.684" width="0.1016" layer="144"/>
<wire x1="9.652" y1="-11.684" x2="9.652" y2="-8.763" width="0.1016" layer="144"/>
<text x="22.2504" y="-11.1252" size="1.778" layer="144" font="vector" ratio="5">0.89</text>
<wire x1="29.21" y1="-11.684" x2="29.21" y2="-8.763" width="0.1016" layer="144"/>
<text x="11.7094" y="-11.1252" size="1.778" layer="144" font="vector" ratio="5">35.00</text>
<wire x1="9.652" y1="-11.684" x2="21.336" y2="-11.684" width="0.1016" layer="144"/>
<wire x1="21.336" y1="-11.684" x2="29.21" y2="-11.684" width="0.1016" layer="144"/>
<wire x1="21.336" y1="-11.684" x2="21.336" y2="-8.763" width="0.1016" layer="144"/>
<text x="30.6324" y="-11.1252" size="1.778" layer="144" font="vector" ratio="5">36</text>
<wire x1="29.21" y1="-11.684" x2="35.052" y2="-11.684" width="0.1016" layer="144"/>
<wire x1="35.052" y1="-11.684" x2="35.052" y2="-8.763" width="0.1016" layer="144"/>
<text x="38.6334" y="-11.1252" size="1.778" layer="144" font="vector" ratio="5">YES</text>
<wire x1="35.052" y1="-11.684" x2="46.736" y2="-11.684" width="0.1016" layer="144"/>
<wire x1="46.736" y1="-11.684" x2="46.736" y2="-8.763" width="0.1016" layer="144"/>
<text x="48.3108" y="-11.1252" size="1.778" layer="144" font="vector" ratio="5">-/+0.05</text>
<wire x1="46.736" y1="-11.684" x2="60.452" y2="-11.684" width="0.1016" layer="144"/>
<wire x1="60.452" y1="-11.684" x2="60.452" y2="-8.763" width="0.1016" layer="144"/>
<wire x1="2.413" y1="-12.6492" x2="3.429" y2="-12.6492" width="0.1016" layer="144"/>
<wire x1="3.429" y1="-12.6492" x2="2.413" y2="-13.6652" width="0.1016" layer="144"/>
<wire x1="2.413" y1="-13.6652" x2="3.429" y2="-13.6652" width="0.1016" layer="144"/>
<wire x1="3.429" y1="-13.6652" x2="2.413" y2="-12.6492" width="0.1016" layer="144"/>
<wire x1="0" y1="-14.605" x2="5.842" y2="-14.605" width="0.1016" layer="144"/>
<wire x1="5.842" y1="-14.605" x2="5.842" y2="-11.684" width="0.1016" layer="144"/>
<text x="6.985" y="-14.0462" size="1.778" layer="144" font="vector" ratio="5">5</text>
<wire x1="5.842" y1="-14.605" x2="9.652" y2="-14.605" width="0.1016" layer="144"/>
<wire x1="9.652" y1="-14.605" x2="9.652" y2="-11.684" width="0.1016" layer="144"/>
<text x="22.2504" y="-14.0462" size="1.778" layer="144" font="vector" ratio="5">1.00</text>
<wire x1="29.21" y1="-14.605" x2="29.21" y2="-11.684" width="0.1016" layer="144"/>
<text x="11.7094" y="-14.0462" size="1.778" layer="144" font="vector" ratio="5">39.37</text>
<wire x1="9.652" y1="-14.605" x2="21.336" y2="-14.605" width="0.1016" layer="144"/>
<wire x1="21.336" y1="-14.605" x2="29.21" y2="-14.605" width="0.1016" layer="144"/>
<wire x1="21.336" y1="-14.605" x2="21.336" y2="-11.684" width="0.1016" layer="144"/>
<text x="30.6324" y="-14.0462" size="1.778" layer="144" font="vector" ratio="5">27</text>
<wire x1="29.21" y1="-14.605" x2="35.052" y2="-14.605" width="0.1016" layer="144"/>
<wire x1="35.052" y1="-14.605" x2="35.052" y2="-11.684" width="0.1016" layer="144"/>
<text x="38.6334" y="-14.0462" size="1.778" layer="144" font="vector" ratio="5">YES</text>
<wire x1="35.052" y1="-14.605" x2="46.736" y2="-14.605" width="0.1016" layer="144"/>
<wire x1="46.736" y1="-14.605" x2="46.736" y2="-11.684" width="0.1016" layer="144"/>
<text x="48.3108" y="-14.0462" size="1.778" layer="144" font="vector" ratio="5">-/+0.05</text>
<wire x1="46.736" y1="-14.605" x2="60.452" y2="-14.605" width="0.1016" layer="144"/>
<wire x1="60.452" y1="-14.605" x2="60.452" y2="-11.684" width="0.1016" layer="144"/>
<wire x1="2.413" y1="-15.5702" x2="3.429" y2="-16.5862" width="0.1016" layer="144"/>
<wire x1="3.429" y1="-16.5862" x2="3.429" y2="-15.5702" width="0.1016" layer="144"/>
<wire x1="3.429" y1="-15.5702" x2="2.413" y2="-16.5862" width="0.1016" layer="144"/>
<wire x1="2.413" y1="-16.5862" x2="2.413" y2="-15.5702" width="0.1016" layer="144"/>
<wire x1="0" y1="-17.526" x2="5.842" y2="-17.526" width="0.1016" layer="144"/>
<wire x1="5.842" y1="-17.526" x2="5.842" y2="-14.605" width="0.1016" layer="144"/>
<text x="6.985" y="-16.9672" size="1.778" layer="144" font="vector" ratio="5">6</text>
<wire x1="5.842" y1="-17.526" x2="9.652" y2="-17.526" width="0.1016" layer="144"/>
<wire x1="9.652" y1="-17.526" x2="9.652" y2="-14.605" width="0.1016" layer="144"/>
<text x="22.2504" y="-16.9672" size="1.778" layer="144" font="vector" ratio="5">1.20</text>
<wire x1="29.21" y1="-17.526" x2="29.21" y2="-14.605" width="0.1016" layer="144"/>
<text x="11.7094" y="-16.9672" size="1.778" layer="144" font="vector" ratio="5">47.24</text>
<wire x1="9.652" y1="-17.526" x2="21.336" y2="-17.526" width="0.1016" layer="144"/>
<wire x1="21.336" y1="-17.526" x2="29.21" y2="-17.526" width="0.1016" layer="144"/>
<wire x1="21.336" y1="-17.526" x2="21.336" y2="-14.605" width="0.1016" layer="144"/>
<text x="31.369" y="-16.9672" size="1.778" layer="144" font="vector" ratio="5">3</text>
<wire x1="29.21" y1="-17.526" x2="35.052" y2="-17.526" width="0.1016" layer="144"/>
<wire x1="35.052" y1="-17.526" x2="35.052" y2="-14.605" width="0.1016" layer="144"/>
<text x="38.6334" y="-16.9672" size="1.778" layer="144" font="vector" ratio="5">YES</text>
<wire x1="35.052" y1="-17.526" x2="46.736" y2="-17.526" width="0.1016" layer="144"/>
<wire x1="46.736" y1="-17.526" x2="46.736" y2="-14.605" width="0.1016" layer="144"/>
<text x="48.3108" y="-16.9672" size="1.778" layer="144" font="vector" ratio="5">-/+0.05</text>
<wire x1="46.736" y1="-17.526" x2="60.452" y2="-17.526" width="0.1016" layer="144"/>
<wire x1="60.452" y1="-17.526" x2="60.452" y2="-14.605" width="0.1016" layer="144"/>
<wire x1="2.413" y1="-18.9992" x2="3.429" y2="-18.9992" width="0.1016" layer="144"/>
<wire x1="3.429" y1="-18.9992" x2="2.921" y2="-18.4912" width="0.1016" layer="144"/>
<wire x1="2.921" y1="-18.4912" x2="2.921" y2="-19.5072" width="0.1016" layer="144"/>
<wire x1="2.921" y1="-19.5072" x2="2.413" y2="-18.9992" width="0.1016" layer="144"/>
<wire x1="0" y1="-20.447" x2="5.842" y2="-20.447" width="0.1016" layer="144"/>
<wire x1="5.842" y1="-20.447" x2="5.842" y2="-17.526" width="0.1016" layer="144"/>
<text x="6.985" y="-19.8882" size="1.778" layer="144" font="vector" ratio="5">7</text>
<wire x1="5.842" y1="-20.447" x2="9.652" y2="-20.447" width="0.1016" layer="144"/>
<wire x1="9.652" y1="-20.447" x2="9.652" y2="-17.526" width="0.1016" layer="144"/>
<text x="22.2504" y="-19.8882" size="1.778" layer="144" font="vector" ratio="5">1.60</text>
<wire x1="29.21" y1="-20.447" x2="29.21" y2="-17.526" width="0.1016" layer="144"/>
<text x="11.7094" y="-19.8882" size="1.778" layer="144" font="vector" ratio="5">62.99</text>
<wire x1="9.652" y1="-20.447" x2="21.336" y2="-20.447" width="0.1016" layer="144"/>
<wire x1="21.336" y1="-20.447" x2="29.21" y2="-20.447" width="0.1016" layer="144"/>
<wire x1="21.336" y1="-20.447" x2="21.336" y2="-17.526" width="0.1016" layer="144"/>
<text x="31.369" y="-19.8882" size="1.778" layer="144" font="vector" ratio="5">6</text>
<wire x1="29.21" y1="-20.447" x2="35.052" y2="-20.447" width="0.1016" layer="144"/>
<wire x1="35.052" y1="-20.447" x2="35.052" y2="-17.526" width="0.1016" layer="144"/>
<text x="38.6334" y="-19.8882" size="1.778" layer="144" font="vector" ratio="5">YES</text>
<wire x1="35.052" y1="-20.447" x2="46.736" y2="-20.447" width="0.1016" layer="144"/>
<wire x1="46.736" y1="-20.447" x2="46.736" y2="-17.526" width="0.1016" layer="144"/>
<text x="48.3108" y="-19.8882" size="1.778" layer="144" font="vector" ratio="5">-/+0.05</text>
<wire x1="46.736" y1="-20.447" x2="60.452" y2="-20.447" width="0.1016" layer="144"/>
<wire x1="60.452" y1="-20.447" x2="60.452" y2="-17.526" width="0.1016" layer="144"/>
<wire x1="2.921" y1="-21.4122" x2="2.921" y2="-22.4282" width="0.1016" layer="144"/>
<wire x1="2.921" y1="-22.4282" x2="3.429" y2="-21.9202" width="0.1016" layer="144"/>
<wire x1="3.429" y1="-21.9202" x2="2.413" y2="-21.9202" width="0.1016" layer="144"/>
<wire x1="2.413" y1="-21.9202" x2="2.921" y2="-21.4122" width="0.1016" layer="144"/>
<wire x1="0" y1="-23.368" x2="5.842" y2="-23.368" width="0.1016" layer="144"/>
<wire x1="5.842" y1="-23.368" x2="5.842" y2="-20.447" width="0.1016" layer="144"/>
<text x="6.985" y="-22.8092" size="1.778" layer="144" font="vector" ratio="5">8</text>
<wire x1="5.842" y1="-23.368" x2="9.652" y2="-23.368" width="0.1016" layer="144"/>
<wire x1="9.652" y1="-23.368" x2="9.652" y2="-20.447" width="0.1016" layer="144"/>
<text x="22.2504" y="-22.8092" size="1.778" layer="144" font="vector" ratio="5">3.25</text>
<wire x1="29.21" y1="-23.368" x2="29.21" y2="-20.447" width="0.1016" layer="144"/>
<text x="10.9728" y="-22.8092" size="1.778" layer="144" font="vector" ratio="5">128.00</text>
<wire x1="9.652" y1="-23.368" x2="21.336" y2="-23.368" width="0.1016" layer="144"/>
<wire x1="21.336" y1="-23.368" x2="29.21" y2="-23.368" width="0.1016" layer="144"/>
<wire x1="21.336" y1="-23.368" x2="21.336" y2="-20.447" width="0.1016" layer="144"/>
<text x="31.369" y="-22.8092" size="1.778" layer="144" font="vector" ratio="5">6</text>
<wire x1="29.21" y1="-23.368" x2="35.052" y2="-23.368" width="0.1016" layer="144"/>
<wire x1="35.052" y1="-23.368" x2="35.052" y2="-20.447" width="0.1016" layer="144"/>
<text x="38.6334" y="-22.8092" size="1.778" layer="144" font="vector" ratio="5">NOT</text>
<wire x1="35.052" y1="-23.368" x2="46.736" y2="-23.368" width="0.1016" layer="144"/>
<wire x1="46.736" y1="-23.368" x2="46.736" y2="-20.447" width="0.1016" layer="144"/>
<text x="48.3108" y="-22.8092" size="1.778" layer="144" font="vector" ratio="5">-/+0.05</text>
<wire x1="46.736" y1="-23.368" x2="60.452" y2="-23.368" width="0.1016" layer="144"/>
<wire x1="60.452" y1="-23.368" x2="60.452" y2="-20.447" width="0.1016" layer="144"/>
<wire x1="2.413" y1="-24.3332" x2="3.429" y2="-25.3492" width="0.1016" layer="144"/>
<wire x1="3.429" y1="-24.3332" x2="2.413" y2="-25.3492" width="0.1016" layer="144"/>
<wire x1="2.921" y1="-24.3332" x2="2.921" y2="-25.3492" width="0.1016" layer="144"/>
<wire x1="0" y1="-26.289" x2="5.842" y2="-26.289" width="0.1016" layer="144"/>
<wire x1="5.842" y1="-26.289" x2="5.842" y2="-23.368" width="0.1016" layer="144"/>
<text x="6.985" y="-25.7302" size="1.778" layer="144" font="vector" ratio="5">9</text>
<wire x1="5.842" y1="-26.289" x2="9.652" y2="-26.289" width="0.1016" layer="144"/>
<wire x1="9.652" y1="-26.289" x2="9.652" y2="-23.368" width="0.1016" layer="144"/>
<text x="22.2504" y="-25.7302" size="1.778" layer="144" font="vector" ratio="5">3.96</text>
<wire x1="29.21" y1="-26.289" x2="29.21" y2="-23.368" width="0.1016" layer="144"/>
<text x="10.9728" y="-25.7302" size="1.778" layer="144" font="vector" ratio="5">156.00</text>
<wire x1="9.652" y1="-26.289" x2="21.336" y2="-26.289" width="0.1016" layer="144"/>
<wire x1="21.336" y1="-26.289" x2="29.21" y2="-26.289" width="0.1016" layer="144"/>
<wire x1="21.336" y1="-26.289" x2="21.336" y2="-23.368" width="0.1016" layer="144"/>
<text x="31.369" y="-25.7302" size="1.778" layer="144" font="vector" ratio="5">4</text>
<wire x1="29.21" y1="-26.289" x2="35.052" y2="-26.289" width="0.1016" layer="144"/>
<wire x1="35.052" y1="-26.289" x2="35.052" y2="-23.368" width="0.1016" layer="144"/>
<text x="38.6334" y="-25.7302" size="1.778" layer="144" font="vector" ratio="5">NOT</text>
<wire x1="35.052" y1="-26.289" x2="46.736" y2="-26.289" width="0.1016" layer="144"/>
<wire x1="46.736" y1="-26.289" x2="46.736" y2="-23.368" width="0.1016" layer="144"/>
<text x="48.3108" y="-25.7302" size="1.778" layer="144" font="vector" ratio="5">-/+0.05</text>
<wire x1="46.736" y1="-26.289" x2="60.452" y2="-26.289" width="0.1016" layer="144"/>
<wire x1="60.452" y1="-26.289" x2="60.452" y2="-23.368" width="0.1016" layer="144"/>
<wire x1="21.336" y1="0" x2="29.21" y2="0" width="0.1016" layer="144"/>
<wire x1="60.452" y1="0" x2="60.452" y2="2.921" width="0.1016" layer="144"/>
<wire x1="0" y1="2.921" x2="0" y2="0" width="0.1016" layer="144"/>
<wire x1="0" y1="-26.289" x2="60.452" y2="-26.289" width="0.2032" layer="144"/>
<wire x1="60.452" y1="-26.289" x2="60.452" y2="2.921" width="0.2032" layer="144"/>
<wire x1="60.452" y1="2.921" x2="0" y2="2.921" width="0.2032" layer="144"/>
<wire x1="0" y1="2.921" x2="0" y2="-26.289" width="0.2032" layer="144"/>
</package>
</packages>
<symbols>
</symbols>
<devicesets>
</devicesets>
</library>
</drawing>
</eagle>
