###############################################################################
#
# IAR C/C++ Compiler V6.50.4.971/W32 for MSP430           16/Mar/2018  10:01:16
# Copyright 1996-2016 IAR Systems AB.
# Network license: ENGENT (STD)
#
#    __rt_version  =  3
#    __double_size =  32
#    __reg_r4      =  free
#    __reg_r5      =  free
#    __pic         =  no
#    __core        =  430X
#    __data_model  =  small
#    __code_model  =  large
#    Source file   =  
#        C:\Users\rgandhi\Desktop\BS_VRS\Firmware\Processor\MSP430F5438A\sys_timer.c
#    Command line  =  
#        C:\Users\rgandhi\Desktop\BS_VRS\Firmware\Processor\MSP430F5438A\sys_timer.c
#        -lC C:\Users\rgandhi\Desktop\BS_VRS\Firmware\Debug\List -lA
#        C:\Users\rgandhi\Desktop\BS_VRS\Firmware\Debug\List -o
#        C:\Users\rgandhi\Desktop\BS_VRS\Firmware\Debug\Obj --no_cse
#        --no_unroll --no_inline --no_code_motion --no_tbaa --debug
#        -D__MSP430F5438A__ -e --double=32 --dlib_config "C:\Program Files
#        (x86)\IAR Systems\Embedded Workbench 7.4\430\lib\dlib\dl430xlsfn.h" -I
#        C:\Users\rgandhi\Desktop\BS_VRS\Firmware\ -I
#        C:\Users\rgandhi\Desktop\BS_VRS\Firmware\Application\ -I
#        C:\Users\rgandhi\Desktop\BS_VRS\Firmware\Driver\ -I
#        C:\Users\rgandhi\Desktop\BS_VRS\Firmware\Protocol\ -I
#        C:\Users\rgandhi\Desktop\BS_VRS\Firmware\Processor\MSP430F5438A\ -I
#        C:\Users\rgandhi\Desktop\BS_VRS\Firmware\Processor\ -I
#        C:\Users\rgandhi\Desktop\BS_VRS\Firmware\Driver\ANALOG\ -I
#        C:\Users\rgandhi\Desktop\BS_VRS\Firmware\Driver\DIGITAL\ -I
#        C:\Users\rgandhi\Desktop\BS_VRS\Firmware\Driver\I2C\ -I
#        C:\Users\rgandhi\Desktop\BS_VRS\Firmware\Driver\SPI\ -I
#        C:\Users\rgandhi\Desktop\BS_VRS\Firmware\Driver\UART\ --core=430X
#        --data_model=small -On --multiplier=32 --hw_workaround=CPU40
#        --hw_workaround=nop_after_lpm --code_model=large
#    Locale        =  English_United States.1252
#    List file     =  
#        C:\Users\rgandhi\Desktop\BS_VRS\Firmware\Debug\List\sys_timer.lst
#    Object file   =  
#        C:\Users\rgandhi\Desktop\BS_VRS\Firmware\Debug\Obj\sys_timer.r43
#
###############################################################################

C:\Users\rgandhi\Desktop\BS_VRS\Firmware\Processor\MSP430F5438A\sys_timer.c
      1          /***************************************************************************//**
      2           * FILE INCLUDES
      3           ******************************************************************************/
      4          #include "sys_timer.h"

   \                                 In  segment DATA16_AN, at 0x340
   \   unsigned short volatile TA0CTL
   \                     TA0CTL:
   \   000000                DS8 2

   \                                 In  segment DATA16_AN, at 0x344
   \   unsigned short volatile TA0CCTL1
   \                     TA0CCTL1:
   \   000000                DS8 2

   \                                 In  segment DATA16_AN, at 0x350
   \   unsigned short volatile TA0R
   \                     TA0R:
   \   000000                DS8 2

   \                                 In  segment DATA16_AN, at 0x352
   \   unsigned short volatile TA0CCR0
   \                     TA0CCR0:
   \   000000                DS8 2

   \                                 In  segment DATA16_AN, at 0x354
   \   unsigned short volatile TA0CCR1
   \                     TA0CCR1:
   \   000000                DS8 2

   \                                 In  segment DATA16_AN, at 0x356
   \   unsigned short volatile TA0CCR2
   \                     TA0CCR2:
   \   000000                DS8 2

   \                                 In  segment DATA16_AN, at 0x36e
   \   unsigned short volatile TA0IV
   \                     TA0IV:
   \   000000                DS8 2

   \                                 In  segment DATA16_AN, at 0x3c0
   \   unsigned short volatile TB0CTL
   \                     TB0CTL:
   \   000000                DS8 2

   \                                 In  segment DATA16_AN, at 0x3c4
   \   unsigned short volatile TB0CCTL1
   \                     TB0CCTL1:
   \   000000                DS8 2

   \                                 In  segment DATA16_AN, at 0x3d0
   \   unsigned short volatile TB0R
   \                     TB0R:
   \   000000                DS8 2

   \                                 In  segment DATA16_AN, at 0x3d2
   \   unsigned short volatile TB0CCR0
   \                     TB0CCR0:
   \   000000                DS8 2

   \                                 In  segment DATA16_AN, at 0x3d4
   \   unsigned short volatile TB0CCR1
   \                     TB0CCR1:
   \   000000                DS8 2

   \                                 In  segment DATA16_AN, at 0x3d6
   \   unsigned short volatile TB0CCR2
   \                     TB0CCR2:
   \   000000                DS8 2

   \                                 In  segment DATA16_AN, at 0x3ee
   \   unsigned short volatile TB0IV
   \                     TB0IV:
   \   000000                DS8 2
      5          

   \                                 In  segment DATA16_I, align 2, align-sorted
   \   000000                REQUIRE ?cstart_init_copy
      6          Timer_Flag Failure_Timer_5Sec = 
   \                     Failure_Timer_5Sec:
   \   000000                DS8 6
   \   000006                REQUIRE `?<Initializer for Failure_Timer_5Sec>`
      7          {
      8            MAX_TIMER_COUNT,
      9            0x0000,
     10            0x00,
     11          };
     12          

   \                                 In  segment DATA16_I, align 2, align-sorted
   \   000000                REQUIRE ?cstart_init_copy
     13          Timer_Flag Heartbeat_Timer_Sec = 
   \                     Heartbeat_Timer_Sec:
   \   000000                DS8 6
   \   000006                REQUIRE `?<Initializer for Heartbeat_Timer_Sec>`
     14          {
     15            MAX_TIMER_COUNT,
     16            0x0000,
     17            0x00,
     18          };
     19          
     20          /***************************************************************************//**
     21           * FUNCTION DEFINATION
     22           ******************************************************************************/
     23          
     24          /***************************************************************************//**
     25           * @param Function      Timer_A0_Configure
     26           * @param Input         void
     27           * @param Return        void
     28           * @param Calling_Func  
     29           * @param Description   Configure timer A0 
     30           ******************************************************************************/

   \                                 In  segment CODE, align 2
     31          void Timer_A0_Configure() 
   \                     Timer_A0_Configure:
     32          {
     33            TA0CTL |= MC_0;                           // Ensure the timer is stopped
   \   000000   924240034003 MOV.W   &0x340, &0x340
     34            TA0CCTL1 = CCIE;                          // CCR1 interrupt enabled
   \   000006   B24010004403 MOV.W   #0x10, &0x344
     35            TA0CTL |= TASSEL_1 | TACLR;               // Run the timer of the ACLK + UP mode + Start up clean
   \   00000C   B2D004014003 BIS.W   #0x104, &0x340
     36            TA0CTL |= MC_1;                           // Timer Set to Up Mode
   \   000012   B2D010004003 BIS.W   #0x10, &0x340
     37          }
   \   000018   1001         RETA
   \   00001A                REQUIRE TA0CTL
   \   00001A                REQUIRE TA0CCTL1
     38          
     39          /***************************************************************************//**
     40           * @param Function      Timer_B0_Configure
     41           * @param Input         void
     42           * @param Return        void
     43           * @param Calling_Func  
     44           * @param Description   Configure timer B0
     45           ******************************************************************************/

   \                                 In  segment CODE, align 2
     46          void Timer_B0_Configure() 
   \                     Timer_B0_Configure:
     47          {
     48            TB0CTL |= MC_0;                           // Ensure the timer is stopped
   \   000000   9242C003C003 MOV.W   &0x3c0, &0x3c0
     49            TB0CCTL1 = CCIE;                          // CCR1 interrupt enabled
   \   000006   B2401000C403 MOV.W   #0x10, &0x3c4
     50            TB0CTL |= TBSSEL_1 | TBCLR;               // Run the timer of the ACLK + Start up clean
   \   00000C   B2D00401C003 BIS.W   #0x104, &0x3c0
     51            TB0CTL |= MC_1;                           // Timer Set to Up Mode
   \   000012   B2D01000C003 BIS.W   #0x10, &0x3c0
     52          }
   \   000018   1001         RETA
   \   00001A                REQUIRE TB0CTL
   \   00001A                REQUIRE TB0CCTL1
     53          
     54          /***************************************************************************//**
     55           * @param Function      Stop_Timer_A0
     56           * @param Input         void
     57           * @param Return        void
     58           * @param Calling_Func  
     59           * @param Description   Stop timer A0
     60           ******************************************************************************/

   \                                 In  segment CODE, align 2
     61          void Stop_Timer_A0()
   \                     Stop_Timer_A0:
     62          {
     63            TA0CTL = MC_0;
   \   000000   82434003     MOV.W   #0x0, &0x340
     64            // Alternate Method
     65            //TA0CTL = 0 ;
     66          }
   \   000004   1001         RETA
   \   000006                REQUIRE TA0CTL
     67          
     68          /***************************************************************************//**
     69           * @param Function      Stop_Timer_B0
     70           * @param Input         void
     71           * @param Return        void
     72           * @param Calling_Func  
     73           * @param Description   Stop timer B0
     74           ******************************************************************************/

   \                                 In  segment CODE, align 2
     75          void Stop_Timer_B0()
   \                     Stop_Timer_B0:
     76          {
     77            TB0CTL = MC_0;
   \   000000   8243C003     MOV.W   #0x0, &0x3c0
     78            // Alternate Method
     79            //TB0CTL = 0 ;
     80          }
   \   000004   1001         RETA
   \   000006                REQUIRE TB0CTL
     81          
     82          /***************************************************************************//**
     83           * @param Function      Set_Timer_A0_CCR
     84           * @param Input         unsigned char, unsigned int
     85           * @param Return        void
     86           * @param Calling_Func  
     87           * @param Description   Load Timer CCR A0 value
     88           ******************************************************************************/

   \                                 In  segment CODE, align 2
     89          void Set_Timer_A0_CCR(unsigned char reg, unsigned int val) 
   \                     Set_Timer_A0_CCR:
     90          {
     91            /* Change corresponding register */
     92            switch (reg) {
   \   000000   4E4C         MOV.B   R12, R14
   \   000002   4E83         SUB.B   #0x0, R14
   \   000004   0524         JEQ     ??Set_Timer_A0_CCR_1
   \   000006   5E83         SUB.B   #0x1, R14
   \   000008   0624         JEQ     ??Set_Timer_A0_CCR_2
   \   00000A   5E83         SUB.B   #0x1, R14
   \   00000C   0724         JEQ     ??Set_Timer_A0_CCR_3
   \   00000E   1001         RETA
     93            case 0:                                   // Capture/compare register 0
     94              TA0CCR0 = val;
   \                     ??Set_Timer_A0_CCR_1:
   \   000010   824D5203     MOV.W   R13, &0x352
     95              break;
   \   000014   1001         RETA
     96            case 1:                                   // Capture/compare register 1
     97              TA0CCR1 = val;
   \                     ??Set_Timer_A0_CCR_2:
   \   000016   824D5403     MOV.W   R13, &0x354
     98              break;
   \   00001A   1001         RETA
     99            case 2:                                   // Capture/compare register 2
    100              TA0CCR2 = val;
   \                     ??Set_Timer_A0_CCR_3:
   \   00001C   824D5603     MOV.W   R13, &0x356
    101              break;
    102            default: break;
    103            }
    104          }
   \   000020   1001         RETA
   \   000022                REQUIRE TA0CCR0
   \   000022                REQUIRE TA0CCR1
   \   000022                REQUIRE TA0CCR2
    105          
    106          /***************************************************************************//**
    107           * @param Function      Set_Timer_B0_CCR
    108           * @param Input         unsigned char, unsigned int
    109           * @param Return        void
    110           * @param Calling_Func  
    111           * @param Description   Load Timer CCR B0 value
    112           ******************************************************************************/

   \                                 In  segment CODE, align 2
    113          void Set_Timer_B0_CCR(unsigned char reg, unsigned int val) 
   \                     Set_Timer_B0_CCR:
    114          {
    115            /* Change corresponding register */
    116            switch (reg) {
   \   000000   4E4C         MOV.B   R12, R14
   \   000002   4E83         SUB.B   #0x0, R14
   \   000004   0524         JEQ     ??Set_Timer_B0_CCR_1
   \   000006   5E83         SUB.B   #0x1, R14
   \   000008   0624         JEQ     ??Set_Timer_B0_CCR_2
   \   00000A   5E83         SUB.B   #0x1, R14
   \   00000C   0724         JEQ     ??Set_Timer_B0_CCR_3
   \   00000E   1001         RETA
    117            case 0:                                   // Capture/compare register 0
    118              TB0CCR0 = val;
   \                     ??Set_Timer_B0_CCR_1:
   \   000010   824DD203     MOV.W   R13, &0x3d2
    119              break;
   \   000014   1001         RETA
    120            case 1:                                   // Capture/compare register 1
    121              TB0CCR1 = val;
   \                     ??Set_Timer_B0_CCR_2:
   \   000016   824DD403     MOV.W   R13, &0x3d4
    122              break;
   \   00001A   1001         RETA
    123            case 2:                                   // Capture/compare register 2
    124              TB0CCR2 = val;
   \                     ??Set_Timer_B0_CCR_3:
   \   00001C   824DD603     MOV.W   R13, &0x3d6
    125              break;
    126            default: break;
    127            }
    128          }
   \   000020   1001         RETA
   \   000022                REQUIRE TB0CCR0
   \   000022                REQUIRE TB0CCR1
   \   000022                REQUIRE TB0CCR2
    129          
    130          /***************************************************************************//**
    131           * @param Function      Set_Timer_A0_Overflow_Counter
    132           * @param Input         unsigned short int
    133           * @param Return        void
    134           * @param Calling_Func  
    135           * @param Description   Load Timer A0 overflow value
    136           ******************************************************************************/

   \                                 In  segment CODE, align 2
    137          void Set_Timer_A0_Overflow_Counter(unsigned short int val) 
   \                     Set_Timer_A0_Overflow_Counter:
    138          {
    139            TA0R = val;
   \   000000   824C5003     MOV.W   R12, &0x350
    140          }
   \   000004   1001         RETA
   \   000006                REQUIRE TA0R
    141          
    142          /***************************************************************************//**
    143           * @param Function      Set_Timer_B0_Overflow_Counter
    144           * @param Input         unsigned short int
    145           * @param Return        void
    146           * @param Calling_Func  
    147           * @param Description   Load Timer B0 overflow value
    148           ******************************************************************************/

   \                                 In  segment CODE, align 2
    149          void Set_Timer_B0_Overflow_Counter(unsigned short int val) 
   \                     Set_Timer_B0_Overflow_Counter:
    150          {
    151            TB0R = val;
   \   000000   824CD003     MOV.W   R12, &0x3d0
    152          }
   \   000004   1001         RETA
   \   000006                REQUIRE TB0R
    153          
    154          /***************************************************************************//**
    155           * @param Function      Clear_Timer_Count 
    156           * @param Input         void
    157           * @param Return        void
    158           * @param Calling_Func  
    159           * @param Description   Clear 5 Sec timer count
    160           ******************************************************************************/

   \                                 In  segment CODE, align 2
    161          void Clear_Timer_Count()
   \                     Clear_Timer_Count:
    162          {
    163            Failure_Timer_5Sec.TimerCount = 0x0000;
   \   000000   8243....     MOV.W   #0x0, &Failure_Timer_5Sec + 2
    164            Failure_Timer_5Sec.Set_flag = 0x00;
   \   000004   C243....     MOV.B   #0x0, &Failure_Timer_5Sec + 4
    165          }
   \   000008   1001         RETA
    166          
    167          /***************************************************************************//**
    168           * @param Function      Clear_Heartbeat_Count
    169           * @param Input         void
    170           * @param Return        void
    171           * @param Calling_Func  
    172           * @param Description   Clear heartbeat monitor count
    173           ******************************************************************************/

   \                                 In  segment CODE, align 2
    174          void Clear_Heartbeat_Count()
   \                     Clear_Heartbeat_Count:
    175          {
    176            Heartbeat_Timer_Sec.TimerCount = 0x0000;
   \   000000   8243....     MOV.W   #0x0, &Heartbeat_Timer_Sec + 2
    177            Heartbeat_Timer_Sec.Set_flag = 0x00;
   \   000004   C243....     MOV.B   #0x0, &Heartbeat_Timer_Sec + 4
    178          }
   \   000008   1001         RETA
    179          
    180          /***************************************************************************//**
    181           * @param Function      Verify_Heartbeat_Flag
    182           * @param Input         void
    183           * @param Return        void
    184           * @param Calling_Func  
    185           * @param Description   Check if heartbeat timer flag set
    186           ******************************************************************************/

   \                                 In  segment CODE, align 2
    187           unsigned char Verify_Heartbeat_Flag()
   \                     Verify_Heartbeat_Flag:
    188           {
    189             return Heartbeat_Timer_Sec.Set_flag; 
   \   000000   5C42....     MOV.B   &Heartbeat_Timer_Sec + 4, R12
   \   000004   1001         RETA
    190           }
    191          
    192           /***************************************************************************//**
    193           * @param Function      Verify_OVP_Communication_Flag
    194           * @param Input         void
    195           * @param Return        void
    196           * @param Calling_Func  
    197           * @param Description   Check of OVP communication not received for 5sec
    198           ******************************************************************************/

   \                                 In  segment CODE, align 2
    199           unsigned char Verify_OVP_Communication_Flag()
   \                     Verify_OVP_Communication_Flag:
    200           {
    201             return Failure_Timer_5Sec.Set_flag; 
   \   000000   5C42....     MOV.B   &Failure_Timer_5Sec + 4, R12
   \   000004   1001         RETA
    202           }
    203           
    204          /***************************************************************************//**
    205           * @param Function      Update_Timer_Count
    206           * @param Input         void
    207           * @param Return        void
    208           * @param Calling_Func  
    209           * @param Description   Update timer count value and flags
    210           ******************************************************************************/

   \                                 In  segment CODE, align 2
    211          void Update_Timer_Count()
   \                     Update_Timer_Count:
    212          {
    213            // RC Failure Count
    214            Failure_Timer_5Sec.TimerCount++;
   \   000000   9253....     ADD.W   #0x1, &Failure_Timer_5Sec + 2
    215            if (Failure_Timer_5Sec.TimerCount > Max_Application_Count)
   \   000004   B2900600.... CMP.W   #0x6, &Failure_Timer_5Sec + 2
   \   00000A   0F28         JNC     ??Update_Timer_Count_1
    216            {
    217                //Clear_Timer_Count();
    218                Failure_Timer_5Sec.Set_flag = 0x01;
   \   00000C   D243....     MOV.B   #0x1, &Failure_Timer_5Sec + 4
    219                Change_Led(RED_LED, ON);
   \   000010   5D43         MOV.B   #0x1, R13
   \   000012   4C43         MOV.B   #0x0, R12
   \   000014   ........     CALLA   #Change_Led
    220                Change_Led(YEL_LED, OFF);
   \   000018   4D43         MOV.B   #0x0, R13
   \   00001A   5C43         MOV.B   #0x1, R12
   \   00001C   ........     CALLA   #Change_Led
    221                Change_Led(GRN_LED, OFF);
   \   000020   4D43         MOV.B   #0x0, R13
   \   000022   6C43         MOV.B   #0x2, R12
   \   000024   ........     CALLA   #Change_Led
   \   000028   083C         JMP     ??Update_Timer_Count_0
    222            }
    223            else
    224            {
    225                Change_Led(YEL_LED, TOGGLE);
   \                     ??Update_Timer_Count_1:
   \   00002A   6D43         MOV.B   #0x2, R13
   \   00002C   5C43         MOV.B   #0x1, R12
   \   00002E   ........     CALLA   #Change_Led
    226                Change_Led(RED_LED, OFF);
   \   000032   4D43         MOV.B   #0x0, R13
   \   000034   4C43         MOV.B   #0x0, R12
   \   000036   ........     CALLA   #Change_Led
    227            }
    228            // Heartbeat message
    229            Heartbeat_Timer_Sec.TimerCount++;
   \                     ??Update_Timer_Count_0:
   \   00003A   9253....     ADD.W   #0x1, &Heartbeat_Timer_Sec + 2
    230            if (Heartbeat_Timer_Sec.TimerCount > (2* Max_Application_Count)) // approx 10 sec
   \   00003E   B2900B00.... CMP.W   #0xb, &Heartbeat_Timer_Sec + 2
   \   000044   0228         JNC     ??Update_Timer_Count_2
    231            {
    232              //Set heartbeat message flag
    233              Heartbeat_Timer_Sec.Set_flag = 0x01;
   \   000046   D243....     MOV.B   #0x1, &Heartbeat_Timer_Sec + 4
    234            }
    235            // else do nothing
    236          }
   \                     ??Update_Timer_Count_2:
   \   00004A   1001         RETA
    237          
    238          
    239          
    240          /***************************************************************************//**
    241           * __interrupt void vTIMER0_A1_ISR(void)
    242           ******************************************************************************/
    243          /***************************************************************************//**
    244           * @param Function      vTIMER0_A1_ISR 
    245           * @param Input         void
    246           * @param Return        void
    247           * @param Calling_Func  
    248           * @param Description   Timer0 Interrupt service routine 
    249           ******************************************************************************/
    250          // Timer_A1 Interrupt Vector (TAIV) handler
    251          #pragma vector=TIMER0_INTA1

   \                                 In  segment ISR_CODE, align 2
    252          __interrupt void vTIMER0_A1_ISR(void)
   \                     vTIMER0_A1_ISR:
    253          {
   \   000000   3F15         PUSHM.W #0x4, R15
    254            LPM0_EXIT;
   \   000002   B1C010000800 BIC.W   #0x10, 0x8(SP)
    255            switch(__even_in_range(TA0IV,14))
   \   000008   1F426E03     MOV.W   &0x36e, R15
   \   00000C   E00F         ADDA    R15, PC
   \                     `?<Jumptable for vTIMER0_A1_ISR>_0`:
   \   00000E   093C         JMP     ??vTIMER0_A1_ISR_1
   \   000010   063C         JMP     ??vTIMER0_A1_ISR_2
   \   000012   073C         JMP     ??vTIMER0_A1_ISR_1
   \   000014   063C         JMP     ??vTIMER0_A1_ISR_1
   \   000016   053C         JMP     ??vTIMER0_A1_ISR_1
   \   000018   043C         JMP     ??vTIMER0_A1_ISR_1
   \   00001A   033C         JMP     ??vTIMER0_A1_ISR_1
   \   00001C   023C         JMP     ??vTIMER0_A1_ISR_1
    256             {
    257              case 0: break;
    258              case 2:                 // CCR1 not used
    259                
    260              Update_Timer_Count();
   \                     ??vTIMER0_A1_ISR_2:
   \   00001E   ........     CALLA   #Update_Timer_Count
    261              break;
    262              case 4:  break;         // CCR2 not used
    263              case 6:  break;         // CCR3 not used
    264              case 8:  break;         // CCR4 not used
    265              case 10: break;         // CCR5 not used
    266              case 12: break;         // Reserved not used
    267              case 14: break;
    268              default: break;
    269            }
    270             // Execute 5.5Sec failure mode
    271          }
   \                     ??vTIMER0_A1_ISR_1:
   \   000022   3C17         POPM.W  #0x4, R15
   \   000024   0013         RETI
   \   000026                REQUIRE TA0IV
    272          
    273          /***************************************************************************//**
    274           * __interrupt void vTIMER0_B1_ISR(void)
    275           ******************************************************************************/
    276          /***************************************************************************//**
    277           * @param Function      vTIMER2_A1_ISR
    278           * @param Input         void
    279           * @param Return        void
    280           * @param Calling_Func  
    281           * @param Description   Timer2 Interrupt service routine 
    282           ******************************************************************************/
    283          // Timer0_B1 Interrupt Vector (TAIV) handler
    284          #pragma vector=TIMER0_INTB1

   \                                 In  segment ISR_CODE, align 2
    285          __interrupt void vTIMER2_A1_ISR(void)
   \                     vTIMER2_A1_ISR:
    286          {
   \   000000   0F12         PUSH.W  R15
    287            LPM0_EXIT;
   \   000002   B1C010000200 BIC.W   #0x10, 0x2(SP)
    288            switch(__even_in_range(TB0IV,14))
   \   000008   1F42EE03     MOV.W   &0x3ee, R15
   \   00000C   E00F         ADDA    R15, PC
   \                     `?<Jumptable for vTIMER2_A1_ISR>_0`:
   \   00000E   073C         JMP     ??vTIMER2_A1_ISR_1
   \   000010   063C         JMP     ??vTIMER2_A1_ISR_1
   \   000012   053C         JMP     ??vTIMER2_A1_ISR_1
   \   000014   043C         JMP     ??vTIMER2_A1_ISR_1
   \   000016   033C         JMP     ??vTIMER2_A1_ISR_1
   \   000018   023C         JMP     ??vTIMER2_A1_ISR_1
   \   00001A   013C         JMP     ??vTIMER2_A1_ISR_1
   \   00001C   003C         JMP     ??vTIMER2_A1_ISR_1
    289            {
    290              case  0: break;                           // No interrupt
    291              case  2: break;                           // CCR1 not used 
    292              case  4: break;                           // CCR2 not used
    293              case  6: break;                           // reserved
    294              case  8: break;                           // reserved
    295              case 10: break;                           // reserved
    296              case 12: break;                           // reserved
    297              case 14: break;                           // overflow
    298              default: break;
    299            }
    300          }
   \                     ??vTIMER2_A1_ISR_1:
   \   00001E   3F41         POP.W   R15
   \   000020   0013         RETI
   \   000022                REQUIRE TB0IV
    301          
    302          /***************************************************************************//**
    303           * @param Function      Init_Timer 
    304           * @param Input         void
    305           * @param Return        void
    306           * @param Calling_Func          
    307           * @param Description   Initialize Timer and  timer variables 
    308           ******************************************************************************/

   \                                 In  segment CODE, align 2
    309          void Init_Timer()
   \                     Init_Timer:
    310          {
    311            Timer_A0_Configure();
   \   000000   ........     CALLA   #Timer_A0_Configure
    312            Timer_B0_Configure();
   \   000004   ........     CALLA   #Timer_B0_Configure
    313            Set_Timer_A0_CCR(0,MAX_TIMER_COUNT);
   \   000008   3D40409C     MOV.W   #0x9c40, R13
   \   00000C   4C43         MOV.B   #0x0, R12
   \   00000E   ........     CALLA   #Set_Timer_A0_CCR
    314            Set_Timer_A0_CCR(1,MAX_TIMER_COUNT);
   \   000012   3D40409C     MOV.W   #0x9c40, R13
   \   000016   5C43         MOV.B   #0x1, R12
   \   000018   ........     CALLA   #Set_Timer_A0_CCR
    315            Clear_Timer_Count(); 
   \   00001C   ........     CALLA   #Clear_Timer_Count
    316            Change_Led(YEL_LED, ON);
   \   000020   5D43         MOV.B   #0x1, R13
   \   000022   5C43         MOV.B   #0x1, R12
   \   000024   ........     BRA     #Change_Led
    317            //Change_Led(RED_LED, OFF);
    318            //Change_Led(GRN_LED, OFF);
    319          }

   \                                 In  segment INTVEC, offset 0x6a, root
   \                     `??vTIMER0_A1_ISR::??INTVEC 106`:
   \   00006A   ....         DC16    vTIMER0_A1_ISR

   \                                 In  segment INTVEC, offset 0x76, root
   \                     `??vTIMER2_A1_ISR::??INTVEC 118`:
   \   000076   ....         DC16    vTIMER2_A1_ISR

   \                                 In  segment DATA16_ID, align 2, align-sorted
   \                     `?<Initializer for Failure_Timer_5Sec>`:
   \   000000   409C0000     DC16 40000, 0
   \   000004   0000         DC8 0, 0

   \                                 In  segment DATA16_ID, align 2, align-sorted
   \                     `?<Initializer for Heartbeat_Timer_Sec>`:
   \   000000   409C0000     DC16 40000, 0
   \   000004   0000         DC8 0, 0
    320          
    321          /***************************************************************************//**
    322           *                         End of Function
    323           ******************************************************************************/

   Maximum stack usage in bytes:

   CSTACK Function
   ------ --------
      4   Clear_Heartbeat_Count
      4   Clear_Timer_Count
      4   Init_Timer
        0   -> Change_Led
        4   -> Clear_Timer_Count
        4   -> Set_Timer_A0_CCR
        4   -> Timer_A0_Configure
        4   -> Timer_B0_Configure
      4   Set_Timer_A0_CCR
      4   Set_Timer_A0_Overflow_Counter
      4   Set_Timer_B0_CCR
      4   Set_Timer_B0_Overflow_Counter
      4   Stop_Timer_A0
      4   Stop_Timer_B0
      4   Timer_A0_Configure
      4   Timer_B0_Configure
      4   Update_Timer_Count
        4   -> Change_Led
      4   Verify_Heartbeat_Flag
      4   Verify_OVP_Communication_Flag
     12   vTIMER0_A1_ISR
       12   -> Update_Timer_Count
      6   vTIMER2_A1_ISR


   Segment part sizes:

   Bytes  Function/Label
   -----  --------------
       6  ?<Initializer for Failure_Timer_5Sec>
       6  ?<Initializer for Heartbeat_Timer_Sec>
      10  Clear_Heartbeat_Count
      10  Clear_Timer_Count
       6  Failure_Timer_5Sec
       6  Heartbeat_Timer_Sec
      40  Init_Timer
      34  Set_Timer_A0_CCR
       6  Set_Timer_A0_Overflow_Counter
      34  Set_Timer_B0_CCR
       6  Set_Timer_B0_Overflow_Counter
       6  Stop_Timer_A0
       6  Stop_Timer_B0
       2  TA0CCR0
       2  TA0CCR1
       2  TA0CCR2
       2  TA0CCTL1
       2  TA0CTL
       2  TA0IV
       2  TA0R
       2  TB0CCR0
       2  TB0CCR1
       2  TB0CCR2
       2  TB0CCTL1
       2  TB0CTL
       2  TB0IV
       2  TB0R
      26  Timer_A0_Configure
      26  Timer_B0_Configure
      76  Update_Timer_Count
       6  Verify_Heartbeat_Flag
       6  Verify_OVP_Communication_Flag
      38  vTIMER0_A1_ISR
       2  vTIMER0_A1_ISR::??INTVEC 106
      34  vTIMER2_A1_ISR
       2  vTIMER2_A1_ISR::??INTVEC 118

 
 292 bytes in segment CODE
  28 bytes in segment DATA16_AN
  12 bytes in segment DATA16_I
  12 bytes in segment DATA16_ID
   4 bytes in segment INTVEC
  72 bytes in segment ISR_CODE
 
 364 bytes of CODE  memory
  12 bytes of CONST memory (+  4 bytes shared)
  12 bytes of DATA  memory (+ 28 bytes shared)

Errors: none
Warnings: none
