###############################################################################
#
# IAR C/C++ Compiler V6.50.4.971/W32 for MSP430           15/Jan/2018  08:43:12
# Copyright 1996-2016 IAR Systems AB.
# Network license: ENGENT (STD)
#
#    __rt_version  =  3
#    __double_size =  32
#    __reg_r4      =  free
#    __reg_r5      =  free
#    __pic         =  no
#    __core        =  430X
#    __data_model  =  small
#    __code_model  =  large
#    Source file   =  
#        C:\Users\rgandhi\Desktop\BS_VRS\Firmware\Processor\MSP430F5438A\sys_clk.c
#    Command line  =  
#        C:\Users\rgandhi\Desktop\BS_VRS\Firmware\Processor\MSP430F5438A\sys_clk.c
#        -lC C:\Users\rgandhi\Desktop\BS_VRS\Firmware\Debug\List -lA
#        C:\Users\rgandhi\Desktop\BS_VRS\Firmware\Debug\List -o
#        C:\Users\rgandhi\Desktop\BS_VRS\Firmware\Debug\Obj --no_cse
#        --no_unroll --no_inline --no_code_motion --no_tbaa --debug
#        -D__MSP430F5438A__ -e --double=32 --dlib_config "C:\Program Files
#        (x86)\IAR Systems\Embedded Workbench 7.4\430\lib\dlib\dl430xlsfn.h" -I
#        C:\Users\rgandhi\Desktop\BS_VRS\Firmware\ -I
#        C:\Users\rgandhi\Desktop\BS_VRS\Firmware\Application\ -I
#        C:\Users\rgandhi\Desktop\BS_VRS\Firmware\Driver\ -I
#        C:\Users\rgandhi\Desktop\BS_VRS\Firmware\Protocol\ -I
#        C:\Users\rgandhi\Desktop\BS_VRS\Firmware\Processor\MSP430F5438A\ -I
#        C:\Users\rgandhi\Desktop\BS_VRS\Firmware\Processor\ -I
#        C:\Users\rgandhi\Desktop\BS_VRS\Firmware\Driver\ANALOG\ -I
#        C:\Users\rgandhi\Desktop\BS_VRS\Firmware\Driver\DIGITAL\ -I
#        C:\Users\rgandhi\Desktop\BS_VRS\Firmware\Driver\I2C\ -I
#        C:\Users\rgandhi\Desktop\BS_VRS\Firmware\Driver\SPI\ -I
#        C:\Users\rgandhi\Desktop\BS_VRS\Firmware\Driver\UART\ --core=430X
#        --data_model=small -On --multiplier=32 --hw_workaround=CPU40
#        --hw_workaround=nop_after_lpm --code_model=large
#    Locale        =  English_United States.1252
#    List file     =  
#        C:\Users\rgandhi\Desktop\BS_VRS\Firmware\Debug\List\sys_clk.lst
#    Object file   =  
#        C:\Users\rgandhi\Desktop\BS_VRS\Firmware\Debug\Obj\sys_clk.r43
#
###############################################################################

C:\Users\rgandhi\Desktop\BS_VRS\Firmware\Processor\MSP430F5438A\sys_clk.c
      1          /***************************************************************************//**
      2           * FILE INCLUDES
      3           ******************************************************************************/
      4          #include "processor_Def.h"

   \                                 In  segment DATA16_AN, at 0x100
   \   union <unnamed> _A_SFRIE1_L
   \                     _A_SFRIE1_L:
   \   000000                DS8 2

   \                                 In  segment DATA16_AN, at 0x102
   \   union <unnamed> _A_SFRIFG1_L
   \                     _A_SFRIFG1_L:
   \   000000                DS8 2

   \                                 In  segment DATA16_AN, at 0x160
   \   union <unnamed> _A_UCSCTL0_L
   \                     _A_UCSCTL0_L:
   \   000000                DS8 2

   \                                 In  segment DATA16_AN, at 0x162
   \   union <unnamed> _A_UCSCTL1_L
   \                     _A_UCSCTL1_L:
   \   000000                DS8 2

   \                                 In  segment DATA16_AN, at 0x164
   \   union <unnamed> _A_UCSCTL2_L
   \                     _A_UCSCTL2_L:
   \   000000                DS8 2

   \                                 In  segment DATA16_AN, at 0x166
   \   union <unnamed> _A_UCSCTL3_L
   \                     _A_UCSCTL3_L:
   \   000000                DS8 2

   \                                 In  segment DATA16_AN, at 0x168
   \   union <unnamed> _A_UCSCTL4_L
   \                     _A_UCSCTL4_L:
   \   000000                DS8 2

   \                                 In  segment DATA16_AN, at 0x16c
   \   union <unnamed> _A_UCSCTL6_L
   \                     _A_UCSCTL6_L:
   \   000000                DS8 2

   \                                 In  segment DATA16_AN, at 0x16e
   \   union <unnamed> _A_UCSCTL7_L
   \                     _A_UCSCTL7_L:
   \   000000                DS8 2
      5          
      6          /***************************************************************************//**
      7           * FUNCTION DEFINATION
      8           ******************************************************************************/
      9             /***************************************************************************//**
     10           * @param Function      
     11           * @param Input         void
     12           * @param Return        void
     13           * @param Calling_Func  
     14           * @param Description   
     15           ******************************************************************************/

   \                                 In  segment CODE, align 2
     16          void Init_Sys_Clock()
   \                     Init_Sys_Clock:
     17          {
     18            /* Select XIN,XOUT operation on P7.0,P7.1 */
     19          //  SYS_XT1_PSEL |= SYS_XT1_XINSEL + SYS_XT1_XOUTSEL;         // Set XIN operation on P7.0
     20          //  SYS_XT1_PSEL |= SYS_XT1_XOUTSEL;                      // Set XIN operation on P7.1,X-DNC is XIN PxSEL =1
     21             /* Set up Unifed Clock System (UCS) */
     22              UCSCTL0 = (SYS_DCO_TAP                                // Set DCO tap selection (modified during FLL operation) = 0
     23                       | SYS_FLL_MOD_COUNTER);                    // Set modulation bit counter (modified during FLL operation) = 0
   \   000000   82436001     MOV.W   #0x0, &0x160
     24          
     25              UCSCTL1 = SYS_DCO_RANGE_SELECT;                       // Set DCO frequency range 
   \   000004   B24040006201 MOV.W   #0x40, &0x162
     26          //  UCSCTL1 = (SYS_DCO_RANGE_SELECT                     // Set DCO frequency range 
     27          //             | SYS_DISMOD) ;                          // Set enable/disable modulation
     28            
     29          //  // Loop until XT1,XT2 & DCO stabilizes - In this case only DCO has to stabilize
     30          //  do
     31          //    {
     32          //      UCSCTL7 &= ~(XT2OFFG + XT1LFOFFG + DCOFFG);
     33          //      // Clear XT2,XT1,DCO fault flags
     34          //      SFRIFG1 &= ~OFIFG;                      // Clear fault flags
     35          //    }while (SFRIFG1&OFIFG);                   // Test oscillator fault flag
     36            
     37            // Loop until XT1 fault flag is cleared
     38            do
     39            {
     40              UCSCTL7 &= ~XT1LFOFFG;                  // Clear XT1 fault flags
   \                     ??Init_Sys_Clock_0:
   \   00000A   A2C36E01     BIC.W   #0x2, &0x16e
     41            }while (UCSCTL7&XT1LFOFFG);               // Test XT1 fault flag
   \   00000E   A2B36E01     BIT.W   #0x2, &0x16e
   \   000012   FB2F         JC      ??Init_Sys_Clock_0
     42          
     43            __bis_SR_register(SCG0);                  // Disable the FLL control loop
   \   000014   32D04000     BIS.W   #0x40, SR
   \   000018   0343         NOP
     44            UCSCTL2 = (SYS_FLL_LOOPDIV                            // Set FLL loop divider
     45                       | SYS_DCO_MULTIPLIER_BITS);                // Set DCO multiplier
   \   00001A   B240F5006401 MOV.W   #0xf5, &0x164
     46            __bic_SR_register(SCG0);                  // Enable the FLL control loop
   \   000020   32C04000     BIC.W   #0x40, SR
   \   000024   0343         NOP
     47            
     48          //  UCSCTL3 = (SYS_FLL_REFERENCE                          // Select reference for FLL
     49          //            | SYS_FLL_REFDIV);                          // Select FLL Reference Divider
     50            UCSCTL3 = SYS_FLL_REFERENCE;                          // Select reference for FLL
   \   000026   82436601     MOV.W   #0x0, &0x166
     51            /* Select references for clock sources */
     52            UCSCTL4 = (SYS_ACLK_SOURCE                            // Set reference for ACLK
     53                       | SYS_SMCLK_SOURCE                         // Set reference for SMCLK
     54                       | SYS_MCLK_SOURCE);                        // Set reference for MCLK
   \   00002A   B24044006801 MOV.W   #0x44, &0x168
     55            /* Set up UCS to use XIN/XOUT and external crystal */
     56            /* XT1 oscillator on board (32768Hz) */
     57            UCSCTL6 &= ~SYS_XT1_BYPASS;                           // Set XT1 bypass mode
   \   000030   B2C010006C01 BIC.W   #0x10, &0x16c
     58            UCSCTL6 |= XT1DRIVE_2;                 // Xtal is now stable, reduce drive strength
   \   000036   B2D080006C01 BIS.W   #0x80, &0x16c
     59            // TODO: Remove physical capacitor from board
     60            UCSCTL6 |= SYS_XT1_XCAP;                              // Set XIN/XOUT capacitor
   \   00003C   92426C016C01 MOV.W   &0x16c, &0x16c
     61            UCSCTL6 &= ~SYS_XT1_OFF;                              // Set high frequency oscillator 1 disable
   \   000042   92C36C01     BIC.W   #0x1, &0x16c
     62            UCSCTL6 &= ~SYS_XT1_XTS;                              // Set select high frequency oscillator
   \   000046   B2C020006C01 BIC.W   #0x20, &0x16c
     63            SFRIE1 |= OFIE;                                       // Set osc fault interrupt enable
   \   00004C   A2D30001     BIS.W   #0x2, &0x100
     64            // Worst-case settling time for the DCO when the DCO range bits have been
     65            // changed is n x 32 x 32 x f_MCLK / f_FLL_reference. See UCS chapter in 5xx
     66            // UG for optimization.
     67            // 32 x 32 x 8 MHz / 32,768 Hz = 250000 = MCLK cycles for DCO to settle
     68            __delay_cycles(250000);
   \   000050                ////////////// Start of 250000 cycles delay.
   \   000050   3F4022F4     MOV.W   #0xf422, R15
   \   000054   0343         NOP
   \   000056   0E43         MOV.W   #0x0, R14
   \                     ??Init_Sys_Clock_1:
   \   000058   3F53         ADD.W   #0xffff, R15
   \   00005A   3E63         ADDC.W  #0xffff, R14
   \   00005C   FD2F         JC      ??Init_Sys_Clock_1
   \   00005E                ////////////// End of delay code.
     69          }
   \   00005E   1001         RETA
   \   000060                REQUIRE _A_UCSCTL0_L
   \   000060                REQUIRE _A_UCSCTL1_L
   \   000060                REQUIRE _A_UCSCTL7_L
   \   000060                REQUIRE _A_UCSCTL2_L
   \   000060                REQUIRE _A_UCSCTL3_L
   \   000060                REQUIRE _A_UCSCTL4_L
   \   000060                REQUIRE _A_UCSCTL6_L
   \   000060                REQUIRE _A_SFRIE1_L
     70          
     71          /***************************************************************************//**
     72           * @param Function      
     73           * @param Input         void
     74           * @param Return        void
     75           * @param Calling_Func  
     76           * @param Description   
     77           ******************************************************************************/             
     78          #pragma vector=UNMI_VECTOR

   \                                 In  segment ISR_CODE, align 2
     79          __interrupt void USER_NMI_ISR(void)
   \                     USER_NMI_ISR:
     80          {
     81            if(UCSCTL7){                              // Any osc fault detected
   \   000000   82936E01     CMP.W   #0x0, &0x16e
   \   000004   0424         JEQ     ??USER_NMI_ISR_0
     82              UCSCTL7 = 0;                            // Clear osc fault flag
   \   000006   82436E01     MOV.W   #0x0, &0x16e
     83              SFRIFG1 &= ~OFIFG;                      // Clear osc fault interrupt flag
   \   00000A   A2C30201     BIC.W   #0x2, &0x102
     84            }
     85          }
   \                     ??USER_NMI_ISR_0:
   \   00000E   0013         RETI
   \   000010                REQUIRE _A_UCSCTL7_L
   \   000010                REQUIRE _A_SFRIFG1_L

   \                                 In  segment INTVEC, offset 0x7a, root
   \                     `??USER_NMI_ISR::??INTVEC 122`:
   \   00007A   ....         DC16    USER_NMI_ISR
     86          
     87          /***************************************************************************//**
     88           *                         End of Function
     89           ******************************************************************************/

   Maximum stack usage in bytes:

   CSTACK Function
   ------ --------
      4   Init_Sys_Clock
      4   USER_NMI_ISR


   Segment part sizes:

   Bytes  Function/Label
   -----  --------------
      96  Init_Sys_Clock
      16  USER_NMI_ISR
       2  USER_NMI_ISR::??INTVEC 122
       2  _A_SFRIE1_L
       2  _A_SFRIFG1_L
       2  _A_UCSCTL0_L
       2  _A_UCSCTL1_L
       2  _A_UCSCTL2_L
       2  _A_UCSCTL3_L
       2  _A_UCSCTL4_L
       2  _A_UCSCTL6_L
       2  _A_UCSCTL7_L

 
 96 bytes in segment CODE
 18 bytes in segment DATA16_AN
  2 bytes in segment INTVEC
 16 bytes in segment ISR_CODE
 
 112 bytes of CODE  memory
   0 bytes of CONST memory (+  2 bytes shared)
   0 bytes of DATA  memory (+ 18 bytes shared)

Errors: none
Warnings: none
