###############################################################################
#
# IAR C/C++ Compiler V6.50.4.971/W32 for MSP430           15/Jan/2018  08:43:12
# Copyright 1996-2016 IAR Systems AB.
# Network license: ENGENT (STD)
#
#    __rt_version  =  3
#    __double_size =  32
#    __reg_r4      =  free
#    __reg_r5      =  free
#    __pic         =  no
#    __core        =  430X
#    __data_model  =  small
#    __code_model  =  large
#    Source file   =  
#        C:\Users\rgandhi\Desktop\BS_VRS\Firmware\Driver\UART\uart.c
#    Command line  =  
#        C:\Users\rgandhi\Desktop\BS_VRS\Firmware\Driver\UART\uart.c -lC
#        C:\Users\rgandhi\Desktop\BS_VRS\Firmware\Debug\List -lA
#        C:\Users\rgandhi\Desktop\BS_VRS\Firmware\Debug\List -o
#        C:\Users\rgandhi\Desktop\BS_VRS\Firmware\Debug\Obj --no_cse
#        --no_unroll --no_inline --no_code_motion --no_tbaa --debug
#        -D__MSP430F5438A__ -e --double=32 --dlib_config "C:\Program Files
#        (x86)\IAR Systems\Embedded Workbench 7.4\430\lib\dlib\dl430xlsfn.h" -I
#        C:\Users\rgandhi\Desktop\BS_VRS\Firmware\ -I
#        C:\Users\rgandhi\Desktop\BS_VRS\Firmware\Application\ -I
#        C:\Users\rgandhi\Desktop\BS_VRS\Firmware\Driver\ -I
#        C:\Users\rgandhi\Desktop\BS_VRS\Firmware\Protocol\ -I
#        C:\Users\rgandhi\Desktop\BS_VRS\Firmware\Processor\MSP430F5438A\ -I
#        C:\Users\rgandhi\Desktop\BS_VRS\Firmware\Processor\ -I
#        C:\Users\rgandhi\Desktop\BS_VRS\Firmware\Driver\ANALOG\ -I
#        C:\Users\rgandhi\Desktop\BS_VRS\Firmware\Driver\DIGITAL\ -I
#        C:\Users\rgandhi\Desktop\BS_VRS\Firmware\Driver\I2C\ -I
#        C:\Users\rgandhi\Desktop\BS_VRS\Firmware\Driver\SPI\ -I
#        C:\Users\rgandhi\Desktop\BS_VRS\Firmware\Driver\UART\ --core=430X
#        --data_model=small -On --multiplier=32 --hw_workaround=CPU40
#        --hw_workaround=nop_after_lpm --code_model=large
#    Locale        =  English_United States.1252
#    List file     =  
#        C:\Users\rgandhi\Desktop\BS_VRS\Firmware\Debug\List\uart.lst
#    Object file   =  
#        C:\Users\rgandhi\Desktop\BS_VRS\Firmware\Debug\Obj\uart.r43
#
###############################################################################

C:\Users\rgandhi\Desktop\BS_VRS\Firmware\Driver\UART\uart.c
      1          /***************************************************************************//**
      2          * FILE INCLUDES
      3          *******************************************************************************/
      4          #include "uart.h"

   \                                 In  segment DATA16_AN, at 0x222
   \   union <unnamed> _A_PBOUT_L
   \                     _A_PBOUT_L:
   \   000000                DS8 2

   \                                 In  segment DATA16_AN, at 0x5c0
   \   union <unnamed> _A_UCA0CTLW0_L
   \                     _A_UCA0CTLW0_L:
   \   000000                DS8 2

   \                                 In  segment DATA16_AN, at 0x5c6
   \   union <unnamed> _A_UCA0BRW_L
   \                     _A_UCA0BRW_L:
   \   000000                DS8 2

   \                                 In  segment DATA16_AN, at 0x5c8
   \   unsigned char volatile UCA0MCTL
   \                     UCA0MCTL:
   \   000000                DS8 1

   \                                 In  segment DATA16_AN, at 0x5ca
   \   unsigned char volatile UCA0STAT
   \                     UCA0STAT:
   \   000000                DS8 1

   \                                 In  segment DATA16_AN, at 0x5cc
   \   unsigned char const volatile UCA0RXBUF
   \                     UCA0RXBUF:
   \   000000                DS8 1

   \                                 In  segment DATA16_AN, at 0x5ce
   \   unsigned char volatile UCA0TXBUF
   \                     UCA0TXBUF:
   \   000000                DS8 1

   \                                 In  segment DATA16_AN, at 0x5dc
   \   union <unnamed> _A_UCA0ICTL_L
   \                     _A_UCA0ICTL_L:
   \   000000                DS8 2

   \                                 In  segment DATA16_AN, at 0x600
   \   union <unnamed> _A_UCA1CTLW0_L
   \                     _A_UCA1CTLW0_L:
   \   000000                DS8 2

   \                                 In  segment DATA16_AN, at 0x606
   \   union <unnamed> _A_UCA1BRW_L
   \                     _A_UCA1BRW_L:
   \   000000                DS8 2

   \                                 In  segment DATA16_AN, at 0x608
   \   unsigned char volatile UCA1MCTL
   \                     UCA1MCTL:
   \   000000                DS8 1

   \                                 In  segment DATA16_AN, at 0x60a
   \   unsigned char volatile UCA1STAT
   \                     UCA1STAT:
   \   000000                DS8 1

   \                                 In  segment DATA16_AN, at 0x60e
   \   unsigned char volatile UCA1TXBUF
   \                     UCA1TXBUF:
   \   000000                DS8 1

   \                                 In  segment DATA16_AN, at 0x61c
   \   union <unnamed> _A_UCA1ICTL_L
   \                     _A_UCA1ICTL_L:
   \   000000                DS8 2

   \                                 In  segment DATA16_AN, at 0x640
   \   union <unnamed> _A_UCA2CTLW0_L
   \                     _A_UCA2CTLW0_L:
   \   000000                DS8 2

   \                                 In  segment DATA16_AN, at 0x646
   \   union <unnamed> _A_UCA2BRW_L
   \                     _A_UCA2BRW_L:
   \   000000                DS8 2

   \                                 In  segment DATA16_AN, at 0x648
   \   unsigned char volatile UCA2MCTL
   \                     UCA2MCTL:
   \   000000                DS8 1

   \                                 In  segment DATA16_AN, at 0x64a
   \   unsigned char volatile UCA2STAT
   \                     UCA2STAT:
   \   000000                DS8 1

   \                                 In  segment DATA16_AN, at 0x64c
   \   unsigned char const volatile UCA2RXBUF
   \                     UCA2RXBUF:
   \   000000                DS8 1

   \                                 In  segment DATA16_AN, at 0x64e
   \   unsigned char volatile UCA2TXBUF
   \                     UCA2TXBUF:
   \   000000                DS8 1

   \                                 In  segment DATA16_AN, at 0x65c
   \   union <unnamed> _A_UCA2ICTL_L
   \                     _A_UCA2ICTL_L:
   \   000000                DS8 2

   \                                 In  segment DATA16_AN, at 0x680
   \   union <unnamed> _A_UCA3CTLW0_L
   \                     _A_UCA3CTLW0_L:
   \   000000                DS8 2

   \                                 In  segment DATA16_AN, at 0x686
   \   union <unnamed> _A_UCA3BRW_L
   \                     _A_UCA3BRW_L:
   \   000000                DS8 2

   \                                 In  segment DATA16_AN, at 0x688
   \   unsigned char volatile UCA3MCTL
   \                     UCA3MCTL:
   \   000000                DS8 1

   \                                 In  segment DATA16_AN, at 0x68a
   \   unsigned char volatile UCA3STAT
   \                     UCA3STAT:
   \   000000                DS8 1

   \                                 In  segment DATA16_AN, at 0x68e
   \   unsigned char volatile UCA3TXBUF
   \                     UCA3TXBUF:
   \   000000                DS8 1

   \                                 In  segment DATA16_AN, at 0x69c
   \   union <unnamed> _A_UCA3ICTL_L
   \                     _A_UCA3ICTL_L:
   \   000000                DS8 2
      5          //#include "protocol.h"
      6          
      7          /***************************************************************************//**
      8           * FUNCTION DEFINATION
      9           ******************************************************************************/
     10          /***************************************************************************//**
     11           * @param Function      Init_UartAx
     12           * @param Input         unsigned char
     13           * @param Return        unsigned char
     14           * @param Calling_Func  main.c 
     15           * @param Description   This function will setup and initialize all UART ports 
     16           ******************************************************************************/

   \                                 In  segment CODE, align 2
     17          unsigned char Init_UartAx(unsigned char uart_ucaX)
   \                     Init_UartAx:
     18          {
   \   000000   4E4C         MOV.B   R12, R14
     19            switch(uart_ucaX)
   \   000002   4F4E         MOV.B   R14, R15
   \   000004   4F83         SUB.B   #0x0, R15
   \   000006   0724         JEQ     ??Init_UartAx_2
   \   000008   5F83         SUB.B   #0x1, R15
   \   00000A   2E24         JEQ     ??Init_UartAx_3
   \   00000C   5F83         SUB.B   #0x1, R15
   \   00000E   5524         JEQ     ??Init_UartAx_4
   \   000010   5F83         SUB.B   #0x1, R15
   \   000012   7C24         JEQ     ??Init_UartAx_5
   \   000014   A33C         JMP     ??Init_UartAx_0
     20            {
     21            case 0: 
     22              /* Set up USCI UART A0 mode */
     23              UCA0CTL1 |= UCXXRST;                                // Hold USCI in reset state
   \                     ??Init_UartAx_2:
   \   000016   D2D3C005     BIS.B   #0x1, &0x5c0
     24              UCA0CTL1 |= UART_UCA0_CLOCK_SOURCE;                 // Select clock source [7]
   \   00001A   F2D08000C005 BIS.B   #0x80, &0x5c0
     25          
     26              UCA0CTL0 |= (UART_UCA0_PARITY_ENABLE                // Set parity enable bit [7]
     27                           | UART_UCA0_PARITY_SELECT);            // Set parity select bit [6]
   \   000020   D242C105C105 MOV.B   &0x5c1, &0x5c1
     28              UCA0CTL0 |= UART_UCA0_ENDIAN_BITS;                  // Set MSB first select [5]
   \   000026   D242C105C105 MOV.B   &0x5c1, &0x5c1
     29              UCA0CTL0 |= UART_UCA0_DATA_BIT_SELECT;              // Set character length [4]
   \   00002C   D242C105C105 MOV.B   &0x5c1, &0x5c1
     30              UCA0CTL0 |= UART_UCA0_STOP_BIT_SELECT;              // Set stop bit select [3]
   \   000032   D242C105C105 MOV.B   &0x5c1, &0x5c1
     31              UCA0CTL0 |= UART_UCA0_MODE;                         // Set UART mode [2:1]
   \   000038   D242C105C105 MOV.B   &0x5c1, &0x5c1
     32          
     33              UCA0BR0 = UART_UCA0_BAUDRATE_CTL_REG0;              // Set baudrate low byte [7:0]
   \   00003E   F240D100C605 MOV.B   #0xd1, &0x5c6
     34              UCA0BR1 = UART_UCA0_BAUDRATE_CTL_REG1;              // Set baudrate high byte [7:0]
   \   000044   C243C705     MOV.B   #0x0, &0x5c7
     35          
     36              UCA0MCTL |= UART_UCA0_MODULATION_UCBRFX;            // Set first modulation stage select [7:4]
   \   000048   D242C805C805 MOV.B   &0x5c8, &0x5c8
     37              UCA0MCTL |= UART_UCA0_MODULATION_UCBRSX;            // Set second modulation stage select [3:1]
   \   00004E   F2D00700C805 BIS.B   #0x7, &0x5c8
     38           
     39              UCA0MCTL &= ~UART_UCA0_MODULATION_UCOS16;           // Set oversampling mode enable [0]
   \   000054   D2C3C805     BIC.B   #0x1, &0x5c8
     40          
     41              UCA0CTL1 &= ~UCXXRST;                               // Release USCI reset
   \   000058   D2C3C005     BIC.B   #0x1, &0x5c0
     42          
     43              UCA0IFG = 0x00;                                     // Clear Tx [1] and Rx [0] flags
   \   00005C   C243DD05     MOV.B   #0x0, &0x5dd
     44              UCA0IE |= (UCRXIE | UCTXIE);                        // Enable Tx [1] and Rx [0] interrupts
   \   000060   F2D00300DC05 BIS.B   #0x3, &0x5dc
     45              break;
   \   000066   7B3C         JMP     ??Init_UartAx_1
     46            case 1: 
     47              /* Set up USCI UART A0 mode */
     48              UCA1CTL1 |= UCXXRST;                                // Hold USCI in reset state
   \                     ??Init_UartAx_3:
   \   000068   D2D30006     BIS.B   #0x1, &0x600
     49              UCA1CTL1 |= UART_UCA1_CLOCK_SOURCE;                 // Select clock source [7]
   \   00006C   F2D080000006 BIS.B   #0x80, &0x600
     50          
     51              UCA1CTL0 |= (UART_UCA1_PARITY_ENABLE                // Set parity enable bit [7]
     52                           | UART_UCA1_PARITY_SELECT);            // Set parity select bit [6]
   \   000072   D24201060106 MOV.B   &0x601, &0x601
     53              UCA1CTL0 |= UART_UCA1_ENDIAN_BITS;                  // Set MSB first select [5]
   \   000078   D24201060106 MOV.B   &0x601, &0x601
     54              UCA1CTL0 |= UART_UCA1_DATA_BIT_SELECT;              // Set character length [4]
   \   00007E   D24201060106 MOV.B   &0x601, &0x601
     55              UCA1CTL0 |= UART_UCA1_STOP_BIT_SELECT;              // Set stop bit select [3]
   \   000084   D24201060106 MOV.B   &0x601, &0x601
     56              UCA1CTL0 |= UART_UCA1_MODE;                         // Set UART mode [2:1]
   \   00008A   D24201060106 MOV.B   &0x601, &0x601
     57          
     58              UCA1BR0 = UART_UCA1_BAUDRATE_CTL_REG0;              // Set baudrate low byte [7:0]
   \   000090   F24045000606 MOV.B   #0x45, &0x606
     59              UCA1BR1 = UART_UCA1_BAUDRATE_CTL_REG1;              // Set baudrate high byte [7:0]
   \   000096   C2430706     MOV.B   #0x0, &0x607
     60          
     61              UCA1MCTL |= UART_UCA1_MODULATION_UCBRFX;            // Set first modulation stage select [7:4]
   \   00009A   D24208060806 MOV.B   &0x608, &0x608
     62              UCA1MCTL |= UART_UCA1_MODULATION_UCBRSX;            // Set second modulation stage select [3:1]
   \   0000A0   F2D009000806 BIS.B   #0x9, &0x608
     63           
     64              UCA1MCTL &= ~UART_UCA1_MODULATION_UCOS16;           // Set oversampling mode enable [0]
   \   0000A6   D2C30806     BIC.B   #0x1, &0x608
     65          
     66              UCA1CTL1 &= ~UCXXRST;                               // Release USCI reset
   \   0000AA   D2C30006     BIC.B   #0x1, &0x600
     67          
     68              UCA1IFG = 0x00;                                     // Clear Tx [1] and Rx [0] flags
   \   0000AE   C2431D06     MOV.B   #0x0, &0x61d
     69              UCA1IE |= (UCRXIE | UCTXIE);                        // Enable Tx [1] and Rx [0] interrupts
   \   0000B2   F2D003001C06 BIS.B   #0x3, &0x61c
     70              break;
   \   0000B8   523C         JMP     ??Init_UartAx_1
     71            case 2: 
     72              /* Set up USCI UART A0 mode */
     73              UCA2CTL1 |= UCXXRST;                                // Hold USCI in reset state
   \                     ??Init_UartAx_4:
   \   0000BA   D2D34006     BIS.B   #0x1, &0x640
     74              UCA2CTL1 |= UART_UCA2_CLOCK_SOURCE;                 // Select clock source [7]
   \   0000BE   F2D080004006 BIS.B   #0x80, &0x640
     75          
     76              UCA2CTL0 |= (UART_UCA2_PARITY_ENABLE                // Set parity enable bit [7]
     77                           | UART_UCA2_PARITY_SELECT);            // Set parity select bit [6]
   \   0000C4   D24241064106 MOV.B   &0x641, &0x641
     78              UCA2CTL0 |= UART_UCA2_ENDIAN_BITS;                  // Set MSB first select [5]
   \   0000CA   D24241064106 MOV.B   &0x641, &0x641
     79              UCA2CTL0 |= UART_UCA2_DATA_BIT_SELECT;              // Set character length [4]
   \   0000D0   D24241064106 MOV.B   &0x641, &0x641
     80              UCA2CTL0 |= UART_UCA2_STOP_BIT_SELECT;              // Set stop bit select [3]
   \   0000D6   D24241064106 MOV.B   &0x641, &0x641
     81              UCA2CTL0 |= UART_UCA2_MODE;                         // Set UART mode [2:1]
   \   0000DC   D24241064106 MOV.B   &0x641, &0x641
     82          
     83              UCA2BR0 = UART_UCA2_BAUDRATE_CTL_REG0;              // Set baudrate low byte [7:0]
   \   0000E2   F240A3004606 MOV.B   #0xa3, &0x646
     84              UCA2BR1 = UART_UCA2_BAUDRATE_CTL_REG1;              // Set baudrate high byte [7:0]
   \   0000E8   D2434706     MOV.B   #0x1, &0x647
     85          
     86              UCA2MCTL |= UART_UCA2_MODULATION_UCBRFX;            // Set first modulation stage select [7:4]
   \   0000EC   D24248064806 MOV.B   &0x648, &0x648
     87              UCA2MCTL |= UART_UCA2_MODULATION_UCBRSX;            // Set second modulation stage select [3:1]
   \   0000F2   F2D007004806 BIS.B   #0x7, &0x648
     88           
     89              UCA2MCTL &= ~UART_UCA2_MODULATION_UCOS16;           // Set oversampling mode enable [0]
   \   0000F8   D2C34806     BIC.B   #0x1, &0x648
     90          
     91              UCA2CTL1 &= ~UCXXRST;                               // Release USCI reset
   \   0000FC   D2C34006     BIC.B   #0x1, &0x640
     92          
     93              UCA2IFG = 0x00;                                     // Clear Tx [1] and Rx [0] flags
   \   000100   C2435D06     MOV.B   #0x0, &0x65d
     94              UCA2IE |= (UCRXIE | UCTXIE);                        // Enable Tx [1] and Rx [0] interrupts
   \   000104   F2D003005C06 BIS.B   #0x3, &0x65c
     95              break;
   \   00010A   293C         JMP     ??Init_UartAx_1
     96              
     97            case 3: 
     98              /* Set up USCI UART A0 mode */
     99              UCA3CTL1 |= UCXXRST;                                // Hold USCI in reset state
   \                     ??Init_UartAx_5:
   \   00010C   D2D38006     BIS.B   #0x1, &0x680
    100              UCA3CTL1 |= UART_UCA3_CLOCK_SOURCE;                 // Select clock source [7]
   \   000110   F2D080008006 BIS.B   #0x80, &0x680
    101          
    102              UCA3CTL0 |= (UART_UCA3_PARITY_ENABLE                // Set parity enable bit [7]
    103                           | UART_UCA3_PARITY_SELECT);            // Set parity select bit [6]
   \   000116   D24281068106 MOV.B   &0x681, &0x681
    104              UCA3CTL0 |= UART_UCA3_ENDIAN_BITS;                  // Set MSB first select [5]
   \   00011C   D24281068106 MOV.B   &0x681, &0x681
    105              UCA3CTL0 |= UART_UCA3_DATA_BIT_SELECT;              // Set character length [4]
   \   000122   D24281068106 MOV.B   &0x681, &0x681
    106              UCA3CTL0 |= UART_UCA3_STOP_BIT_SELECT;              // Set stop bit select [3]
   \   000128   D24281068106 MOV.B   &0x681, &0x681
    107              UCA3CTL0 |= UART_UCA3_MODE;                         // Set UART mode [2:1]
   \   00012E   D24281068106 MOV.B   &0x681, &0x681
    108          
    109              UCA3BR0 = UART_UCA3_BAUDRATE_CTL_REG0;              // Set baudrate low byte [7:0]
   \   000134   F24045008606 MOV.B   #0x45, &0x686
    110              UCA3BR1 = UART_UCA3_BAUDRATE_CTL_REG1;              // Set baudrate high byte [7:0]
   \   00013A   C2438706     MOV.B   #0x0, &0x687
    111          
    112              UCA3MCTL |= UART_UCA3_MODULATION_UCBRFX;            // Set first modulation stage select [7:4]
   \   00013E   D24288068806 MOV.B   &0x688, &0x688
    113              UCA3MCTL |= UART_UCA3_MODULATION_UCBRSX;            // Set second modulation stage select [3:1]
   \   000144   F2D28806     BIS.B   #0x8, &0x688
    114           
    115              UCA3MCTL &= ~UART_UCA3_MODULATION_UCOS16;           // Set oversampling mode enable [0]
   \   000148   D2C38806     BIC.B   #0x1, &0x688
    116          
    117              UCA3CTL1 &= ~UCXXRST;                               // Release USCI reset
   \   00014C   D2C38006     BIC.B   #0x1, &0x680
    118          
    119              UCA3IFG = 0x00;                                     // Clear Tx [1] and Rx [0] flags
   \   000150   C2439D06     MOV.B   #0x0, &0x69d
    120              UCA3IE |= (UCRXIE | UCTXIE);                        // Enable Tx [1] and Rx [0] interrupts
   \   000154   F2D003009C06 BIS.B   #0x3, &0x69c
    121              break;
   \   00015A   013C         JMP     ??Init_UartAx_1
    122            default: 
    123              //Add code if necessary
    124              __no_operation();
   \                     ??Init_UartAx_0:
   \   00015C   0343         NOP
    125              break;
    126            } 
    127            return FALSE;
   \                     ??Init_UartAx_1:
   \   00015E   4C43         MOV.B   #0x0, R12
   \   000160   1001         RETA
   \   000162                REQUIRE _A_UCA0CTLW0_L
   \   000162                REQUIRE _A_UCA0BRW_L
   \   000162                REQUIRE UCA0MCTL
   \   000162                REQUIRE _A_UCA0ICTL_L
   \   000162                REQUIRE _A_UCA1CTLW0_L
   \   000162                REQUIRE _A_UCA1BRW_L
   \   000162                REQUIRE UCA1MCTL
   \   000162                REQUIRE _A_UCA1ICTL_L
   \   000162                REQUIRE _A_UCA2CTLW0_L
   \   000162                REQUIRE _A_UCA2BRW_L
   \   000162                REQUIRE UCA2MCTL
   \   000162                REQUIRE _A_UCA2ICTL_L
   \   000162                REQUIRE _A_UCA3CTLW0_L
   \   000162                REQUIRE _A_UCA3BRW_L
   \   000162                REQUIRE UCA3MCTL
   \   000162                REQUIRE _A_UCA3ICTL_L
    128          }
    129          
    130          /***************************************************************************//**
    131           * @param Function      Disable_Uart_Rx_Int 
    132           * @param Input         unsigned char
    133           * @param Return        void
    134           * @param Calling_Func  protocol.c
    135           * @param Description   This function will disable UART RX interrupt        
    136           ******************************************************************************/

   \                                 In  segment CODE, align 2
    137          void Disable_Uart_Rx_Int(unsigned char uart_ucaX)
   \                     Disable_Uart_Rx_Int:
    138          {
    139            switch (uart_ucaX)
   \   000000   4E4C         MOV.B   R12, R14
   \   000002   4E83         SUB.B   #0x0, R14
   \   000004   0724         JEQ     ??Disable_Uart_Rx_Int_1
   \   000006   5E83         SUB.B   #0x1, R14
   \   000008   0824         JEQ     ??Disable_Uart_Rx_Int_2
   \   00000A   5E83         SUB.B   #0x1, R14
   \   00000C   0924         JEQ     ??Disable_Uart_Rx_Int_3
   \   00000E   5E83         SUB.B   #0x1, R14
   \   000010   0A24         JEQ     ??Disable_Uart_Rx_Int_4
   \   000012   0C3C         JMP     ??Disable_Uart_Rx_Int_0
    140            {  
    141            case 0:
    142                UCA0IE |= UCRXIE;                  // Set interrupt flag
   \                     ??Disable_Uart_Rx_Int_1:
   \   000014   D2D3DC05     BIS.B   #0x1, &0x5dc
    143              break;
   \   000018   1001         RETA
    144            case 1:                 
    145                UCA1IE |= UCRXIE;                  // Set interrupt flag
   \                     ??Disable_Uart_Rx_Int_2:
   \   00001A   D2D31C06     BIS.B   #0x1, &0x61c
    146              break;
   \   00001E   1001         RETA
    147            case 2:                               
    148                UCA2IE |= UCRXIE;                  // Set interrupt flag
   \                     ??Disable_Uart_Rx_Int_3:
   \   000020   D2D35C06     BIS.B   #0x1, &0x65c
    149              break; 
   \   000024   1001         RETA
    150            case 3:                        
    151                UCA3IE |= UCRXIE;                  // Set interrupt flag
   \                     ??Disable_Uart_Rx_Int_4:
   \   000026   D2D39C06     BIS.B   #0x1, &0x69c
    152              break;    
   \   00002A   1001         RETA
    153            default:
    154              __no_operation();                      // todo: add exception if any
   \                     ??Disable_Uart_Rx_Int_0:
   \   00002C   0343         NOP
    155              break;  
    156            }
    157          }
   \   00002E   1001         RETA
   \   000030                REQUIRE _A_UCA0ICTL_L
   \   000030                REQUIRE _A_UCA1ICTL_L
   \   000030                REQUIRE _A_UCA2ICTL_L
   \   000030                REQUIRE _A_UCA3ICTL_L
    158          
    159          /***************************************************************************//**
    160           * @param Function      Enable_Uart_Rx_Int 
    161           * @param Input         unsigned char
    162           * @param Return        void
    163           * @param Calling_Func  protocol.c
    164           * @param Description   This function will enable UART interrupt
    165           ******************************************************************************/

   \                                 In  segment CODE, align 2
    166          void Enable_Uart_Rx_Int(unsigned char uart_ucaX)
   \                     Enable_Uart_Rx_Int:
    167          {
    168            switch (uart_ucaX)
   \   000000   4E4C         MOV.B   R12, R14
   \   000002   4E83         SUB.B   #0x0, R14
   \   000004   0724         JEQ     ??Enable_Uart_Rx_Int_1
   \   000006   5E83         SUB.B   #0x1, R14
   \   000008   0824         JEQ     ??Enable_Uart_Rx_Int_2
   \   00000A   5E83         SUB.B   #0x1, R14
   \   00000C   0924         JEQ     ??Enable_Uart_Rx_Int_3
   \   00000E   5E83         SUB.B   #0x1, R14
   \   000010   0A24         JEQ     ??Enable_Uart_Rx_Int_4
   \   000012   0C3C         JMP     ??Enable_Uart_Rx_Int_0
    169            {  
    170            case 0:
    171                UCA0IE |= UCRXIE;                  // Set interrupt flag
   \                     ??Enable_Uart_Rx_Int_1:
   \   000014   D2D3DC05     BIS.B   #0x1, &0x5dc
    172              break;
   \   000018   1001         RETA
    173            case 1:                 
    174                UCA1IE |= UCRXIE;                  // Set interrupt flag
   \                     ??Enable_Uart_Rx_Int_2:
   \   00001A   D2D31C06     BIS.B   #0x1, &0x61c
    175              break;
   \   00001E   1001         RETA
    176            case 2:                               
    177                UCA2IE |= UCRXIE;                  // Set interrupt flag
   \                     ??Enable_Uart_Rx_Int_3:
   \   000020   D2D35C06     BIS.B   #0x1, &0x65c
    178              break; 
   \   000024   1001         RETA
    179            case 3:                        
    180                UCA3IE |= UCRXIE;                  // Set interrupt flag
   \                     ??Enable_Uart_Rx_Int_4:
   \   000026   D2D39C06     BIS.B   #0x1, &0x69c
    181              break;    
   \   00002A   1001         RETA
    182            default:
    183              __no_operation();                      // todo: add exception if any
   \                     ??Enable_Uart_Rx_Int_0:
   \   00002C   0343         NOP
    184              break;  
    185            }
    186          }
   \   00002E   1001         RETA
   \   000030                REQUIRE _A_UCA0ICTL_L
   \   000030                REQUIRE _A_UCA1ICTL_L
   \   000030                REQUIRE _A_UCA2ICTL_L
   \   000030                REQUIRE _A_UCA3ICTL_L
    187          
    188          /***************************************************************************//**
    189           * @param Function      Check_Uart_Int_Flag 
    190           * @param Input         unsigned char, unsigned char
    191           * @param Return        void
    192           * @param Calling_Func  uart.c  
    193           * @param Description   Check if Tx or Rx interrupt flag received
    194           ******************************************************************************/

   \                                 In  segment CODE, align 2
    195          unsigned char Check_Uart_Int_Flag(unsigned char uart_ucaX, unsigned char flag)
   \                     Check_Uart_Int_Flag:
    196          {
   \   000000   4E4C         MOV.B   R12, R14
    197            unsigned short int bval = 0;
   \   000002   0C43         MOV.W   #0x0, R12
    198            switch (uart_ucaX)
   \   000004   4F4E         MOV.B   R14, R15
   \   000006   4F83         SUB.B   #0x0, R15
   \   000008   0724         JEQ     ??Check_Uart_Int_Flag_10
   \   00000A   5F83         SUB.B   #0x1, R15
   \   00000C   1524         JEQ     ??Check_Uart_Int_Flag_11
   \   00000E   5F83         SUB.B   #0x1, R15
   \   000010   2324         JEQ     ??Check_Uart_Int_Flag_12
   \   000012   5F83         SUB.B   #0x1, R15
   \   000014   3124         JEQ     ??Check_Uart_Int_Flag_13
   \   000016   403C         JMP     ??Check_Uart_Int_Flag_9
    199            {
    200            case 0: 
    201              switch (flag) 
   \                     ??Check_Uart_Int_Flag_10:
   \   000018   4F4D         MOV.B   R13, R15
   \   00001A   4F83         SUB.B   #0x0, R15
   \   00001C   0324         JEQ     ??Check_Uart_Int_Flag_14
   \   00001E   5F83         SUB.B   #0x1, R15
   \   000020   0624         JEQ     ??Check_Uart_Int_Flag_15
   \   000022   1001         RETA
    202              {
    203              case 0:                                     // Receive (Rx) flag
    204                if (UCA0IFG & UCRXIFG) { bval = 1; }      // Check interrupt flag
   \                     ??Check_Uart_Int_Flag_14:
   \   000024   D2B3DD05     BIT.B   #0x1, &0x5dd
   \   000028   0628         JNC     ??Check_Uart_Int_Flag_0
   \   00002A   1C43         MOV.W   #0x1, R12
    205                break;
   \   00002C   1001         RETA
    206              case 1:                                     // Transmit (Tx) flag
    207                if (UCA0IFG & UCTXIFG) { bval = 1; }      // Check interrupt flag
   \                     ??Check_Uart_Int_Flag_15:
   \   00002E   E2B3DD05     BIT.B   #0x2, &0x5dd
   \   000032   3328         JNC     ??Check_Uart_Int_Flag_4
   \   000034   1C43         MOV.W   #0x1, R12
    208                break;
    209              }  
    210              break;
   \                     ??Check_Uart_Int_Flag_0:
   \   000036   1001         RETA
    211            case 1: 
    212              switch (flag) 
   \                     ??Check_Uart_Int_Flag_11:
   \   000038   4F4D         MOV.B   R13, R15
   \   00003A   4F83         SUB.B   #0x0, R15
   \   00003C   0324         JEQ     ??Check_Uart_Int_Flag_16
   \   00003E   5F83         SUB.B   #0x1, R15
   \   000040   0624         JEQ     ??Check_Uart_Int_Flag_17
   \   000042   1001         RETA
    213              {
    214              case 0:                                     // Receive (Rx) flag
    215                if (UCA1IFG & UCRXIFG) { bval = 1; }      // Check interrupt flag
   \                     ??Check_Uart_Int_Flag_16:
   \   000044   D2B31D06     BIT.B   #0x1, &0x61d
   \   000048   0628         JNC     ??Check_Uart_Int_Flag_1
   \   00004A   1C43         MOV.W   #0x1, R12
    216                break;
   \   00004C   1001         RETA
    217              case 1:                                     // Transmit (Tx) flag
    218                if (UCA1IFG & UCTXIFG) { bval = 1; }      // Check interrupt flag
   \                     ??Check_Uart_Int_Flag_17:
   \   00004E   E2B31D06     BIT.B   #0x2, &0x61d
   \   000052   2328         JNC     ??Check_Uart_Int_Flag_4
   \   000054   1C43         MOV.W   #0x1, R12
    219                break;
    220              }
    221              break;
   \                     ??Check_Uart_Int_Flag_1:
   \   000056   1001         RETA
    222            case 2:
    223              switch (flag) 
   \                     ??Check_Uart_Int_Flag_12:
   \   000058   4F4D         MOV.B   R13, R15
   \   00005A   4F83         SUB.B   #0x0, R15
   \   00005C   0324         JEQ     ??Check_Uart_Int_Flag_18
   \   00005E   5F83         SUB.B   #0x1, R15
   \   000060   0624         JEQ     ??Check_Uart_Int_Flag_19
   \   000062   1001         RETA
    224              {
    225              case 0:                                     // Receive (Rx) flag
    226                if (UCA2IFG & UCRXIFG) { bval = 1; }      // Check interrupt flag
   \                     ??Check_Uart_Int_Flag_18:
   \   000064   D2B35D06     BIT.B   #0x1, &0x65d
   \   000068   0628         JNC     ??Check_Uart_Int_Flag_2
   \   00006A   1C43         MOV.W   #0x1, R12
    227                break;
   \   00006C   1001         RETA
    228              case 1:                                     // Transmit (Tx) flag
    229                if (UCA2IFG & UCTXIFG) { bval = 1; }      // Check interrupt flag
   \                     ??Check_Uart_Int_Flag_19:
   \   00006E   E2B35D06     BIT.B   #0x2, &0x65d
   \   000072   1328         JNC     ??Check_Uart_Int_Flag_4
   \   000074   1C43         MOV.W   #0x1, R12
    230                break;
    231              }
    232              break;
   \                     ??Check_Uart_Int_Flag_2:
   \   000076   1001         RETA
    233            case 3: 
    234              switch (flag) 
   \                     ??Check_Uart_Int_Flag_13:
   \   000078   4F4D         MOV.B   R13, R15
   \   00007A   4F83         SUB.B   #0x0, R15
   \   00007C   0324         JEQ     ??Check_Uart_Int_Flag_20
   \   00007E   5F83         SUB.B   #0x1, R15
   \   000080   0624         JEQ     ??Check_Uart_Int_Flag_21
   \   000082   1001         RETA
    235              {
    236              case 0:                                     // Receive (Rx) flag
    237                if (UCA3IFG & UCRXIFG) { bval = 1; }      // Check interrupt flag
   \                     ??Check_Uart_Int_Flag_20:
   \   000084   D2B39D06     BIT.B   #0x1, &0x69d
   \   000088   0628         JNC     ??Check_Uart_Int_Flag_3
   \   00008A   1C43         MOV.W   #0x1, R12
    238                break;
   \   00008C   1001         RETA
    239              case 1:                                     // Transmit (Tx) flag
    240                if (UCA3IFG & UCTXIFG) { bval = 1; }      // Check interrupt flag
   \                     ??Check_Uart_Int_Flag_21:
   \   00008E   E2B39D06     BIT.B   #0x2, &0x69d
   \   000092   0328         JNC     ??Check_Uart_Int_Flag_4
   \   000094   1C43         MOV.W   #0x1, R12
    241                break;
    242              }
    243              break;
   \                     ??Check_Uart_Int_Flag_3:
   \   000096   1001         RETA
    244            default:
    245              __no_operation();                           // todo: add exception if any
   \                     ??Check_Uart_Int_Flag_9:
   \   000098   0343         NOP
    246              break;  
    247            }
    248           return bval;
   \                     ??Check_Uart_Int_Flag_4:
   \   00009A   1001         RETA
   \   00009C                REQUIRE _A_UCA0ICTL_L
   \   00009C                REQUIRE _A_UCA1ICTL_L
   \   00009C                REQUIRE _A_UCA2ICTL_L
   \   00009C                REQUIRE _A_UCA3ICTL_L
    249          }
    250          
    251          /***************************************************************************//**
    252           * @param Function      Set_Uart_Int_Flag 
    253           * @param Input         unsigned char
    254           * @param Return        void
    255           * @param Calling_Func  protocol.c
    256           * @param Description   Setup UART Tx interrupt flag
    257           ******************************************************************************/

   \                                 In  segment CODE, align 2
    258          void Set_Uart_Int_Flag(unsigned char uart_ucaX)
   \                     Set_Uart_Int_Flag:
    259          {
    260            switch (uart_ucaX)
   \   000000   4E4C         MOV.B   R12, R14
   \   000002   4E83         SUB.B   #0x0, R14
   \   000004   0724         JEQ     ??Set_Uart_Int_Flag_1
   \   000006   5E83         SUB.B   #0x1, R14
   \   000008   0824         JEQ     ??Set_Uart_Int_Flag_2
   \   00000A   5E83         SUB.B   #0x1, R14
   \   00000C   0924         JEQ     ??Set_Uart_Int_Flag_3
   \   00000E   5E83         SUB.B   #0x1, R14
   \   000010   0A24         JEQ     ??Set_Uart_Int_Flag_4
   \   000012   0C3C         JMP     ??Set_Uart_Int_Flag_0
    261            {  
    262            case 0:
    263                UCA0IFG |= UCTXIFG;                  // Set interrupt flag
   \                     ??Set_Uart_Int_Flag_1:
   \   000014   E2D3DD05     BIS.B   #0x2, &0x5dd
    264              break;
   \   000018   1001         RETA
    265            case 1:                 
    266                UCA1IFG |= UCTXIFG;                  // Set interrupt flag
   \                     ??Set_Uart_Int_Flag_2:
   \   00001A   E2D31D06     BIS.B   #0x2, &0x61d
    267              break;
   \   00001E   1001         RETA
    268            case 2:                               
    269                UCA2IFG |= UCTXIFG;                  // Set interrupt flag
   \                     ??Set_Uart_Int_Flag_3:
   \   000020   E2D35D06     BIS.B   #0x2, &0x65d
    270              break; 
   \   000024   1001         RETA
    271            case 3:                        
    272                UCA3IFG |= UCTXIFG;                  // Set interrupt flag
   \                     ??Set_Uart_Int_Flag_4:
   \   000026   E2D39D06     BIS.B   #0x2, &0x69d
    273              break;    
   \   00002A   1001         RETA
    274            default:
    275              __no_operation();                      // todo: add exception if any
   \                     ??Set_Uart_Int_Flag_0:
   \   00002C   0343         NOP
    276              break;  
    277            }
    278          }
   \   00002E   1001         RETA
   \   000030                REQUIRE _A_UCA0ICTL_L
   \   000030                REQUIRE _A_UCA1ICTL_L
   \   000030                REQUIRE _A_UCA2ICTL_L
   \   000030                REQUIRE _A_UCA3ICTL_L
    279          /***************************************************************************//**
    280           * @param Function      Clear_Uart_Int_Flag
    281           * @param Input         unsigned char, unsigned char
    282           * @param Return        void
    283           * @param Calling_Func  uart     
    284           * @param Description   
    285           ******************************************************************************/

   \                                 In  segment CODE, align 2
    286          void Clear_Uart_Int_Flag(unsigned char uart_ucaX, unsigned char flag)
   \                     Clear_Uart_Int_Flag:
    287          {
    288            switch (uart_ucaX)
   \   000000   4E4C         MOV.B   R12, R14
   \   000002   4E83         SUB.B   #0x0, R14
   \   000004   0724         JEQ     ??Clear_Uart_Int_Flag_10
   \   000006   5E83         SUB.B   #0x1, R14
   \   000008   1824         JEQ     ??Clear_Uart_Int_Flag_11
   \   00000A   5E83         SUB.B   #0x1, R14
   \   00000C   2924         JEQ     ??Clear_Uart_Int_Flag_12
   \   00000E   5E83         SUB.B   #0x1, R14
   \   000010   3A24         JEQ     ??Clear_Uart_Int_Flag_13
   \   000012   4C3C         JMP     ??Clear_Uart_Int_Flag_5
    289            { 
    290            case 0:
    291              if (UCA0STAT & UCBUSY)
   \                     ??Clear_Uart_Int_Flag_10:
   \   000014   D2B3CA05     BIT.B   #0x1, &0x5ca
   \   000018   0428         JNC     ??Clear_Uart_Int_Flag_14
    292              {
    293                __delay_cycles(500);
   \   00001A                ////////////// Start of 500 cycles delay.
   \   00001A   3F40A500     MOV.W   #0xa5, R15
   \                     ??Clear_Uart_Int_Flag_6:
   \   00001E   3F53         ADD.W   #0xffff, R15
   \   000020   FE2F         JC      ??Clear_Uart_Int_Flag_6
   \   000022                ////////////// End of delay code.
    294              }
    295              switch (flag) 
   \                     ??Clear_Uart_Int_Flag_14:
   \   000022   4E4D         MOV.B   R13, R14
   \   000024   4E83         SUB.B   #0x0, R14
   \   000026   0324         JEQ     ??Clear_Uart_Int_Flag_15
   \   000028   5E83         SUB.B   #0x1, R14
   \   00002A   0424         JEQ     ??Clear_Uart_Int_Flag_16
   \   00002C   1001         RETA
    296              {
    297              case 0:                                 // Receive (Rx) flag
    298                UCA0IFG &= ~UCRXIFG;                  // Clear interrupt flag
   \                     ??Clear_Uart_Int_Flag_15:
   \   00002E   D2C3DD05     BIC.B   #0x1, &0x5dd
    299                break;
   \   000032   1001         RETA
    300              case 1:                                 // Transmit (Tx) flag
    301                UCA0IFG &= ~UCTXIFG;                  // Clear interrupt flag
   \                     ??Clear_Uart_Int_Flag_16:
   \   000034   E2C3DD05     BIC.B   #0x2, &0x5dd
    302                break;
    303              } 
    304              break;
   \   000038   1001         RETA
    305              
    306            case 1:
    307              if (UCA1STAT & UCBUSY)
   \                     ??Clear_Uart_Int_Flag_11:
   \   00003A   D2B30A06     BIT.B   #0x1, &0x60a
   \   00003E   0428         JNC     ??Clear_Uart_Int_Flag_17
    308              {
    309                __delay_cycles(200);
   \   000040                ////////////// Start of 200 cycles delay.
   \   000040   3F404100     MOV.W   #0x41, R15
   \                     ??Clear_Uart_Int_Flag_7:
   \   000044   3F53         ADD.W   #0xffff, R15
   \   000046   FE2F         JC      ??Clear_Uart_Int_Flag_7
   \   000048                ////////////// End of delay code.
    310              }
    311              switch (flag) 
   \                     ??Clear_Uart_Int_Flag_17:
   \   000048   4E4D         MOV.B   R13, R14
   \   00004A   4E83         SUB.B   #0x0, R14
   \   00004C   0324         JEQ     ??Clear_Uart_Int_Flag_18
   \   00004E   5E83         SUB.B   #0x1, R14
   \   000050   0424         JEQ     ??Clear_Uart_Int_Flag_19
   \   000052   1001         RETA
    312              {
    313              case 0:                                 // Receive (Rx) flag
    314                UCA1IFG &= ~UCRXIFG;                  // Clear interrupt flag
   \                     ??Clear_Uart_Int_Flag_18:
   \   000054   D2C31D06     BIC.B   #0x1, &0x61d
    315                break;
   \   000058   1001         RETA
    316              case 1:                                 // Transmit (Tx) flag
    317                UCA1IFG &= ~UCTXIFG;                  // Clear interrupt flag
   \                     ??Clear_Uart_Int_Flag_19:
   \   00005A   E2C31D06     BIC.B   #0x2, &0x61d
    318                break;
    319              } 
    320              break;
   \   00005E   1001         RETA
    321            case 2:
    322              if (UCA2STAT & UCBUSY)
   \                     ??Clear_Uart_Int_Flag_12:
   \   000060   D2B34A06     BIT.B   #0x1, &0x64a
   \   000064   0428         JNC     ??Clear_Uart_Int_Flag_20
    323              {
    324                __delay_cycles(200);
   \   000066                ////////////// Start of 200 cycles delay.
   \   000066   3F404100     MOV.W   #0x41, R15
   \                     ??Clear_Uart_Int_Flag_8:
   \   00006A   3F53         ADD.W   #0xffff, R15
   \   00006C   FE2F         JC      ??Clear_Uart_Int_Flag_8
   \   00006E                ////////////// End of delay code.
    325              }
    326              switch (flag) 
   \                     ??Clear_Uart_Int_Flag_20:
   \   00006E   4E4D         MOV.B   R13, R14
   \   000070   4E83         SUB.B   #0x0, R14
   \   000072   0324         JEQ     ??Clear_Uart_Int_Flag_21
   \   000074   5E83         SUB.B   #0x1, R14
   \   000076   0424         JEQ     ??Clear_Uart_Int_Flag_22
   \   000078   1001         RETA
    327              {
    328              case 0:                                 // Receive (Rx) flag
    329                UCA2IFG &= ~UCRXIFG;                  // Clear interrupt flag
   \                     ??Clear_Uart_Int_Flag_21:
   \   00007A   D2C35D06     BIC.B   #0x1, &0x65d
    330                break;
   \   00007E   1001         RETA
    331              case 1:                                 // Transmit (Tx) flag
    332                UCA2IFG &= ~UCTXIFG;                  // Clear interrupt flag
   \                     ??Clear_Uart_Int_Flag_22:
   \   000080   E2C35D06     BIC.B   #0x2, &0x65d
    333                break;
    334              } 
    335              break; 
   \   000084   1001         RETA
    336            case 3:
    337              if (UCA3STAT & UCBUSY)
   \                     ??Clear_Uart_Int_Flag_13:
   \   000086   D2B38A06     BIT.B   #0x1, &0x68a
   \   00008A   0428         JNC     ??Clear_Uart_Int_Flag_23
    338              {
    339                __delay_cycles(200);
   \   00008C                ////////////// Start of 200 cycles delay.
   \   00008C   3F404100     MOV.W   #0x41, R15
   \                     ??Clear_Uart_Int_Flag_9:
   \   000090   3F53         ADD.W   #0xffff, R15
   \   000092   FE2F         JC      ??Clear_Uart_Int_Flag_9
   \   000094                ////////////// End of delay code.
    340              }
    341              switch (flag) 
   \                     ??Clear_Uart_Int_Flag_23:
   \   000094   4E4D         MOV.B   R13, R14
   \   000096   4E83         SUB.B   #0x0, R14
   \   000098   0324         JEQ     ??Clear_Uart_Int_Flag_24
   \   00009A   5E83         SUB.B   #0x1, R14
   \   00009C   0424         JEQ     ??Clear_Uart_Int_Flag_25
   \   00009E   1001         RETA
    342              {
    343              case 0:                                 // Receive (Rx) flag
    344                UCA3IFG &= ~UCRXIFG;                  // Clear interrupt flag
   \                     ??Clear_Uart_Int_Flag_24:
   \   0000A0   D2C39D06     BIC.B   #0x1, &0x69d
    345                break;
   \   0000A4   1001         RETA
    346              case 1:                                 // Transmit (Tx) flag
    347                UCA3IFG &= ~UCTXIFG;                  // Clear interrupt flag
   \                     ??Clear_Uart_Int_Flag_25:
   \   0000A6   E2C39D06     BIC.B   #0x2, &0x69d
    348                break;
    349              } 
    350              break;
   \   0000AA   1001         RETA
    351              
    352            default:
    353              __no_operation();                           // todo: add exception if any
   \                     ??Clear_Uart_Int_Flag_5:
   \   0000AC   0343         NOP
    354              break;  
    355            }
    356          }
   \   0000AE   1001         RETA
   \   0000B0                REQUIRE UCA0STAT
   \   0000B0                REQUIRE _A_UCA0ICTL_L
   \   0000B0                REQUIRE UCA1STAT
   \   0000B0                REQUIRE _A_UCA1ICTL_L
   \   0000B0                REQUIRE UCA2STAT
   \   0000B0                REQUIRE _A_UCA2ICTL_L
   \   0000B0                REQUIRE UCA3STAT
   \   0000B0                REQUIRE _A_UCA3ICTL_L
    357          
    358          /***************************************************************************//**
    359           * @param Function      Uart_TxInt_Flag_Status
    360           * @param Input         unsigned char
    361           * @param Return        unsigned char
    362           * @param Calling_Func  
    363           * @param Description   This function check is any Tx interrupt is pending
    364           ******************************************************************************/

   \                                 In  segment CODE, align 2
    365          unsigned char Uart_TxInt_Flag_Status(unsigned char uart_ucaX)
   \                     Uart_TxInt_Flag_Status:
    366          {
   \   000000   4E4C         MOV.B   R12, R14
    367              switch(uart_ucaX)
   \   000002   4F4E         MOV.B   R14, R15
   \   000004   4F83         SUB.B   #0x0, R15
   \   000006   0724         JEQ     ??Uart_TxInt_Flag_Status_1
   \   000008   5F83         SUB.B   #0x1, R15
   \   00000A   0924         JEQ     ??Uart_TxInt_Flag_Status_2
   \   00000C   5F83         SUB.B   #0x1, R15
   \   00000E   0B24         JEQ     ??Uart_TxInt_Flag_Status_3
   \   000010   5F83         SUB.B   #0x1, R15
   \   000012   0D24         JEQ     ??Uart_TxInt_Flag_Status_4
   \   000014   103C         JMP     ??Uart_TxInt_Flag_Status_0
    368            {
    369            case 0: 
    370              return (UCA0IFG & UCTXIFG);  
   \                     ??Uart_TxInt_Flag_Status_1:
   \   000016   5C42DD05     MOV.B   &0x5dd, R12
   \   00001A   6CF3         AND.B   #0x2, R12
   \   00001C   1001         RETA
    371              break;  
    372            case 1: 
    373              return (UCA1IFG & UCTXIFG);  
   \                     ??Uart_TxInt_Flag_Status_2:
   \   00001E   5C421D06     MOV.B   &0x61d, R12
   \   000022   6CF3         AND.B   #0x2, R12
   \   000024   1001         RETA
    374              break;    
    375            case 2: 
    376              return (UCA2IFG & UCTXIFG);  
   \                     ??Uart_TxInt_Flag_Status_3:
   \   000026   5C425D06     MOV.B   &0x65d, R12
   \   00002A   6CF3         AND.B   #0x2, R12
   \   00002C   1001         RETA
    377              break;   
    378            case 3: 
    379              return (UCA3IFG & UCTXIFG);  
   \                     ??Uart_TxInt_Flag_Status_4:
   \   00002E   5C429D06     MOV.B   &0x69d, R12
   \   000032   6CF3         AND.B   #0x2, R12
   \   000034   1001         RETA
    380              break;  
    381            default:
    382              return 0x00;
   \                     ??Uart_TxInt_Flag_Status_0:
   \   000036   4C43         MOV.B   #0x0, R12
   \   000038   1001         RETA
   \   00003A                REQUIRE _A_UCA0ICTL_L
   \   00003A                REQUIRE _A_UCA1ICTL_L
   \   00003A                REQUIRE _A_UCA2ICTL_L
   \   00003A                REQUIRE _A_UCA3ICTL_L
    383            break;
    384            }
    385          }
    386          
    387          ///***************************************************************************//**
    388          // * @param Function      
    389          // * @param Input         void
    390          // * @param Return        void
    391          // * @param Calling_Func  
    392          // * @param Description   
    393          // ******************************************************************************/
    394          //char Get_Uart_Rx_Data(unsigned char uart_ucaX) 
    395          //{ 
    396          //  switch(uart_ucaX)
    397          //  {
    398          //  case 0: 
    399          //    return UCA0RXBUF;  
    400          //    break;  
    401          //  case 1: 
    402          //    return UCA1RXBUF;  
    403          //    break;    
    404          //  case 2: 
    405          //    return UCA2RXBUF;  
    406          //    break;   
    407          //  case 3: 
    408          //    return UCA3RXBUF;  
    409          //    break;  
    410          //  default:
    411          //    return 0x00;
    412          //  break;
    413          //  } 
    414          //}
    415          
    416          /***************************************************************************//**
    417           * @param Function      Set_Uart_Tx_Data
    418           * @param Input         unsigned char, unsigned char
    419           * @param Return        void
    420           * @param Calling_Func  uart.c
    421           * @param Description   This function loads the data to respective Uart Tx Buffer
    422           ******************************************************************************/

   \                                 In  segment CODE, align 2
    423          void Set_Uart_Tx_Data(unsigned char uart_ucaX, char data) 
   \                     Set_Uart_Tx_Data:
    424          { 
    425            switch(uart_ucaX)
   \   000000   4E4C         MOV.B   R12, R14
   \   000002   4E83         SUB.B   #0x0, R14
   \   000004   0724         JEQ     ??Set_Uart_Tx_Data_0
   \   000006   5E83         SUB.B   #0x1, R14
   \   000008   0824         JEQ     ??Set_Uart_Tx_Data_1
   \   00000A   5E83         SUB.B   #0x1, R14
   \   00000C   0924         JEQ     ??Set_Uart_Tx_Data_2
   \   00000E   5E83         SUB.B   #0x1, R14
   \   000010   0A24         JEQ     ??Set_Uart_Tx_Data_3
   \   000012   1001         RETA
    426            {
    427            case 0: 
    428              UCA0TXBUF = data;
   \                     ??Set_Uart_Tx_Data_0:
   \   000014   C24DCE05     MOV.B   R13, &0x5ce
    429              break;   
   \   000018   1001         RETA
    430            case 1: 
    431              UCA1TXBUF = data;  
   \                     ??Set_Uart_Tx_Data_1:
   \   00001A   C24D0E06     MOV.B   R13, &0x60e
    432              break;    
   \   00001E   1001         RETA
    433            case 2: 
    434              UCA2TXBUF = data;  
   \                     ??Set_Uart_Tx_Data_2:
   \   000020   C24D4E06     MOV.B   R13, &0x64e
    435              break;    
   \   000024   1001         RETA
    436            case 3: 
    437              UCA3TXBUF = data; 
   \                     ??Set_Uart_Tx_Data_3:
   \   000026   C24D8E06     MOV.B   R13, &0x68e
    438              break;
    439            }   
    440          }
   \   00002A   1001         RETA
   \   00002C                REQUIRE UCA0TXBUF
   \   00002C                REQUIRE UCA1TXBUF
   \   00002C                REQUIRE UCA2TXBUF
   \   00002C                REQUIRE UCA3TXBUF
    441          
    442          /***************************************************************************//**
    443           * @param Function      AppBufferIsFull 
    444           * @param Input         CyclicBuffer
    445           * @param Return        unsigned char
    446           * @param Calling_Func  
    447           * @param Description   This function checks if specified cyclicBuffer is full
    448           ******************************************************************************/

   \                                 In  segment CODE, align 2
    449          unsigned char AppBufferIsFull(CyclicBuffer * pAppBuffer)
   \                     AppBufferIsFull:
    450          {
    451            // Check if incrementing the write pointer by 1 causes a rollover to start.
    452            if ((pAppBuffer->pWrite) < (pAppBuffer->pBufferEnd))
   \   000000   9C9C02000400 CMP.W   0x2(R12), 0x4(R12)
   \   000006   0A2C         JC      ??AppBufferIsFull_2
    453            {
    454              // If pWrite + 1 and pRead are equal, the buffer is full.
    455              return ((pAppBuffer->pWrite + 1) == pAppBuffer->pRead);
   \   000008   1F4C0400     MOV.W   0x4(R12), R15
   \   00000C   1F53         ADD.W   #0x1, R15
   \   00000E   1F9C0600     CMP.W   0x6(R12), R15
   \   000012   0220         JNE     ??AppBufferIsFull_3
   \   000014   5C43         MOV.B   #0x1, R12
   \   000016   1001         RETA
   \                     ??AppBufferIsFull_3:
   \   000018   4C43         MOV.B   #0x0, R12
   \   00001A   1001         RETA
    456            }
    457            else
    458            {
    459              // If a rollover occurs, we can use pBuffer in place of pWrite for the
    460              // comparison. If pBuffer and pRead are the same, the buffer is full.
    461              return (pAppBuffer->pBufferStart == pAppBuffer->pRead);
   \                     ??AppBufferIsFull_2:
   \   00001C   9C9C06000000 CMP.W   0x6(R12), 0(R12)
   \   000022   0220         JNE     ??AppBufferIsFull_4
   \   000024   5C43         MOV.B   #0x1, R12
   \   000026   1001         RETA
   \                     ??AppBufferIsFull_4:
   \   000028   4C43         MOV.B   #0x0, R12
   \   00002A   1001         RETA
    462            } 
    463          }
    464          
    465          /***************************************************************************//**
    466           * @param Function      AppBufferIsEmpty
    467           * @param Input         CyclicBuffer
    468           * @param Return        unsigned char           
    469           * @param Calling_Func  
    470           * @param Description   This function checks if the Buffer is empty
    471           ******************************************************************************/

   \                                 In  segment CODE, align 2
    472          unsigned char AppBufferIsEmpty(CyclicBuffer * pAppBuffer)
   \                     AppBufferIsEmpty:
    473          {
    474            return (pAppBuffer->pWrite == pAppBuffer->pRead);
   \   000000   9C9C06000400 CMP.W   0x6(R12), 0x4(R12)
   \   000006   0220         JNE     ??AppBufferIsEmpty_0
   \   000008   5C43         MOV.B   #0x1, R12
   \   00000A   1001         RETA
   \                     ??AppBufferIsEmpty_0:
   \   00000C   4C43         MOV.B   #0x0, R12
   \   00000E   1001         RETA
    475          }
    476          
    477          /***************************************************************************//**
    478           * @param Function      AppWriteBuffer
    479           * @param Input         CyclicBuffer, unsigned char
    480           * @param Return        unsigned char
    481           * @param Calling_Func  
    482           * @param Description   This function writes data to specific buffer 
    483           ******************************************************************************/

   \                                 In  segment CODE, align 2
    484          unsigned char AppWriteBuffer(CyclicBuffer * pAppBuffer, unsigned char writebyte)
   \                     AppWriteBuffer:
    485          {
   \   000000   0A12         PUSH.W  R10
   \   000002   0E4C         MOV.W   R12, R14
    486            unsigned short intState = __get_interrupt_state();
   \   000004   0A42         MOV.W   SR, R10
    487            __disable_interrupt();
   \   000006   32C2         DINT
   \   000008   0343         NOP
    488           
    489            unsigned char isFull = AppBufferIsFull(pAppBuffer);
   \   00000A   0C4E         MOV.W   R14, R12
   \   00000C   ........     CALLA   #AppBufferIsFull
    490            
    491            // Verify that there is free space available to write data.
    492            if (!isFull)
   \   000010   4C93         CMP.B   #0x0, R12
   \   000012   0D20         JNE     ??AppWriteBuffer_0
    493            {
    494              // Write value at current write pointer position.
    495              *(pAppBuffer->pWrite) = writebyte;
   \   000014   1F4E0400     MOV.W   0x4(R14), R15
   \   000018   CF4D0000     MOV.B   R13, 0(R15)
    496            
    497              // Manipulate pointers.
    498              // Compare the current ptr offset position to the buffer start.
    499              if (pAppBuffer->pWrite < pAppBuffer->pBufferEnd)
   \   00001C   9E9E02000400 CMP.W   0x2(R14), 0x4(R14)
   \   000022   032C         JC      ??AppWriteBuffer_1
    500              {
    501                // If the pointer address is less than the buffer start address + size of
    502                // the buffer, increment the pointer.
    503                pAppBuffer->pWrite = pAppBuffer->pWrite + 1;
   \   000024   9E530400     ADD.W   #0x1, 0x4(R14)
   \   000028   023C         JMP     ??AppWriteBuffer_0
    504              }
    505              else
    506              {
    507                // If the pointer reaches the end, set it back to the beginning.
    508                pAppBuffer->pWrite = pAppBuffer->pBufferStart;
   \                     ??AppWriteBuffer_1:
   \   00002A   AE4E0400     MOV.W   @R14, 0x4(R14)
    509              }
    510            }
    511          
    512            __set_interrupt_state(intState);
   \                     ??AppWriteBuffer_0:
   \   00002E   024A         MOV.W   R10, SR
   \   000030   0343         NOP
    513            
    514            return isFull;
   \   000032   3A41         POP.W   R10
   \   000034   1001         RETA
    515          }
    516          
    517          /***************************************************************************//**
    518           * @param Function      AppReadBuffer 
    519           * @param Input         CyclicBuffer, unsigned char
    520           * @param Return        unsigned char
    521           * @param Calling_Func  
    522           * @param Description   This function reads data to specific buffer 
    523           ******************************************************************************/

   \                                 In  segment CODE, align 2
    524          unsigned char AppReadBuffer(CyclicBuffer * pAppBuffer, unsigned char * readbyte)
   \                     AppReadBuffer:
    525          {
   \   000000   0A12         PUSH.W  R10
   \   000002   0F4C         MOV.W   R12, R15
    526            unsigned short intState = __get_interrupt_state();   // store current interrurpt state 
   \   000004   0E42         MOV.W   SR, R14
    527            __disable_interrupt();                                // disable all interrupt
   \   000006   32C2         DINT
   \   000008   0343         NOP
    528            
    529            unsigned char isEmpty = AppBufferIsEmpty(pAppBuffer);       // check if buffer empty
   \   00000A   0C4F         MOV.W   R15, R12
   \   00000C   ........     CALLA   #AppBufferIsEmpty
    530          
    531            // Verify that there is data to read.
    532            if (!isEmpty)
   \   000010   4C93         CMP.B   #0x0, R12
   \   000012   0D20         JNE     ??AppReadBuffer_0
    533            {
    534              // Read current value at current read pointer position.
    535              *(readbyte) = *(pAppBuffer->pRead);
   \   000014   1A4F0600     MOV.W   0x6(R15), R10
   \   000018   ED4A0000     MOV.B   @R10, 0(R13)
    536            
    537              // Manipulate pointers.
    538              // Compare the current ptr offset position to the buffer start.
    539              if (pAppBuffer->pRead < pAppBuffer->pBufferEnd)
   \   00001C   9F9F02000600 CMP.W   0x2(R15), 0x6(R15)
   \   000022   032C         JC      ??AppReadBuffer_1
    540              {
    541                // If the pointer address is less than the buffer start address + size of
    542                // the buffer, increment the pointer.
    543                pAppBuffer->pRead = pAppBuffer->pRead + 1;
   \   000024   9F530600     ADD.W   #0x1, 0x6(R15)
   \   000028   023C         JMP     ??AppReadBuffer_0
    544              }
    545              else
    546              {
    547                // If the pointer reaches the end, set it back to the beginning.
    548                pAppBuffer->pRead = pAppBuffer->pBufferStart;
   \                     ??AppReadBuffer_1:
   \   00002A   AF4F0600     MOV.W   @R15, 0x6(R15)
    549              }
    550            }
    551          
    552            __set_interrupt_state(intState);
   \                     ??AppReadBuffer_0:
   \   00002E   024E         MOV.W   R14, SR
   \   000030   0343         NOP
    553            
    554            return isEmpty;
   \   000032   3A41         POP.W   R10
   \   000034   1001         RETA
    555          }
    556          
    557          /***************************************************************************//**
    558           * @param Function      AppBufferBlockFull
    559           * @param Input         CyclicBuffer, unsigned char
    560           * @param Return        unsigned char
    561           * @param Calling_Func  
    562           * @param Description   This function checks if the buffer is full
    563           ******************************************************************************/

   \                                 In  segment CODE, align 2
    564          unsigned char AppBufferBlockFull(CyclicBuffer * pAppBuffer, unsigned char blocklength)
   \                     AppBufferBlockFull:
    565          {
   \   000000   0F4C         MOV.W   R12, R15
    566            if (AppBufferIsEmpty(pAppBuffer))
   \   000002   0C4F         MOV.W   R15, R12
   \   000004   ........     CALLA   #AppBufferIsEmpty
   \   000008   4C93         CMP.B   #0x0, R12
   \   00000A   0224         JEQ     ??AppBufferBlockFull_0
    567            {
    568              return FALSE;
   \   00000C   4C43         MOV.B   #0x0, R12
   \   00000E   1001         RETA
    569            }
    570            else
    571            {
    572              if (pAppBuffer->pWrite < pAppBuffer->pRead)
   \                     ??AppBufferBlockFull_0:
   \   000010   9F9F06000400 CMP.W   0x6(R15), 0x4(R15)
   \   000016   0B2C         JC      ??AppBufferBlockFull_1
    573              {
    574                if ((pAppBuffer->pRead - pAppBuffer->pWrite ) > blocklength)
   \   000018   4D4D         MOV.B   R13, R13
   \   00001A   1E4F0600     MOV.W   0x6(R15), R14
   \   00001E   1E8F0400     SUB.W   0x4(R15), R14
   \   000022   0D9E         CMP.W   R14, R13
   \   000024   0234         JGE     ??AppBufferBlockFull_2
    575                  return FALSE;
   \   000026   4C43         MOV.B   #0x0, R12
   \   000028   1001         RETA
    576                else
    577                  return TRUE;
   \                     ??AppBufferBlockFull_2:
   \   00002A   5C43         MOV.B   #0x1, R12
   \   00002C   1001         RETA
    578              }
    579              else
    580              {
    581                if (((pAppBuffer->pBufferEnd - pAppBuffer->pBufferStart) - (pAppBuffer->pWrite - pAppBuffer->pRead )) > blocklength)
   \                     ??AppBufferBlockFull_1:
   \   00002E   4D4D         MOV.B   R13, R13
   \   000030   1E4F0200     MOV.W   0x2(R15), R14
   \   000034   2E8F         SUB.W   @R15, R14
   \   000036   1C4F0400     MOV.W   0x4(R15), R12
   \   00003A   1C8F0600     SUB.W   0x6(R15), R12
   \   00003E   0E8C         SUB.W   R12, R14
   \   000040   0D9E         CMP.W   R14, R13
   \   000042   0234         JGE     ??AppBufferBlockFull_3
    582                  return FALSE;
   \   000044   4C43         MOV.B   #0x0, R12
   \   000046   1001         RETA
    583                else
    584                  return TRUE;
   \                     ??AppBufferBlockFull_3:
   \   000048   5C43         MOV.B   #0x1, R12
   \   00004A   1001         RETA
    585              }
    586            }
    587          }
    588          
    589          /***************************************************************************//**
    590           * @param Function      AppWriteBufferBlock
    591           * @param Input         CyclicBuffer, unsigned char, unsigned char
    592           * @param Return        unsigned char
    593           * @param Calling_Func  
    594           * @param Description   This function is used to write data to buffer
    595           ******************************************************************************/

   \                                 In  segment CODE, align 2
    596          unsigned char AppWriteBufferBlock(CyclicBuffer * pAppBuffer, unsigned char *pWriteblock, unsigned char blocklength)
   \                     AppWriteBufferBlock:
    597          {
   \   000000   3B15         PUSHM.W #0x4, R11
   \   000002   0B4C         MOV.W   R12, R11
   \   000004   084D         MOV.W   R13, R8
   \   000006   4A4E         MOV.B   R14, R10
    598            unsigned short intState = __get_interrupt_state();
   \   000008   0942         MOV.W   SR, R9
    599            __disable_interrupt();
   \   00000A   32C2         DINT
   \   00000C   0343         NOP
    600           
    601            unsigned char isFull = AppBufferBlockFull(pAppBuffer, blocklength);
   \   00000E   4D4A         MOV.B   R10, R13
   \   000010   0C4B         MOV.W   R11, R12
   \   000012   ........     CALLA   #AppBufferBlockFull
    602            unsigned char writecount;
    603          
    604              // Verify that there is free space available to write data.
    605              if (!isFull)
   \   000016   4C93         CMP.B   #0x0, R12
   \   000018   1520         JNE     ??AppWriteBufferBlock_2
    606              {
    607                for (writecount = 0; writecount < blocklength; writecount ++)
   \   00001A   4F43         MOV.B   #0x0, R15
   \                     ??AppWriteBufferBlock_0:
   \   00001C   4F9A         CMP.B   R10, R15
   \   00001E   122C         JC      ??AppWriteBufferBlock_2
    608                {
    609                  // Write value at current write pointer position.
    610                 *pAppBuffer->pWrite = *(pWriteblock + writecount);
   \   000020   4F4F         MOV.B   R15, R15
   \   000022   0E48         MOV.W   R8, R14
   \   000024   0E5F         ADD.W   R15, R14
   \   000026   1D4B0400     MOV.W   0x4(R11), R13
   \   00002A   ED4E0000     MOV.B   @R14, 0(R13)
    611                
    612                  // Manipulate pointers.
    613                  // Compare the current ptr offset position to the buffer start.
    614                  if (pAppBuffer->pWrite < pAppBuffer->pBufferEnd)
   \   00002E   9B9B02000400 CMP.W   0x2(R11), 0x4(R11)
   \   000034   032C         JC      ??AppWriteBufferBlock_3
    615                  {
    616                    // If the pointer address is less than the buffer start address + size of
    617                    // the buffer, increment the pointer.
    618                    pAppBuffer->pWrite = pAppBuffer->pWrite + 1;
   \   000036   9B530400     ADD.W   #0x1, 0x4(R11)
   \   00003A   023C         JMP     ??AppWriteBufferBlock_1
    619                  }
    620                  else
    621                  {
    622                    // If the pointer reaches the end, set it back to the beginning.
    623                    pAppBuffer->pWrite = pAppBuffer->pBufferStart;
   \                     ??AppWriteBufferBlock_3:
   \   00003C   AB4B0400     MOV.W   @R11, 0x4(R11)
    624                  }
    625                }
   \                     ??AppWriteBufferBlock_1:
   \   000040   5F53         ADD.B   #0x1, R15
   \   000042   EC3F         JMP     ??AppWriteBufferBlock_0
    626              } 
    627            __set_interrupt_state(intState); 
   \                     ??AppWriteBufferBlock_2:
   \   000044   0249         MOV.W   R9, SR
   \   000046   0343         NOP
    628            return isFull;
   \   000048   3817         POPM.W  #0x4, R11
   \   00004A   1001         RETA
    629          }
    630          
    631          /***************************************************************************//**
    632           *                          ISR for UART
    633          *******************************************************************************/
    634          
    635          /***************************************************************************//**
    636           * @param Function      __interrupt void vUART0_WIRED_ISR( void )
    637           * @param Input         void
    638           * @param Return        void
    639           * @param Calling_Func  Application.c
    640           * @param Description   This hardware dependant function used to transmit and receive
    641                                  date from UART
    642           ******************************************************************************/
    643          // PCU IN/OUT
    644          #pragma vector=UART_0

   \                                 In  segment ISR_CODE, align 2
    645          __interrupt void vUART0_WIRED_ISR( void )
   \                     vUART0_WIRED_ISR:
    646          { 
   \   000000   3F15         PUSHM.W #0x4, R15
   \   000002   F103         SUBA    #0x2, SP
    647            LPM0_EXIT;
   \   000004   B1C010000A00 BIC.W   #0x10, 0xa(SP)
    648            // check if data received or data transmitted. 
    649            if(Check_Uart_Int_Flag(0,0)){                           // Ckeck if Received data flag set
   \   00000A   4D43         MOV.B   #0x0, R13
   \   00000C   4C43         MOV.B   #0x0, R12
   \   00000E   ........     CALLA   #Check_Uart_Int_Flag
   \   000012   4C93         CMP.B   #0x0, R12
   \   000014   1F24         JEQ     ??vUART0_WIRED_ISR_2
    650              // set Rx LED on
    651              //Set_UART0_LED(RX,ON);
    652              Change_Led(LED_1,ON); 
   \   000016   5D43         MOV.B   #0x1, R13
   \   000018   7C400300     MOV.B   #0x3, R12
   \   00001C   ........     CALLA   #Change_Led
    653              Change_Led(LED_3,ON);
   \   000020   5D43         MOV.B   #0x1, R13
   \   000022   7C400500     MOV.B   #0x5, R12
   \   000026   ........     CALLA   #Change_Led
    654          
    655              Clear_Uart_Int_Flag(0,0);
   \   00002A   4D43         MOV.B   #0x0, R13
   \   00002C   4C43         MOV.B   #0x0, R12
   \   00002E   ........     CALLA   #Clear_Uart_Int_Flag
    656              //Process PBC received Command
    657              Record_PBC_Rx_Msg(Uart_UCA0_Rx_Buffer);               // Process Delta Command
   \   000032   5C42CC05     MOV.B   &0x5cc, R12
   \   000036   ........     CALLA   #Record_PBC_Rx_Msg
    658              #if (Debug_RS485 == TRUE)
    659              Uart_UCA3_Tx_Buffer = Uart_UCA0_Rx_Buffer;
   \   00003A   D242CC058E06 MOV.B   &0x5cc, &0x68e
    660              #endif
    661              //Set_UART0_LED(RX,OFF);
    662              Change_Led(LED_1,OFF); 
   \   000040   4D43         MOV.B   #0x0, R13
   \   000042   7C400300     MOV.B   #0x3, R12
   \   000046   ........     CALLA   #Change_Led
    663              Change_Led(LED_3,OFF);
   \   00004A   4D43         MOV.B   #0x0, R13
   \   00004C   7C400500     MOV.B   #0x5, R12
   \   000050   ........     CALLA   #Change_Led
    664            }
    665            if(Check_Uart_Int_Flag(0,1)){                           // Check Transmit data flag set
   \                     ??vUART0_WIRED_ISR_2:
   \   000054   5D43         MOV.B   #0x1, R13
   \   000056   4C43         MOV.B   #0x0, R12
   \   000058   ........     CALLA   #Check_Uart_Int_Flag
   \   00005C   4C93         CMP.B   #0x0, R12
   \   00005E   3224         JEQ     ??vUART0_WIRED_ISR_3
    666              //Disable RS485 Rx
    667              P4OUT |= BIT7;
   \   000060   F2D080002302 BIS.B   #0x80, &0x223
    668              __delay_cycles(100);
   \   000066                ////////////// Start of 100 cycles delay.
   \                     ??vUART0_WIRED_ISR_4:
   \   000066   3F401F00     MOV.W   #0x1f, R15
   \                     ??vUART0_WIRED_ISR_0:
   \   00006A   3F53         ADD.W   #0xffff, R15
   \   00006C   FE2F         JC      ??vUART0_WIRED_ISR_0
   \   00006E                ////////////// End of delay code.
    669              // set Tx LED on
    670              Set_UART0_LED(TX,ON);
   \   00006E   5D43         MOV.B   #0x1, R13
   \   000070   5C43         MOV.B   #0x1, R12
   \   000072   ........     CALLA   #Set_UART0_LED
    671              // This application just accepts data from RS485 and will not respond back
    672                  unsigned char readvalue;
    673              // Check if the Buffers are empty
    674              if (!AppBufferIsEmpty(&PBC_TX_Buffer))
   \   000076   3C40....     MOV.W   #PBC_TX_Buffer, R12
   \   00007A   ........     CALLA   #AppBufferIsEmpty
   \   00007E   4C93         CMP.B   #0x0, R12
   \   000080   0B20         JNE     ??vUART0_WIRED_ISR_5
    675              {
    676                // Read data 
    677                AppReadBuffer(&PBC_TX_Buffer, &readvalue);
   \   000082   0D41         MOV.W   SP, R13
   \   000084   3C40....     MOV.W   #PBC_TX_Buffer, R12
   \   000088   ........     CALLA   #AppReadBuffer
    678                // write data to TX buffer 
    679                Set_Uart_Tx_Data(0,readvalue);  // read data from circular buffer
   \   00008C   6D41         MOV.B   @SP, R13
   \   00008E   4C43         MOV.B   #0x0, R12
   \   000090   ........     CALLA   #Set_Uart_Tx_Data
    680                #if (Debug_RS485 == TRUE)
    681                Uart_UCA3_Tx_Buffer = readvalue;
   \   000094   E2418E06     MOV.B   @SP, &0x68e
    682                #endif
    683              }
    684              // check if data present to read from buffer
    685              if (AppBufferIsEmpty(&PBC_TX_Buffer))
   \                     ??vUART0_WIRED_ISR_5:
   \   000098   3C40....     MOV.W   #PBC_TX_Buffer, R12
   \   00009C   ........     CALLA   #AppBufferIsEmpty
   \   0000A0   4C93         CMP.B   #0x0, R12
   \   0000A2   0C24         JEQ     ??vUART0_WIRED_ISR_6
    686              {
    687                //Clear if Transmit interrupt flag pending only if all pending data transmitted
    688                Clear_Uart_Int_Flag(0,1);
   \   0000A4   5D43         MOV.B   #0x1, R13
   \   0000A6   4C43         MOV.B   #0x0, R12
   \   0000A8   ........     CALLA   #Clear_Uart_Int_Flag
    689                // Enable RS485 Rx
    690                __delay_cycles(3000);
   \   0000AC                ////////////// Start of 3000 cycles delay.
   \   0000AC   0343         NOP
   \   0000AE   3F40E603     MOV.W   #0x3e6, R15
   \                     ??vUART0_WIRED_ISR_1:
   \   0000B2   3F53         ADD.W   #0xffff, R15
   \   0000B4   FE2F         JC      ??vUART0_WIRED_ISR_1
   \   0000B6                ////////////// End of delay code.
    691                P4OUT &= ~BIT7;
   \   0000B6   F2C080002302 BIC.B   #0x80, &0x223
    692                
    693              }
    694              Set_UART0_LED(TX,OFF);
   \                     ??vUART0_WIRED_ISR_6:
   \   0000BC   4D43         MOV.B   #0x0, R13
   \   0000BE   5C43         MOV.B   #0x1, R12
   \   0000C0   ........     CALLA   #Set_UART0_LED
    695            }
    696          }
   \                     ??vUART0_WIRED_ISR_3:
   \   0000C4   E103         ADDA    #0x2, SP
   \   0000C6   3C17         POPM.W  #0x4, R15
   \   0000C8   0013         RETI
   \   0000CA                REQUIRE UCA0RXBUF
   \   0000CA                REQUIRE UCA3TXBUF
   \   0000CA                REQUIRE _A_PBOUT_L
    697          
    698          
    699          /***************************************************************************//**
    700           * @param Function      __interrupt void vUART1_WIRED_ISR( void )
    701           * @param Input         void
    702           * @param Return        void
    703           * @param Calling_Func  Application.c
    704           * @param Description   This hardware dependant function used to transmit and receive
    705                                  date from UART
    706           ******************************************************************************/
    707          //Delta Debug UART
    708          #pragma vector=UART_1

   \                                 In  segment ISR_CODE, align 2
    709          __interrupt void vUART1_WIRED_ISR( void )
   \                     vUART1_WIRED_ISR:
    710          { 
   \   000000   3F15         PUSHM.W #0x4, R15
   \   000002   F103         SUBA    #0x2, SP
    711            LPM0_EXIT;
   \   000004   B1C010000A00 BIC.W   #0x10, 0xa(SP)
    712            // check if data received or data transmitted. 
    713            if(Check_Uart_Int_Flag(1,0)){                           // Ckeck if Received data flag set
   \   00000A   4D43         MOV.B   #0x0, R13
   \   00000C   5C43         MOV.B   #0x1, R12
   \   00000E   ........     CALLA   #Check_Uart_Int_Flag
   \   000012   4C93         CMP.B   #0x0, R12
   \   000014   0424         JEQ     ??vUART1_WIRED_ISR_1
    714              // set UART interrupt flag
    715              Clear_Uart_Int_Flag(1,0);
   \   000016   4D43         MOV.B   #0x0, R13
   \   000018   5C43         MOV.B   #0x1, R12
   \   00001A   ........     CALLA   #Clear_Uart_Int_Flag
    716              // No message will be received as this is used for debugging RS485 msg
    717            }
    718            if(Check_Uart_Int_Flag(1,1)){                           // Check Transmit data flag set
   \                     ??vUART1_WIRED_ISR_1:
   \   00001E   5D43         MOV.B   #0x1, R13
   \   000020   5C43         MOV.B   #0x1, R12
   \   000022   ........     CALLA   #Check_Uart_Int_Flag
   \   000026   4C93         CMP.B   #0x0, R12
   \   000028   2324         JEQ     ??vUART1_WIRED_ISR_2
    719          //    //Clear if Transmit interrupt flag pending
    720          //    Clear_Uart_Int_Flag(1,1);
    721              unsigned char readvalue;
    722              
    723              if (!AppBufferIsEmpty(&Debug_Buffer))
   \   00002A   3C40....     MOV.W   #Debug_Buffer, R12
   \   00002E   ........     CALLA   #AppBufferIsEmpty
   \   000032   4C93         CMP.B   #0x0, R12
   \   000034   0B20         JNE     ??vUART1_WIRED_ISR_3
    724              {
    725                // Read data 
    726                AppReadBuffer(&Debug_Buffer, &readvalue);
   \   000036   0D41         MOV.W   SP, R13
   \   000038   3C40....     MOV.W   #Debug_Buffer, R12
   \   00003C   ........     CALLA   #AppReadBuffer
    727                // write data to TX buffer 
    728                Set_Uart_Tx_Data(1,readvalue);  // read data from circular buffer
   \   000040   6D41         MOV.B   @SP, R13
   \   000042   5C43         MOV.B   #0x1, R12
   \   000044   ........     CALLA   #Set_Uart_Tx_Data
    729                #if (Debug_RS485 == TRUE)
    730                Uart_UCA3_Tx_Buffer = readvalue;
   \   000048   E2418E06     MOV.B   @SP, &0x68e
    731                #endif
    732              }
    733              // check if data present to read from buffer
    734              if (AppBufferIsEmpty(&Debug_Buffer))
   \                     ??vUART1_WIRED_ISR_3:
   \   00004C   3C40....     MOV.W   #Debug_Buffer, R12
   \   000050   ........     CALLA   #AppBufferIsEmpty
   \   000054   4C93         CMP.B   #0x0, R12
   \   000056   0C24         JEQ     ??vUART1_WIRED_ISR_2
    735              {
    736                //Clear if Transmit interrupt flag pending only if all pending data transmitted
    737                Clear_Uart_Int_Flag(1,1);
   \   000058   5D43         MOV.B   #0x1, R13
   \   00005A   5C43         MOV.B   #0x1, R12
   \   00005C   ........     CALLA   #Clear_Uart_Int_Flag
    738                // Enable RS485 Rx
    739                __delay_cycles(3000);
   \   000060                ////////////// Start of 3000 cycles delay.
   \   000060   0343         NOP
   \   000062   3F40E603     MOV.W   #0x3e6, R15
   \                     ??vUART1_WIRED_ISR_0:
   \   000066   3F53         ADD.W   #0xffff, R15
   \   000068   FE2F         JC      ??vUART1_WIRED_ISR_0
   \   00006A                ////////////// End of delay code.
    740                P4OUT &= ~BIT7;
   \   00006A   F2C080002302 BIC.B   #0x80, &0x223
    741                
    742              }
    743            } 
    744          }
   \                     ??vUART1_WIRED_ISR_2:
   \   000070   E103         ADDA    #0x2, SP
   \   000072   3C17         POPM.W  #0x4, R15
   \   000074   0013         RETI
   \   000076                REQUIRE UCA3TXBUF
   \   000076                REQUIRE _A_PBOUT_L
    745          /***************************************************************************//**
    746           * @param Function      __interrupt void vUART2_WIRED_ISR( void )
    747           * @param Input         void
    748           * @param Return        void
    749           * @param Calling_Func  Application.c
    750           * @param Description   This hardware dependant function used to transmit and receive
    751                                  date from UART
    752           ******************************************************************************/
    753          // RS485 Input
    754          #pragma vector=UART_2

   \                                 In  segment ISR_CODE, align 2
    755          __interrupt void vUART2_WIRED_ISR( void )
   \                     vUART2_WIRED_ISR:
    756          { 
   \   000000   3F15         PUSHM.W #0x4, R15
    757               LPM0_EXIT;
   \   000002   B1C010000800 BIC.W   #0x10, 0x8(SP)
    758            // check if data received or data transmitted. 
    759            if(Check_Uart_Int_Flag(2,0)){                           // Ckeck if Received data flag set
   \   000008   4D43         MOV.B   #0x0, R13
   \   00000A   6C43         MOV.B   #0x2, R12
   \   00000C   ........     CALLA   #Check_Uart_Int_Flag
   \   000010   4C93         CMP.B   #0x0, R12
   \   000012   0B24         JEQ     ??vUART2_WIRED_ISR_0
    760              // set Rx LED on
    761              //Set_UART2_LED(RX,ON);
    762              Clear_Uart_Int_Flag(2,0);
   \   000014   4D43         MOV.B   #0x0, R13
   \   000016   6C43         MOV.B   #0x2, R12
   \   000018   ........     CALLA   #Clear_Uart_Int_Flag
    763              Process_OVP_Rx_data(Uart_UCA2_Rx_Buffer);
   \   00001C   5C424C06     MOV.B   &0x64c, R12
   \   000020   ........     CALLA   #Process_OVP_Rx_data
    764              //Uart_UCA1_Tx_Buffer = Uart_UCA3_Rx_Buffer;
    765              #if (Debug_RS485 == TRUE)
    766              Uart_UCA1_Tx_Buffer = Uart_UCA2_Rx_Buffer;
   \   000024   D2424C060E06 MOV.B   &0x64c, &0x60e
    767              #endif
    768              //Set_UART2_LED(RX,OFF);
    769            }
    770            if(Check_Uart_Int_Flag(2,1)){                           // Check Transmit data flag set
   \                     ??vUART2_WIRED_ISR_0:
   \   00002A   5D43         MOV.B   #0x1, R13
   \   00002C   6C43         MOV.B   #0x2, R12
   \   00002E   ........     CALLA   #Check_Uart_Int_Flag
   \   000032   4C93         CMP.B   #0x0, R12
   \   000034   0424         JEQ     ??vUART2_WIRED_ISR_1
    771              // This application just accepts data from RS485 and will not respond back
    772              //Clear if Transmit interrupt flag pending
    773              Clear_Uart_Int_Flag(2,1);
   \   000036   5D43         MOV.B   #0x1, R13
   \   000038   6C43         MOV.B   #0x2, R12
   \   00003A   ........     CALLA   #Clear_Uart_Int_Flag
    774             
    775            }
    776          }
   \                     ??vUART2_WIRED_ISR_1:
   \   00003E   3C17         POPM.W  #0x4, R15
   \   000040   0013         RETI
   \   000042                REQUIRE UCA2RXBUF
   \   000042                REQUIRE UCA1TXBUF
    777          
    778          /***************************************************************************//**
    779           * @param Function      __interrupt void vUART3_WIRED_ISR( void )
    780           * @param Input         void
    781           * @param Return        void
    782           * @param Calling_Func  Application.c
    783           * @param Description   This hardware dependant function used to transmit and receive
    784                                  date from UART
    785           ******************************************************************************/
    786          // Debug UART
    787          #pragma vector=UART_3

   \                                 In  segment ISR_CODE, align 2
    788          __interrupt void vUART3_WIRED_ISR( void )
   \                     vUART3_WIRED_ISR:
    789          { 
   \   000000   3F15         PUSHM.W #0x4, R15
    790            // check if data received or data transmitted. 
    791            if(Check_Uart_Int_Flag(3,0)){                           // Ckeck if Received data flag set
   \   000002   4D43         MOV.B   #0x0, R13
   \   000004   7C400300     MOV.B   #0x3, R12
   \   000008   ........     CALLA   #Check_Uart_Int_Flag
   \   00000C   4C93         CMP.B   #0x0, R12
   \   00000E   0524         JEQ     ??vUART3_WIRED_ISR_0
    792              //Clear if receive interrupt flag pending
    793              Clear_Uart_Int_Flag(3,0);
   \   000010   4D43         MOV.B   #0x0, R13
   \   000012   7C400300     MOV.B   #0x3, R12
   \   000016   ........     CALLA   #Clear_Uart_Int_Flag
    794            }
    795            if(Check_Uart_Int_Flag(3,1))                          // Check Transmit data flag set
   \                     ??vUART3_WIRED_ISR_0:
   \   00001A   5D43         MOV.B   #0x1, R13
   \   00001C   7C400300     MOV.B   #0x3, R12
   \   000020   ........     CALLA   #Check_Uart_Int_Flag
   \   000024   4C93         CMP.B   #0x0, R12
   \   000026   0524         JEQ     ??vUART3_WIRED_ISR_1
    796            { 
    797              //Clear if Transmit interrupt flag pending
    798              Clear_Uart_Int_Flag(3,1);
   \   000028   5D43         MOV.B   #0x1, R13
   \   00002A   7C400300     MOV.B   #0x3, R12
   \   00002E   ........     CALLA   #Clear_Uart_Int_Flag
    799              
    800            }
    801          }
   \                     ??vUART3_WIRED_ISR_1:
   \   000032   3C17         POPM.W  #0x4, R15
   \   000034   0013         RETI

   \                                 In  segment INTVEC, offset 0x58, root
   \                     `??vUART3_WIRED_ISR::??INTVEC 88`:
   \   000058   ....         DC16    vUART3_WIRED_ISR

   \                                 In  segment INTVEC, offset 0x5c, root
   \                     `??vUART1_WIRED_ISR::??INTVEC 92`:
   \   00005C   ....         DC16    vUART1_WIRED_ISR

   \                                 In  segment INTVEC, offset 0x68, root
   \                     `??vUART2_WIRED_ISR::??INTVEC 104`:
   \   000068   ....         DC16    vUART2_WIRED_ISR

   \                                 In  segment INTVEC, offset 0x72, root
   \                     `??vUART0_WIRED_ISR::??INTVEC 114`:
   \   000072   ....         DC16    vUART0_WIRED_ISR
    802          
    803          /***************************************************************************//**
    804           *                         End of Function
    805           ******************************************************************************/
    806                  

   Maximum stack usage in bytes:

   CSTACK Function
   ------ --------
      4   AppBufferBlockFull
        4   -> AppBufferIsEmpty
      4   AppBufferIsEmpty
      4   AppBufferIsFull
      6   AppReadBuffer
        6   -> AppBufferIsEmpty
      6   AppWriteBuffer
        6   -> AppBufferIsFull
     12   AppWriteBufferBlock
       12   -> AppBufferBlockFull
      4   Check_Uart_Int_Flag
      4   Clear_Uart_Int_Flag
      4   Disable_Uart_Rx_Int
      4   Enable_Uart_Rx_Int
      4   Init_UartAx
      4   Set_Uart_Int_Flag
      4   Set_Uart_Tx_Data
      4   Uart_TxInt_Flag_Status
     14   vUART0_WIRED_ISR
       14   -> AppBufferIsEmpty
       14   -> AppReadBuffer
       14   -> Change_Led
       14   -> Check_Uart_Int_Flag
       14   -> Clear_Uart_Int_Flag
       14   -> Record_PBC_Rx_Msg
       14   -> Set_UART0_LED
       14   -> Set_Uart_Tx_Data
     14   vUART1_WIRED_ISR
       14   -> AppBufferIsEmpty
       14   -> AppReadBuffer
       14   -> Check_Uart_Int_Flag
       14   -> Clear_Uart_Int_Flag
       14   -> Set_Uart_Tx_Data
     12   vUART2_WIRED_ISR
       12   -> Check_Uart_Int_Flag
       12   -> Clear_Uart_Int_Flag
       12   -> Process_OVP_Rx_data
     12   vUART3_WIRED_ISR
       12   -> Check_Uart_Int_Flag
       12   -> Clear_Uart_Int_Flag


   Segment part sizes:

   Bytes  Function/Label
   -----  --------------
      76  AppBufferBlockFull
      16  AppBufferIsEmpty
      44  AppBufferIsFull
      54  AppReadBuffer
      54  AppWriteBuffer
      76  AppWriteBufferBlock
     156  Check_Uart_Int_Flag
     176  Clear_Uart_Int_Flag
      48  Disable_Uart_Rx_Int
      48  Enable_Uart_Rx_Int
     354  Init_UartAx
      48  Set_Uart_Int_Flag
      44  Set_Uart_Tx_Data
       1  UCA0MCTL
       1  UCA0RXBUF
       1  UCA0STAT
       1  UCA0TXBUF
       1  UCA1MCTL
       1  UCA1STAT
       1  UCA1TXBUF
       1  UCA2MCTL
       1  UCA2RXBUF
       1  UCA2STAT
       1  UCA2TXBUF
       1  UCA3MCTL
       1  UCA3STAT
       1  UCA3TXBUF
      58  Uart_TxInt_Flag_Status
       2  _A_PBOUT_L
       2  _A_UCA0BRW_L
       2  _A_UCA0CTLW0_L
       2  _A_UCA0ICTL_L
       2  _A_UCA1BRW_L
       2  _A_UCA1CTLW0_L
       2  _A_UCA1ICTL_L
       2  _A_UCA2BRW_L
       2  _A_UCA2CTLW0_L
       2  _A_UCA2ICTL_L
       2  _A_UCA3BRW_L
       2  _A_UCA3CTLW0_L
       2  _A_UCA3ICTL_L
     202  vUART0_WIRED_ISR
       2  vUART0_WIRED_ISR::??INTVEC 114
     118  vUART1_WIRED_ISR
       2  vUART1_WIRED_ISR::??INTVEC 92
      66  vUART2_WIRED_ISR
       2  vUART2_WIRED_ISR::??INTVEC 104
      54  vUART3_WIRED_ISR
       2  vUART3_WIRED_ISR::??INTVEC 88

 
 1 252 bytes in segment CODE
    40 bytes in segment DATA16_AN
     8 bytes in segment INTVEC
   440 bytes in segment ISR_CODE
 
 1 692 bytes of CODE  memory
     0 bytes of CONST memory (+  8 bytes shared)
     0 bytes of DATA  memory (+ 40 bytes shared)

Errors: none
Warnings: none
