%
M48
M72
T01C0.02756
T02C0.03937
%
T01
X99748Y75463
X107622Y75463
X107622Y83337
X99748Y83337
X99748Y91211
X107622Y91211
X107622Y99085
X99748Y99085
X99748Y106959
X107622Y106959
X107622Y114833
X99748Y114833
X99748Y122707
X107622Y122707
T02
X34685Y69085
X44685Y69085
X44685Y79085
X34685Y79085
X34685Y89085
X44685Y89085
X44685Y99085
X34685Y99085
X34685Y109085
X44685Y109085
X44685Y119085
X34685Y119085
X34685Y129085
X44685Y129085
M30
