G75*
%MOIN*%
%OFA0B0*%
%FSLAX25Y25*%
%IPPOS*%
%LPD*%
%AMOC8*
5,1,8,0,0,1.08239X$1,22.5*
%
%ADD10C,0.05556*%
%ADD11R,0.06737X0.06737*%
%ADD12OC8,0.06737*%
D10*
X0099748Y0075463D03*
X0107622Y0075463D03*
X0107622Y0083337D03*
X0099748Y0083337D03*
X0099748Y0091211D03*
X0107622Y0091211D03*
X0107622Y0099085D03*
X0099748Y0099085D03*
X0099748Y0106959D03*
X0107622Y0106959D03*
X0107622Y0114833D03*
X0099748Y0114833D03*
X0099748Y0122707D03*
X0107622Y0122707D03*
D11*
X0044685Y0129085D03*
D12*
X0034685Y0069085D03*
X0044685Y0069085D03*
X0044685Y0079085D03*
X0034685Y0079085D03*
X0034685Y0089085D03*
X0044685Y0089085D03*
X0044685Y0099085D03*
X0034685Y0099085D03*
X0034685Y0109085D03*
X0044685Y0109085D03*
X0044685Y0119085D03*
X0034685Y0119085D03*
X0034685Y0129085D03*
M02*
