G75*
%MOIN*%
%OFA0B0*%
%FSLAX25Y25*%
%IPPOS*%
%LPD*%
%AMOC8*
5,1,8,0,0,1.08239X$1,22.5*
%
%ADD10C,0.00000*%
%ADD11C,0.00400*%
%ADD12C,0.00800*%
D10*
X0012744Y0129141D02*
X0012744Y0429141D01*
X0462744Y0429141D01*
X0462744Y0129141D01*
X0012744Y0129141D01*
X0034944Y0159141D02*
X0034946Y0159332D01*
X0034953Y0159524D01*
X0034965Y0159715D01*
X0034982Y0159906D01*
X0035003Y0160096D01*
X0035028Y0160285D01*
X0035059Y0160475D01*
X0035094Y0160663D01*
X0035134Y0160850D01*
X0035178Y0161036D01*
X0035227Y0161221D01*
X0035280Y0161405D01*
X0035338Y0161588D01*
X0035400Y0161769D01*
X0035467Y0161948D01*
X0035538Y0162126D01*
X0035613Y0162302D01*
X0035693Y0162476D01*
X0035777Y0162648D01*
X0035865Y0162818D01*
X0035957Y0162986D01*
X0036054Y0163151D01*
X0036154Y0163314D01*
X0036259Y0163474D01*
X0036367Y0163632D01*
X0036479Y0163787D01*
X0036595Y0163940D01*
X0036715Y0164089D01*
X0036838Y0164236D01*
X0036965Y0164379D01*
X0037095Y0164519D01*
X0037229Y0164656D01*
X0037366Y0164790D01*
X0037506Y0164920D01*
X0037649Y0165047D01*
X0037796Y0165170D01*
X0037945Y0165290D01*
X0038098Y0165406D01*
X0038253Y0165518D01*
X0038411Y0165626D01*
X0038571Y0165731D01*
X0038734Y0165831D01*
X0038899Y0165928D01*
X0039067Y0166020D01*
X0039237Y0166108D01*
X0039409Y0166192D01*
X0039583Y0166272D01*
X0039759Y0166347D01*
X0039937Y0166418D01*
X0040116Y0166485D01*
X0040297Y0166547D01*
X0040480Y0166605D01*
X0040664Y0166658D01*
X0040849Y0166707D01*
X0041035Y0166751D01*
X0041222Y0166791D01*
X0041410Y0166826D01*
X0041600Y0166857D01*
X0041789Y0166882D01*
X0041979Y0166903D01*
X0042170Y0166920D01*
X0042361Y0166932D01*
X0042553Y0166939D01*
X0042744Y0166941D01*
X0042935Y0166939D01*
X0043127Y0166932D01*
X0043318Y0166920D01*
X0043509Y0166903D01*
X0043699Y0166882D01*
X0043888Y0166857D01*
X0044078Y0166826D01*
X0044266Y0166791D01*
X0044453Y0166751D01*
X0044639Y0166707D01*
X0044824Y0166658D01*
X0045008Y0166605D01*
X0045191Y0166547D01*
X0045372Y0166485D01*
X0045551Y0166418D01*
X0045729Y0166347D01*
X0045905Y0166272D01*
X0046079Y0166192D01*
X0046251Y0166108D01*
X0046421Y0166020D01*
X0046589Y0165928D01*
X0046754Y0165831D01*
X0046917Y0165731D01*
X0047077Y0165626D01*
X0047235Y0165518D01*
X0047390Y0165406D01*
X0047543Y0165290D01*
X0047692Y0165170D01*
X0047839Y0165047D01*
X0047982Y0164920D01*
X0048122Y0164790D01*
X0048259Y0164656D01*
X0048393Y0164519D01*
X0048523Y0164379D01*
X0048650Y0164236D01*
X0048773Y0164089D01*
X0048893Y0163940D01*
X0049009Y0163787D01*
X0049121Y0163632D01*
X0049229Y0163474D01*
X0049334Y0163314D01*
X0049434Y0163151D01*
X0049531Y0162986D01*
X0049623Y0162818D01*
X0049711Y0162648D01*
X0049795Y0162476D01*
X0049875Y0162302D01*
X0049950Y0162126D01*
X0050021Y0161948D01*
X0050088Y0161769D01*
X0050150Y0161588D01*
X0050208Y0161405D01*
X0050261Y0161221D01*
X0050310Y0161036D01*
X0050354Y0160850D01*
X0050394Y0160663D01*
X0050429Y0160475D01*
X0050460Y0160285D01*
X0050485Y0160096D01*
X0050506Y0159906D01*
X0050523Y0159715D01*
X0050535Y0159524D01*
X0050542Y0159332D01*
X0050544Y0159141D01*
X0050542Y0158950D01*
X0050535Y0158758D01*
X0050523Y0158567D01*
X0050506Y0158376D01*
X0050485Y0158186D01*
X0050460Y0157997D01*
X0050429Y0157807D01*
X0050394Y0157619D01*
X0050354Y0157432D01*
X0050310Y0157246D01*
X0050261Y0157061D01*
X0050208Y0156877D01*
X0050150Y0156694D01*
X0050088Y0156513D01*
X0050021Y0156334D01*
X0049950Y0156156D01*
X0049875Y0155980D01*
X0049795Y0155806D01*
X0049711Y0155634D01*
X0049623Y0155464D01*
X0049531Y0155296D01*
X0049434Y0155131D01*
X0049334Y0154968D01*
X0049229Y0154808D01*
X0049121Y0154650D01*
X0049009Y0154495D01*
X0048893Y0154342D01*
X0048773Y0154193D01*
X0048650Y0154046D01*
X0048523Y0153903D01*
X0048393Y0153763D01*
X0048259Y0153626D01*
X0048122Y0153492D01*
X0047982Y0153362D01*
X0047839Y0153235D01*
X0047692Y0153112D01*
X0047543Y0152992D01*
X0047390Y0152876D01*
X0047235Y0152764D01*
X0047077Y0152656D01*
X0046917Y0152551D01*
X0046754Y0152451D01*
X0046589Y0152354D01*
X0046421Y0152262D01*
X0046251Y0152174D01*
X0046079Y0152090D01*
X0045905Y0152010D01*
X0045729Y0151935D01*
X0045551Y0151864D01*
X0045372Y0151797D01*
X0045191Y0151735D01*
X0045008Y0151677D01*
X0044824Y0151624D01*
X0044639Y0151575D01*
X0044453Y0151531D01*
X0044266Y0151491D01*
X0044078Y0151456D01*
X0043888Y0151425D01*
X0043699Y0151400D01*
X0043509Y0151379D01*
X0043318Y0151362D01*
X0043127Y0151350D01*
X0042935Y0151343D01*
X0042744Y0151341D01*
X0042553Y0151343D01*
X0042361Y0151350D01*
X0042170Y0151362D01*
X0041979Y0151379D01*
X0041789Y0151400D01*
X0041600Y0151425D01*
X0041410Y0151456D01*
X0041222Y0151491D01*
X0041035Y0151531D01*
X0040849Y0151575D01*
X0040664Y0151624D01*
X0040480Y0151677D01*
X0040297Y0151735D01*
X0040116Y0151797D01*
X0039937Y0151864D01*
X0039759Y0151935D01*
X0039583Y0152010D01*
X0039409Y0152090D01*
X0039237Y0152174D01*
X0039067Y0152262D01*
X0038899Y0152354D01*
X0038734Y0152451D01*
X0038571Y0152551D01*
X0038411Y0152656D01*
X0038253Y0152764D01*
X0038098Y0152876D01*
X0037945Y0152992D01*
X0037796Y0153112D01*
X0037649Y0153235D01*
X0037506Y0153362D01*
X0037366Y0153492D01*
X0037229Y0153626D01*
X0037095Y0153763D01*
X0036965Y0153903D01*
X0036838Y0154046D01*
X0036715Y0154193D01*
X0036595Y0154342D01*
X0036479Y0154495D01*
X0036367Y0154650D01*
X0036259Y0154808D01*
X0036154Y0154968D01*
X0036054Y0155131D01*
X0035957Y0155296D01*
X0035865Y0155464D01*
X0035777Y0155634D01*
X0035693Y0155806D01*
X0035613Y0155980D01*
X0035538Y0156156D01*
X0035467Y0156334D01*
X0035400Y0156513D01*
X0035338Y0156694D01*
X0035280Y0156877D01*
X0035227Y0157061D01*
X0035178Y0157246D01*
X0035134Y0157432D01*
X0035094Y0157619D01*
X0035059Y0157807D01*
X0035028Y0157997D01*
X0035003Y0158186D01*
X0034982Y0158376D01*
X0034965Y0158567D01*
X0034953Y0158758D01*
X0034946Y0158950D01*
X0034944Y0159141D01*
X0032344Y0300267D02*
X0032346Y0300427D01*
X0032352Y0300586D01*
X0032362Y0300745D01*
X0032376Y0300904D01*
X0032394Y0301063D01*
X0032415Y0301221D01*
X0032441Y0301378D01*
X0032471Y0301535D01*
X0032504Y0301691D01*
X0032542Y0301846D01*
X0032583Y0302000D01*
X0032628Y0302153D01*
X0032677Y0302305D01*
X0032730Y0302456D01*
X0032786Y0302605D01*
X0032847Y0302753D01*
X0032910Y0302899D01*
X0032978Y0303044D01*
X0033049Y0303187D01*
X0033123Y0303328D01*
X0033201Y0303467D01*
X0033283Y0303604D01*
X0033368Y0303739D01*
X0033456Y0303872D01*
X0033548Y0304003D01*
X0033642Y0304131D01*
X0033740Y0304257D01*
X0033841Y0304381D01*
X0033945Y0304502D01*
X0034052Y0304620D01*
X0034162Y0304736D01*
X0034275Y0304849D01*
X0034391Y0304959D01*
X0034509Y0305066D01*
X0034630Y0305170D01*
X0034754Y0305271D01*
X0034880Y0305369D01*
X0035008Y0305463D01*
X0035139Y0305555D01*
X0035272Y0305643D01*
X0035407Y0305728D01*
X0035544Y0305810D01*
X0035683Y0305888D01*
X0035824Y0305962D01*
X0035967Y0306033D01*
X0036112Y0306101D01*
X0036258Y0306164D01*
X0036406Y0306225D01*
X0036555Y0306281D01*
X0036706Y0306334D01*
X0036858Y0306383D01*
X0037011Y0306428D01*
X0037165Y0306469D01*
X0037320Y0306507D01*
X0037476Y0306540D01*
X0037633Y0306570D01*
X0037790Y0306596D01*
X0037948Y0306617D01*
X0038107Y0306635D01*
X0038266Y0306649D01*
X0038425Y0306659D01*
X0038584Y0306665D01*
X0038744Y0306667D01*
X0038904Y0306665D01*
X0039063Y0306659D01*
X0039222Y0306649D01*
X0039381Y0306635D01*
X0039540Y0306617D01*
X0039698Y0306596D01*
X0039855Y0306570D01*
X0040012Y0306540D01*
X0040168Y0306507D01*
X0040323Y0306469D01*
X0040477Y0306428D01*
X0040630Y0306383D01*
X0040782Y0306334D01*
X0040933Y0306281D01*
X0041082Y0306225D01*
X0041230Y0306164D01*
X0041376Y0306101D01*
X0041521Y0306033D01*
X0041664Y0305962D01*
X0041805Y0305888D01*
X0041944Y0305810D01*
X0042081Y0305728D01*
X0042216Y0305643D01*
X0042349Y0305555D01*
X0042480Y0305463D01*
X0042608Y0305369D01*
X0042734Y0305271D01*
X0042858Y0305170D01*
X0042979Y0305066D01*
X0043097Y0304959D01*
X0043213Y0304849D01*
X0043326Y0304736D01*
X0043436Y0304620D01*
X0043543Y0304502D01*
X0043647Y0304381D01*
X0043748Y0304257D01*
X0043846Y0304131D01*
X0043940Y0304003D01*
X0044032Y0303872D01*
X0044120Y0303739D01*
X0044205Y0303604D01*
X0044287Y0303467D01*
X0044365Y0303328D01*
X0044439Y0303187D01*
X0044510Y0303044D01*
X0044578Y0302899D01*
X0044641Y0302753D01*
X0044702Y0302605D01*
X0044758Y0302456D01*
X0044811Y0302305D01*
X0044860Y0302153D01*
X0044905Y0302000D01*
X0044946Y0301846D01*
X0044984Y0301691D01*
X0045017Y0301535D01*
X0045047Y0301378D01*
X0045073Y0301221D01*
X0045094Y0301063D01*
X0045112Y0300904D01*
X0045126Y0300745D01*
X0045136Y0300586D01*
X0045142Y0300427D01*
X0045144Y0300267D01*
X0045142Y0300107D01*
X0045136Y0299948D01*
X0045126Y0299789D01*
X0045112Y0299630D01*
X0045094Y0299471D01*
X0045073Y0299313D01*
X0045047Y0299156D01*
X0045017Y0298999D01*
X0044984Y0298843D01*
X0044946Y0298688D01*
X0044905Y0298534D01*
X0044860Y0298381D01*
X0044811Y0298229D01*
X0044758Y0298078D01*
X0044702Y0297929D01*
X0044641Y0297781D01*
X0044578Y0297635D01*
X0044510Y0297490D01*
X0044439Y0297347D01*
X0044365Y0297206D01*
X0044287Y0297067D01*
X0044205Y0296930D01*
X0044120Y0296795D01*
X0044032Y0296662D01*
X0043940Y0296531D01*
X0043846Y0296403D01*
X0043748Y0296277D01*
X0043647Y0296153D01*
X0043543Y0296032D01*
X0043436Y0295914D01*
X0043326Y0295798D01*
X0043213Y0295685D01*
X0043097Y0295575D01*
X0042979Y0295468D01*
X0042858Y0295364D01*
X0042734Y0295263D01*
X0042608Y0295165D01*
X0042480Y0295071D01*
X0042349Y0294979D01*
X0042216Y0294891D01*
X0042081Y0294806D01*
X0041944Y0294724D01*
X0041805Y0294646D01*
X0041664Y0294572D01*
X0041521Y0294501D01*
X0041376Y0294433D01*
X0041230Y0294370D01*
X0041082Y0294309D01*
X0040933Y0294253D01*
X0040782Y0294200D01*
X0040630Y0294151D01*
X0040477Y0294106D01*
X0040323Y0294065D01*
X0040168Y0294027D01*
X0040012Y0293994D01*
X0039855Y0293964D01*
X0039698Y0293938D01*
X0039540Y0293917D01*
X0039381Y0293899D01*
X0039222Y0293885D01*
X0039063Y0293875D01*
X0038904Y0293869D01*
X0038744Y0293867D01*
X0038584Y0293869D01*
X0038425Y0293875D01*
X0038266Y0293885D01*
X0038107Y0293899D01*
X0037948Y0293917D01*
X0037790Y0293938D01*
X0037633Y0293964D01*
X0037476Y0293994D01*
X0037320Y0294027D01*
X0037165Y0294065D01*
X0037011Y0294106D01*
X0036858Y0294151D01*
X0036706Y0294200D01*
X0036555Y0294253D01*
X0036406Y0294309D01*
X0036258Y0294370D01*
X0036112Y0294433D01*
X0035967Y0294501D01*
X0035824Y0294572D01*
X0035683Y0294646D01*
X0035544Y0294724D01*
X0035407Y0294806D01*
X0035272Y0294891D01*
X0035139Y0294979D01*
X0035008Y0295071D01*
X0034880Y0295165D01*
X0034754Y0295263D01*
X0034630Y0295364D01*
X0034509Y0295468D01*
X0034391Y0295575D01*
X0034275Y0295685D01*
X0034162Y0295798D01*
X0034052Y0295914D01*
X0033945Y0296032D01*
X0033841Y0296153D01*
X0033740Y0296277D01*
X0033642Y0296403D01*
X0033548Y0296531D01*
X0033456Y0296662D01*
X0033368Y0296795D01*
X0033283Y0296930D01*
X0033201Y0297067D01*
X0033123Y0297206D01*
X0033049Y0297347D01*
X0032978Y0297490D01*
X0032910Y0297635D01*
X0032847Y0297781D01*
X0032786Y0297929D01*
X0032730Y0298078D01*
X0032677Y0298229D01*
X0032628Y0298381D01*
X0032583Y0298534D01*
X0032542Y0298688D01*
X0032504Y0298843D01*
X0032471Y0298999D01*
X0032441Y0299156D01*
X0032415Y0299313D01*
X0032394Y0299471D01*
X0032376Y0299630D01*
X0032362Y0299789D01*
X0032352Y0299948D01*
X0032346Y0300107D01*
X0032344Y0300267D01*
X0032344Y0350267D02*
X0032346Y0350427D01*
X0032352Y0350586D01*
X0032362Y0350745D01*
X0032376Y0350904D01*
X0032394Y0351063D01*
X0032415Y0351221D01*
X0032441Y0351378D01*
X0032471Y0351535D01*
X0032504Y0351691D01*
X0032542Y0351846D01*
X0032583Y0352000D01*
X0032628Y0352153D01*
X0032677Y0352305D01*
X0032730Y0352456D01*
X0032786Y0352605D01*
X0032847Y0352753D01*
X0032910Y0352899D01*
X0032978Y0353044D01*
X0033049Y0353187D01*
X0033123Y0353328D01*
X0033201Y0353467D01*
X0033283Y0353604D01*
X0033368Y0353739D01*
X0033456Y0353872D01*
X0033548Y0354003D01*
X0033642Y0354131D01*
X0033740Y0354257D01*
X0033841Y0354381D01*
X0033945Y0354502D01*
X0034052Y0354620D01*
X0034162Y0354736D01*
X0034275Y0354849D01*
X0034391Y0354959D01*
X0034509Y0355066D01*
X0034630Y0355170D01*
X0034754Y0355271D01*
X0034880Y0355369D01*
X0035008Y0355463D01*
X0035139Y0355555D01*
X0035272Y0355643D01*
X0035407Y0355728D01*
X0035544Y0355810D01*
X0035683Y0355888D01*
X0035824Y0355962D01*
X0035967Y0356033D01*
X0036112Y0356101D01*
X0036258Y0356164D01*
X0036406Y0356225D01*
X0036555Y0356281D01*
X0036706Y0356334D01*
X0036858Y0356383D01*
X0037011Y0356428D01*
X0037165Y0356469D01*
X0037320Y0356507D01*
X0037476Y0356540D01*
X0037633Y0356570D01*
X0037790Y0356596D01*
X0037948Y0356617D01*
X0038107Y0356635D01*
X0038266Y0356649D01*
X0038425Y0356659D01*
X0038584Y0356665D01*
X0038744Y0356667D01*
X0038904Y0356665D01*
X0039063Y0356659D01*
X0039222Y0356649D01*
X0039381Y0356635D01*
X0039540Y0356617D01*
X0039698Y0356596D01*
X0039855Y0356570D01*
X0040012Y0356540D01*
X0040168Y0356507D01*
X0040323Y0356469D01*
X0040477Y0356428D01*
X0040630Y0356383D01*
X0040782Y0356334D01*
X0040933Y0356281D01*
X0041082Y0356225D01*
X0041230Y0356164D01*
X0041376Y0356101D01*
X0041521Y0356033D01*
X0041664Y0355962D01*
X0041805Y0355888D01*
X0041944Y0355810D01*
X0042081Y0355728D01*
X0042216Y0355643D01*
X0042349Y0355555D01*
X0042480Y0355463D01*
X0042608Y0355369D01*
X0042734Y0355271D01*
X0042858Y0355170D01*
X0042979Y0355066D01*
X0043097Y0354959D01*
X0043213Y0354849D01*
X0043326Y0354736D01*
X0043436Y0354620D01*
X0043543Y0354502D01*
X0043647Y0354381D01*
X0043748Y0354257D01*
X0043846Y0354131D01*
X0043940Y0354003D01*
X0044032Y0353872D01*
X0044120Y0353739D01*
X0044205Y0353604D01*
X0044287Y0353467D01*
X0044365Y0353328D01*
X0044439Y0353187D01*
X0044510Y0353044D01*
X0044578Y0352899D01*
X0044641Y0352753D01*
X0044702Y0352605D01*
X0044758Y0352456D01*
X0044811Y0352305D01*
X0044860Y0352153D01*
X0044905Y0352000D01*
X0044946Y0351846D01*
X0044984Y0351691D01*
X0045017Y0351535D01*
X0045047Y0351378D01*
X0045073Y0351221D01*
X0045094Y0351063D01*
X0045112Y0350904D01*
X0045126Y0350745D01*
X0045136Y0350586D01*
X0045142Y0350427D01*
X0045144Y0350267D01*
X0045142Y0350107D01*
X0045136Y0349948D01*
X0045126Y0349789D01*
X0045112Y0349630D01*
X0045094Y0349471D01*
X0045073Y0349313D01*
X0045047Y0349156D01*
X0045017Y0348999D01*
X0044984Y0348843D01*
X0044946Y0348688D01*
X0044905Y0348534D01*
X0044860Y0348381D01*
X0044811Y0348229D01*
X0044758Y0348078D01*
X0044702Y0347929D01*
X0044641Y0347781D01*
X0044578Y0347635D01*
X0044510Y0347490D01*
X0044439Y0347347D01*
X0044365Y0347206D01*
X0044287Y0347067D01*
X0044205Y0346930D01*
X0044120Y0346795D01*
X0044032Y0346662D01*
X0043940Y0346531D01*
X0043846Y0346403D01*
X0043748Y0346277D01*
X0043647Y0346153D01*
X0043543Y0346032D01*
X0043436Y0345914D01*
X0043326Y0345798D01*
X0043213Y0345685D01*
X0043097Y0345575D01*
X0042979Y0345468D01*
X0042858Y0345364D01*
X0042734Y0345263D01*
X0042608Y0345165D01*
X0042480Y0345071D01*
X0042349Y0344979D01*
X0042216Y0344891D01*
X0042081Y0344806D01*
X0041944Y0344724D01*
X0041805Y0344646D01*
X0041664Y0344572D01*
X0041521Y0344501D01*
X0041376Y0344433D01*
X0041230Y0344370D01*
X0041082Y0344309D01*
X0040933Y0344253D01*
X0040782Y0344200D01*
X0040630Y0344151D01*
X0040477Y0344106D01*
X0040323Y0344065D01*
X0040168Y0344027D01*
X0040012Y0343994D01*
X0039855Y0343964D01*
X0039698Y0343938D01*
X0039540Y0343917D01*
X0039381Y0343899D01*
X0039222Y0343885D01*
X0039063Y0343875D01*
X0038904Y0343869D01*
X0038744Y0343867D01*
X0038584Y0343869D01*
X0038425Y0343875D01*
X0038266Y0343885D01*
X0038107Y0343899D01*
X0037948Y0343917D01*
X0037790Y0343938D01*
X0037633Y0343964D01*
X0037476Y0343994D01*
X0037320Y0344027D01*
X0037165Y0344065D01*
X0037011Y0344106D01*
X0036858Y0344151D01*
X0036706Y0344200D01*
X0036555Y0344253D01*
X0036406Y0344309D01*
X0036258Y0344370D01*
X0036112Y0344433D01*
X0035967Y0344501D01*
X0035824Y0344572D01*
X0035683Y0344646D01*
X0035544Y0344724D01*
X0035407Y0344806D01*
X0035272Y0344891D01*
X0035139Y0344979D01*
X0035008Y0345071D01*
X0034880Y0345165D01*
X0034754Y0345263D01*
X0034630Y0345364D01*
X0034509Y0345468D01*
X0034391Y0345575D01*
X0034275Y0345685D01*
X0034162Y0345798D01*
X0034052Y0345914D01*
X0033945Y0346032D01*
X0033841Y0346153D01*
X0033740Y0346277D01*
X0033642Y0346403D01*
X0033548Y0346531D01*
X0033456Y0346662D01*
X0033368Y0346795D01*
X0033283Y0346930D01*
X0033201Y0347067D01*
X0033123Y0347206D01*
X0033049Y0347347D01*
X0032978Y0347490D01*
X0032910Y0347635D01*
X0032847Y0347781D01*
X0032786Y0347929D01*
X0032730Y0348078D01*
X0032677Y0348229D01*
X0032628Y0348381D01*
X0032583Y0348534D01*
X0032542Y0348688D01*
X0032504Y0348843D01*
X0032471Y0348999D01*
X0032441Y0349156D01*
X0032415Y0349313D01*
X0032394Y0349471D01*
X0032376Y0349630D01*
X0032362Y0349789D01*
X0032352Y0349948D01*
X0032346Y0350107D01*
X0032344Y0350267D01*
X0034944Y0399141D02*
X0034946Y0399332D01*
X0034953Y0399524D01*
X0034965Y0399715D01*
X0034982Y0399906D01*
X0035003Y0400096D01*
X0035028Y0400285D01*
X0035059Y0400475D01*
X0035094Y0400663D01*
X0035134Y0400850D01*
X0035178Y0401036D01*
X0035227Y0401221D01*
X0035280Y0401405D01*
X0035338Y0401588D01*
X0035400Y0401769D01*
X0035467Y0401948D01*
X0035538Y0402126D01*
X0035613Y0402302D01*
X0035693Y0402476D01*
X0035777Y0402648D01*
X0035865Y0402818D01*
X0035957Y0402986D01*
X0036054Y0403151D01*
X0036154Y0403314D01*
X0036259Y0403474D01*
X0036367Y0403632D01*
X0036479Y0403787D01*
X0036595Y0403940D01*
X0036715Y0404089D01*
X0036838Y0404236D01*
X0036965Y0404379D01*
X0037095Y0404519D01*
X0037229Y0404656D01*
X0037366Y0404790D01*
X0037506Y0404920D01*
X0037649Y0405047D01*
X0037796Y0405170D01*
X0037945Y0405290D01*
X0038098Y0405406D01*
X0038253Y0405518D01*
X0038411Y0405626D01*
X0038571Y0405731D01*
X0038734Y0405831D01*
X0038899Y0405928D01*
X0039067Y0406020D01*
X0039237Y0406108D01*
X0039409Y0406192D01*
X0039583Y0406272D01*
X0039759Y0406347D01*
X0039937Y0406418D01*
X0040116Y0406485D01*
X0040297Y0406547D01*
X0040480Y0406605D01*
X0040664Y0406658D01*
X0040849Y0406707D01*
X0041035Y0406751D01*
X0041222Y0406791D01*
X0041410Y0406826D01*
X0041600Y0406857D01*
X0041789Y0406882D01*
X0041979Y0406903D01*
X0042170Y0406920D01*
X0042361Y0406932D01*
X0042553Y0406939D01*
X0042744Y0406941D01*
X0042935Y0406939D01*
X0043127Y0406932D01*
X0043318Y0406920D01*
X0043509Y0406903D01*
X0043699Y0406882D01*
X0043888Y0406857D01*
X0044078Y0406826D01*
X0044266Y0406791D01*
X0044453Y0406751D01*
X0044639Y0406707D01*
X0044824Y0406658D01*
X0045008Y0406605D01*
X0045191Y0406547D01*
X0045372Y0406485D01*
X0045551Y0406418D01*
X0045729Y0406347D01*
X0045905Y0406272D01*
X0046079Y0406192D01*
X0046251Y0406108D01*
X0046421Y0406020D01*
X0046589Y0405928D01*
X0046754Y0405831D01*
X0046917Y0405731D01*
X0047077Y0405626D01*
X0047235Y0405518D01*
X0047390Y0405406D01*
X0047543Y0405290D01*
X0047692Y0405170D01*
X0047839Y0405047D01*
X0047982Y0404920D01*
X0048122Y0404790D01*
X0048259Y0404656D01*
X0048393Y0404519D01*
X0048523Y0404379D01*
X0048650Y0404236D01*
X0048773Y0404089D01*
X0048893Y0403940D01*
X0049009Y0403787D01*
X0049121Y0403632D01*
X0049229Y0403474D01*
X0049334Y0403314D01*
X0049434Y0403151D01*
X0049531Y0402986D01*
X0049623Y0402818D01*
X0049711Y0402648D01*
X0049795Y0402476D01*
X0049875Y0402302D01*
X0049950Y0402126D01*
X0050021Y0401948D01*
X0050088Y0401769D01*
X0050150Y0401588D01*
X0050208Y0401405D01*
X0050261Y0401221D01*
X0050310Y0401036D01*
X0050354Y0400850D01*
X0050394Y0400663D01*
X0050429Y0400475D01*
X0050460Y0400285D01*
X0050485Y0400096D01*
X0050506Y0399906D01*
X0050523Y0399715D01*
X0050535Y0399524D01*
X0050542Y0399332D01*
X0050544Y0399141D01*
X0050542Y0398950D01*
X0050535Y0398758D01*
X0050523Y0398567D01*
X0050506Y0398376D01*
X0050485Y0398186D01*
X0050460Y0397997D01*
X0050429Y0397807D01*
X0050394Y0397619D01*
X0050354Y0397432D01*
X0050310Y0397246D01*
X0050261Y0397061D01*
X0050208Y0396877D01*
X0050150Y0396694D01*
X0050088Y0396513D01*
X0050021Y0396334D01*
X0049950Y0396156D01*
X0049875Y0395980D01*
X0049795Y0395806D01*
X0049711Y0395634D01*
X0049623Y0395464D01*
X0049531Y0395296D01*
X0049434Y0395131D01*
X0049334Y0394968D01*
X0049229Y0394808D01*
X0049121Y0394650D01*
X0049009Y0394495D01*
X0048893Y0394342D01*
X0048773Y0394193D01*
X0048650Y0394046D01*
X0048523Y0393903D01*
X0048393Y0393763D01*
X0048259Y0393626D01*
X0048122Y0393492D01*
X0047982Y0393362D01*
X0047839Y0393235D01*
X0047692Y0393112D01*
X0047543Y0392992D01*
X0047390Y0392876D01*
X0047235Y0392764D01*
X0047077Y0392656D01*
X0046917Y0392551D01*
X0046754Y0392451D01*
X0046589Y0392354D01*
X0046421Y0392262D01*
X0046251Y0392174D01*
X0046079Y0392090D01*
X0045905Y0392010D01*
X0045729Y0391935D01*
X0045551Y0391864D01*
X0045372Y0391797D01*
X0045191Y0391735D01*
X0045008Y0391677D01*
X0044824Y0391624D01*
X0044639Y0391575D01*
X0044453Y0391531D01*
X0044266Y0391491D01*
X0044078Y0391456D01*
X0043888Y0391425D01*
X0043699Y0391400D01*
X0043509Y0391379D01*
X0043318Y0391362D01*
X0043127Y0391350D01*
X0042935Y0391343D01*
X0042744Y0391341D01*
X0042553Y0391343D01*
X0042361Y0391350D01*
X0042170Y0391362D01*
X0041979Y0391379D01*
X0041789Y0391400D01*
X0041600Y0391425D01*
X0041410Y0391456D01*
X0041222Y0391491D01*
X0041035Y0391531D01*
X0040849Y0391575D01*
X0040664Y0391624D01*
X0040480Y0391677D01*
X0040297Y0391735D01*
X0040116Y0391797D01*
X0039937Y0391864D01*
X0039759Y0391935D01*
X0039583Y0392010D01*
X0039409Y0392090D01*
X0039237Y0392174D01*
X0039067Y0392262D01*
X0038899Y0392354D01*
X0038734Y0392451D01*
X0038571Y0392551D01*
X0038411Y0392656D01*
X0038253Y0392764D01*
X0038098Y0392876D01*
X0037945Y0392992D01*
X0037796Y0393112D01*
X0037649Y0393235D01*
X0037506Y0393362D01*
X0037366Y0393492D01*
X0037229Y0393626D01*
X0037095Y0393763D01*
X0036965Y0393903D01*
X0036838Y0394046D01*
X0036715Y0394193D01*
X0036595Y0394342D01*
X0036479Y0394495D01*
X0036367Y0394650D01*
X0036259Y0394808D01*
X0036154Y0394968D01*
X0036054Y0395131D01*
X0035957Y0395296D01*
X0035865Y0395464D01*
X0035777Y0395634D01*
X0035693Y0395806D01*
X0035613Y0395980D01*
X0035538Y0396156D01*
X0035467Y0396334D01*
X0035400Y0396513D01*
X0035338Y0396694D01*
X0035280Y0396877D01*
X0035227Y0397061D01*
X0035178Y0397246D01*
X0035134Y0397432D01*
X0035094Y0397619D01*
X0035059Y0397807D01*
X0035028Y0397997D01*
X0035003Y0398186D01*
X0034982Y0398376D01*
X0034965Y0398567D01*
X0034953Y0398758D01*
X0034946Y0398950D01*
X0034944Y0399141D01*
X0344944Y0399141D02*
X0344946Y0399332D01*
X0344953Y0399524D01*
X0344965Y0399715D01*
X0344982Y0399906D01*
X0345003Y0400096D01*
X0345028Y0400285D01*
X0345059Y0400475D01*
X0345094Y0400663D01*
X0345134Y0400850D01*
X0345178Y0401036D01*
X0345227Y0401221D01*
X0345280Y0401405D01*
X0345338Y0401588D01*
X0345400Y0401769D01*
X0345467Y0401948D01*
X0345538Y0402126D01*
X0345613Y0402302D01*
X0345693Y0402476D01*
X0345777Y0402648D01*
X0345865Y0402818D01*
X0345957Y0402986D01*
X0346054Y0403151D01*
X0346154Y0403314D01*
X0346259Y0403474D01*
X0346367Y0403632D01*
X0346479Y0403787D01*
X0346595Y0403940D01*
X0346715Y0404089D01*
X0346838Y0404236D01*
X0346965Y0404379D01*
X0347095Y0404519D01*
X0347229Y0404656D01*
X0347366Y0404790D01*
X0347506Y0404920D01*
X0347649Y0405047D01*
X0347796Y0405170D01*
X0347945Y0405290D01*
X0348098Y0405406D01*
X0348253Y0405518D01*
X0348411Y0405626D01*
X0348571Y0405731D01*
X0348734Y0405831D01*
X0348899Y0405928D01*
X0349067Y0406020D01*
X0349237Y0406108D01*
X0349409Y0406192D01*
X0349583Y0406272D01*
X0349759Y0406347D01*
X0349937Y0406418D01*
X0350116Y0406485D01*
X0350297Y0406547D01*
X0350480Y0406605D01*
X0350664Y0406658D01*
X0350849Y0406707D01*
X0351035Y0406751D01*
X0351222Y0406791D01*
X0351410Y0406826D01*
X0351600Y0406857D01*
X0351789Y0406882D01*
X0351979Y0406903D01*
X0352170Y0406920D01*
X0352361Y0406932D01*
X0352553Y0406939D01*
X0352744Y0406941D01*
X0352935Y0406939D01*
X0353127Y0406932D01*
X0353318Y0406920D01*
X0353509Y0406903D01*
X0353699Y0406882D01*
X0353888Y0406857D01*
X0354078Y0406826D01*
X0354266Y0406791D01*
X0354453Y0406751D01*
X0354639Y0406707D01*
X0354824Y0406658D01*
X0355008Y0406605D01*
X0355191Y0406547D01*
X0355372Y0406485D01*
X0355551Y0406418D01*
X0355729Y0406347D01*
X0355905Y0406272D01*
X0356079Y0406192D01*
X0356251Y0406108D01*
X0356421Y0406020D01*
X0356589Y0405928D01*
X0356754Y0405831D01*
X0356917Y0405731D01*
X0357077Y0405626D01*
X0357235Y0405518D01*
X0357390Y0405406D01*
X0357543Y0405290D01*
X0357692Y0405170D01*
X0357839Y0405047D01*
X0357982Y0404920D01*
X0358122Y0404790D01*
X0358259Y0404656D01*
X0358393Y0404519D01*
X0358523Y0404379D01*
X0358650Y0404236D01*
X0358773Y0404089D01*
X0358893Y0403940D01*
X0359009Y0403787D01*
X0359121Y0403632D01*
X0359229Y0403474D01*
X0359334Y0403314D01*
X0359434Y0403151D01*
X0359531Y0402986D01*
X0359623Y0402818D01*
X0359711Y0402648D01*
X0359795Y0402476D01*
X0359875Y0402302D01*
X0359950Y0402126D01*
X0360021Y0401948D01*
X0360088Y0401769D01*
X0360150Y0401588D01*
X0360208Y0401405D01*
X0360261Y0401221D01*
X0360310Y0401036D01*
X0360354Y0400850D01*
X0360394Y0400663D01*
X0360429Y0400475D01*
X0360460Y0400285D01*
X0360485Y0400096D01*
X0360506Y0399906D01*
X0360523Y0399715D01*
X0360535Y0399524D01*
X0360542Y0399332D01*
X0360544Y0399141D01*
X0360542Y0398950D01*
X0360535Y0398758D01*
X0360523Y0398567D01*
X0360506Y0398376D01*
X0360485Y0398186D01*
X0360460Y0397997D01*
X0360429Y0397807D01*
X0360394Y0397619D01*
X0360354Y0397432D01*
X0360310Y0397246D01*
X0360261Y0397061D01*
X0360208Y0396877D01*
X0360150Y0396694D01*
X0360088Y0396513D01*
X0360021Y0396334D01*
X0359950Y0396156D01*
X0359875Y0395980D01*
X0359795Y0395806D01*
X0359711Y0395634D01*
X0359623Y0395464D01*
X0359531Y0395296D01*
X0359434Y0395131D01*
X0359334Y0394968D01*
X0359229Y0394808D01*
X0359121Y0394650D01*
X0359009Y0394495D01*
X0358893Y0394342D01*
X0358773Y0394193D01*
X0358650Y0394046D01*
X0358523Y0393903D01*
X0358393Y0393763D01*
X0358259Y0393626D01*
X0358122Y0393492D01*
X0357982Y0393362D01*
X0357839Y0393235D01*
X0357692Y0393112D01*
X0357543Y0392992D01*
X0357390Y0392876D01*
X0357235Y0392764D01*
X0357077Y0392656D01*
X0356917Y0392551D01*
X0356754Y0392451D01*
X0356589Y0392354D01*
X0356421Y0392262D01*
X0356251Y0392174D01*
X0356079Y0392090D01*
X0355905Y0392010D01*
X0355729Y0391935D01*
X0355551Y0391864D01*
X0355372Y0391797D01*
X0355191Y0391735D01*
X0355008Y0391677D01*
X0354824Y0391624D01*
X0354639Y0391575D01*
X0354453Y0391531D01*
X0354266Y0391491D01*
X0354078Y0391456D01*
X0353888Y0391425D01*
X0353699Y0391400D01*
X0353509Y0391379D01*
X0353318Y0391362D01*
X0353127Y0391350D01*
X0352935Y0391343D01*
X0352744Y0391341D01*
X0352553Y0391343D01*
X0352361Y0391350D01*
X0352170Y0391362D01*
X0351979Y0391379D01*
X0351789Y0391400D01*
X0351600Y0391425D01*
X0351410Y0391456D01*
X0351222Y0391491D01*
X0351035Y0391531D01*
X0350849Y0391575D01*
X0350664Y0391624D01*
X0350480Y0391677D01*
X0350297Y0391735D01*
X0350116Y0391797D01*
X0349937Y0391864D01*
X0349759Y0391935D01*
X0349583Y0392010D01*
X0349409Y0392090D01*
X0349237Y0392174D01*
X0349067Y0392262D01*
X0348899Y0392354D01*
X0348734Y0392451D01*
X0348571Y0392551D01*
X0348411Y0392656D01*
X0348253Y0392764D01*
X0348098Y0392876D01*
X0347945Y0392992D01*
X0347796Y0393112D01*
X0347649Y0393235D01*
X0347506Y0393362D01*
X0347366Y0393492D01*
X0347229Y0393626D01*
X0347095Y0393763D01*
X0346965Y0393903D01*
X0346838Y0394046D01*
X0346715Y0394193D01*
X0346595Y0394342D01*
X0346479Y0394495D01*
X0346367Y0394650D01*
X0346259Y0394808D01*
X0346154Y0394968D01*
X0346054Y0395131D01*
X0345957Y0395296D01*
X0345865Y0395464D01*
X0345777Y0395634D01*
X0345693Y0395806D01*
X0345613Y0395980D01*
X0345538Y0396156D01*
X0345467Y0396334D01*
X0345400Y0396513D01*
X0345338Y0396694D01*
X0345280Y0396877D01*
X0345227Y0397061D01*
X0345178Y0397246D01*
X0345134Y0397432D01*
X0345094Y0397619D01*
X0345059Y0397807D01*
X0345028Y0397997D01*
X0345003Y0398186D01*
X0344982Y0398376D01*
X0344965Y0398567D01*
X0344953Y0398758D01*
X0344946Y0398950D01*
X0344944Y0399141D01*
X0426344Y0410141D02*
X0426346Y0410301D01*
X0426352Y0410460D01*
X0426362Y0410619D01*
X0426376Y0410778D01*
X0426394Y0410937D01*
X0426415Y0411095D01*
X0426441Y0411252D01*
X0426471Y0411409D01*
X0426504Y0411565D01*
X0426542Y0411720D01*
X0426583Y0411874D01*
X0426628Y0412027D01*
X0426677Y0412179D01*
X0426730Y0412330D01*
X0426786Y0412479D01*
X0426847Y0412627D01*
X0426910Y0412773D01*
X0426978Y0412918D01*
X0427049Y0413061D01*
X0427123Y0413202D01*
X0427201Y0413341D01*
X0427283Y0413478D01*
X0427368Y0413613D01*
X0427456Y0413746D01*
X0427548Y0413877D01*
X0427642Y0414005D01*
X0427740Y0414131D01*
X0427841Y0414255D01*
X0427945Y0414376D01*
X0428052Y0414494D01*
X0428162Y0414610D01*
X0428275Y0414723D01*
X0428391Y0414833D01*
X0428509Y0414940D01*
X0428630Y0415044D01*
X0428754Y0415145D01*
X0428880Y0415243D01*
X0429008Y0415337D01*
X0429139Y0415429D01*
X0429272Y0415517D01*
X0429407Y0415602D01*
X0429544Y0415684D01*
X0429683Y0415762D01*
X0429824Y0415836D01*
X0429967Y0415907D01*
X0430112Y0415975D01*
X0430258Y0416038D01*
X0430406Y0416099D01*
X0430555Y0416155D01*
X0430706Y0416208D01*
X0430858Y0416257D01*
X0431011Y0416302D01*
X0431165Y0416343D01*
X0431320Y0416381D01*
X0431476Y0416414D01*
X0431633Y0416444D01*
X0431790Y0416470D01*
X0431948Y0416491D01*
X0432107Y0416509D01*
X0432266Y0416523D01*
X0432425Y0416533D01*
X0432584Y0416539D01*
X0432744Y0416541D01*
X0432904Y0416539D01*
X0433063Y0416533D01*
X0433222Y0416523D01*
X0433381Y0416509D01*
X0433540Y0416491D01*
X0433698Y0416470D01*
X0433855Y0416444D01*
X0434012Y0416414D01*
X0434168Y0416381D01*
X0434323Y0416343D01*
X0434477Y0416302D01*
X0434630Y0416257D01*
X0434782Y0416208D01*
X0434933Y0416155D01*
X0435082Y0416099D01*
X0435230Y0416038D01*
X0435376Y0415975D01*
X0435521Y0415907D01*
X0435664Y0415836D01*
X0435805Y0415762D01*
X0435944Y0415684D01*
X0436081Y0415602D01*
X0436216Y0415517D01*
X0436349Y0415429D01*
X0436480Y0415337D01*
X0436608Y0415243D01*
X0436734Y0415145D01*
X0436858Y0415044D01*
X0436979Y0414940D01*
X0437097Y0414833D01*
X0437213Y0414723D01*
X0437326Y0414610D01*
X0437436Y0414494D01*
X0437543Y0414376D01*
X0437647Y0414255D01*
X0437748Y0414131D01*
X0437846Y0414005D01*
X0437940Y0413877D01*
X0438032Y0413746D01*
X0438120Y0413613D01*
X0438205Y0413478D01*
X0438287Y0413341D01*
X0438365Y0413202D01*
X0438439Y0413061D01*
X0438510Y0412918D01*
X0438578Y0412773D01*
X0438641Y0412627D01*
X0438702Y0412479D01*
X0438758Y0412330D01*
X0438811Y0412179D01*
X0438860Y0412027D01*
X0438905Y0411874D01*
X0438946Y0411720D01*
X0438984Y0411565D01*
X0439017Y0411409D01*
X0439047Y0411252D01*
X0439073Y0411095D01*
X0439094Y0410937D01*
X0439112Y0410778D01*
X0439126Y0410619D01*
X0439136Y0410460D01*
X0439142Y0410301D01*
X0439144Y0410141D01*
X0439142Y0409981D01*
X0439136Y0409822D01*
X0439126Y0409663D01*
X0439112Y0409504D01*
X0439094Y0409345D01*
X0439073Y0409187D01*
X0439047Y0409030D01*
X0439017Y0408873D01*
X0438984Y0408717D01*
X0438946Y0408562D01*
X0438905Y0408408D01*
X0438860Y0408255D01*
X0438811Y0408103D01*
X0438758Y0407952D01*
X0438702Y0407803D01*
X0438641Y0407655D01*
X0438578Y0407509D01*
X0438510Y0407364D01*
X0438439Y0407221D01*
X0438365Y0407080D01*
X0438287Y0406941D01*
X0438205Y0406804D01*
X0438120Y0406669D01*
X0438032Y0406536D01*
X0437940Y0406405D01*
X0437846Y0406277D01*
X0437748Y0406151D01*
X0437647Y0406027D01*
X0437543Y0405906D01*
X0437436Y0405788D01*
X0437326Y0405672D01*
X0437213Y0405559D01*
X0437097Y0405449D01*
X0436979Y0405342D01*
X0436858Y0405238D01*
X0436734Y0405137D01*
X0436608Y0405039D01*
X0436480Y0404945D01*
X0436349Y0404853D01*
X0436216Y0404765D01*
X0436081Y0404680D01*
X0435944Y0404598D01*
X0435805Y0404520D01*
X0435664Y0404446D01*
X0435521Y0404375D01*
X0435376Y0404307D01*
X0435230Y0404244D01*
X0435082Y0404183D01*
X0434933Y0404127D01*
X0434782Y0404074D01*
X0434630Y0404025D01*
X0434477Y0403980D01*
X0434323Y0403939D01*
X0434168Y0403901D01*
X0434012Y0403868D01*
X0433855Y0403838D01*
X0433698Y0403812D01*
X0433540Y0403791D01*
X0433381Y0403773D01*
X0433222Y0403759D01*
X0433063Y0403749D01*
X0432904Y0403743D01*
X0432744Y0403741D01*
X0432584Y0403743D01*
X0432425Y0403749D01*
X0432266Y0403759D01*
X0432107Y0403773D01*
X0431948Y0403791D01*
X0431790Y0403812D01*
X0431633Y0403838D01*
X0431476Y0403868D01*
X0431320Y0403901D01*
X0431165Y0403939D01*
X0431011Y0403980D01*
X0430858Y0404025D01*
X0430706Y0404074D01*
X0430555Y0404127D01*
X0430406Y0404183D01*
X0430258Y0404244D01*
X0430112Y0404307D01*
X0429967Y0404375D01*
X0429824Y0404446D01*
X0429683Y0404520D01*
X0429544Y0404598D01*
X0429407Y0404680D01*
X0429272Y0404765D01*
X0429139Y0404853D01*
X0429008Y0404945D01*
X0428880Y0405039D01*
X0428754Y0405137D01*
X0428630Y0405238D01*
X0428509Y0405342D01*
X0428391Y0405449D01*
X0428275Y0405559D01*
X0428162Y0405672D01*
X0428052Y0405788D01*
X0427945Y0405906D01*
X0427841Y0406027D01*
X0427740Y0406151D01*
X0427642Y0406277D01*
X0427548Y0406405D01*
X0427456Y0406536D01*
X0427368Y0406669D01*
X0427283Y0406804D01*
X0427201Y0406941D01*
X0427123Y0407080D01*
X0427049Y0407221D01*
X0426978Y0407364D01*
X0426910Y0407509D01*
X0426847Y0407655D01*
X0426786Y0407803D01*
X0426730Y0407952D01*
X0426677Y0408103D01*
X0426628Y0408255D01*
X0426583Y0408408D01*
X0426542Y0408562D01*
X0426504Y0408717D01*
X0426471Y0408873D01*
X0426441Y0409030D01*
X0426415Y0409187D01*
X0426394Y0409345D01*
X0426376Y0409504D01*
X0426362Y0409663D01*
X0426352Y0409822D01*
X0426346Y0409981D01*
X0426344Y0410141D01*
X0426344Y0360141D02*
X0426346Y0360301D01*
X0426352Y0360460D01*
X0426362Y0360619D01*
X0426376Y0360778D01*
X0426394Y0360937D01*
X0426415Y0361095D01*
X0426441Y0361252D01*
X0426471Y0361409D01*
X0426504Y0361565D01*
X0426542Y0361720D01*
X0426583Y0361874D01*
X0426628Y0362027D01*
X0426677Y0362179D01*
X0426730Y0362330D01*
X0426786Y0362479D01*
X0426847Y0362627D01*
X0426910Y0362773D01*
X0426978Y0362918D01*
X0427049Y0363061D01*
X0427123Y0363202D01*
X0427201Y0363341D01*
X0427283Y0363478D01*
X0427368Y0363613D01*
X0427456Y0363746D01*
X0427548Y0363877D01*
X0427642Y0364005D01*
X0427740Y0364131D01*
X0427841Y0364255D01*
X0427945Y0364376D01*
X0428052Y0364494D01*
X0428162Y0364610D01*
X0428275Y0364723D01*
X0428391Y0364833D01*
X0428509Y0364940D01*
X0428630Y0365044D01*
X0428754Y0365145D01*
X0428880Y0365243D01*
X0429008Y0365337D01*
X0429139Y0365429D01*
X0429272Y0365517D01*
X0429407Y0365602D01*
X0429544Y0365684D01*
X0429683Y0365762D01*
X0429824Y0365836D01*
X0429967Y0365907D01*
X0430112Y0365975D01*
X0430258Y0366038D01*
X0430406Y0366099D01*
X0430555Y0366155D01*
X0430706Y0366208D01*
X0430858Y0366257D01*
X0431011Y0366302D01*
X0431165Y0366343D01*
X0431320Y0366381D01*
X0431476Y0366414D01*
X0431633Y0366444D01*
X0431790Y0366470D01*
X0431948Y0366491D01*
X0432107Y0366509D01*
X0432266Y0366523D01*
X0432425Y0366533D01*
X0432584Y0366539D01*
X0432744Y0366541D01*
X0432904Y0366539D01*
X0433063Y0366533D01*
X0433222Y0366523D01*
X0433381Y0366509D01*
X0433540Y0366491D01*
X0433698Y0366470D01*
X0433855Y0366444D01*
X0434012Y0366414D01*
X0434168Y0366381D01*
X0434323Y0366343D01*
X0434477Y0366302D01*
X0434630Y0366257D01*
X0434782Y0366208D01*
X0434933Y0366155D01*
X0435082Y0366099D01*
X0435230Y0366038D01*
X0435376Y0365975D01*
X0435521Y0365907D01*
X0435664Y0365836D01*
X0435805Y0365762D01*
X0435944Y0365684D01*
X0436081Y0365602D01*
X0436216Y0365517D01*
X0436349Y0365429D01*
X0436480Y0365337D01*
X0436608Y0365243D01*
X0436734Y0365145D01*
X0436858Y0365044D01*
X0436979Y0364940D01*
X0437097Y0364833D01*
X0437213Y0364723D01*
X0437326Y0364610D01*
X0437436Y0364494D01*
X0437543Y0364376D01*
X0437647Y0364255D01*
X0437748Y0364131D01*
X0437846Y0364005D01*
X0437940Y0363877D01*
X0438032Y0363746D01*
X0438120Y0363613D01*
X0438205Y0363478D01*
X0438287Y0363341D01*
X0438365Y0363202D01*
X0438439Y0363061D01*
X0438510Y0362918D01*
X0438578Y0362773D01*
X0438641Y0362627D01*
X0438702Y0362479D01*
X0438758Y0362330D01*
X0438811Y0362179D01*
X0438860Y0362027D01*
X0438905Y0361874D01*
X0438946Y0361720D01*
X0438984Y0361565D01*
X0439017Y0361409D01*
X0439047Y0361252D01*
X0439073Y0361095D01*
X0439094Y0360937D01*
X0439112Y0360778D01*
X0439126Y0360619D01*
X0439136Y0360460D01*
X0439142Y0360301D01*
X0439144Y0360141D01*
X0439142Y0359981D01*
X0439136Y0359822D01*
X0439126Y0359663D01*
X0439112Y0359504D01*
X0439094Y0359345D01*
X0439073Y0359187D01*
X0439047Y0359030D01*
X0439017Y0358873D01*
X0438984Y0358717D01*
X0438946Y0358562D01*
X0438905Y0358408D01*
X0438860Y0358255D01*
X0438811Y0358103D01*
X0438758Y0357952D01*
X0438702Y0357803D01*
X0438641Y0357655D01*
X0438578Y0357509D01*
X0438510Y0357364D01*
X0438439Y0357221D01*
X0438365Y0357080D01*
X0438287Y0356941D01*
X0438205Y0356804D01*
X0438120Y0356669D01*
X0438032Y0356536D01*
X0437940Y0356405D01*
X0437846Y0356277D01*
X0437748Y0356151D01*
X0437647Y0356027D01*
X0437543Y0355906D01*
X0437436Y0355788D01*
X0437326Y0355672D01*
X0437213Y0355559D01*
X0437097Y0355449D01*
X0436979Y0355342D01*
X0436858Y0355238D01*
X0436734Y0355137D01*
X0436608Y0355039D01*
X0436480Y0354945D01*
X0436349Y0354853D01*
X0436216Y0354765D01*
X0436081Y0354680D01*
X0435944Y0354598D01*
X0435805Y0354520D01*
X0435664Y0354446D01*
X0435521Y0354375D01*
X0435376Y0354307D01*
X0435230Y0354244D01*
X0435082Y0354183D01*
X0434933Y0354127D01*
X0434782Y0354074D01*
X0434630Y0354025D01*
X0434477Y0353980D01*
X0434323Y0353939D01*
X0434168Y0353901D01*
X0434012Y0353868D01*
X0433855Y0353838D01*
X0433698Y0353812D01*
X0433540Y0353791D01*
X0433381Y0353773D01*
X0433222Y0353759D01*
X0433063Y0353749D01*
X0432904Y0353743D01*
X0432744Y0353741D01*
X0432584Y0353743D01*
X0432425Y0353749D01*
X0432266Y0353759D01*
X0432107Y0353773D01*
X0431948Y0353791D01*
X0431790Y0353812D01*
X0431633Y0353838D01*
X0431476Y0353868D01*
X0431320Y0353901D01*
X0431165Y0353939D01*
X0431011Y0353980D01*
X0430858Y0354025D01*
X0430706Y0354074D01*
X0430555Y0354127D01*
X0430406Y0354183D01*
X0430258Y0354244D01*
X0430112Y0354307D01*
X0429967Y0354375D01*
X0429824Y0354446D01*
X0429683Y0354520D01*
X0429544Y0354598D01*
X0429407Y0354680D01*
X0429272Y0354765D01*
X0429139Y0354853D01*
X0429008Y0354945D01*
X0428880Y0355039D01*
X0428754Y0355137D01*
X0428630Y0355238D01*
X0428509Y0355342D01*
X0428391Y0355449D01*
X0428275Y0355559D01*
X0428162Y0355672D01*
X0428052Y0355788D01*
X0427945Y0355906D01*
X0427841Y0356027D01*
X0427740Y0356151D01*
X0427642Y0356277D01*
X0427548Y0356405D01*
X0427456Y0356536D01*
X0427368Y0356669D01*
X0427283Y0356804D01*
X0427201Y0356941D01*
X0427123Y0357080D01*
X0427049Y0357221D01*
X0426978Y0357364D01*
X0426910Y0357509D01*
X0426847Y0357655D01*
X0426786Y0357803D01*
X0426730Y0357952D01*
X0426677Y0358103D01*
X0426628Y0358255D01*
X0426583Y0358408D01*
X0426542Y0358562D01*
X0426504Y0358717D01*
X0426471Y0358873D01*
X0426441Y0359030D01*
X0426415Y0359187D01*
X0426394Y0359345D01*
X0426376Y0359504D01*
X0426362Y0359663D01*
X0426352Y0359822D01*
X0426346Y0359981D01*
X0426344Y0360141D01*
X0426344Y0332141D02*
X0426346Y0332301D01*
X0426352Y0332460D01*
X0426362Y0332619D01*
X0426376Y0332778D01*
X0426394Y0332937D01*
X0426415Y0333095D01*
X0426441Y0333252D01*
X0426471Y0333409D01*
X0426504Y0333565D01*
X0426542Y0333720D01*
X0426583Y0333874D01*
X0426628Y0334027D01*
X0426677Y0334179D01*
X0426730Y0334330D01*
X0426786Y0334479D01*
X0426847Y0334627D01*
X0426910Y0334773D01*
X0426978Y0334918D01*
X0427049Y0335061D01*
X0427123Y0335202D01*
X0427201Y0335341D01*
X0427283Y0335478D01*
X0427368Y0335613D01*
X0427456Y0335746D01*
X0427548Y0335877D01*
X0427642Y0336005D01*
X0427740Y0336131D01*
X0427841Y0336255D01*
X0427945Y0336376D01*
X0428052Y0336494D01*
X0428162Y0336610D01*
X0428275Y0336723D01*
X0428391Y0336833D01*
X0428509Y0336940D01*
X0428630Y0337044D01*
X0428754Y0337145D01*
X0428880Y0337243D01*
X0429008Y0337337D01*
X0429139Y0337429D01*
X0429272Y0337517D01*
X0429407Y0337602D01*
X0429544Y0337684D01*
X0429683Y0337762D01*
X0429824Y0337836D01*
X0429967Y0337907D01*
X0430112Y0337975D01*
X0430258Y0338038D01*
X0430406Y0338099D01*
X0430555Y0338155D01*
X0430706Y0338208D01*
X0430858Y0338257D01*
X0431011Y0338302D01*
X0431165Y0338343D01*
X0431320Y0338381D01*
X0431476Y0338414D01*
X0431633Y0338444D01*
X0431790Y0338470D01*
X0431948Y0338491D01*
X0432107Y0338509D01*
X0432266Y0338523D01*
X0432425Y0338533D01*
X0432584Y0338539D01*
X0432744Y0338541D01*
X0432904Y0338539D01*
X0433063Y0338533D01*
X0433222Y0338523D01*
X0433381Y0338509D01*
X0433540Y0338491D01*
X0433698Y0338470D01*
X0433855Y0338444D01*
X0434012Y0338414D01*
X0434168Y0338381D01*
X0434323Y0338343D01*
X0434477Y0338302D01*
X0434630Y0338257D01*
X0434782Y0338208D01*
X0434933Y0338155D01*
X0435082Y0338099D01*
X0435230Y0338038D01*
X0435376Y0337975D01*
X0435521Y0337907D01*
X0435664Y0337836D01*
X0435805Y0337762D01*
X0435944Y0337684D01*
X0436081Y0337602D01*
X0436216Y0337517D01*
X0436349Y0337429D01*
X0436480Y0337337D01*
X0436608Y0337243D01*
X0436734Y0337145D01*
X0436858Y0337044D01*
X0436979Y0336940D01*
X0437097Y0336833D01*
X0437213Y0336723D01*
X0437326Y0336610D01*
X0437436Y0336494D01*
X0437543Y0336376D01*
X0437647Y0336255D01*
X0437748Y0336131D01*
X0437846Y0336005D01*
X0437940Y0335877D01*
X0438032Y0335746D01*
X0438120Y0335613D01*
X0438205Y0335478D01*
X0438287Y0335341D01*
X0438365Y0335202D01*
X0438439Y0335061D01*
X0438510Y0334918D01*
X0438578Y0334773D01*
X0438641Y0334627D01*
X0438702Y0334479D01*
X0438758Y0334330D01*
X0438811Y0334179D01*
X0438860Y0334027D01*
X0438905Y0333874D01*
X0438946Y0333720D01*
X0438984Y0333565D01*
X0439017Y0333409D01*
X0439047Y0333252D01*
X0439073Y0333095D01*
X0439094Y0332937D01*
X0439112Y0332778D01*
X0439126Y0332619D01*
X0439136Y0332460D01*
X0439142Y0332301D01*
X0439144Y0332141D01*
X0439142Y0331981D01*
X0439136Y0331822D01*
X0439126Y0331663D01*
X0439112Y0331504D01*
X0439094Y0331345D01*
X0439073Y0331187D01*
X0439047Y0331030D01*
X0439017Y0330873D01*
X0438984Y0330717D01*
X0438946Y0330562D01*
X0438905Y0330408D01*
X0438860Y0330255D01*
X0438811Y0330103D01*
X0438758Y0329952D01*
X0438702Y0329803D01*
X0438641Y0329655D01*
X0438578Y0329509D01*
X0438510Y0329364D01*
X0438439Y0329221D01*
X0438365Y0329080D01*
X0438287Y0328941D01*
X0438205Y0328804D01*
X0438120Y0328669D01*
X0438032Y0328536D01*
X0437940Y0328405D01*
X0437846Y0328277D01*
X0437748Y0328151D01*
X0437647Y0328027D01*
X0437543Y0327906D01*
X0437436Y0327788D01*
X0437326Y0327672D01*
X0437213Y0327559D01*
X0437097Y0327449D01*
X0436979Y0327342D01*
X0436858Y0327238D01*
X0436734Y0327137D01*
X0436608Y0327039D01*
X0436480Y0326945D01*
X0436349Y0326853D01*
X0436216Y0326765D01*
X0436081Y0326680D01*
X0435944Y0326598D01*
X0435805Y0326520D01*
X0435664Y0326446D01*
X0435521Y0326375D01*
X0435376Y0326307D01*
X0435230Y0326244D01*
X0435082Y0326183D01*
X0434933Y0326127D01*
X0434782Y0326074D01*
X0434630Y0326025D01*
X0434477Y0325980D01*
X0434323Y0325939D01*
X0434168Y0325901D01*
X0434012Y0325868D01*
X0433855Y0325838D01*
X0433698Y0325812D01*
X0433540Y0325791D01*
X0433381Y0325773D01*
X0433222Y0325759D01*
X0433063Y0325749D01*
X0432904Y0325743D01*
X0432744Y0325741D01*
X0432584Y0325743D01*
X0432425Y0325749D01*
X0432266Y0325759D01*
X0432107Y0325773D01*
X0431948Y0325791D01*
X0431790Y0325812D01*
X0431633Y0325838D01*
X0431476Y0325868D01*
X0431320Y0325901D01*
X0431165Y0325939D01*
X0431011Y0325980D01*
X0430858Y0326025D01*
X0430706Y0326074D01*
X0430555Y0326127D01*
X0430406Y0326183D01*
X0430258Y0326244D01*
X0430112Y0326307D01*
X0429967Y0326375D01*
X0429824Y0326446D01*
X0429683Y0326520D01*
X0429544Y0326598D01*
X0429407Y0326680D01*
X0429272Y0326765D01*
X0429139Y0326853D01*
X0429008Y0326945D01*
X0428880Y0327039D01*
X0428754Y0327137D01*
X0428630Y0327238D01*
X0428509Y0327342D01*
X0428391Y0327449D01*
X0428275Y0327559D01*
X0428162Y0327672D01*
X0428052Y0327788D01*
X0427945Y0327906D01*
X0427841Y0328027D01*
X0427740Y0328151D01*
X0427642Y0328277D01*
X0427548Y0328405D01*
X0427456Y0328536D01*
X0427368Y0328669D01*
X0427283Y0328804D01*
X0427201Y0328941D01*
X0427123Y0329080D01*
X0427049Y0329221D01*
X0426978Y0329364D01*
X0426910Y0329509D01*
X0426847Y0329655D01*
X0426786Y0329803D01*
X0426730Y0329952D01*
X0426677Y0330103D01*
X0426628Y0330255D01*
X0426583Y0330408D01*
X0426542Y0330562D01*
X0426504Y0330717D01*
X0426471Y0330873D01*
X0426441Y0331030D01*
X0426415Y0331187D01*
X0426394Y0331345D01*
X0426376Y0331504D01*
X0426362Y0331663D01*
X0426352Y0331822D01*
X0426346Y0331981D01*
X0426344Y0332141D01*
X0426344Y0282141D02*
X0426346Y0282301D01*
X0426352Y0282460D01*
X0426362Y0282619D01*
X0426376Y0282778D01*
X0426394Y0282937D01*
X0426415Y0283095D01*
X0426441Y0283252D01*
X0426471Y0283409D01*
X0426504Y0283565D01*
X0426542Y0283720D01*
X0426583Y0283874D01*
X0426628Y0284027D01*
X0426677Y0284179D01*
X0426730Y0284330D01*
X0426786Y0284479D01*
X0426847Y0284627D01*
X0426910Y0284773D01*
X0426978Y0284918D01*
X0427049Y0285061D01*
X0427123Y0285202D01*
X0427201Y0285341D01*
X0427283Y0285478D01*
X0427368Y0285613D01*
X0427456Y0285746D01*
X0427548Y0285877D01*
X0427642Y0286005D01*
X0427740Y0286131D01*
X0427841Y0286255D01*
X0427945Y0286376D01*
X0428052Y0286494D01*
X0428162Y0286610D01*
X0428275Y0286723D01*
X0428391Y0286833D01*
X0428509Y0286940D01*
X0428630Y0287044D01*
X0428754Y0287145D01*
X0428880Y0287243D01*
X0429008Y0287337D01*
X0429139Y0287429D01*
X0429272Y0287517D01*
X0429407Y0287602D01*
X0429544Y0287684D01*
X0429683Y0287762D01*
X0429824Y0287836D01*
X0429967Y0287907D01*
X0430112Y0287975D01*
X0430258Y0288038D01*
X0430406Y0288099D01*
X0430555Y0288155D01*
X0430706Y0288208D01*
X0430858Y0288257D01*
X0431011Y0288302D01*
X0431165Y0288343D01*
X0431320Y0288381D01*
X0431476Y0288414D01*
X0431633Y0288444D01*
X0431790Y0288470D01*
X0431948Y0288491D01*
X0432107Y0288509D01*
X0432266Y0288523D01*
X0432425Y0288533D01*
X0432584Y0288539D01*
X0432744Y0288541D01*
X0432904Y0288539D01*
X0433063Y0288533D01*
X0433222Y0288523D01*
X0433381Y0288509D01*
X0433540Y0288491D01*
X0433698Y0288470D01*
X0433855Y0288444D01*
X0434012Y0288414D01*
X0434168Y0288381D01*
X0434323Y0288343D01*
X0434477Y0288302D01*
X0434630Y0288257D01*
X0434782Y0288208D01*
X0434933Y0288155D01*
X0435082Y0288099D01*
X0435230Y0288038D01*
X0435376Y0287975D01*
X0435521Y0287907D01*
X0435664Y0287836D01*
X0435805Y0287762D01*
X0435944Y0287684D01*
X0436081Y0287602D01*
X0436216Y0287517D01*
X0436349Y0287429D01*
X0436480Y0287337D01*
X0436608Y0287243D01*
X0436734Y0287145D01*
X0436858Y0287044D01*
X0436979Y0286940D01*
X0437097Y0286833D01*
X0437213Y0286723D01*
X0437326Y0286610D01*
X0437436Y0286494D01*
X0437543Y0286376D01*
X0437647Y0286255D01*
X0437748Y0286131D01*
X0437846Y0286005D01*
X0437940Y0285877D01*
X0438032Y0285746D01*
X0438120Y0285613D01*
X0438205Y0285478D01*
X0438287Y0285341D01*
X0438365Y0285202D01*
X0438439Y0285061D01*
X0438510Y0284918D01*
X0438578Y0284773D01*
X0438641Y0284627D01*
X0438702Y0284479D01*
X0438758Y0284330D01*
X0438811Y0284179D01*
X0438860Y0284027D01*
X0438905Y0283874D01*
X0438946Y0283720D01*
X0438984Y0283565D01*
X0439017Y0283409D01*
X0439047Y0283252D01*
X0439073Y0283095D01*
X0439094Y0282937D01*
X0439112Y0282778D01*
X0439126Y0282619D01*
X0439136Y0282460D01*
X0439142Y0282301D01*
X0439144Y0282141D01*
X0439142Y0281981D01*
X0439136Y0281822D01*
X0439126Y0281663D01*
X0439112Y0281504D01*
X0439094Y0281345D01*
X0439073Y0281187D01*
X0439047Y0281030D01*
X0439017Y0280873D01*
X0438984Y0280717D01*
X0438946Y0280562D01*
X0438905Y0280408D01*
X0438860Y0280255D01*
X0438811Y0280103D01*
X0438758Y0279952D01*
X0438702Y0279803D01*
X0438641Y0279655D01*
X0438578Y0279509D01*
X0438510Y0279364D01*
X0438439Y0279221D01*
X0438365Y0279080D01*
X0438287Y0278941D01*
X0438205Y0278804D01*
X0438120Y0278669D01*
X0438032Y0278536D01*
X0437940Y0278405D01*
X0437846Y0278277D01*
X0437748Y0278151D01*
X0437647Y0278027D01*
X0437543Y0277906D01*
X0437436Y0277788D01*
X0437326Y0277672D01*
X0437213Y0277559D01*
X0437097Y0277449D01*
X0436979Y0277342D01*
X0436858Y0277238D01*
X0436734Y0277137D01*
X0436608Y0277039D01*
X0436480Y0276945D01*
X0436349Y0276853D01*
X0436216Y0276765D01*
X0436081Y0276680D01*
X0435944Y0276598D01*
X0435805Y0276520D01*
X0435664Y0276446D01*
X0435521Y0276375D01*
X0435376Y0276307D01*
X0435230Y0276244D01*
X0435082Y0276183D01*
X0434933Y0276127D01*
X0434782Y0276074D01*
X0434630Y0276025D01*
X0434477Y0275980D01*
X0434323Y0275939D01*
X0434168Y0275901D01*
X0434012Y0275868D01*
X0433855Y0275838D01*
X0433698Y0275812D01*
X0433540Y0275791D01*
X0433381Y0275773D01*
X0433222Y0275759D01*
X0433063Y0275749D01*
X0432904Y0275743D01*
X0432744Y0275741D01*
X0432584Y0275743D01*
X0432425Y0275749D01*
X0432266Y0275759D01*
X0432107Y0275773D01*
X0431948Y0275791D01*
X0431790Y0275812D01*
X0431633Y0275838D01*
X0431476Y0275868D01*
X0431320Y0275901D01*
X0431165Y0275939D01*
X0431011Y0275980D01*
X0430858Y0276025D01*
X0430706Y0276074D01*
X0430555Y0276127D01*
X0430406Y0276183D01*
X0430258Y0276244D01*
X0430112Y0276307D01*
X0429967Y0276375D01*
X0429824Y0276446D01*
X0429683Y0276520D01*
X0429544Y0276598D01*
X0429407Y0276680D01*
X0429272Y0276765D01*
X0429139Y0276853D01*
X0429008Y0276945D01*
X0428880Y0277039D01*
X0428754Y0277137D01*
X0428630Y0277238D01*
X0428509Y0277342D01*
X0428391Y0277449D01*
X0428275Y0277559D01*
X0428162Y0277672D01*
X0428052Y0277788D01*
X0427945Y0277906D01*
X0427841Y0278027D01*
X0427740Y0278151D01*
X0427642Y0278277D01*
X0427548Y0278405D01*
X0427456Y0278536D01*
X0427368Y0278669D01*
X0427283Y0278804D01*
X0427201Y0278941D01*
X0427123Y0279080D01*
X0427049Y0279221D01*
X0426978Y0279364D01*
X0426910Y0279509D01*
X0426847Y0279655D01*
X0426786Y0279803D01*
X0426730Y0279952D01*
X0426677Y0280103D01*
X0426628Y0280255D01*
X0426583Y0280408D01*
X0426542Y0280562D01*
X0426504Y0280717D01*
X0426471Y0280873D01*
X0426441Y0281030D01*
X0426415Y0281187D01*
X0426394Y0281345D01*
X0426376Y0281504D01*
X0426362Y0281663D01*
X0426352Y0281822D01*
X0426346Y0281981D01*
X0426344Y0282141D01*
X0344944Y0159141D02*
X0344946Y0159332D01*
X0344953Y0159524D01*
X0344965Y0159715D01*
X0344982Y0159906D01*
X0345003Y0160096D01*
X0345028Y0160285D01*
X0345059Y0160475D01*
X0345094Y0160663D01*
X0345134Y0160850D01*
X0345178Y0161036D01*
X0345227Y0161221D01*
X0345280Y0161405D01*
X0345338Y0161588D01*
X0345400Y0161769D01*
X0345467Y0161948D01*
X0345538Y0162126D01*
X0345613Y0162302D01*
X0345693Y0162476D01*
X0345777Y0162648D01*
X0345865Y0162818D01*
X0345957Y0162986D01*
X0346054Y0163151D01*
X0346154Y0163314D01*
X0346259Y0163474D01*
X0346367Y0163632D01*
X0346479Y0163787D01*
X0346595Y0163940D01*
X0346715Y0164089D01*
X0346838Y0164236D01*
X0346965Y0164379D01*
X0347095Y0164519D01*
X0347229Y0164656D01*
X0347366Y0164790D01*
X0347506Y0164920D01*
X0347649Y0165047D01*
X0347796Y0165170D01*
X0347945Y0165290D01*
X0348098Y0165406D01*
X0348253Y0165518D01*
X0348411Y0165626D01*
X0348571Y0165731D01*
X0348734Y0165831D01*
X0348899Y0165928D01*
X0349067Y0166020D01*
X0349237Y0166108D01*
X0349409Y0166192D01*
X0349583Y0166272D01*
X0349759Y0166347D01*
X0349937Y0166418D01*
X0350116Y0166485D01*
X0350297Y0166547D01*
X0350480Y0166605D01*
X0350664Y0166658D01*
X0350849Y0166707D01*
X0351035Y0166751D01*
X0351222Y0166791D01*
X0351410Y0166826D01*
X0351600Y0166857D01*
X0351789Y0166882D01*
X0351979Y0166903D01*
X0352170Y0166920D01*
X0352361Y0166932D01*
X0352553Y0166939D01*
X0352744Y0166941D01*
X0352935Y0166939D01*
X0353127Y0166932D01*
X0353318Y0166920D01*
X0353509Y0166903D01*
X0353699Y0166882D01*
X0353888Y0166857D01*
X0354078Y0166826D01*
X0354266Y0166791D01*
X0354453Y0166751D01*
X0354639Y0166707D01*
X0354824Y0166658D01*
X0355008Y0166605D01*
X0355191Y0166547D01*
X0355372Y0166485D01*
X0355551Y0166418D01*
X0355729Y0166347D01*
X0355905Y0166272D01*
X0356079Y0166192D01*
X0356251Y0166108D01*
X0356421Y0166020D01*
X0356589Y0165928D01*
X0356754Y0165831D01*
X0356917Y0165731D01*
X0357077Y0165626D01*
X0357235Y0165518D01*
X0357390Y0165406D01*
X0357543Y0165290D01*
X0357692Y0165170D01*
X0357839Y0165047D01*
X0357982Y0164920D01*
X0358122Y0164790D01*
X0358259Y0164656D01*
X0358393Y0164519D01*
X0358523Y0164379D01*
X0358650Y0164236D01*
X0358773Y0164089D01*
X0358893Y0163940D01*
X0359009Y0163787D01*
X0359121Y0163632D01*
X0359229Y0163474D01*
X0359334Y0163314D01*
X0359434Y0163151D01*
X0359531Y0162986D01*
X0359623Y0162818D01*
X0359711Y0162648D01*
X0359795Y0162476D01*
X0359875Y0162302D01*
X0359950Y0162126D01*
X0360021Y0161948D01*
X0360088Y0161769D01*
X0360150Y0161588D01*
X0360208Y0161405D01*
X0360261Y0161221D01*
X0360310Y0161036D01*
X0360354Y0160850D01*
X0360394Y0160663D01*
X0360429Y0160475D01*
X0360460Y0160285D01*
X0360485Y0160096D01*
X0360506Y0159906D01*
X0360523Y0159715D01*
X0360535Y0159524D01*
X0360542Y0159332D01*
X0360544Y0159141D01*
X0360542Y0158950D01*
X0360535Y0158758D01*
X0360523Y0158567D01*
X0360506Y0158376D01*
X0360485Y0158186D01*
X0360460Y0157997D01*
X0360429Y0157807D01*
X0360394Y0157619D01*
X0360354Y0157432D01*
X0360310Y0157246D01*
X0360261Y0157061D01*
X0360208Y0156877D01*
X0360150Y0156694D01*
X0360088Y0156513D01*
X0360021Y0156334D01*
X0359950Y0156156D01*
X0359875Y0155980D01*
X0359795Y0155806D01*
X0359711Y0155634D01*
X0359623Y0155464D01*
X0359531Y0155296D01*
X0359434Y0155131D01*
X0359334Y0154968D01*
X0359229Y0154808D01*
X0359121Y0154650D01*
X0359009Y0154495D01*
X0358893Y0154342D01*
X0358773Y0154193D01*
X0358650Y0154046D01*
X0358523Y0153903D01*
X0358393Y0153763D01*
X0358259Y0153626D01*
X0358122Y0153492D01*
X0357982Y0153362D01*
X0357839Y0153235D01*
X0357692Y0153112D01*
X0357543Y0152992D01*
X0357390Y0152876D01*
X0357235Y0152764D01*
X0357077Y0152656D01*
X0356917Y0152551D01*
X0356754Y0152451D01*
X0356589Y0152354D01*
X0356421Y0152262D01*
X0356251Y0152174D01*
X0356079Y0152090D01*
X0355905Y0152010D01*
X0355729Y0151935D01*
X0355551Y0151864D01*
X0355372Y0151797D01*
X0355191Y0151735D01*
X0355008Y0151677D01*
X0354824Y0151624D01*
X0354639Y0151575D01*
X0354453Y0151531D01*
X0354266Y0151491D01*
X0354078Y0151456D01*
X0353888Y0151425D01*
X0353699Y0151400D01*
X0353509Y0151379D01*
X0353318Y0151362D01*
X0353127Y0151350D01*
X0352935Y0151343D01*
X0352744Y0151341D01*
X0352553Y0151343D01*
X0352361Y0151350D01*
X0352170Y0151362D01*
X0351979Y0151379D01*
X0351789Y0151400D01*
X0351600Y0151425D01*
X0351410Y0151456D01*
X0351222Y0151491D01*
X0351035Y0151531D01*
X0350849Y0151575D01*
X0350664Y0151624D01*
X0350480Y0151677D01*
X0350297Y0151735D01*
X0350116Y0151797D01*
X0349937Y0151864D01*
X0349759Y0151935D01*
X0349583Y0152010D01*
X0349409Y0152090D01*
X0349237Y0152174D01*
X0349067Y0152262D01*
X0348899Y0152354D01*
X0348734Y0152451D01*
X0348571Y0152551D01*
X0348411Y0152656D01*
X0348253Y0152764D01*
X0348098Y0152876D01*
X0347945Y0152992D01*
X0347796Y0153112D01*
X0347649Y0153235D01*
X0347506Y0153362D01*
X0347366Y0153492D01*
X0347229Y0153626D01*
X0347095Y0153763D01*
X0346965Y0153903D01*
X0346838Y0154046D01*
X0346715Y0154193D01*
X0346595Y0154342D01*
X0346479Y0154495D01*
X0346367Y0154650D01*
X0346259Y0154808D01*
X0346154Y0154968D01*
X0346054Y0155131D01*
X0345957Y0155296D01*
X0345865Y0155464D01*
X0345777Y0155634D01*
X0345693Y0155806D01*
X0345613Y0155980D01*
X0345538Y0156156D01*
X0345467Y0156334D01*
X0345400Y0156513D01*
X0345338Y0156694D01*
X0345280Y0156877D01*
X0345227Y0157061D01*
X0345178Y0157246D01*
X0345134Y0157432D01*
X0345094Y0157619D01*
X0345059Y0157807D01*
X0345028Y0157997D01*
X0345003Y0158186D01*
X0344982Y0158376D01*
X0344965Y0158567D01*
X0344953Y0158758D01*
X0344946Y0158950D01*
X0344944Y0159141D01*
D11*
X0258000Y0116400D02*
X0258000Y0104900D01*
X0258000Y0093400D01*
X0258000Y0081900D01*
X0258000Y0070400D01*
X0258000Y0058900D01*
X0258000Y0047400D01*
X0258000Y0035900D01*
X0258000Y0024400D01*
X0258000Y0012900D01*
X0258000Y0001400D01*
X0189000Y0001400D01*
X0189000Y0012900D01*
X0258000Y0012900D01*
X0249645Y0015300D02*
X0249645Y0018603D01*
X0248544Y0019704D01*
X0247443Y0018603D01*
X0247443Y0015300D01*
X0245241Y0015300D02*
X0245241Y0019704D01*
X0246342Y0019704D01*
X0247443Y0018603D01*
X0243199Y0018603D02*
X0242099Y0019704D01*
X0240998Y0018603D01*
X0240998Y0015300D01*
X0243199Y0015300D02*
X0243199Y0018603D01*
X0240998Y0018603D02*
X0239897Y0019704D01*
X0238796Y0019704D01*
X0238796Y0015300D01*
X0236754Y0016401D02*
X0235653Y0015300D01*
X0233451Y0015300D01*
X0232350Y0016401D01*
X0230308Y0016401D02*
X0230308Y0020805D01*
X0225905Y0016401D01*
X0227006Y0015300D01*
X0229208Y0015300D01*
X0230308Y0016401D01*
X0232350Y0018603D02*
X0234552Y0019704D01*
X0235653Y0019704D01*
X0236754Y0018603D01*
X0236754Y0016401D01*
X0232350Y0018603D02*
X0232350Y0021906D01*
X0236754Y0021906D01*
X0235653Y0026800D02*
X0233451Y0026800D01*
X0232350Y0027901D01*
X0230308Y0027901D02*
X0230308Y0032305D01*
X0225905Y0027901D01*
X0227006Y0026800D01*
X0229208Y0026800D01*
X0230308Y0027901D01*
X0232350Y0030103D02*
X0234552Y0031204D01*
X0235653Y0031204D01*
X0236754Y0030103D01*
X0236754Y0027901D01*
X0235653Y0026800D01*
X0238796Y0026800D02*
X0238796Y0031204D01*
X0239897Y0031204D01*
X0240998Y0030103D01*
X0242099Y0031204D01*
X0243199Y0030103D01*
X0243199Y0026800D01*
X0245241Y0026800D02*
X0245241Y0031204D01*
X0246342Y0031204D01*
X0247443Y0030103D01*
X0248544Y0031204D01*
X0249645Y0030103D01*
X0249645Y0026800D01*
X0247443Y0026800D02*
X0247443Y0030103D01*
X0240998Y0030103D02*
X0240998Y0026800D01*
X0236754Y0033406D02*
X0232350Y0033406D01*
X0232350Y0030103D01*
X0230308Y0032305D02*
X0229208Y0033406D01*
X0227006Y0033406D01*
X0225905Y0032305D01*
X0225905Y0027901D01*
X0223783Y0027901D02*
X0223783Y0026800D01*
X0222682Y0026800D01*
X0222682Y0027901D01*
X0223783Y0027901D01*
X0220640Y0027901D02*
X0220640Y0032305D01*
X0216236Y0027901D01*
X0217337Y0026800D01*
X0219539Y0026800D01*
X0220640Y0027901D01*
X0216236Y0027901D02*
X0216236Y0032305D01*
X0217337Y0033406D01*
X0219539Y0033406D01*
X0220640Y0032305D01*
X0214195Y0030103D02*
X0209791Y0030103D01*
X0211993Y0032305D02*
X0211993Y0027901D01*
X0207749Y0033406D02*
X0203345Y0026800D01*
X0201304Y0030103D02*
X0196900Y0030103D01*
X0189000Y0024400D02*
X0189000Y0012900D01*
X0143000Y0012900D01*
X0143000Y0001400D01*
X0189000Y0001400D01*
X0196900Y0007103D02*
X0201304Y0007103D01*
X0203345Y0003800D02*
X0207749Y0010406D01*
X0209791Y0007103D02*
X0214195Y0007103D01*
X0216236Y0009305D02*
X0217337Y0010406D01*
X0219539Y0010406D01*
X0220640Y0009305D01*
X0216236Y0004901D01*
X0217337Y0003800D01*
X0219539Y0003800D01*
X0220640Y0004901D01*
X0220640Y0009305D01*
X0216236Y0009305D02*
X0216236Y0004901D01*
X0211993Y0004901D02*
X0211993Y0009305D01*
X0211993Y0016401D02*
X0211993Y0020805D01*
X0209791Y0018603D02*
X0214195Y0018603D01*
X0216236Y0016401D02*
X0216236Y0020805D01*
X0217337Y0021906D01*
X0219539Y0021906D01*
X0220640Y0020805D01*
X0216236Y0016401D01*
X0217337Y0015300D01*
X0219539Y0015300D01*
X0220640Y0016401D01*
X0220640Y0020805D01*
X0222682Y0016401D02*
X0223783Y0016401D01*
X0223783Y0015300D01*
X0222682Y0015300D01*
X0222682Y0016401D01*
X0225905Y0016401D02*
X0225905Y0020805D01*
X0227006Y0021906D01*
X0229208Y0021906D01*
X0230308Y0020805D01*
X0229208Y0010406D02*
X0227006Y0010406D01*
X0225905Y0009305D01*
X0225905Y0004901D01*
X0230308Y0009305D01*
X0230308Y0004901D01*
X0229208Y0003800D01*
X0227006Y0003800D01*
X0225905Y0004901D01*
X0223783Y0004901D02*
X0223783Y0003800D01*
X0222682Y0003800D01*
X0222682Y0004901D01*
X0223783Y0004901D01*
X0229208Y0010406D02*
X0230308Y0009305D01*
X0232350Y0010406D02*
X0232350Y0007103D01*
X0234552Y0008204D01*
X0235653Y0008204D01*
X0236754Y0007103D01*
X0236754Y0004901D01*
X0235653Y0003800D01*
X0233451Y0003800D01*
X0232350Y0004901D01*
X0232350Y0010406D02*
X0236754Y0010406D01*
X0238796Y0008204D02*
X0239897Y0008204D01*
X0240998Y0007103D01*
X0242099Y0008204D01*
X0243199Y0007103D01*
X0243199Y0003800D01*
X0245241Y0003800D02*
X0245241Y0008204D01*
X0246342Y0008204D01*
X0247443Y0007103D01*
X0248544Y0008204D01*
X0249645Y0007103D01*
X0249645Y0003800D01*
X0247443Y0003800D02*
X0247443Y0007103D01*
X0240998Y0007103D02*
X0240998Y0003800D01*
X0238796Y0003800D02*
X0238796Y0008204D01*
X0258000Y0024400D02*
X0189000Y0024400D01*
X0189000Y0035900D01*
X0258000Y0035900D01*
X0249645Y0038300D02*
X0249645Y0041603D01*
X0248544Y0042704D01*
X0247443Y0041603D01*
X0247443Y0038300D01*
X0245241Y0038300D02*
X0245241Y0042704D01*
X0246342Y0042704D01*
X0247443Y0041603D01*
X0243199Y0041603D02*
X0243199Y0038300D01*
X0240998Y0038300D02*
X0240998Y0041603D01*
X0242099Y0042704D01*
X0243199Y0041603D01*
X0240998Y0041603D02*
X0239897Y0042704D01*
X0238796Y0042704D01*
X0238796Y0038300D01*
X0236754Y0039401D02*
X0235653Y0038300D01*
X0233451Y0038300D01*
X0232350Y0039401D01*
X0230308Y0039401D02*
X0230308Y0043805D01*
X0225905Y0039401D01*
X0227006Y0038300D01*
X0229208Y0038300D01*
X0230308Y0039401D01*
X0232350Y0041603D02*
X0232350Y0044906D01*
X0236754Y0044906D01*
X0235653Y0042704D02*
X0236754Y0041603D01*
X0236754Y0039401D01*
X0235653Y0042704D02*
X0234552Y0042704D01*
X0232350Y0041603D01*
X0230308Y0043805D02*
X0229208Y0044906D01*
X0227006Y0044906D01*
X0225905Y0043805D01*
X0225905Y0039401D01*
X0223783Y0039401D02*
X0223783Y0038300D01*
X0222682Y0038300D01*
X0222682Y0039401D01*
X0223783Y0039401D01*
X0220640Y0039401D02*
X0220640Y0043805D01*
X0216236Y0039401D01*
X0217337Y0038300D01*
X0219539Y0038300D01*
X0220640Y0039401D01*
X0216236Y0039401D02*
X0216236Y0043805D01*
X0217337Y0044906D01*
X0219539Y0044906D01*
X0220640Y0043805D01*
X0219539Y0049800D02*
X0217337Y0049800D01*
X0216236Y0050901D01*
X0220640Y0055305D01*
X0220640Y0050901D01*
X0219539Y0049800D01*
X0222682Y0049800D02*
X0223783Y0049800D01*
X0223783Y0050901D01*
X0222682Y0050901D01*
X0222682Y0049800D01*
X0225905Y0050901D02*
X0225905Y0055305D01*
X0227006Y0056406D01*
X0229208Y0056406D01*
X0230308Y0055305D01*
X0225905Y0050901D01*
X0227006Y0049800D01*
X0229208Y0049800D01*
X0230308Y0050901D01*
X0230308Y0055305D01*
X0232350Y0056406D02*
X0232350Y0053103D01*
X0234552Y0054204D01*
X0235653Y0054204D01*
X0236754Y0053103D01*
X0236754Y0050901D01*
X0235653Y0049800D01*
X0233451Y0049800D01*
X0232350Y0050901D01*
X0232350Y0056406D02*
X0236754Y0056406D01*
X0238796Y0054204D02*
X0239897Y0054204D01*
X0240998Y0053103D01*
X0242099Y0054204D01*
X0243199Y0053103D01*
X0243199Y0049800D01*
X0245241Y0049800D02*
X0245241Y0054204D01*
X0246342Y0054204D01*
X0247443Y0053103D01*
X0248544Y0054204D01*
X0249645Y0053103D01*
X0249645Y0049800D01*
X0247443Y0049800D02*
X0247443Y0053103D01*
X0247443Y0061300D02*
X0247443Y0064603D01*
X0248544Y0065704D01*
X0249645Y0064603D01*
X0249645Y0061300D01*
X0247443Y0064603D02*
X0246342Y0065704D01*
X0245241Y0065704D01*
X0245241Y0061300D01*
X0243199Y0061300D02*
X0243199Y0064603D01*
X0242099Y0065704D01*
X0240998Y0064603D01*
X0240998Y0061300D01*
X0238796Y0061300D02*
X0238796Y0065704D01*
X0239897Y0065704D01*
X0240998Y0064603D01*
X0236754Y0064603D02*
X0236754Y0062401D01*
X0235653Y0061300D01*
X0233451Y0061300D01*
X0232350Y0062401D01*
X0230308Y0062401D02*
X0229208Y0061300D01*
X0227006Y0061300D01*
X0225905Y0062401D01*
X0230308Y0066805D01*
X0230308Y0062401D01*
X0232350Y0064603D02*
X0232350Y0067906D01*
X0236754Y0067906D01*
X0235653Y0065704D02*
X0236754Y0064603D01*
X0235653Y0065704D02*
X0234552Y0065704D01*
X0232350Y0064603D01*
X0230308Y0066805D02*
X0229208Y0067906D01*
X0227006Y0067906D01*
X0225905Y0066805D01*
X0225905Y0062401D01*
X0223783Y0062401D02*
X0223783Y0061300D01*
X0222682Y0061300D01*
X0222682Y0062401D01*
X0223783Y0062401D01*
X0220640Y0062401D02*
X0219539Y0061300D01*
X0217337Y0061300D01*
X0216236Y0062401D01*
X0220640Y0066805D01*
X0220640Y0062401D01*
X0216236Y0062401D02*
X0216236Y0066805D01*
X0217337Y0067906D01*
X0219539Y0067906D01*
X0220640Y0066805D01*
X0214195Y0064603D02*
X0209791Y0064603D01*
X0211993Y0066805D02*
X0211993Y0062401D01*
X0207749Y0067906D02*
X0203345Y0061300D01*
X0201304Y0064603D02*
X0196900Y0064603D01*
X0189000Y0058900D02*
X0189000Y0047400D01*
X0189000Y0035900D01*
X0143000Y0035900D01*
X0143000Y0024400D01*
X0143000Y0012900D01*
X0120000Y0012900D01*
X0120000Y0001400D01*
X0143000Y0001400D01*
X0132003Y0003800D02*
X0132003Y0010406D01*
X0128700Y0007103D01*
X0133104Y0007103D01*
X0132003Y0015300D02*
X0129801Y0015300D01*
X0128700Y0016401D01*
X0128700Y0018603D01*
X0132003Y0018603D01*
X0133104Y0017502D01*
X0133104Y0016401D01*
X0132003Y0015300D01*
X0128700Y0018603D02*
X0130902Y0020805D01*
X0133104Y0021906D01*
X0132003Y0026800D02*
X0129801Y0026800D01*
X0128700Y0027901D01*
X0128700Y0030103D01*
X0132003Y0030103D01*
X0133104Y0029002D01*
X0133104Y0027901D01*
X0132003Y0026800D01*
X0128700Y0030103D02*
X0130902Y0032305D01*
X0133104Y0033406D01*
X0132003Y0038300D02*
X0129801Y0038300D01*
X0128700Y0039401D01*
X0130902Y0041603D02*
X0132003Y0041603D01*
X0133104Y0040502D01*
X0133104Y0039401D01*
X0132003Y0038300D01*
X0132003Y0041603D02*
X0133104Y0042704D01*
X0133104Y0043805D01*
X0132003Y0044906D01*
X0129801Y0044906D01*
X0128700Y0043805D01*
X0130204Y0049800D02*
X0125800Y0049800D01*
X0130204Y0054204D01*
X0130204Y0055305D01*
X0129103Y0056406D01*
X0126901Y0056406D01*
X0125800Y0055305D01*
X0126901Y0061300D02*
X0125800Y0062401D01*
X0126901Y0061300D02*
X0129103Y0061300D01*
X0130204Y0062401D01*
X0130204Y0063502D01*
X0129103Y0064603D01*
X0128002Y0064603D01*
X0129103Y0064603D02*
X0130204Y0065704D01*
X0130204Y0066805D01*
X0129103Y0067906D01*
X0126901Y0067906D01*
X0125800Y0066805D01*
X0132245Y0064603D02*
X0135548Y0064603D01*
X0136649Y0063502D01*
X0136649Y0062401D01*
X0135548Y0061300D01*
X0133346Y0061300D01*
X0132245Y0062401D01*
X0132245Y0064603D01*
X0134447Y0066805D01*
X0136649Y0067906D01*
X0135548Y0072800D02*
X0133346Y0072800D01*
X0132245Y0073901D01*
X0132245Y0075002D01*
X0133346Y0076103D01*
X0135548Y0076103D01*
X0136649Y0075002D01*
X0136649Y0073901D01*
X0135548Y0072800D01*
X0135548Y0076103D02*
X0136649Y0077204D01*
X0136649Y0078305D01*
X0135548Y0079406D01*
X0133346Y0079406D01*
X0132245Y0078305D01*
X0132245Y0077204D01*
X0133346Y0076103D01*
X0130204Y0077204D02*
X0130204Y0078305D01*
X0129103Y0079406D01*
X0126901Y0079406D01*
X0125800Y0078305D01*
X0130204Y0077204D02*
X0125800Y0072800D01*
X0130204Y0072800D01*
X0120000Y0070400D02*
X0143000Y0070400D01*
X0143000Y0058900D01*
X0143000Y0047400D01*
X0143000Y0035900D01*
X0120000Y0035900D01*
X0120000Y0024400D01*
X0120000Y0012900D01*
X0089000Y0012900D01*
X0089000Y0001400D01*
X0120000Y0001400D01*
X0113317Y0004901D02*
X0112217Y0003800D01*
X0110015Y0003800D01*
X0108914Y0004901D01*
X0108914Y0007103D01*
X0112217Y0007103D01*
X0113317Y0006002D01*
X0113317Y0004901D01*
X0108914Y0007103D02*
X0111116Y0009305D01*
X0113317Y0010406D01*
X0112217Y0015300D02*
X0110015Y0015300D01*
X0108914Y0016401D01*
X0108914Y0018603D02*
X0111116Y0019704D01*
X0112217Y0019704D01*
X0113317Y0018603D01*
X0113317Y0016401D01*
X0112217Y0015300D01*
X0108914Y0018603D02*
X0108914Y0021906D01*
X0113317Y0021906D01*
X0112217Y0026800D02*
X0110015Y0026800D01*
X0108914Y0027901D01*
X0113317Y0032305D01*
X0113317Y0027901D01*
X0112217Y0026800D01*
X0108914Y0027901D02*
X0108914Y0032305D01*
X0110015Y0033406D01*
X0112217Y0033406D01*
X0113317Y0032305D01*
X0106872Y0033406D02*
X0104670Y0032305D01*
X0102468Y0030103D01*
X0105771Y0030103D01*
X0106872Y0029002D01*
X0106872Y0027901D01*
X0105771Y0026800D01*
X0103569Y0026800D01*
X0102468Y0027901D01*
X0102468Y0030103D01*
X0100346Y0027901D02*
X0100346Y0026800D01*
X0099245Y0026800D01*
X0099245Y0027901D01*
X0100346Y0027901D01*
X0097204Y0026800D02*
X0092800Y0026800D01*
X0095002Y0026800D02*
X0095002Y0033406D01*
X0092800Y0031204D01*
X0089000Y0035900D02*
X0089000Y0024400D01*
X0089000Y0012900D01*
X0043000Y0012900D01*
X0043000Y0001400D01*
X0089000Y0001400D01*
X0092800Y0004901D02*
X0093901Y0003800D01*
X0096103Y0003800D01*
X0097204Y0004901D01*
X0097204Y0006002D01*
X0096103Y0007103D01*
X0095002Y0007103D01*
X0096103Y0007103D02*
X0097204Y0008204D01*
X0097204Y0009305D01*
X0096103Y0010406D01*
X0093901Y0010406D01*
X0092800Y0009305D01*
X0093901Y0015300D02*
X0092800Y0016401D01*
X0093901Y0015300D02*
X0096103Y0015300D01*
X0097204Y0016401D01*
X0097204Y0017502D01*
X0096103Y0018603D01*
X0095002Y0018603D01*
X0096103Y0018603D02*
X0097204Y0019704D01*
X0097204Y0020805D01*
X0096103Y0021906D01*
X0093901Y0021906D01*
X0092800Y0020805D01*
X0089000Y0024400D02*
X0120000Y0024400D01*
X0143000Y0024400D01*
X0189000Y0024400D01*
X0196900Y0018603D02*
X0201304Y0018603D01*
X0203345Y0015300D02*
X0207749Y0021906D01*
X0203345Y0038300D02*
X0207749Y0044906D01*
X0209791Y0041603D02*
X0214195Y0041603D01*
X0211993Y0043805D02*
X0211993Y0039401D01*
X0201304Y0041603D02*
X0196900Y0041603D01*
X0189000Y0047400D02*
X0258000Y0047400D01*
X0258000Y0058900D02*
X0189000Y0058900D01*
X0189000Y0070400D01*
X0258000Y0070400D01*
X0249645Y0072800D02*
X0249645Y0076103D01*
X0248544Y0077204D01*
X0247443Y0076103D01*
X0247443Y0072800D01*
X0245241Y0072800D02*
X0245241Y0077204D01*
X0246342Y0077204D01*
X0247443Y0076103D01*
X0243199Y0076103D02*
X0242099Y0077204D01*
X0240998Y0076103D01*
X0240998Y0072800D01*
X0243199Y0072800D02*
X0243199Y0076103D01*
X0240998Y0076103D02*
X0239897Y0077204D01*
X0238796Y0077204D01*
X0238796Y0072800D01*
X0236754Y0073901D02*
X0235653Y0072800D01*
X0233451Y0072800D01*
X0232350Y0073901D01*
X0230308Y0073901D02*
X0230308Y0078305D01*
X0225905Y0073901D01*
X0227006Y0072800D01*
X0229208Y0072800D01*
X0230308Y0073901D01*
X0232350Y0076103D02*
X0234552Y0077204D01*
X0235653Y0077204D01*
X0236754Y0076103D01*
X0236754Y0073901D01*
X0232350Y0076103D02*
X0232350Y0079406D01*
X0236754Y0079406D01*
X0235653Y0084300D02*
X0233451Y0084300D01*
X0232350Y0085401D01*
X0230308Y0085401D02*
X0230308Y0089805D01*
X0225905Y0085401D01*
X0227006Y0084300D01*
X0229208Y0084300D01*
X0230308Y0085401D01*
X0232350Y0087603D02*
X0234552Y0088704D01*
X0235653Y0088704D01*
X0236754Y0087603D01*
X0236754Y0085401D01*
X0235653Y0084300D01*
X0238796Y0084300D02*
X0238796Y0088704D01*
X0239897Y0088704D01*
X0240998Y0087603D01*
X0242099Y0088704D01*
X0243199Y0087603D01*
X0243199Y0084300D01*
X0245241Y0084300D02*
X0245241Y0088704D01*
X0246342Y0088704D01*
X0247443Y0087603D01*
X0248544Y0088704D01*
X0249645Y0087603D01*
X0249645Y0084300D01*
X0247443Y0084300D02*
X0247443Y0087603D01*
X0240998Y0087603D02*
X0240998Y0084300D01*
X0232350Y0087603D02*
X0232350Y0090906D01*
X0236754Y0090906D01*
X0235653Y0095800D02*
X0233451Y0095800D01*
X0232350Y0096901D01*
X0230308Y0096901D02*
X0230308Y0101305D01*
X0225905Y0096901D01*
X0227006Y0095800D01*
X0229208Y0095800D01*
X0230308Y0096901D01*
X0232350Y0099103D02*
X0232350Y0102406D01*
X0236754Y0102406D01*
X0235653Y0100204D02*
X0236754Y0099103D01*
X0236754Y0096901D01*
X0235653Y0095800D01*
X0238796Y0095800D02*
X0238796Y0100204D01*
X0239897Y0100204D01*
X0240998Y0099103D01*
X0242099Y0100204D01*
X0243199Y0099103D01*
X0243199Y0095800D01*
X0245241Y0095800D02*
X0245241Y0100204D01*
X0246342Y0100204D01*
X0247443Y0099103D01*
X0248544Y0100204D01*
X0249645Y0099103D01*
X0249645Y0095800D01*
X0247443Y0095800D02*
X0247443Y0099103D01*
X0240998Y0099103D02*
X0240998Y0095800D01*
X0235653Y0100204D02*
X0234552Y0100204D01*
X0232350Y0099103D01*
X0230308Y0101305D02*
X0229208Y0102406D01*
X0227006Y0102406D01*
X0225905Y0101305D01*
X0225905Y0096901D01*
X0223783Y0096901D02*
X0223783Y0095800D01*
X0222682Y0095800D01*
X0222682Y0096901D01*
X0223783Y0096901D01*
X0220640Y0096901D02*
X0220640Y0101305D01*
X0216236Y0096901D01*
X0217337Y0095800D01*
X0219539Y0095800D01*
X0220640Y0096901D01*
X0216236Y0096901D02*
X0216236Y0101305D01*
X0217337Y0102406D01*
X0219539Y0102406D01*
X0220640Y0101305D01*
X0222346Y0107300D02*
X0221245Y0108401D01*
X0221245Y0110603D01*
X0222346Y0111704D01*
X0224548Y0111704D01*
X0225649Y0110603D01*
X0225649Y0108401D01*
X0224548Y0107300D01*
X0222346Y0107300D01*
X0217002Y0107300D02*
X0217002Y0113906D01*
X0214800Y0113906D02*
X0219204Y0113906D01*
X0227691Y0113906D02*
X0228792Y0113906D01*
X0228792Y0107300D01*
X0227691Y0107300D02*
X0229893Y0107300D01*
X0229208Y0090906D02*
X0227006Y0090906D01*
X0225905Y0089805D01*
X0225905Y0085401D01*
X0223783Y0085401D02*
X0223783Y0084300D01*
X0222682Y0084300D01*
X0222682Y0085401D01*
X0223783Y0085401D01*
X0220640Y0085401D02*
X0220640Y0089805D01*
X0216236Y0085401D01*
X0217337Y0084300D01*
X0219539Y0084300D01*
X0220640Y0085401D01*
X0216236Y0085401D02*
X0216236Y0089805D01*
X0217337Y0090906D01*
X0219539Y0090906D01*
X0220640Y0089805D01*
X0214195Y0087603D02*
X0209791Y0087603D01*
X0211993Y0089805D02*
X0211993Y0085401D01*
X0211993Y0078305D02*
X0211993Y0073901D01*
X0209791Y0076103D02*
X0214195Y0076103D01*
X0216236Y0073901D02*
X0216236Y0078305D01*
X0217337Y0079406D01*
X0219539Y0079406D01*
X0220640Y0078305D01*
X0216236Y0073901D01*
X0217337Y0072800D01*
X0219539Y0072800D01*
X0220640Y0073901D01*
X0220640Y0078305D01*
X0222682Y0073901D02*
X0223783Y0073901D01*
X0223783Y0072800D01*
X0222682Y0072800D01*
X0222682Y0073901D01*
X0225905Y0073901D02*
X0225905Y0078305D01*
X0227006Y0079406D01*
X0229208Y0079406D01*
X0230308Y0078305D01*
X0230308Y0089805D02*
X0229208Y0090906D01*
X0214195Y0099103D02*
X0209791Y0099103D01*
X0211993Y0101305D02*
X0211993Y0096901D01*
X0207749Y0102406D02*
X0203345Y0095800D01*
X0201304Y0099103D02*
X0196900Y0099103D01*
X0189000Y0093400D02*
X0189000Y0081900D01*
X0189000Y0070400D01*
X0143000Y0070400D01*
X0143000Y0081900D01*
X0189000Y0081900D01*
X0258000Y0081900D01*
X0258000Y0093400D02*
X0189000Y0093400D01*
X0189000Y0104900D01*
X0258000Y0104900D01*
X0238796Y0054204D02*
X0238796Y0049800D01*
X0240998Y0049800D02*
X0240998Y0053103D01*
X0220640Y0055305D02*
X0219539Y0056406D01*
X0217337Y0056406D01*
X0216236Y0055305D01*
X0216236Y0050901D01*
X0214195Y0053103D02*
X0209791Y0053103D01*
X0211993Y0055305D02*
X0211993Y0050901D01*
X0207749Y0056406D02*
X0203345Y0049800D01*
X0201304Y0053103D02*
X0196900Y0053103D01*
X0189000Y0047400D02*
X0143000Y0047400D01*
X0120000Y0047400D01*
X0120000Y0035900D01*
X0089000Y0035900D01*
X0089000Y0047400D01*
X0089000Y0058900D01*
X0089000Y0070400D01*
X0089000Y0081900D01*
X0089000Y0093400D01*
X0089000Y0104900D01*
X0120000Y0104900D01*
X0120000Y0093400D01*
X0120000Y0081900D01*
X0120000Y0070400D01*
X0120000Y0058900D01*
X0120000Y0047400D01*
X0089000Y0047400D01*
X0043000Y0047400D01*
X0043000Y0035900D01*
X0043000Y0024400D01*
X0043000Y0012900D01*
X0028000Y0012900D01*
X0028000Y0001400D01*
X0043000Y0001400D01*
X0048400Y0003800D02*
X0052804Y0003800D01*
X0050602Y0003800D02*
X0050602Y0010406D01*
X0048400Y0008204D01*
X0054845Y0007103D02*
X0054845Y0010406D01*
X0059249Y0010406D01*
X0058148Y0008204D02*
X0059249Y0007103D01*
X0059249Y0004901D01*
X0058148Y0003800D01*
X0055946Y0003800D01*
X0054845Y0004901D01*
X0054845Y0007103D02*
X0057047Y0008204D01*
X0058148Y0008204D01*
X0061291Y0007103D02*
X0064594Y0007103D01*
X0065695Y0006002D01*
X0065695Y0004901D01*
X0064594Y0003800D01*
X0062392Y0003800D01*
X0061291Y0004901D01*
X0061291Y0007103D01*
X0063493Y0009305D01*
X0065695Y0010406D01*
X0064594Y0015300D02*
X0062392Y0015300D01*
X0061291Y0016401D01*
X0061291Y0017502D01*
X0062392Y0018603D01*
X0064594Y0018603D01*
X0065695Y0017502D01*
X0065695Y0016401D01*
X0064594Y0015300D01*
X0067736Y0015300D02*
X0068837Y0015300D01*
X0068837Y0016401D01*
X0067736Y0016401D01*
X0067736Y0015300D01*
X0070959Y0016401D02*
X0070959Y0020805D01*
X0072060Y0021906D01*
X0074262Y0021906D01*
X0075363Y0020805D01*
X0070959Y0016401D01*
X0072060Y0015300D01*
X0074262Y0015300D01*
X0075363Y0016401D01*
X0075363Y0020805D01*
X0077405Y0020805D02*
X0078506Y0021906D01*
X0080708Y0021906D01*
X0081808Y0020805D01*
X0077405Y0016401D01*
X0078506Y0015300D01*
X0080708Y0015300D01*
X0081808Y0016401D01*
X0081808Y0020805D01*
X0077405Y0020805D02*
X0077405Y0016401D01*
X0078506Y0010406D02*
X0080708Y0010406D01*
X0081808Y0009305D01*
X0077405Y0004901D01*
X0078506Y0003800D01*
X0080708Y0003800D01*
X0081808Y0004901D01*
X0081808Y0009305D01*
X0078506Y0010406D02*
X0077405Y0009305D01*
X0077405Y0004901D01*
X0075363Y0004901D02*
X0074262Y0003800D01*
X0072060Y0003800D01*
X0070959Y0004901D01*
X0075363Y0009305D01*
X0075363Y0004901D01*
X0075363Y0009305D02*
X0074262Y0010406D01*
X0072060Y0010406D01*
X0070959Y0009305D01*
X0070959Y0004901D01*
X0068837Y0004901D02*
X0068837Y0003800D01*
X0067736Y0003800D01*
X0067736Y0004901D01*
X0068837Y0004901D01*
X0059249Y0015300D02*
X0054845Y0015300D01*
X0059249Y0019704D01*
X0059249Y0020805D01*
X0058148Y0021906D01*
X0055946Y0021906D01*
X0054845Y0020805D01*
X0050602Y0021906D02*
X0050602Y0015300D01*
X0048400Y0015300D02*
X0052804Y0015300D01*
X0048400Y0019704D02*
X0050602Y0021906D01*
X0052401Y0026800D02*
X0054603Y0026800D01*
X0055704Y0027901D01*
X0055704Y0029002D01*
X0054603Y0030103D01*
X0051300Y0030103D01*
X0051300Y0027901D01*
X0052401Y0026800D01*
X0051300Y0030103D02*
X0053502Y0032305D01*
X0055704Y0033406D01*
X0057745Y0032305D02*
X0058846Y0033406D01*
X0061048Y0033406D01*
X0062149Y0032305D01*
X0062149Y0031204D01*
X0057745Y0026800D01*
X0062149Y0026800D01*
X0064191Y0026800D02*
X0065292Y0026800D01*
X0065292Y0027901D01*
X0064191Y0027901D01*
X0064191Y0026800D01*
X0067414Y0027901D02*
X0068515Y0026800D01*
X0070717Y0026800D01*
X0071817Y0027901D01*
X0071817Y0032305D01*
X0070717Y0033406D01*
X0068515Y0033406D01*
X0067414Y0032305D01*
X0067414Y0031204D01*
X0068515Y0030103D01*
X0071817Y0030103D01*
X0073859Y0031204D02*
X0074960Y0030103D01*
X0078263Y0030103D01*
X0078263Y0032305D02*
X0077162Y0033406D01*
X0074960Y0033406D01*
X0073859Y0032305D01*
X0073859Y0031204D01*
X0073859Y0027901D02*
X0074960Y0026800D01*
X0077162Y0026800D01*
X0078263Y0027901D01*
X0078263Y0032305D01*
X0077162Y0038300D02*
X0077162Y0044906D01*
X0073859Y0041603D01*
X0078263Y0041603D01*
X0071817Y0042704D02*
X0071817Y0043805D01*
X0070717Y0044906D01*
X0068515Y0044906D01*
X0067414Y0043805D01*
X0071817Y0042704D02*
X0067414Y0038300D01*
X0071817Y0038300D01*
X0065292Y0038300D02*
X0064191Y0038300D01*
X0064191Y0039401D01*
X0065292Y0039401D01*
X0065292Y0038300D01*
X0062149Y0043805D02*
X0057745Y0039401D01*
X0057745Y0038300D01*
X0054603Y0038300D02*
X0054603Y0044906D01*
X0051300Y0041603D01*
X0055704Y0041603D01*
X0057745Y0044906D02*
X0062149Y0044906D01*
X0062149Y0043805D01*
X0061048Y0049800D02*
X0058846Y0049800D01*
X0057745Y0050901D01*
X0055704Y0050901D02*
X0054603Y0049800D01*
X0052401Y0049800D01*
X0051300Y0050901D01*
X0053502Y0053103D02*
X0054603Y0053103D01*
X0055704Y0052002D01*
X0055704Y0050901D01*
X0054603Y0053103D02*
X0055704Y0054204D01*
X0055704Y0055305D01*
X0054603Y0056406D01*
X0052401Y0056406D01*
X0051300Y0055305D01*
X0052401Y0061300D02*
X0051300Y0062401D01*
X0052401Y0061300D02*
X0054603Y0061300D01*
X0055704Y0062401D01*
X0055704Y0063502D01*
X0054603Y0064603D01*
X0053502Y0064603D01*
X0054603Y0064603D02*
X0055704Y0065704D01*
X0055704Y0066805D01*
X0054603Y0067906D01*
X0052401Y0067906D01*
X0051300Y0066805D01*
X0057745Y0067906D02*
X0057745Y0064603D01*
X0059947Y0065704D01*
X0061048Y0065704D01*
X0062149Y0064603D01*
X0062149Y0062401D01*
X0061048Y0061300D01*
X0058846Y0061300D01*
X0057745Y0062401D01*
X0057745Y0067906D02*
X0062149Y0067906D01*
X0064191Y0072800D02*
X0065292Y0072800D01*
X0065292Y0073901D01*
X0064191Y0073901D01*
X0064191Y0072800D01*
X0067414Y0073901D02*
X0068515Y0072800D01*
X0070717Y0072800D01*
X0071817Y0073901D01*
X0071817Y0076103D01*
X0070717Y0077204D01*
X0069616Y0077204D01*
X0067414Y0076103D01*
X0067414Y0079406D01*
X0071817Y0079406D01*
X0073859Y0076103D02*
X0077162Y0076103D01*
X0078263Y0075002D01*
X0078263Y0073901D01*
X0077162Y0072800D01*
X0074960Y0072800D01*
X0073859Y0073901D01*
X0073859Y0076103D01*
X0076061Y0078305D01*
X0078263Y0079406D01*
X0077162Y0084300D02*
X0074960Y0084300D01*
X0073859Y0085401D01*
X0073859Y0086502D01*
X0074960Y0087603D01*
X0077162Y0087603D01*
X0078263Y0086502D01*
X0078263Y0085401D01*
X0077162Y0084300D01*
X0077162Y0087603D02*
X0078263Y0088704D01*
X0078263Y0089805D01*
X0077162Y0090906D01*
X0074960Y0090906D01*
X0073859Y0089805D01*
X0073859Y0088704D01*
X0074960Y0087603D01*
X0071817Y0089805D02*
X0071817Y0090906D01*
X0067414Y0090906D01*
X0071817Y0089805D02*
X0067414Y0085401D01*
X0067414Y0084300D01*
X0065292Y0084300D02*
X0064191Y0084300D01*
X0064191Y0085401D01*
X0065292Y0085401D01*
X0065292Y0084300D01*
X0062149Y0085401D02*
X0062149Y0086502D01*
X0061048Y0087603D01*
X0059947Y0087603D01*
X0061048Y0087603D02*
X0062149Y0088704D01*
X0062149Y0089805D01*
X0061048Y0090906D01*
X0058846Y0090906D01*
X0057745Y0089805D01*
X0053502Y0090906D02*
X0053502Y0084300D01*
X0051300Y0084300D02*
X0055704Y0084300D01*
X0057745Y0085401D02*
X0058846Y0084300D01*
X0061048Y0084300D01*
X0062149Y0085401D01*
X0062149Y0079406D02*
X0057745Y0079406D01*
X0055704Y0078305D02*
X0054603Y0079406D01*
X0052401Y0079406D01*
X0051300Y0078305D01*
X0055704Y0078305D02*
X0055704Y0077204D01*
X0051300Y0072800D01*
X0055704Y0072800D01*
X0057745Y0072800D02*
X0057745Y0073901D01*
X0062149Y0078305D01*
X0062149Y0079406D01*
X0068515Y0067906D02*
X0070717Y0067906D01*
X0071817Y0066805D01*
X0067414Y0062401D01*
X0068515Y0061300D01*
X0070717Y0061300D01*
X0071817Y0062401D01*
X0071817Y0066805D01*
X0073859Y0066805D02*
X0074960Y0067906D01*
X0077162Y0067906D01*
X0078263Y0066805D01*
X0073859Y0062401D01*
X0074960Y0061300D01*
X0077162Y0061300D01*
X0078263Y0062401D01*
X0078263Y0066805D01*
X0073859Y0066805D02*
X0073859Y0062401D01*
X0067414Y0062401D02*
X0067414Y0066805D01*
X0068515Y0067906D01*
X0065292Y0062401D02*
X0064191Y0062401D01*
X0064191Y0061300D01*
X0065292Y0061300D01*
X0065292Y0062401D01*
X0068515Y0056406D02*
X0070717Y0056406D01*
X0071817Y0055305D01*
X0071817Y0054204D01*
X0070717Y0053103D01*
X0071817Y0052002D01*
X0071817Y0050901D01*
X0070717Y0049800D01*
X0068515Y0049800D01*
X0067414Y0050901D01*
X0065292Y0050901D02*
X0065292Y0049800D01*
X0064191Y0049800D01*
X0064191Y0050901D01*
X0065292Y0050901D01*
X0062149Y0050901D02*
X0062149Y0055305D01*
X0061048Y0056406D01*
X0058846Y0056406D01*
X0057745Y0055305D01*
X0057745Y0054204D01*
X0058846Y0053103D01*
X0062149Y0053103D01*
X0062149Y0050901D02*
X0061048Y0049800D01*
X0067414Y0055305D02*
X0068515Y0056406D01*
X0069616Y0053103D02*
X0070717Y0053103D01*
X0073859Y0050901D02*
X0073859Y0049800D01*
X0073859Y0050901D02*
X0078263Y0055305D01*
X0078263Y0056406D01*
X0073859Y0056406D01*
X0089000Y0058900D02*
X0120000Y0058900D01*
X0143000Y0058900D01*
X0189000Y0058900D01*
X0174595Y0062401D02*
X0173494Y0061300D01*
X0171292Y0061300D01*
X0170191Y0062401D01*
X0168149Y0061300D02*
X0163745Y0061300D01*
X0163745Y0067906D01*
X0168149Y0067906D01*
X0170191Y0066805D02*
X0171292Y0067906D01*
X0173494Y0067906D01*
X0174595Y0066805D01*
X0173494Y0064603D02*
X0174595Y0063502D01*
X0174595Y0062401D01*
X0173494Y0064603D02*
X0171292Y0064603D01*
X0170191Y0065704D01*
X0170191Y0066805D01*
X0165947Y0064603D02*
X0163745Y0064603D01*
X0161704Y0066805D02*
X0161704Y0067906D01*
X0161704Y0066805D02*
X0159502Y0064603D01*
X0159502Y0061300D01*
X0159502Y0064603D02*
X0157300Y0066805D01*
X0157300Y0067906D01*
X0159502Y0072800D02*
X0159502Y0076103D01*
X0161704Y0078305D01*
X0161704Y0079406D01*
X0163745Y0079406D02*
X0163745Y0072800D01*
X0168149Y0072800D01*
X0170191Y0073901D02*
X0171292Y0072800D01*
X0173494Y0072800D01*
X0174595Y0073901D01*
X0174595Y0075002D01*
X0173494Y0076103D01*
X0171292Y0076103D01*
X0170191Y0077204D01*
X0170191Y0078305D01*
X0171292Y0079406D01*
X0173494Y0079406D01*
X0174595Y0078305D01*
X0173494Y0084300D02*
X0171292Y0084300D01*
X0170191Y0085401D01*
X0168149Y0084300D02*
X0163745Y0084300D01*
X0163745Y0090906D01*
X0168149Y0090906D01*
X0170191Y0089805D02*
X0171292Y0090906D01*
X0173494Y0090906D01*
X0174595Y0089805D01*
X0173494Y0087603D02*
X0174595Y0086502D01*
X0174595Y0085401D01*
X0173494Y0084300D01*
X0173494Y0087603D02*
X0171292Y0087603D01*
X0170191Y0088704D01*
X0170191Y0089805D01*
X0165947Y0087603D02*
X0163745Y0087603D01*
X0161704Y0089805D02*
X0161704Y0090906D01*
X0161704Y0089805D02*
X0159502Y0087603D01*
X0159502Y0084300D01*
X0159502Y0087603D02*
X0157300Y0089805D01*
X0157300Y0090906D01*
X0159502Y0095800D02*
X0159502Y0099103D01*
X0161704Y0101305D01*
X0161704Y0102406D01*
X0163745Y0102406D02*
X0163745Y0095800D01*
X0168149Y0095800D01*
X0170191Y0096901D02*
X0171292Y0095800D01*
X0173494Y0095800D01*
X0174595Y0096901D01*
X0174595Y0098002D01*
X0173494Y0099103D01*
X0171292Y0099103D01*
X0170191Y0100204D01*
X0170191Y0101305D01*
X0171292Y0102406D01*
X0173494Y0102406D01*
X0174595Y0101305D01*
X0173188Y0107300D02*
X0170986Y0107300D01*
X0169885Y0108401D01*
X0169885Y0110603D01*
X0170986Y0111704D01*
X0173188Y0111704D01*
X0174289Y0110603D01*
X0174289Y0109502D01*
X0169885Y0109502D01*
X0167790Y0111704D02*
X0165588Y0111704D01*
X0166689Y0112805D02*
X0166689Y0108401D01*
X0167790Y0107300D01*
X0163546Y0107300D02*
X0163546Y0110603D01*
X0162445Y0111704D01*
X0160243Y0111704D01*
X0160243Y0109502D02*
X0163546Y0109502D01*
X0163546Y0107300D02*
X0160243Y0107300D01*
X0159142Y0108401D01*
X0160243Y0109502D01*
X0157047Y0107300D02*
X0154845Y0107300D01*
X0155946Y0107300D02*
X0155946Y0113906D01*
X0154845Y0113906D01*
X0152804Y0112805D02*
X0152804Y0110603D01*
X0151703Y0109502D01*
X0148400Y0109502D01*
X0148400Y0107300D02*
X0148400Y0113906D01*
X0151703Y0113906D01*
X0152804Y0112805D01*
X0143000Y0116400D02*
X0143000Y0104900D01*
X0143000Y0093400D01*
X0143000Y0081900D01*
X0120000Y0081900D01*
X0089000Y0081900D01*
X0043000Y0081900D01*
X0043000Y0070400D01*
X0043000Y0058900D01*
X0043000Y0047400D01*
X0028000Y0047400D01*
X0028000Y0035900D01*
X0028000Y0024400D01*
X0028000Y0012900D01*
X0005000Y0012900D01*
X0014500Y0009100D02*
X0018500Y0005100D01*
X0016500Y0005100D02*
X0016500Y0009100D01*
X0018500Y0009100D02*
X0014500Y0005100D01*
X0005000Y0001400D02*
X0028000Y0001400D01*
X0032700Y0004901D02*
X0033801Y0003800D01*
X0036003Y0003800D01*
X0037104Y0004901D01*
X0037104Y0009305D01*
X0036003Y0010406D01*
X0033801Y0010406D01*
X0032700Y0009305D01*
X0032700Y0008204D01*
X0033801Y0007103D01*
X0037104Y0007103D01*
X0036003Y0015300D02*
X0033801Y0015300D01*
X0032700Y0016401D01*
X0032700Y0017502D01*
X0033801Y0018603D01*
X0036003Y0018603D01*
X0037104Y0017502D01*
X0037104Y0016401D01*
X0036003Y0015300D01*
X0036003Y0018603D02*
X0037104Y0019704D01*
X0037104Y0020805D01*
X0036003Y0021906D01*
X0033801Y0021906D01*
X0032700Y0020805D01*
X0032700Y0019704D01*
X0033801Y0018603D01*
X0028000Y0024400D02*
X0043000Y0024400D01*
X0089000Y0024400D01*
X0089000Y0035900D02*
X0043000Y0035900D01*
X0028000Y0035900D01*
X0005000Y0035900D01*
X0014500Y0039600D02*
X0014500Y0043600D01*
X0018500Y0039600D01*
X0018500Y0043600D01*
X0014500Y0039600D01*
X0016500Y0032100D02*
X0016500Y0028100D01*
X0014500Y0030100D01*
X0018500Y0030100D01*
X0016500Y0032100D01*
X0016500Y0020600D02*
X0014500Y0018600D01*
X0018500Y0018600D01*
X0016500Y0016600D01*
X0016500Y0020600D01*
X0005000Y0024400D02*
X0028000Y0024400D01*
X0032700Y0026800D02*
X0032700Y0027901D01*
X0037104Y0032305D01*
X0037104Y0033406D01*
X0032700Y0033406D01*
X0033801Y0038300D02*
X0036003Y0038300D01*
X0037104Y0039401D01*
X0037104Y0040502D01*
X0036003Y0041603D01*
X0032700Y0041603D01*
X0032700Y0039401D01*
X0033801Y0038300D01*
X0032700Y0041603D02*
X0034902Y0043805D01*
X0037104Y0044906D01*
X0036003Y0049800D02*
X0033801Y0049800D01*
X0032700Y0050901D01*
X0032700Y0053103D02*
X0034902Y0054204D01*
X0036003Y0054204D01*
X0037104Y0053103D01*
X0037104Y0050901D01*
X0036003Y0049800D01*
X0032700Y0053103D02*
X0032700Y0056406D01*
X0037104Y0056406D01*
X0036003Y0061300D02*
X0036003Y0067906D01*
X0032700Y0064603D01*
X0037104Y0064603D01*
X0043000Y0058900D02*
X0028000Y0058900D01*
X0028000Y0047400D01*
X0005000Y0047400D01*
X0014500Y0051100D02*
X0018500Y0055100D01*
X0014500Y0055100D01*
X0018500Y0051100D01*
X0014500Y0051100D01*
X0005000Y0058900D02*
X0028000Y0058900D01*
X0028000Y0070400D01*
X0043000Y0070400D01*
X0089000Y0070400D01*
X0120000Y0070400D01*
X0113317Y0073901D02*
X0112217Y0072800D01*
X0110015Y0072800D01*
X0108914Y0073901D01*
X0113317Y0078305D01*
X0113317Y0073901D01*
X0108914Y0073901D02*
X0108914Y0078305D01*
X0110015Y0079406D01*
X0112217Y0079406D01*
X0113317Y0078305D01*
X0112217Y0084300D02*
X0110015Y0084300D01*
X0108914Y0085401D01*
X0106872Y0085401D02*
X0105771Y0084300D01*
X0103569Y0084300D01*
X0102468Y0085401D01*
X0100346Y0085401D02*
X0100346Y0084300D01*
X0099245Y0084300D01*
X0099245Y0085401D01*
X0100346Y0085401D01*
X0097204Y0085401D02*
X0097204Y0089805D01*
X0092800Y0085401D01*
X0093901Y0084300D01*
X0096103Y0084300D01*
X0097204Y0085401D01*
X0097204Y0089805D02*
X0096103Y0090906D01*
X0093901Y0090906D01*
X0092800Y0089805D01*
X0092800Y0085401D01*
X0093901Y0079406D02*
X0092800Y0078305D01*
X0092800Y0073901D01*
X0097204Y0078305D01*
X0097204Y0073901D01*
X0096103Y0072800D01*
X0093901Y0072800D01*
X0092800Y0073901D01*
X0093901Y0079406D02*
X0096103Y0079406D01*
X0097204Y0078305D01*
X0099245Y0073901D02*
X0100346Y0073901D01*
X0100346Y0072800D01*
X0099245Y0072800D01*
X0099245Y0073901D01*
X0102468Y0073901D02*
X0102468Y0072800D01*
X0102468Y0073901D02*
X0106872Y0078305D01*
X0106872Y0079406D01*
X0102468Y0079406D01*
X0106872Y0085401D02*
X0106872Y0086502D01*
X0105771Y0087603D01*
X0104670Y0087603D01*
X0105771Y0087603D02*
X0106872Y0088704D01*
X0106872Y0089805D01*
X0105771Y0090906D01*
X0103569Y0090906D01*
X0102468Y0089805D01*
X0108914Y0090906D02*
X0108914Y0087603D01*
X0111116Y0088704D01*
X0112217Y0088704D01*
X0113317Y0087603D01*
X0113317Y0085401D01*
X0112217Y0084300D01*
X0113317Y0090906D02*
X0108914Y0090906D01*
X0110015Y0095800D02*
X0108914Y0096901D01*
X0110015Y0095800D02*
X0112217Y0095800D01*
X0113317Y0096901D01*
X0113317Y0099103D01*
X0112217Y0100204D01*
X0111116Y0100204D01*
X0108914Y0099103D01*
X0108914Y0102406D01*
X0113317Y0102406D01*
X0109649Y0107300D02*
X0109649Y0113906D01*
X0107447Y0111704D01*
X0105245Y0113906D01*
X0105245Y0107300D01*
X0103204Y0107300D02*
X0103204Y0113906D01*
X0101002Y0111704D01*
X0098800Y0113906D01*
X0098800Y0107300D01*
X0096103Y0102406D02*
X0097204Y0101305D01*
X0092800Y0096901D01*
X0093901Y0095800D01*
X0096103Y0095800D01*
X0097204Y0096901D01*
X0097204Y0101305D01*
X0096103Y0102406D02*
X0093901Y0102406D01*
X0092800Y0101305D01*
X0092800Y0096901D01*
X0089000Y0093400D02*
X0120000Y0093400D01*
X0143000Y0093400D01*
X0189000Y0093400D01*
X0196900Y0087603D02*
X0201304Y0087603D01*
X0203345Y0084300D02*
X0207749Y0090906D01*
X0207749Y0079406D02*
X0203345Y0072800D01*
X0201304Y0076103D02*
X0196900Y0076103D01*
X0174595Y0055305D02*
X0173494Y0056406D01*
X0171292Y0056406D01*
X0170191Y0055305D01*
X0170191Y0054204D01*
X0171292Y0053103D01*
X0173494Y0053103D01*
X0174595Y0052002D01*
X0174595Y0050901D01*
X0173494Y0049800D01*
X0171292Y0049800D01*
X0170191Y0050901D01*
X0168149Y0049800D02*
X0163745Y0049800D01*
X0163745Y0056406D01*
X0168149Y0056406D01*
X0165947Y0053103D02*
X0163745Y0053103D01*
X0161704Y0055305D02*
X0161704Y0056406D01*
X0161704Y0055305D02*
X0159502Y0053103D01*
X0159502Y0049800D01*
X0159502Y0053103D02*
X0157300Y0055305D01*
X0157300Y0056406D01*
X0157300Y0044906D02*
X0157300Y0043805D01*
X0159502Y0041603D01*
X0159502Y0038300D01*
X0159502Y0041603D02*
X0161704Y0043805D01*
X0161704Y0044906D01*
X0163745Y0044906D02*
X0163745Y0038300D01*
X0168149Y0038300D01*
X0170191Y0039401D02*
X0171292Y0038300D01*
X0173494Y0038300D01*
X0174595Y0039401D01*
X0174595Y0040502D01*
X0173494Y0041603D01*
X0171292Y0041603D01*
X0170191Y0042704D01*
X0170191Y0043805D01*
X0171292Y0044906D01*
X0173494Y0044906D01*
X0174595Y0043805D01*
X0168149Y0044906D02*
X0163745Y0044906D01*
X0163745Y0041603D02*
X0165947Y0041603D01*
X0163745Y0033406D02*
X0163745Y0026800D01*
X0168149Y0026800D01*
X0170191Y0027901D02*
X0171292Y0026800D01*
X0173494Y0026800D01*
X0174595Y0027901D01*
X0174595Y0029002D01*
X0173494Y0030103D01*
X0171292Y0030103D01*
X0170191Y0031204D01*
X0170191Y0032305D01*
X0171292Y0033406D01*
X0173494Y0033406D01*
X0174595Y0032305D01*
X0168149Y0033406D02*
X0163745Y0033406D01*
X0161704Y0033406D02*
X0161704Y0032305D01*
X0159502Y0030103D01*
X0159502Y0026800D01*
X0159502Y0030103D02*
X0157300Y0032305D01*
X0157300Y0033406D01*
X0163745Y0030103D02*
X0165947Y0030103D01*
X0164846Y0021906D02*
X0163745Y0020805D01*
X0163745Y0016401D01*
X0164846Y0015300D01*
X0167048Y0015300D01*
X0168149Y0016401D01*
X0168149Y0020805D01*
X0167048Y0021906D01*
X0164846Y0021906D01*
X0161704Y0021906D02*
X0161704Y0015300D01*
X0157300Y0021906D01*
X0157300Y0015300D01*
X0157300Y0010406D02*
X0161704Y0003800D01*
X0161704Y0010406D01*
X0163745Y0009305D02*
X0163745Y0004901D01*
X0164846Y0003800D01*
X0167048Y0003800D01*
X0168149Y0004901D01*
X0168149Y0009305D01*
X0167048Y0010406D01*
X0164846Y0010406D01*
X0163745Y0009305D01*
X0170191Y0010406D02*
X0174595Y0010406D01*
X0172393Y0010406D02*
X0172393Y0003800D01*
X0172393Y0015300D02*
X0172393Y0021906D01*
X0170191Y0021906D02*
X0174595Y0021906D01*
X0157300Y0010406D02*
X0157300Y0003800D01*
X0113317Y0039401D02*
X0113317Y0043805D01*
X0108914Y0039401D01*
X0110015Y0038300D01*
X0112217Y0038300D01*
X0113317Y0039401D01*
X0108914Y0039401D02*
X0108914Y0043805D01*
X0110015Y0044906D01*
X0112217Y0044906D01*
X0113317Y0043805D01*
X0112217Y0049800D02*
X0110015Y0049800D01*
X0108914Y0050901D01*
X0113317Y0055305D01*
X0113317Y0050901D01*
X0112217Y0049800D01*
X0108914Y0050901D02*
X0108914Y0055305D01*
X0110015Y0056406D01*
X0112217Y0056406D01*
X0113317Y0055305D01*
X0112217Y0061300D02*
X0110015Y0061300D01*
X0108914Y0062401D01*
X0106872Y0062401D02*
X0105771Y0061300D01*
X0103569Y0061300D01*
X0102468Y0062401D01*
X0102468Y0063502D01*
X0103569Y0064603D01*
X0105771Y0064603D01*
X0106872Y0063502D01*
X0106872Y0062401D01*
X0105771Y0064603D02*
X0106872Y0065704D01*
X0106872Y0066805D01*
X0105771Y0067906D01*
X0103569Y0067906D01*
X0102468Y0066805D01*
X0102468Y0065704D01*
X0103569Y0064603D01*
X0100346Y0062401D02*
X0100346Y0061300D01*
X0099245Y0061300D01*
X0099245Y0062401D01*
X0100346Y0062401D01*
X0097204Y0062401D02*
X0096103Y0061300D01*
X0093901Y0061300D01*
X0092800Y0062401D01*
X0097204Y0066805D01*
X0097204Y0062401D01*
X0097204Y0066805D02*
X0096103Y0067906D01*
X0093901Y0067906D01*
X0092800Y0066805D01*
X0092800Y0062401D01*
X0089000Y0058900D02*
X0043000Y0058900D01*
X0036003Y0072800D02*
X0033801Y0072800D01*
X0032700Y0073901D01*
X0034902Y0076103D02*
X0036003Y0076103D01*
X0037104Y0075002D01*
X0037104Y0073901D01*
X0036003Y0072800D01*
X0036003Y0076103D02*
X0037104Y0077204D01*
X0037104Y0078305D01*
X0036003Y0079406D01*
X0033801Y0079406D01*
X0032700Y0078305D01*
X0028000Y0081900D02*
X0028000Y0070400D01*
X0005000Y0070400D01*
X0014500Y0074100D02*
X0014500Y0078100D01*
X0016500Y0078100D01*
X0018500Y0078100D01*
X0018500Y0074100D01*
X0014500Y0074100D01*
X0016500Y0076100D02*
X0016500Y0078100D01*
X0014500Y0085600D02*
X0018500Y0089600D01*
X0014500Y0089600D02*
X0018500Y0085600D01*
X0028000Y0081900D02*
X0005000Y0081900D01*
X0005000Y0093400D02*
X0028000Y0093400D01*
X0028000Y0081900D01*
X0043000Y0081900D01*
X0043000Y0093400D01*
X0089000Y0093400D01*
X0099245Y0095800D02*
X0100346Y0095800D01*
X0100346Y0096901D01*
X0099245Y0096901D01*
X0099245Y0095800D01*
X0102468Y0095800D02*
X0106872Y0100204D01*
X0106872Y0101305D01*
X0105771Y0102406D01*
X0103569Y0102406D01*
X0102468Y0101305D01*
X0102468Y0095800D02*
X0106872Y0095800D01*
X0120000Y0104900D02*
X0143000Y0104900D01*
X0189000Y0104900D01*
X0189000Y0116400D01*
X0180734Y0113906D02*
X0180734Y0107300D01*
X0177431Y0107300D01*
X0176330Y0108401D01*
X0176330Y0110603D01*
X0177431Y0111704D01*
X0180734Y0111704D01*
X0168149Y0102406D02*
X0163745Y0102406D01*
X0163745Y0099103D02*
X0165947Y0099103D01*
X0159502Y0099103D02*
X0157300Y0101305D01*
X0157300Y0102406D01*
X0140095Y0102406D02*
X0137893Y0101305D01*
X0135691Y0099103D01*
X0138994Y0099103D01*
X0140095Y0098002D01*
X0140095Y0096901D01*
X0138994Y0095800D01*
X0136792Y0095800D01*
X0135691Y0096901D01*
X0135691Y0099103D01*
X0133649Y0100204D02*
X0133649Y0101305D01*
X0132548Y0102406D01*
X0130346Y0102406D01*
X0129245Y0101305D01*
X0129245Y0100204D01*
X0130346Y0099103D01*
X0132548Y0099103D01*
X0133649Y0098002D01*
X0133649Y0096901D01*
X0132548Y0095800D01*
X0130346Y0095800D01*
X0129245Y0096901D01*
X0129245Y0098002D01*
X0130346Y0099103D01*
X0132548Y0099103D02*
X0133649Y0100204D01*
X0127204Y0095800D02*
X0122800Y0095800D01*
X0125002Y0095800D02*
X0125002Y0102406D01*
X0122800Y0100204D01*
X0120000Y0104900D02*
X0120000Y0116400D01*
X0122800Y0112805D02*
X0123901Y0113906D01*
X0126103Y0113906D01*
X0127204Y0112805D01*
X0127204Y0108401D01*
X0126103Y0107300D01*
X0123901Y0107300D01*
X0122800Y0108401D01*
X0122800Y0112805D01*
X0125002Y0109502D02*
X0127204Y0107300D01*
X0130346Y0108401D02*
X0130346Y0112805D01*
X0129245Y0111704D02*
X0131447Y0111704D01*
X0133542Y0111704D02*
X0133542Y0108401D01*
X0134643Y0107300D01*
X0137946Y0107300D01*
X0137946Y0106199D02*
X0136845Y0105098D01*
X0135744Y0105098D01*
X0137946Y0106199D02*
X0137946Y0111704D01*
X0131447Y0107300D02*
X0130346Y0108401D01*
X0133104Y0090906D02*
X0130902Y0089805D01*
X0128700Y0087603D01*
X0132003Y0087603D01*
X0133104Y0086502D01*
X0133104Y0085401D01*
X0132003Y0084300D01*
X0129801Y0084300D01*
X0128700Y0085401D01*
X0128700Y0087603D01*
X0112217Y0067906D02*
X0110015Y0067906D01*
X0108914Y0066805D01*
X0108914Y0065704D01*
X0110015Y0064603D01*
X0113317Y0064603D01*
X0113317Y0066805D02*
X0112217Y0067906D01*
X0113317Y0066805D02*
X0113317Y0062401D01*
X0112217Y0061300D01*
X0106872Y0055305D02*
X0102468Y0050901D01*
X0103569Y0049800D01*
X0105771Y0049800D01*
X0106872Y0050901D01*
X0106872Y0055305D01*
X0105771Y0056406D01*
X0103569Y0056406D01*
X0102468Y0055305D01*
X0102468Y0050901D01*
X0100346Y0050901D02*
X0100346Y0049800D01*
X0099245Y0049800D01*
X0099245Y0050901D01*
X0100346Y0050901D01*
X0097204Y0049800D02*
X0092800Y0049800D01*
X0095002Y0049800D02*
X0095002Y0056406D01*
X0092800Y0054204D01*
X0095002Y0044906D02*
X0095002Y0038300D01*
X0092800Y0038300D02*
X0097204Y0038300D01*
X0099245Y0038300D02*
X0100346Y0038300D01*
X0100346Y0039401D01*
X0099245Y0039401D01*
X0099245Y0038300D01*
X0102468Y0038300D02*
X0106872Y0042704D01*
X0106872Y0043805D01*
X0105771Y0044906D01*
X0103569Y0044906D01*
X0102468Y0043805D01*
X0102468Y0038300D02*
X0106872Y0038300D01*
X0095002Y0044906D02*
X0092800Y0042704D01*
X0103569Y0021906D02*
X0102468Y0020805D01*
X0103569Y0021906D02*
X0105771Y0021906D01*
X0106872Y0020805D01*
X0106872Y0019704D01*
X0102468Y0015300D01*
X0106872Y0015300D01*
X0105771Y0010406D02*
X0103569Y0010406D01*
X0102468Y0009305D01*
X0102468Y0008204D01*
X0103569Y0007103D01*
X0106872Y0007103D01*
X0106872Y0009305D02*
X0105771Y0010406D01*
X0106872Y0009305D02*
X0106872Y0004901D01*
X0105771Y0003800D01*
X0103569Y0003800D01*
X0102468Y0004901D01*
X0100346Y0004901D02*
X0100346Y0003800D01*
X0099245Y0003800D01*
X0099245Y0004901D01*
X0100346Y0004901D01*
X0100346Y0015300D02*
X0099245Y0015300D01*
X0099245Y0016401D01*
X0100346Y0016401D01*
X0100346Y0015300D01*
X0065695Y0019704D02*
X0064594Y0018603D01*
X0065695Y0019704D02*
X0065695Y0020805D01*
X0064594Y0021906D01*
X0062392Y0021906D01*
X0061291Y0020805D01*
X0061291Y0019704D01*
X0062392Y0018603D01*
X0016500Y0062600D02*
X0014500Y0064600D01*
X0016500Y0066600D01*
X0018500Y0064600D01*
X0016500Y0062600D01*
X0016500Y0064600D02*
X0016500Y0066600D01*
X0032700Y0084300D02*
X0037104Y0088704D01*
X0037104Y0089805D01*
X0036003Y0090906D01*
X0033801Y0090906D01*
X0032700Y0089805D01*
X0032700Y0084300D02*
X0037104Y0084300D01*
X0043000Y0093400D02*
X0028000Y0093400D01*
X0028000Y0104900D01*
X0043000Y0104900D01*
X0043000Y0093400D01*
X0037104Y0095800D02*
X0032700Y0095800D01*
X0034902Y0095800D02*
X0034902Y0102406D01*
X0032700Y0100204D01*
X0028000Y0104900D02*
X0028000Y0116400D01*
X0029800Y0113906D02*
X0034204Y0107300D01*
X0034204Y0113906D01*
X0036245Y0112805D02*
X0037346Y0113906D01*
X0038447Y0113906D01*
X0039548Y0112805D01*
X0039548Y0111704D01*
X0038447Y0110603D01*
X0037346Y0110603D01*
X0036245Y0111704D01*
X0036245Y0112805D01*
X0029800Y0113906D02*
X0029800Y0107300D01*
X0028000Y0104900D02*
X0005000Y0104900D01*
X0005000Y0116400D01*
X0007800Y0112805D02*
X0007800Y0111704D01*
X0008901Y0110603D01*
X0011103Y0110603D01*
X0012204Y0109502D01*
X0012204Y0108401D01*
X0011103Y0107300D01*
X0008901Y0107300D01*
X0007800Y0108401D01*
X0007800Y0112805D02*
X0008901Y0113906D01*
X0011103Y0113906D01*
X0012204Y0112805D01*
X0014245Y0111704D02*
X0014245Y0108401D01*
X0015346Y0107300D01*
X0018649Y0107300D01*
X0018649Y0106199D02*
X0017548Y0105098D01*
X0016447Y0105098D01*
X0018649Y0106199D02*
X0018649Y0111704D01*
X0020691Y0111704D02*
X0021792Y0111704D01*
X0022893Y0110603D01*
X0023994Y0111704D01*
X0025095Y0110603D01*
X0025095Y0107300D01*
X0022893Y0107300D02*
X0022893Y0110603D01*
X0020691Y0111704D02*
X0020691Y0107300D01*
X0016500Y0101100D02*
X0016500Y0097100D01*
X0014500Y0099100D02*
X0018500Y0099100D01*
X0043000Y0104900D02*
X0089000Y0104900D01*
X0089000Y0116400D01*
X0077162Y0102406D02*
X0078263Y0101305D01*
X0073859Y0096901D01*
X0074960Y0095800D01*
X0077162Y0095800D01*
X0078263Y0096901D01*
X0078263Y0101305D01*
X0077162Y0102406D02*
X0074960Y0102406D01*
X0073859Y0101305D01*
X0073859Y0096901D01*
X0071817Y0096901D02*
X0070717Y0095800D01*
X0068515Y0095800D01*
X0067414Y0096901D01*
X0071817Y0101305D01*
X0071817Y0096901D01*
X0067414Y0096901D02*
X0067414Y0101305D01*
X0068515Y0102406D01*
X0070717Y0102406D01*
X0071817Y0101305D01*
X0072642Y0107300D02*
X0069339Y0107300D01*
X0067244Y0107300D02*
X0065042Y0107300D01*
X0066143Y0107300D02*
X0066143Y0113906D01*
X0065042Y0113906D01*
X0061846Y0113906D02*
X0061846Y0115007D01*
X0061846Y0111704D02*
X0061846Y0107300D01*
X0060745Y0107300D02*
X0062947Y0107300D01*
X0058704Y0107300D02*
X0058704Y0113906D01*
X0056502Y0111704D01*
X0054300Y0113906D01*
X0054300Y0107300D01*
X0053502Y0102406D02*
X0053502Y0095800D01*
X0051300Y0095800D02*
X0055704Y0095800D01*
X0057745Y0096901D02*
X0062149Y0101305D01*
X0062149Y0096901D01*
X0061048Y0095800D01*
X0058846Y0095800D01*
X0057745Y0096901D01*
X0057745Y0101305D01*
X0058846Y0102406D01*
X0061048Y0102406D01*
X0062149Y0101305D01*
X0064191Y0096901D02*
X0065292Y0096901D01*
X0065292Y0095800D01*
X0064191Y0095800D01*
X0064191Y0096901D01*
X0053502Y0102406D02*
X0051300Y0100204D01*
X0053502Y0090906D02*
X0051300Y0088704D01*
X0043000Y0104900D02*
X0043000Y0116400D01*
X0060745Y0111704D02*
X0061846Y0111704D01*
X0069339Y0110603D02*
X0070440Y0111704D01*
X0073743Y0111704D01*
X0072642Y0109502D02*
X0070440Y0109502D01*
X0069339Y0110603D01*
X0072642Y0109502D02*
X0073743Y0108401D01*
X0072642Y0107300D01*
X0132245Y0056406D02*
X0136649Y0056406D01*
X0136649Y0055305D01*
X0132245Y0050901D01*
X0132245Y0049800D01*
X0159502Y0076103D02*
X0157300Y0078305D01*
X0157300Y0079406D01*
X0163745Y0079406D02*
X0168149Y0079406D01*
X0165947Y0076103D02*
X0163745Y0076103D01*
D12*
X0005000Y0116400D02*
X0005000Y0001400D01*
X0258000Y0001400D01*
X0258000Y0116400D01*
X0005000Y0116400D01*
M02*
