###############################################################################
#
# IAR C/C++ Compiler V6.50.4.971/W32 for MSP430           24/Oct/2017  17:29:38
# Copyright 1996-2016 IAR Systems AB.
# Network license: ENGENT (STD)
#
#    __rt_version  =  3
#    __double_size =  32
#    __reg_r4      =  free
#    __reg_r5      =  free
#    __pic         =  no
#    __core        =  430X
#    __data_model  =  small
#    __code_model  =  large
#    Source file   =  
#        C:\Users\rgandhi\Desktop\BS_VRS\Firmware\Driver\DEBUG\debug_uart.c
#    Command line  =  
#        C:\Users\rgandhi\Desktop\BS_VRS\Firmware\Driver\DEBUG\debug_uart.c -lC
#        C:\Users\rgandhi\Desktop\BS_VRS\Firmware\Debug\List -lA
#        C:\Users\rgandhi\Desktop\BS_VRS\Firmware\Debug\List -o
#        C:\Users\rgandhi\Desktop\BS_VRS\Firmware\Debug\Obj --no_cse
#        --no_unroll --no_inline --no_code_motion --no_tbaa --debug
#        -D__MSP430F5438A__ -e --double=32 --dlib_config "C:\Program Files
#        (x86)\IAR Systems\Embedded Workbench 7.4\430\lib\dlib\dl430xlsfn.h" -I
#        C:\Users\rgandhi\Desktop\BS_VRS\Firmware\ -I
#        C:\Users\rgandhi\Desktop\BS_VRS\Firmware\Application\ -I
#        C:\Users\rgandhi\Desktop\BS_VRS\Firmware\Driver\ -I
#        C:\Users\rgandhi\Desktop\BS_VRS\Firmware\Protocol\ -I
#        C:\Users\rgandhi\Desktop\BS_VRS\Firmware\Processor\MSP430F5438A\ -I
#        C:\Users\rgandhi\Desktop\BS_VRS\Firmware\Processor\ -I
#        C:\Users\rgandhi\Desktop\BS_VRS\Firmware\Driver\ANALOG\ -I
#        C:\Users\rgandhi\Desktop\BS_VRS\Firmware\Driver\DIGITAL\ -I
#        C:\Users\rgandhi\Desktop\BS_VRS\Firmware\Driver\I2C\ -I
#        C:\Users\rgandhi\Desktop\BS_VRS\Firmware\Driver\SPI\ -I
#        C:\Users\rgandhi\Desktop\BS_VRS\Firmware\Driver\UART\ --core=430X
#        --data_model=small -On --multiplier=32 --hw_workaround=CPU40
#        --hw_workaround=nop_after_lpm --code_model=large
#    Locale        =  English_United States.1252
#    List file     =  
#        C:\Users\rgandhi\Desktop\BS_VRS\Firmware\Debug\List\debug_uart.lst
#    Object file   =  
#        C:\Users\rgandhi\Desktop\BS_VRS\Firmware\Debug\Obj\debug_uart.r43
#
###############################################################################

C:\Users\rgandhi\Desktop\BS_VRS\Firmware\Driver\DEBUG\debug_uart.c
      1          #include "debug_uart.h"
      2          #define UART_DEBUG
      3          
      4          #if defined (UART_DEBUG)
      5          #include "stdio.h"
      6          #endif
      7          
      8          #define DEBUG_DELAY_CYCLE_COUNT 100
      9          
     10          #if (DEBUG_FLAG == ON)
     11          
     12          void init_DebugUart()
     13          {
     14            init_UartAx(3);      // Debug Uart 
     15          }
     16          
     17          void Send_Msg(unsigned char *data, unsigned char length){
     18            unsigned char execution_count;
     19            unsigned char execution_flag = FALSE;
     20            for(execution_count = 0; execution_count < 10; execution_count ++){
     21              if(!(UCA1IFG & UCTXIFG)){
     22                execution_flag = TRUE;
     23                break;
     24              }
     25              else{
     26                __delay_cycles(DEBUG_DELAY_CYCLE_COUNT);
     27              }
     28            }
     29            
     30            if(execution_flag == TRUE)
     31            {
     32              unsigned char count;
     33              for(count = 0; count < length; count ++)
     34              {
     35                set_Uart_Tx_Data(DEBUG_UART,*data);
     36                *data++; 
     37              }
     38            }
     39            else
     40            {
     41              #if defined (UART_DEBUG)
     42                printf("Debug UART UCTXIFG Flag issue");
     43              #endif 
     44            }
     45          }
     46          
     47          void Receive_Msg(){
     48            
     49          }
     50           
     51          #endif


 

 


Errors: none
Warnings: none
