###############################################################################
#
# IAR C/C++ Compiler V6.50.4.971/W32 for MSP430           15/Mar/2018  17:42:31
# Copyright 1996-2016 IAR Systems AB.
# Network license: ENGENT (STD)
#
#    __rt_version  =  3
#    __double_size =  32
#    __reg_r4      =  free
#    __reg_r5      =  free
#    __pic         =  no
#    __core        =  430X
#    __data_model  =  small
#    __code_model  =  large
#    Source file   =  
#        C:\Users\rgandhi\Desktop\BS_VRS\Firmware\Application\main.c
#    Command line  =  
#        C:\Users\rgandhi\Desktop\BS_VRS\Firmware\Application\main.c -lC
#        C:\Users\rgandhi\Desktop\BS_VRS\Firmware\Debug\List -lA
#        C:\Users\rgandhi\Desktop\BS_VRS\Firmware\Debug\List -o
#        C:\Users\rgandhi\Desktop\BS_VRS\Firmware\Debug\Obj --no_cse
#        --no_unroll --no_inline --no_code_motion --no_tbaa --debug
#        -D__MSP430F5438A__ -e --double=32 --dlib_config "C:\Program Files
#        (x86)\IAR Systems\Embedded Workbench 7.4\430\lib\dlib\dl430xlsfn.h" -I
#        C:\Users\rgandhi\Desktop\BS_VRS\Firmware\ -I
#        C:\Users\rgandhi\Desktop\BS_VRS\Firmware\Application\ -I
#        C:\Users\rgandhi\Desktop\BS_VRS\Firmware\Driver\ -I
#        C:\Users\rgandhi\Desktop\BS_VRS\Firmware\Protocol\ -I
#        C:\Users\rgandhi\Desktop\BS_VRS\Firmware\Processor\MSP430F5438A\ -I
#        C:\Users\rgandhi\Desktop\BS_VRS\Firmware\Processor\ -I
#        C:\Users\rgandhi\Desktop\BS_VRS\Firmware\Driver\ANALOG\ -I
#        C:\Users\rgandhi\Desktop\BS_VRS\Firmware\Driver\DIGITAL\ -I
#        C:\Users\rgandhi\Desktop\BS_VRS\Firmware\Driver\I2C\ -I
#        C:\Users\rgandhi\Desktop\BS_VRS\Firmware\Driver\SPI\ -I
#        C:\Users\rgandhi\Desktop\BS_VRS\Firmware\Driver\UART\ --core=430X
#        --data_model=small -On --multiplier=32 --hw_workaround=CPU40
#        --hw_workaround=nop_after_lpm --code_model=large
#    Locale        =  English_United States.1252
#    List file     =  
#        C:\Users\rgandhi\Desktop\BS_VRS\Firmware\Debug\List\main.lst
#    Object file   =  
#        C:\Users\rgandhi\Desktop\BS_VRS\Firmware\Debug\Obj\main.r43
#
###############################################################################

C:\Users\rgandhi\Desktop\BS_VRS\Firmware\Application\main.c
      1          /***************************************************************************//**
      2          * FILE INCLUDES
      3          *******************************************************************************/
      4          #include "main.h" 
      5          //#define DEBUG_MAIN
      6          #if defined (DEBUG_MAIN)
      7            #include "stdio.h"
      8          #endif
      9          
     10          /***************************************************************************//**
     11           * FUNCTION DEFINATION
     12           ******************************************************************************/
     13          /***************************************************************************//**
     14           * @param Function      Init_PBC_Comm_Peripheral
     15           * @param Input         void
     16           * @param Return        void
     17           * @param Calling_Func  main.c
     18           * @param Description   This hardware dependant function used to transmit and receive
     19                                  date from UART
     20           ******************************************************************************/

   \                                 In  segment CODE, align 2
     21          void Init_PBC_Comm_Peripheral()
   \                     Init_PBC_Comm_Peripheral:
     22           {
     23             // Initialize UART<->RS485 Delta 
     24             Init_UartAx(0);                      
   \   000000   4C43         MOV.B   #0x0, R12
   \   000002   ........     BRA     #Init_UartAx
     25           }
     26          
     27          /***************************************************************************//**
     28           * @param Function      Init_Comm_Peripheral
     29           * @param Input         void
     30           * @param Return        void
     31           * @param Calling_Func  main.c
     32           * @param Description   This hardware dependant function used to initialize UART
     33                                  3rd party surge protection device
     34           ******************************************************************************/

   \                                 In  segment CODE, align 2
     35           void Init_Comm_Peripheral()
   \                     Init_Comm_Peripheral:
     36           {
     37             // Initialize UART<-RS485 from RC
     38             Init_UartAx(2);               
   \   000000   6C43         MOV.B   #0x2, R12
   \   000002   ........     BRA     #Init_UartAx
     39           }
     40          
     41          /***************************************************************************//**
     42           * @param Function      Init_Debug_peripheral
     43           * @param Input         void
     44           * @param Return        void
     45           * @param Calling_Func  Application.c
     46           * @param Description   This hardware dependant function used to initialize UART
     47                                  for 3rd party surge protection devices and PBC controller
     48           ******************************************************************************/

   \                                 In  segment CODE, align 2
     49          void Init_Debug_peripheral()
   \                     Init_Debug_peripheral:
     50          {
     51            // Initialize UART Delta debug 
     52            Init_UartAx(3);              
   \   000000   7C400300     MOV.B   #0x3, R12
   \   000004   ........     CALLA   #Init_UartAx
     53            // Initialize UART RC Debug    
     54            Init_UartAx(1);             
   \   000008   5C43         MOV.B   #0x1, R12
   \   00000A   ........     BRA     #Init_UartAx
     55          }
     56          
     57          /***************************************************************************//**
     58           * @param Function      main
     59           * @param Input         void
     60           * @param Return        void
     61           * @param Calling_Func  main.c
     62           * @param Description   This is primary function of the protocol. This function 
     63                                  will initialize hardware, software parameters and run in
     64                                  loop scanning for message from 3rd party surge protection 
     65                                  device and process commands to PBC controller
     66           ******************************************************************************/

   \                                 In  segment CODE, align 2
     67          void main(void)
   \                     main:
     68          {
     69            // Stop watchdog timer to prevent time out reset
     70            Stop_WatchDog_Timer();        
   \   000000   ........     CALLA   #Stop_WatchDog_Timer
     71            #if defined (DEBUG_MAIN)      
     72              printf("WDT DISABLED\n");
     73            #endif
     74            // Disable Global Interrupts
     75            __disable_interrupt();        
   \   000004   32C2         DINT
   \   000006   0343         NOP
     76              #if defined (DEBUG_MAIN)
     77              printf("INT DISABLED\n");
     78            #endif
     79            // Set Core voltage   
     80            SetVCore(2);                  
   \   000008   6C43         MOV.B   #0x2, R12
   \   00000A   ........     CALLA   #SetVCore
     81            #if defined (DEBUG_MAIN)
     82            printf("PWR UP\n");
     83            #endif
     84            // Initialize hardware IO to default/known state
     85            Init_Hardware();              
   \   00000E   ........     CALLA   #Init_Hardware
     86            #if defined (DEBUG_MAIN)
     87              printf("HW IO INIT\n");
     88            #endif  
     89            // Initialize system clocks
     90            Init_Sys_Clock();             
   \   000012   ........     CALLA   #Init_Sys_Clock
     91              #if defined (DEBUG_MAIN)
     92              printf("CLOCK SETUP\n");
     93            #endif
     94            // Setup debug port
     95            Init_Debug_peripheral();      
   \   000016   ........     CALLA   #Init_Debug_peripheral
     96            // Send hardware informaiton
     97            Send_UART_Debug_Info();        
   \   00001A   ........     CALLA   #Send_UART_Debug_Info
     98            // Set up peripherials UART 
     99            Init_PBC_Comm_Peripheral();   
   \   00001E   ........     CALLA   #Init_PBC_Comm_Peripheral
   \   000022   0343         NOP
    100            #if defined (DEBUG_MAIN)
    101              printf("PHER COMM INIT\n");
    102            #endif
    103            // Enable Global interrupts
    104            __enable_interrupt();         
   \   000024   32D2         EINT
    105            #if defined (DEBUG_MAIN)
    106              printf("INT ENABLED\n");
    107            #endif
    108            /* Ping the PBC controller/sec for 10min until the PBC controller is up 
    109              Initialized and ready to process commands */
    110            unsigned int startup_delay;
    111            for(startup_delay = 0; startup_delay < 600; startup_delay++)
   \   000026   0A43         MOV.W   #0x0, R10
   \                     ??main_0:
   \   000028   3A905802     CMP.W   #0x258, R10
   \   00002C   0D2C         JC      ??main_2
    112            {
    113              // Check if heartbeat message response received
    114              if(Process_PBC_HeartBeat_Message() == FALSE)
   \   00002E   ........     CALLA   #Process_PBC_HeartBeat_Message
   \   000032   4C93         CMP.B   #0x0, R12
   \   000034   0920         JNE     ??main_2
    115              {
    116                __delay_cycles(8000000);
   \   000036                ////////////// Start of 8000000 cycles delay.
   \   000036   3F407E84     MOV.W   #0x847e, R15
   \   00003A   3B401E00     MOV.W   #0x1e, R11
   \                     ??main_3:
   \   00003E   3F53         ADD.W   #0xffff, R15
   \   000040   3B63         ADDC.W  #0xffff, R11
   \   000042   FD2F         JC      ??main_3
   \   000044                ////////////// End of delay code.
    117              }
   \   000044   1A53         ADD.W   #0x1, R10
   \   000046   F03F         JMP     ??main_0
    118              else
    119              {
    120                break;
    121              }
    122            }
    123            // Reset all previous OVP data register 
    124            Setup_OVP_Register();   
   \                     ??main_2:
   \   000048   ........     CALLA   #Setup_OVP_Register
    125            // PBC Setup 
    126            Setup_PBC();
   \   00004C   ........     CALLA   #Setup_PBC
    127           
    128            //Set up peripherials UART
    129            Init_Comm_Peripheral();   
   \   000050   ........     CALLA   #Init_Comm_Peripheral
    130            // Initialize timer 
    131            Init_Timer();                 
   \   000054   ........     CALLA   #Init_Timer
    132            #if defined (DEBUG_MAIN)
    133              printf("TIMER SETUP\n");
    134            #endif
    135            // enter infinite loop, code will process any incoming commands from Surge protection device/
    136            while(1)
    137            {
    138              // Verify if end of message flag set
    139              unsigned char Rx_Message_Flag = Verify_OVP_Msg_End_Flag_Rx(); 
   \                     ??main_1:
   \   000058   ........     CALLA   #Verify_OVP_Msg_End_Flag_Rx
   \   00005C   4B4C         MOV.B   R12, R11
    140              unsigned char Heartbeat_Flag = Verify_Heartbeat_Flag();
   \   00005E   ........     CALLA   #Verify_Heartbeat_Flag
   \   000062   484C         MOV.B   R12, R8
    141              // Check if the Rx Message is Valid
    142              if (Rx_Message_Flag == 1) 
   \   000064   5B93         CMP.B   #0x1, R11
   \   000066   0320         JNE     ??main_4
    143              {
    144                Process_OVP_Message();
   \   000068   ........     CALLA   #Process_OVP_Message
   \   00006C   F53F         JMP     ??main_1
    145              }
    146              else if (Heartbeat_Flag == 1)
   \                     ??main_4:
   \   00006E   5893         CMP.B   #0x1, R8
   \   000070   0320         JNE     ??main_5
    147              {
    148                Process_PBC_HeartBeat_Message();
   \   000072   ........     CALLA   #Process_PBC_HeartBeat_Message
   \   000076   F03F         JMP     ??main_1
    149              }
    150              // else if invalid or incomplete message received 
    151              else 
    152              {
    153                // LPM0;
    154                // No operation
    155                __no_operation();
   \                     ??main_5:
   \   000078   0343         NOP
   \   00007A   EE3F         JMP     ??main_1
   \   00007C   0343         NOP
    156              }
    157            }
    158          }
    159          /***************************************************************************//**
    160           *                         End of Function
    161           ******************************************************************************/

   Maximum stack usage in bytes:

   CSTACK Function
   ------ --------
      4   Init_Comm_Peripheral
        0   -> Init_UartAx
      4   Init_Debug_peripheral
        0   -> Init_UartAx
        4   -> Init_UartAx
      4   Init_PBC_Comm_Peripheral
        0   -> Init_UartAx
      4   main
        4   -> Init_Comm_Peripheral
        4   -> Init_Debug_peripheral
        4   -> Init_Hardware
        4   -> Init_PBC_Comm_Peripheral
        4   -> Init_Sys_Clock
        4   -> Init_Timer
        4   -> Process_OVP_Message
        4   -> Process_PBC_HeartBeat_Message
        4   -> Send_UART_Debug_Info
        4   -> SetVCore
        4   -> Setup_OVP_Register
        4   -> Setup_PBC
        4   -> Stop_WatchDog_Timer
        4   -> Verify_Heartbeat_Flag
        4   -> Verify_OVP_Msg_End_Flag_Rx


   Segment part sizes:

   Bytes  Function/Label
   -----  --------------
       6  Init_Comm_Peripheral
      14  Init_Debug_peripheral
       6  Init_PBC_Comm_Peripheral
     126  main

 
 152 bytes in segment CODE
 
 152 bytes of CODE memory

Errors: none
Warnings: none
