G75*
%MOIN*%
%OFA0B0*%
%FSLAX25Y25*%
%IPPOS*%
%LPD*%
%AMOC8*
5,1,8,0,0,1.08239X$1,22.5*
%
%ADD10C,0.00500*%
%ADD11C,0.00800*%
D10*
X0070500Y0023900D02*
X0074000Y0027900D01*
X0074000Y0019900D01*
X0070500Y0023900D01*
X0075689Y0019904D02*
X0075689Y0082896D01*
X0120965Y0082896D01*
X0120965Y0019904D01*
X0075689Y0019904D01*
X0118996Y0019904D02*
X0130807Y0019904D01*
X0130807Y0082896D01*
X0087500Y0082896D01*
D11*
X0115455Y0061109D02*
X0116156Y0061809D01*
X0117557Y0061809D01*
X0118258Y0061109D01*
X0118258Y0059007D01*
X0119659Y0059007D02*
X0115455Y0059007D01*
X0115455Y0061109D01*
X0118258Y0060408D02*
X0119659Y0061809D01*
X0119659Y0057205D02*
X0119659Y0054403D01*
X0115455Y0054403D01*
X0115455Y0057205D01*
X0117557Y0055804D02*
X0117557Y0054403D01*
X0116156Y0052602D02*
X0115455Y0051901D01*
X0115455Y0049799D01*
X0119659Y0049799D01*
X0119659Y0051901D01*
X0118958Y0052602D01*
X0116156Y0052602D01*
X0116857Y0047998D02*
X0119659Y0047998D01*
X0117557Y0047998D02*
X0117557Y0045195D01*
X0116857Y0045195D02*
X0115455Y0046596D01*
X0116857Y0047998D01*
X0116857Y0045195D02*
X0119659Y0045195D01*
X0119659Y0043394D02*
X0119659Y0040591D01*
X0115455Y0040591D01*
X0115455Y0043394D01*
X0117557Y0041993D02*
X0117557Y0040591D01*
X0117557Y0038790D02*
X0117557Y0035987D01*
X0119659Y0035987D02*
X0115455Y0035987D01*
X0115455Y0038790D02*
X0119659Y0038790D01*
X0123329Y0039457D02*
X0127533Y0039457D01*
X0127533Y0041258D02*
X0124731Y0041258D01*
X0123329Y0042659D01*
X0124731Y0044061D01*
X0127533Y0044061D01*
X0125431Y0044061D02*
X0125431Y0041258D01*
X0123329Y0039457D02*
X0124731Y0038056D01*
X0123329Y0036654D01*
X0127533Y0036654D01*
X0123329Y0045862D02*
X0123329Y0048665D01*
X0123329Y0050466D02*
X0127533Y0050466D01*
X0127533Y0053269D01*
X0125431Y0051867D02*
X0125431Y0050466D01*
X0123329Y0050466D02*
X0123329Y0053269D01*
X0123329Y0047263D02*
X0127533Y0047263D01*
X0119659Y0014565D02*
X0119659Y0011763D01*
X0119659Y0013164D02*
X0115455Y0013164D01*
X0116857Y0011763D01*
X0115455Y0009961D02*
X0115455Y0008560D01*
X0115455Y0009261D02*
X0118958Y0009261D01*
X0119659Y0008560D01*
X0119659Y0007860D01*
X0118958Y0007159D01*
M02*
