G75*
%MOIN*%
%OFA0B0*%
%FSLAX25Y25*%
%IPPOS*%
%LPD*%
%AMOC8*
5,1,8,0,0,1.08239X$1,22.5*
%
%ADD10C,0.05556*%
%ADD11R,0.06737X0.06737*%
%ADD12OC8,0.06737*%
%ADD13C,0.01135*%
D10*
X0083563Y0027778D03*
X0091437Y0027778D03*
X0091437Y0035652D03*
X0083563Y0035652D03*
X0083563Y0043526D03*
X0091437Y0043526D03*
X0091437Y0051400D03*
X0083563Y0051400D03*
X0083563Y0059274D03*
X0091437Y0059274D03*
X0091437Y0067148D03*
X0083563Y0067148D03*
X0083563Y0075022D03*
X0091437Y0075022D03*
D11*
X0028500Y0081400D03*
D12*
X0018500Y0021400D03*
X0028500Y0021400D03*
X0028500Y0031400D03*
X0018500Y0031400D03*
X0018500Y0041400D03*
X0028500Y0041400D03*
X0028500Y0051400D03*
X0018500Y0051400D03*
X0018500Y0061400D03*
X0028500Y0061400D03*
X0028500Y0071400D03*
X0018500Y0071400D03*
X0018500Y0081400D03*
D13*
X0050147Y0080599D02*
X0053553Y0080599D01*
X0050147Y0080599D02*
X0050147Y0084201D01*
X0053553Y0084201D01*
X0053553Y0080599D01*
X0053553Y0081733D02*
X0050147Y0081733D01*
X0050147Y0082867D02*
X0053553Y0082867D01*
X0053553Y0084001D02*
X0050147Y0084001D01*
X0056447Y0080599D02*
X0059853Y0080599D01*
X0056447Y0080599D02*
X0056447Y0084201D01*
X0059853Y0084201D01*
X0059853Y0080599D01*
X0059853Y0081733D02*
X0056447Y0081733D01*
X0056447Y0082867D02*
X0059853Y0082867D01*
X0059853Y0084001D02*
X0056447Y0084001D01*
X0066801Y0084253D02*
X0066801Y0080847D01*
X0063199Y0080847D01*
X0063199Y0084253D01*
X0066801Y0084253D01*
X0066801Y0081981D02*
X0063199Y0081981D01*
X0063199Y0083115D02*
X0066801Y0083115D01*
X0066801Y0084249D02*
X0063199Y0084249D01*
X0066801Y0077953D02*
X0066801Y0074547D01*
X0063199Y0074547D01*
X0063199Y0077953D01*
X0066801Y0077953D01*
X0066801Y0075681D02*
X0063199Y0075681D01*
X0063199Y0076815D02*
X0066801Y0076815D01*
X0066801Y0077949D02*
X0063199Y0077949D01*
X0059853Y0074599D02*
X0056447Y0074599D01*
X0056447Y0078201D01*
X0059853Y0078201D01*
X0059853Y0074599D01*
X0059853Y0075733D02*
X0056447Y0075733D01*
X0056447Y0076867D02*
X0059853Y0076867D01*
X0059853Y0078001D02*
X0056447Y0078001D01*
X0053553Y0074599D02*
X0050147Y0074599D01*
X0050147Y0078201D01*
X0053553Y0078201D01*
X0053553Y0074599D01*
X0053553Y0075733D02*
X0050147Y0075733D01*
X0050147Y0076867D02*
X0053553Y0076867D01*
X0053553Y0078001D02*
X0050147Y0078001D01*
M02*
