G75*
%MOIN*%
%OFA0B0*%
%FSLAX25Y25*%
%IPPOS*%
%LPD*%
%AMOC8*
5,1,8,0,0,1.08239X$1,22.5*
%
%ADD10C,0.00935*%
D10*
X0050447Y0074899D02*
X0053253Y0074899D01*
X0050447Y0074899D02*
X0050447Y0077901D01*
X0053253Y0077901D01*
X0053253Y0074899D01*
X0053253Y0075833D02*
X0050447Y0075833D01*
X0050447Y0076767D02*
X0053253Y0076767D01*
X0053253Y0077701D02*
X0050447Y0077701D01*
X0050447Y0080899D02*
X0053253Y0080899D01*
X0050447Y0080899D02*
X0050447Y0083901D01*
X0053253Y0083901D01*
X0053253Y0080899D01*
X0053253Y0081833D02*
X0050447Y0081833D01*
X0050447Y0082767D02*
X0053253Y0082767D01*
X0053253Y0083701D02*
X0050447Y0083701D01*
X0056747Y0080899D02*
X0059553Y0080899D01*
X0056747Y0080899D02*
X0056747Y0083901D01*
X0059553Y0083901D01*
X0059553Y0080899D01*
X0059553Y0081833D02*
X0056747Y0081833D01*
X0056747Y0082767D02*
X0059553Y0082767D01*
X0059553Y0083701D02*
X0056747Y0083701D01*
X0056747Y0074899D02*
X0059553Y0074899D01*
X0056747Y0074899D02*
X0056747Y0077901D01*
X0059553Y0077901D01*
X0059553Y0074899D01*
X0059553Y0075833D02*
X0056747Y0075833D01*
X0056747Y0076767D02*
X0059553Y0076767D01*
X0059553Y0077701D02*
X0056747Y0077701D01*
X0066501Y0077653D02*
X0066501Y0074847D01*
X0063499Y0074847D01*
X0063499Y0077653D01*
X0066501Y0077653D01*
X0066501Y0075781D02*
X0063499Y0075781D01*
X0063499Y0076715D02*
X0066501Y0076715D01*
X0066501Y0077649D02*
X0063499Y0077649D01*
X0066501Y0081147D02*
X0066501Y0083953D01*
X0066501Y0081147D02*
X0063499Y0081147D01*
X0063499Y0083953D01*
X0066501Y0083953D01*
X0066501Y0082081D02*
X0063499Y0082081D01*
X0063499Y0083015D02*
X0066501Y0083015D01*
X0066501Y0083949D02*
X0063499Y0083949D01*
M02*
