###############################################################################
#
# IAR C/C++ Compiler V6.50.4.971/W32 for MSP430           12/Jan/2017  17:21:13
# Copyright 1996-2016 IAR Systems AB.
# Network license: ENGENT (STD)
#
#    __rt_version  =  3
#    __double_size =  32
#    __reg_r4      =  free
#    __reg_r5      =  free
#    __pic         =  no
#    __core        =  430X
#    __data_model  =  small
#    __code_model  =  large
#    Source file   =  
#        C:\Program Files (x86)\IAR Systems\Embedded Workbench
#        7.4\430\bin\_ulp.c
#    Command line  =  
#        "C:\Program Files (x86)\IAR Systems\Embedded Workbench
#        7.4\430\bin\_ulp.c" -lC
#        C:\Users\rgandhi\Desktop\BS_VRS\Firmware\Debug\List -lA
#        C:\Users\rgandhi\Desktop\BS_VRS\Firmware\Debug\List -o
#        C:\Users\rgandhi\Desktop\BS_VRS\Firmware --no_cse --no_unroll
#        --no_inline --no_code_motion --no_tbaa --debug -D__MSP430F5438A__ -e
#        --double=32 --dlib_config "C:\Program Files (x86)\IAR Systems\Embedded
#        Workbench 7.4\430\lib\dlib\dl430xlsfn.h" -I
#        C:\Users\rgandhi\Desktop\BS_VRS\Firmware -I
#        C:\Users\rgandhi\Desktop\BS_VRS\Firmware\Application -I
#        C:\Users\rgandhi\Desktop\BS_VRS\Firmware\Driver -I
#        C:\Users\rgandhi\Desktop\BS_VRS\Firmware\Protocol -I
#        C:\Users\rgandhi\Desktop\BS_VRS\Firmware\Processor\MSP430F5438A -I
#        C:\Users\rgandhi\Desktop\BS_VRS\Firmware\Processor -I
#        C:\Users\rgandhi\Desktop\BS_VRS\Firmware\Driver\ANALOG -I
#        C:\Users\rgandhi\Desktop\BS_VRS\Firmware\Driver\DIGITAL -I
#        C:\Users\rgandhi\Desktop\BS_VRS\Firmware\Driver\I2C -I
#        C:\Users\rgandhi\Desktop\BS_VRS\Firmware\Driver\SPI -I
#        C:\Users\rgandhi\Desktop\BS_VRS\Firmware\Driver\UART --core=430X
#        --data_model=small -On --multiplier=32 --hw_workaround=CPU40
#        --hw_workaround=nop_after_lpm --code_model=large --predef_macros
#        C:\Users\rgandhi\Desktop\BS_VRS\Firmware\IAR_ULPAdvisor_Defs.h
#    Locale        =  English_United States.1252
#    List file     =  
#        C:\Users\rgandhi\Desktop\BS_VRS\Firmware\Debug\List\_ulp.lst
#    Object file   =  C:\Users\rgandhi\Desktop\BS_VRS\Firmware\_ulp.r43
#
###############################################################################


   \                                 In  segment CODE, align 2
C:\Program Files (x86)\IAR Systems\Embedded Workbench 7.4\430\bin\_ulp.c
      1          int main(void)
   \                     main:
      2          {
      3          }
   \   000000   0C43         MOV.W   #0x0, R12
   \   000002   1001         RETA

   Maximum stack usage in bytes:

   CSTACK Function
   ------ --------
      4   main


   Segment part sizes:

   Bytes  Function/Label
   -----  --------------
       4  main

 
 4 bytes in segment CODE
 
 4 bytes of CODE memory

Errors: none
Warnings: none
