###############################################################################
#
# IAR C/C++ Compiler V6.50.4.971/W32 for MSP430           04/Jan/2018  14:15:00
# Copyright 1996-2016 IAR Systems AB.
# Network license: ENGENT (STD)
#
#    __rt_version  =  3
#    __double_size =  32
#    __reg_r4      =  free
#    __reg_r5      =  free
#    __pic         =  no
#    __core        =  430X
#    __data_model  =  small
#    __code_model  =  large
#    Source file   =  
#        C:\Users\rgandhi\Desktop\BS_VRS\Firmware_Delta_Demo_092917\Firmware\Application\main.c
#    Command line  =  
#        C:\Users\rgandhi\Desktop\BS_VRS\Firmware_Delta_Demo_092917\Firmware\Application\main.c
#        -lC
#        C:\Users\rgandhi\Desktop\BS_VRS\Firmware_Delta_Demo_092917\Firmware\Debug\List
#        -lA
#        C:\Users\rgandhi\Desktop\BS_VRS\Firmware_Delta_Demo_092917\Firmware\Debug\List
#        -o
#        C:\Users\rgandhi\Desktop\BS_VRS\Firmware_Delta_Demo_092917\Firmware\Debug\Obj
#        --no_cse --no_unroll --no_inline --no_code_motion --no_tbaa --debug
#        -D__MSP430F5438A__ -e --double=32 --dlib_config "C:\Program Files
#        (x86)\IAR Systems\Embedded Workbench 7.4\430\lib\dlib\dl430xlsfn.h" -I
#        C:\Users\rgandhi\Desktop\BS_VRS\Firmware_Delta_Demo_092917\Firmware\
#        -I
#        C:\Users\rgandhi\Desktop\BS_VRS\Firmware_Delta_Demo_092917\Firmware\Application\
#        -I
#        C:\Users\rgandhi\Desktop\BS_VRS\Firmware_Delta_Demo_092917\Firmware\Driver\
#        -I
#        C:\Users\rgandhi\Desktop\BS_VRS\Firmware_Delta_Demo_092917\Firmware\Protocol\
#        -I
#        C:\Users\rgandhi\Desktop\BS_VRS\Firmware_Delta_Demo_092917\Firmware\Processor\MSP430F5438A\
#        -I
#        C:\Users\rgandhi\Desktop\BS_VRS\Firmware_Delta_Demo_092917\Firmware\Processor\
#        -I
#        C:\Users\rgandhi\Desktop\BS_VRS\Firmware_Delta_Demo_092917\Firmware\Driver\ANALOG\
#        -I
#        C:\Users\rgandhi\Desktop\BS_VRS\Firmware_Delta_Demo_092917\Firmware\Driver\DIGITAL\
#        -I
#        C:\Users\rgandhi\Desktop\BS_VRS\Firmware_Delta_Demo_092917\Firmware\Driver\I2C\
#        -I
#        C:\Users\rgandhi\Desktop\BS_VRS\Firmware_Delta_Demo_092917\Firmware\Driver\SPI\
#        -I
#        C:\Users\rgandhi\Desktop\BS_VRS\Firmware_Delta_Demo_092917\Firmware\Driver\UART\
#        --core=430X --data_model=small -On --multiplier=32
#        --hw_workaround=CPU40 --hw_workaround=nop_after_lpm --code_model=large
#    Locale        =  English_United States.1252
#    List file     =  
#        C:\Users\rgandhi\Desktop\BS_VRS\Firmware_Delta_Demo_092917\Firmware\Debug\List\main.lst
#    Object file   =  
#        C:\Users\rgandhi\Desktop\BS_VRS\Firmware_Delta_Demo_092917\Firmware\Debug\Obj\main.r43
#
###############################################################################

C:\Users\rgandhi\Desktop\BS_VRS\Firmware_Delta_Demo_092917\Firmware\Application\main.c
      1          
      2          //#include "io430.h"
      3          #include "main.h" 
      4          //#define DEBUG_MAIN
      5          #if defined (DEBUG_MAIN)
      6            #include "stdio.h"
      7          #endif
      8          
      9          #define APPLICATION_COMPANY     "JMA WIRELESS"
                         ^
Warning[Pe047]: incompatible redefinition of macro "APPLICATION_COMPANY"
          (declared at line 9)
     10          #define APPLICATION_HW_VERSION  "1.0.0"
                         ^
Warning[Pe047]: incompatible redefinition of macro "APPLICATION_HW_VERSION"
          (declared at line 10)
     11          #define APPLICATION_SW_VERSION  "1.0.0"
                         ^
Warning[Pe047]: incompatible redefinition of macro "APPLICATION_SW_VERSION"
          (declared at line 11)
     12          

   \                                 In  segment CODE, align 2
     13           void init_PSU_Comm_Peripheral()
   \                     init_PSU_Comm_Peripheral:
     14           {
     15             init_UartAx(0);              // UART<->RS485 Delta        
   \   000000   4C43         MOV.B   #0x0, R12
   \   000002   ........     CALLA   #init_UartAx
     16             init_UartAx(3);              // UART Delta debug   
   \   000006   7C400300     MOV.B   #0x3, R12
   \   00000A   ........     BRA     #init_UartAx
     17           }
     18          

   \                                 In  segment CODE, align 2
     19           void init_Comm_Peripheral()
   \                     init_Comm_Peripheral:
     20           {
     21             init_UartAx(1);              // UART RC Debug 
   \   000000   5C43         MOV.B   #0x1, R12
   \   000002   ........     CALLA   #init_UartAx
     22             init_UartAx(2);              // UART<-RS485 from RC 
   \   000006   6C43         MOV.B   #0x2, R12
   \   000008   ........     BRA     #init_UartAx
     23           }
     24          

   \                                 In  segment CODE, align 2
     25          void main( void )
   \                     main:
     26          {
     27            // Stop watchdog timer to prevent time out reset
     28            Stop_WatchDog_Timer();
   \   000000   ........     CALLA   #Stop_WatchDog_Timer
     29            #if defined (DEBUG_MAIN)
     30              printf("WDT DISABLED\n");
     31            #endif
     32            // Disable Global Interrupts
     33            __disable_interrupt();
   \   000004   32C2         DINT
   \   000006   0343         NOP
     34              #if defined (DEBUG_MAIN)
     35              printf("INT DISABLED\n");
     36            #endif
     37            // Set Core voltage 
     38            SetVCore(2);
   \   000008   6C43         MOV.B   #0x2, R12
   \   00000A   ........     CALLA   #SetVCore
     39            #if defined (DEBUG_MAIN)
     40            printf("PWR UP\n");
     41            #endif
     42            // Initialize hardware IO to default/known state
     43            init_Hardware(); 
   \   00000E   ........     CALLA   #init_Hardware
     44            #if defined (DEBUG_MAIN)
     45              printf("HW IO INIT\n");
     46            #endif  
     47            // Initialize system clocks
     48            init_sys_clock();
   \   000012   ........     CALLA   #init_sys_clock
     49              #if defined (DEBUG_MAIN)
     50              printf("CLOCK SETUP\n");
     51            #endif
     52          
     53            // Set up peripherials UART
     54            init_PSU_Comm_Peripheral();
   \   000016   ........     CALLA   #init_PSU_Comm_Peripheral
   \   00001A   0343         NOP
     55            
     56            #if defined (DEBUG_MAIN)
     57              printf("PHER COMM INIT\n");
     58            #endif
     59            // Initialize software parameters
     60            //  init_Protocol();
     61            // Enable Global interrupts
     62            __enable_interrupt();
   \   00001C   32D2         EINT
     63            #if defined (DEBUG_MAIN)
     64              printf("INT ENABLED\n");
     65            #endif
     66            unsigned int startup_delay;
     67            for(startup_delay = 0; startup_delay < 500; startup_delay++)
   \   00001E   0A43         MOV.W   #0x0, R10
   \                     ??main_0:
   \   000020   3A90F401     CMP.W   #0x1f4, R10
   \   000024   0D2C         JC      ??main_2
     68            {
     69              if(process_HeartBeat_Message() == FALSE)
   \   000026   ........     CALLA   #process_HeartBeat_Message
   \   00002A   4C93         CMP.B   #0x0, R12
   \   00002C   0920         JNE     ??main_2
     70              {
     71                __delay_cycles(5000000);
   \   00002E                ////////////// Start of 5000000 cycles delay.
   \   00002E   3F40CE12     MOV.W   #0x12ce, R15
   \   000032   3B401300     MOV.W   #0x13, R11
   \                     ??main_3:
   \   000036   3F53         ADD.W   #0xffff, R15
   \   000038   3B63         ADDC.W  #0xffff, R11
   \   00003A   FD2F         JC      ??main_3
   \   00003C                ////////////// End of delay code.
     72              }
   \   00003C   1A53         ADD.W   #0x1, R10
   \   00003E   F03F         JMP     ??main_0
     73              else
     74              {
     75                break;
     76              }
     77            }
     78            
     79            #if defined (DEBUG_MAIN)
     80              printf("TIMER SETUP\n");
     81            #endif
     82            // Reset all the previous data 
     83            setup_OVP_Register();
   \                     ??main_2:
   \   000040   ........     CALLA   #setup_OVP_Register
     84            // Initialize PSU to know Setpoint
     85            Setup_PSU();
   \   000044   ........     CALLA   #Setup_PSU
     86            //Set up peripherials UART
     87            init_Comm_Peripheral();
   \   000048   ........     CALLA   #init_Comm_Peripheral
     88            // Initialize timer 
     89            init_Timer();
   \   00004C   ........     CALLA   #init_Timer
     90            
     91            while(1)
     92            {
     93              // Verify if end of message flag set
     94              unsigned char Rx_Message_Flag = verify_Msg_End_Flag_Rx(); 
   \                     ??main_1:
   \   000050   ........     CALLA   #verify_Msg_End_Flag_Rx
   \   000054   4B4C         MOV.B   R12, R11
     95              unsigned char Heartbeat_Flag = verify_Heartbeat_Flag();
   \   000056   ........     CALLA   #verify_Heartbeat_Flag
   \   00005A   484C         MOV.B   R12, R8
     96              // Check if the Rx Message is Valid
     97              if (Rx_Message_Flag == 1) 
   \   00005C   5B93         CMP.B   #0x1, R11
   \   00005E   0320         JNE     ??main_4
     98              {
     99                process_Message();
   \   000060   ........     CALLA   #process_Message
   \   000064   F53F         JMP     ??main_1
    100              }
    101              else if (Heartbeat_Flag == 1)
   \                     ??main_4:
   \   000066   5893         CMP.B   #0x1, R8
   \   000068   0320         JNE     ??main_5
    102              {
    103                process_HeartBeat_Message();
   \   00006A   ........     CALLA   #process_HeartBeat_Message
   \   00006E   F03F         JMP     ??main_1
    104              }
    105              // else if invalid or incomplete message received 
    106              else 
    107              {
    108                // LPM0;
    109                // No operation
    110                __no_operation();
   \                     ??main_5:
   \   000070   0343         NOP
   \   000072   EE3F         JMP     ??main_1
   \   000074   0343         NOP
    111              }
    112            }
    113          }

   Maximum stack usage in bytes:

   CSTACK Function
   ------ --------
      4   init_Comm_Peripheral
        0   -> init_UartAx
        4   -> init_UartAx
      4   init_PSU_Comm_Peripheral
        0   -> init_UartAx
        4   -> init_UartAx
      4   main
        4   -> SetVCore
        4   -> Setup_PSU
        4   -> Stop_WatchDog_Timer
        4   -> init_Comm_Peripheral
        4   -> init_Hardware
        4   -> init_PSU_Comm_Peripheral
        4   -> init_Timer
        4   -> init_sys_clock
        4   -> process_HeartBeat_Message
        4   -> process_Message
        4   -> setup_OVP_Register
        4   -> verify_Heartbeat_Flag
        4   -> verify_Msg_End_Flag_Rx


   Segment part sizes:

   Bytes  Function/Label
   -----  --------------
      12  init_Comm_Peripheral
      14  init_PSU_Comm_Peripheral
     118  main

 
 144 bytes in segment CODE
 
 144 bytes of CODE memory

Errors: none
Warnings: 3
