
A5:5A:20:1D:20:E2:20:E3:20:E1:02:4C:00:00:00:00:00:00:00:00:00:00:00:00:00:00:00:00:90
A5:5A:20:1D:20:E2:20:E3:20:E1:02:4C:00:00:00:00:00:00:00:00:00:00:00:00:00:00:00:00:90
A5:5A:20:1D:20:E6:20:E7:20:E5:02:56:00:00:00:00:00:00:00:00:00:00:00:00:00:00:00:00:A6
A5:5A:20:1D:20:E9:20:EA:20:E8:02:60:00:00:00:00:00:00:00:00:00:00:00:00:00:00:00:00:B9
A5:5A:20:1D:20:ED:20:EE:20:EC:02:6B:00:00:00:00:00:00:00:00:00:00:00:00:00:00:00:00:D0
A5:5A:20:1D:20:F1:20:F2:20:F0:02:74:00:00:00:00:00:00:00:00:00:00:00:00:00:00:00:00:E5
A5:5A:20:1D:20:F5:20:F6:20:F4:02:7E:00:00:00:00:00:00:00:00:00:00:00:00:00:00:00:00:FB
A5:5A:20:1D:20:F9:20:FA:20:F8:02:88:00:00:00:00:00:00:00:00:00:00:00:00:00:00:00:00:11
A5:5A:20:1D:20:FD:20:FE:20:FB:02:92:00:00:00:00:00:00:00:00:00:00:00:00:00:00:00:00:26
A5:5A:20:1D:21:00:21:01:20:FF:02:9D:00:00:00:00:00:00:00:00:00:00:00:00:00:00:00:00:3D
A5:5A:20:1D:21:05:21:05:21:03:02:A7:00:00:00:00:00:00:00:00:00:00:00:00:00:00:00:00:55
A5:5A:20:1D:21:08:21:0A:21:07:02:B1:00:00:00:00:00:00:00:00:00:00:00:00:00:00:00:00:6B
A5:5A:20:1D:21:0C:21:0D:21:0B:02:BB:00:00:00:00:00:00:00:00:00:00:00:00:00:00:00:00:80
A5:5A:20:1D:21:10:21:11:21:0F:02:C5:00:00:00:00:00:00:00:00:00:00:00:00:00:00:00:00:96
A5:5A:20:1D:21:14:21:15:21:13:02:CF:00:00:00:00:00:00:00:00:00:00:00:00:00:00:00:00:AC
A5:5A:20:1D:21:18:21:19:21:17:02:D9:00:00:00:00:00:00:00:00:00:00:00:00:00:00:00:00:C2
A5:5A:20:1D:21:1B:21:1C:21:1A:02:E0:00:00:00:00:00:00:00:00:00:00:00:00:00:00:00:00:D2
A5:5A:20:1D:21:1A:21:1B:21:1A:02:DF:00:00:00:00:00:00:00:00:00:00:00:00:00:00:00:00:CF
A5:5A:20:1D:21:1B:21:1C:21:1A:02:E0:00:00:00:00:00:00:00:00:00:00:00:00:00:00:00:00:D2
A5:5A:20:1D:21:1B:21:1C:21:1A:02:E0:00:00:00:00:00:00:00:00:00:00:00:00:00:00:00:00:D2
A5:5A:20:1D:21:1A:21:1C:21:19:02:DF:00:00:00:00:00:00:00:00:00:00:00:00:00:00:00:00:CF
A5:5A:20:1D:21:1A:21:1B:21:18:02:DE:00:00:00:00:00:00:00:00:00:00:00:00:00:00:00:00:CC
A5:5A:20:1D:21:1A:21:1B:21:19:02:DE:00:00:00:00:00:00:00:00:00:00:00:00:00:00:00:00:CD
A5:5A:20:1D:21:19:21:1A:21:18:02:DE:00:00:00:00:00:00:00:00:00:00:00:00:00:00:00:00:CA
A5:5A:20:1D:21:1A:21:1B:21:18:02:DE:00:00:00:00:00:00:00:00:00:00:00:00:00:00:00:00:CC
A5:5A:20:1D:21:1A:21:1B:21:19:02:DF:00:00:00:00:00:00:00:00:00:00:00:00:00:00:00:00:CE
A5:5A:20:1D:21:1A:21:1B:21:19:02:DF:00:00:00:00:00:00:00:00:00:00:00:00:00:00:00:00:CE
A5:5A:20:1D:21:1A:21:1B:21:18:02:DE:00:00:00:00:00:00:00:00:00:00:00:00:00:00:00:00:CC
A5:5A:20:1D:21:19:21:1A:21:18:02:DE:00:00:00:00:00:00:00:00:00:00:00:00:00:00:00:00:CA
A5:5A:20:1D:21:19:21:1B:21:18:02:DE:00:00:00:00:00:00:00:00:00:00:00:00:00:00:00:00:CB
A5:5A:20:1D:21:19:21:1A:21:18:02:DE:00:00:00:00:00:00:00:00:00:00:00:00:00:00:00:00:CA
A5:5A:20:1D:21:1A:21:1B:21:18:02:DE:00:00:00:00:00:00:00:00:00:00:00:00:00:00:00:00:CC
A5:5A:20:1D:21:19:21:1B:21:18:02:DE:00:00:00:00:00:00:00:00:00:00:00:00:00:00:00:00:CB
A5:5A:20:1D:21:19:21:1A:21:18:02:DE:00:00:00:00:00:00:00:00:00:00:00:00:00:00:00:00:CA
A5:5A:20:1D:21:19:21:1A:21:18:02:DE:00:00:00:00:00:00:00:00:00:00:00:00:00:00:00:00:CA
A5:5A:20:1D:21:1A:21:1B:21:18:02:DE:00:00:00:00:00:00:00:00:00:00:00:00:00:00:00:00:CC
A5:5A:20:1D:20:C8:20:C8:20:C6:02:07:00:00:00:00:00:00:00:00:00:00:00:00:00:00:00:00:FB
A5:5A:20:1D:20:C8:20:C8:20:C6:02:07:00:00:00:00:00:00:00:00:00:00:00:00:00:00:00:00:FB
A5:5A:20:1D:20:C8:20:C8:20:C6:02:07:00:00:00:00:00:00:00:00:00:00:00:00:00:00:00:00:FB
A5:5A:20:1D:20:C7:20:C8:20:C6:02:07:00:00:00:00:00:00:00:00:00:00:00:00:00:00:00:00:FA
A5:5A:20:1D:20:C8:20:C8:20:C6:02:07:00:00:00:00:00:00:00:00:00:00:00:00:00:00:00:00:FB
A5:5A:20:1D:20:C8:20:C8:20:C6:02:07:00:00:00:00:00:00:00:00:00:00:00:00:00:00:00:00:FB
A5:5A:20:1D:20:C8:20:C8:20:C6:02:07:00:00:00:00:00:00:00:00:00:00:00:00:00:00:00:00:FB
A5:5A:20:1D:20:C8:20:C8:20:C6:02:07:00:00:00:00:00:00:00:00:00:00:00:00:00:00:00:00:FB
A5:5A:20:1D:20:C8:20:C8:20:C6:02:07:00:00:00:00:00:00:00:00:00:00:00:00:00:00:00:00:FB
A5:5A:20:1D:20:C8:20:C8:20:C6:02:06:00:00:00:00:00:00:00:00:00:00:00:00:00:00:00:00:FA
A5:5A:20:1D:20:C8:20:C8:20:C6:02:07:00:00:00:00:00:00:00:00:00:00:00:00:00:00:00:00:FB
A5:5A:20:1D:20:C8:20:C8:20:C6:02:07:00:00:00:00:00:00:00:00:00:00:00:00:00:00:00:00:FB
A5:5A:20:1D:20:C8:20:C8:20:C6:02:07:00:00:00:00:00:00:00:00:00:00:00:00:00:00:00:00:FB
A5:5A:20:1D:20:C8:20:C8:20:C6:02:07:00:00:00:00:00:00:00:00:00:00:00:00:00:00:00:00:FB
A5:5A:20:1D:20:C8:20:C8:20:C6:02:07:00:00:00:00:00:00:00:00:00:00:00:00:00:00:00:00:FB
A5:5A:20:1D:20:C7:20:C8:20:C6:02:07:00:00:00:00:00:00:00:00:00:00:00:00:00:00:00:00:FA
A5:5A:20:1D:20:C8:20:C8:20:C6:02:06:00:00:00:00:00:00:00:00:00:00:00:00:00:00:00:00:FA
A5:5A:20:1D:20:C8:20:C8:20:C6:02:06:00:00:00:00:00:00:00:00:00:00:00:00:00:00:00:00:FA
A5:5A:20:1D:20:C7:20:C8:20:C6:02:06:00:00:00:00:00:00:00:00:00:00:00:00:00:00:00:00:F9
A5:5A:20:1D:20:C7:20:C8:20:C6:02:06:00:00:00:00:00:00:00:00:00:00:00:00:00:00:00:00:F9
A5:5A:20:1D:20:C8:20:C8:20:C6:02:07:00:00:00:00:00:00:00:00:00:00:00:00:00:00:00:00:FB
A5:5A:20:1D:20:C8:20:C8:20:C6:02:06:00:00:00:00:00:00:00:00:00:00:00:00:00:00:00:00:FA
A5:5A:20:1D:20:C7:20:C8:20:C6:02:06:00:00:00:00:00:00:00:00:00:00:00:00:00:00:00:00:F9
A5:5A:20:1D:20:C8:20:C8:20:C6:02:06:00:00:00:00:00:00:00:00:00:00:00:00:00:00:00:00:FA
A5:5A:20:1D:20:C7:20:C7:20:C6:02:06:00:00:00:00:00:00:00:00:00:00:00:00:00:00:00:00:F8
A5:5A:20:1D:20:C6:20:C8:20:C6:02:06:00:00:00:00:00:00:00:00:00:00:00:00:00:00:00:00:F8
A5:5A:20:1D:20:C7:20:C8:20:C6:02:06:00:00:00:00:00:00:00:00:00:00:00:00:00:00:00:00:F9
A5:5A:20:1D:20:C7:20:C8:20:C6:02:06:00:00:00:00:00:00:00:00:00:00:00:00:00:00:00:00:F9
A5:5A:20:1D:20:C7:20:C8:20:C6:02:06:00:00:00:00:00:00:00:00:00:00:00:00:00:00:00:00:F9
A5:5A:20:1D:20:C6:20:C8:20:C6:02:06:00:00:00:00:00:00:00:00:00:00:00:00:00:00:00:00:F8
A5:5A:20:1D:20:C7:20:C8:20:C6:02:06:00:00:00:00:00:00:00:00:00:00:00:00:00:00:00:00:F9
A5:5A:20:1D:20:C7:20:C7:20:C6:02:05:00:00:00:00:00:00:00:00:00:00:00:00:00:00:00:00:F7
A5:5A:20:1D:20:C7:20:C8:20:C6:02:05:00:00:00:00:00:00:00:00:00:00:00:00:00:00:00:00:F8
A5:5A:20:1D:20:C7:20:C8:20:C6:02:06:00:00:00:00:00:00:00:00:00:00:00:00:00:00:00:00:F9
A5:5A:20:1D:20:C7:20:C8:20:C6:02:06:00:00:00:00:00:00:00:00:00:00:00:00:00:00:00:00:F9
A5:5A:20:1D:20:C7:20:C8:20:C6:02:05:00:00:00:00:00:00:00:00:00:00:00:00:00:00:00:00:F8
A5:5A:20:1D:20:C7:20:C8:20:C6:02:05:00:00:00:00:00:00:00:00:00:00:00:00:00:00:00:00:F8
A5:5A:20:1D:20:C7:20:C7:20:C6:02:05:00:00:00:00:00:00:00:00:00:00:00:00:00:00:00:00:F7
A5:5A:20:1D:20:C7:20:C7:20:C6:02:04:00:00:00:00:00:00:00:00:00:00:00:00:00:00:00:00:F6
A5:5A:20:1D:20:C7:20:C7:20:C6:02:04:00:00:00:00:00:00:00:00:00:00:00:00:00:00:00:00:F6
A5:5A:20:1D:20:C7:20:C7:20:C6:02:04:00:00:00:00:00:00:00:00:00:00:00:00:00:00:00:00:F6
A5:5A:20:1D:20:C7:20:C8:20:C6:02:04:00:00:00:00:00:00:00:00:00:00:00:00:00:00:00:00:F7
A5:5A:20:1D:20:C7:20:C7:20:C6:02:04:00:00:00:00:00:00:00:00:00:00:00:00:00:00:00:00:F6
A5:5A:20:1D:20:C7:20:C8:20:C6:02:04:00:00:00:00:00:00:00:00:00:00:00:00:00:00:00:00:F7
A5:5A:20:1D:20:C7:20:C7:20:C5:02:04:00:00:00:00:00:00:00:00:00:00:00:00:00:00:00:00:F5
A5:5A:20:1D:20:C7:20:C7:20:C5:02:04:00:00:00:00:00:00:00:00:00:00:00:00:00:00:00:00:F5
A5:5A:20:1D:20:C6:20:C7:20:C5:02:04:00:00:00:00:00:00:00:00:00:00:00:00:00:00:00:00:F4
A5:5A:20:1D:20:C6:20:C7:20:C5:02:04:00:00:00:00:00:00:00:00:00:00:00:00:00:00:00:00:F4
A5:5A:20:1D:20:C7:20:C8:20:C6:02:04:00:00:00:00:00:00:00:00:00:00:00:00:00:00:00:00:F7
A5:5A:20:1D:20:C6:20:C7:20:C5:02:03:00:00:00:00:00:00:00:00:00:00:00:00:00:00:00:00:F3
A5:5A:20:1D:20:C6:20:C7:20:C5:02:03:00:00:00:00:00:00:00:00:00:00:00:00:00:00:00:00:F3
A5:5A:20:1D:20:C6:20:C7:20:C5:02:04:00:00:00:00:00:00:00:00:00:00:00:00:00:00:00:00:F4
A5:5A:20:1D:20:C6:20:C7:20:C5:02:03:00:00:00:00:00:00:00:00:00:00:00:00:00:00:00:00:F3
A5:5A:20:1D:20:C7:20:C8:20:C6:02:03:00:00:00:00:00:00:00:00:00:00:00:00:00:00:00:00:F6
A5:5A:20:1D:20:C7:20:C7:20:C6:02:05:00:00:00:00:00:00:00:00:00:00:00:00:00:00:00:00:F7
A5:5A:20:1D:20:C7:20:C7:20:C6:02:04:00:00:00:00:00:00:00:00:00:00:00:00:00:00:00:00:F6
A5:5A:20:1D:20:C7:20:C7:20:C6:02:05:00:00:00:00:00:00:00:00:00:00:00:00:00:00:00:00:F7
A5:5A:20:1D:20:C7:20:C8:20:C6:02:04:00:00:00:00:00:00:00:00:00:00:00:00:00:00:00:00:F7
A5:5A:20:1D:20:C7:20:C7:20:C6:02:04:00:00:00:00:00:00:00:00:00:00:00:00:00:00:00:00:F6
A5:5A:20:1D:20:C7:20:C8:20:C6:02:05:00:00:00:00:00:00:00:00:00:00:00:00:00:00:00:00:F8
A5:5A:20:1D:20:C7:20:C8:20:C6:02:05:00:00:00:00:00:00:00:00:00:00:00:00:00:00:00:00:F8
A5:5A:20:1D:20:C7:20:C8:20:C6:02:05:00:00:00:00:00:00:00:00:00:00:00:00:00:00:00:00:F8
A5:5A:20:1D:20:C7:20:C8:20:C6:02:04:00:00:00:00:00:00:00:00:00:00:00:00:00:00:00:00:F7
A5:5A:20:1D:20:C7:20:C8:20:C6:02:05:00:00:00:00:00:00:00:00:00:00:00:00:00:00:00:00:F8
A5:5A:20:1D:20:C6:20:C7:20:C5:02:04:00:00:00:00:00:00:00:00:00:00:00:00:00:00:00:00:F4
A5:5A:20:1D:20:C7:20:C8:20:C6:02:05:00:00:00:00:00:00:00:00:00:00:00:00:00:00:00:00:F8
A5:5A:20:1D:20:C7:20:C7:20:C6:02:04:00:00:00:00:00:00:00:00:00:00:00:00:00:00:00:00:F6
A5:5A:20:1D:20:C7:20:C7:20:C6:02:05:00:00:00:00:00:00:00:00:00:00:00:00:00:00:00:00:F7
A5:5A:20:1D:20:C6:20:C7:20:C5:02:04:00:00:00:00:00:00:00:00:00:00:00:00:00:00:00:00:F4
A5:5A:20:1D:20:C7:20:C8:20:C6:02:04:00:00:00:00:00:00:00:00:00:00:00:00:00:00:00:00:F7
A5:5A:20:1D:20:C6:20:C8:20:C5:02:04:00:00:00:00:00:00:00:00:00:00:00:00:00:00:00:00:F5
A5:5A:20:1D:20:C7:20:C7:20:C6:02:04:00:00:00:00:00:00:00:00:00:00:00:00:00:00:00:00:F6
A5:5A:20:1D:20:C7:20:C8:20:C6:02:04:00:00:00:00:00:00:00:00:00:00:00:00:00:00:00:00:F7
A5:5A:20:1D:20:C7:20:C7:20:C6:02:05:00:00:00:00:00:00:00:00:00:00:00:00:00:00:00:00:F7
A5:5A:20:1D:20:C7:20:C8:20:C6:02:04:00:00:00:00:00:00:00:00:00:00:00:00:00:00:00:00:F7
A5:5A:20:1D:20:C7:20:C8:20:C6:02:04:00:00:00:00:00:00:00:00:00:00:00:00:00:00:00:00:F7
A5:5A:20:1D:20:C7:20:C7:20:C6:02:04:00:00:00:00:00:00:00:00:00:00:00:00:00:00:00:00:F6
A5:5A:20:1D:20:C7:20:C8:20:C6:02:04:00:00:00:00:00:00:00:00:00:00:00:00:00:00:00:00:F7
A5:5A:20:1D:20:C7:20:C8:20:C6:02:04:00:00:00:00:00:00:00:00:00:00:00:00:00:00:00:00:F7
A5:5A:20:1D:20:C7:20:C8:20:C6:02:04:00:00:00:00:00:00:00:00:00:00:00:00:00:00:00:00:F7
A5:5A:20:1D:20:C7:20:C7:20:C6:02:04:00:00:00:00:00:00:00:00:00:00:00:00:00:00:00:00:F6
A5:5A:20:1D:20:C6:20:C7:20:C5:02:02:00:00:00:00:00:00:00:00:00:00:00:00:00:00:00:00:F2
A5:5A:20:1D:20:C6:20:C7:20:C5:02:01:00:00:00:00:00:00:00:00:00:00:00:00:00:00:00:00:F1
A5:5A:20:1D:20:C6:20:C7:20:C5:01:FF:00:00:00:00:00:00:00:00:00:00:00:00:00:00:00:00:EE
A5:5A:20:1D:20:C6:20:C7:20:C5:01:FF:00:00:00:00:00:00:00:00:00:00:00:00:00:00:00:00:EE
A5:5A:20:1D:20:C6:20:C7:20:C5:01:FE:00:00:00:00:00:00:00:00:00:00:00:00:00:00:00:00:ED
A5:5A:20:1D:20:C6:20:C6:20:C5:01:FC:00:00:00:00:00:00:00:00:00:00:00:00:00:00:00:00:EA
A5:5A:20:1D:20:C6:20:C7:20:C5:01:FC:00:00:00:00:00:00:00:00:00:00:00:00:00:00:00:00:EB
A5:5A:20:1D:20:C5:20:C6:20:C4:01:FA:00:00:00:00:00:00:00:00:00:00:00:00:00:00:00:00:E6
A5:5A:20:1D:20:C5:20:C6:20:C4:01:F9:00:00:00:00:00:00:00:00:00:00:00:00:00:00:00:00:E5
A5:5A:20:1D:20:C6:20:C6:20:C4:01:F9:00:00:00:00:00:00:00:00:00:00:00:00:00:00:00:00:E6
A5:5A:20:1D:20:C6:20:C6:20:C4:01:F9:00:00:00:00:00:00:00:00:00:00:00:00:00:00:00:00:E6
A5:5A:20:1D:20:C5:20:C6:20:C4:01:F9:00:00:00:00:00:00:00:00:00:00:00:00:00:00:00:00:E5
A5:5A:20:1D:20:C5:20:C6:20:C4:01:F9:00:00:00:00:00:00:00:00:00:00:00:00:00:00:00:00:E5
A5:5A:20:1D:20:C6:20:C6:20:C4:01:F9:00:00:00:00:00:00:00:00:00:00:00:00:00:00:00:00:E6
A5:5A:20:1D:20:C6:20:C6:20:C4:01:F9:00:00:00:00:00:00:00:00:00:00:00:00:00:00:00:00:E6
A5:5A:20:1D:20:C5:20:C6:20:C4:01:F9:00:00:00:00:00:00:00:00:00:00:00:00:00:00:00:00:E5
A5:5A:20:1D:20:C5:20:C6:20:C4:01:F9:00:00:00:00:00:00:00:00:00:00:00:00:00:00:00:00:E5
A5:5A:20:1D:20:C6:20:C6:20:C4:01:F9:00:00:00:00:00:00:00:00:00:00:00:00:00:00:00:00:E6
A5:5A:20:1D:20:C6:20:C6:20:C4:01:F9:00:00:00:00:00:00:00:00:00:00:00:00:00:00:00:00:E6
A5:5A:20:1D:20:C6:20:C6:20:C4:01:FA:00:00:00:00:00:00:00:00:00:00:00:00:00:00:00:00:E7
A5:5A:20:1D:20:C6:20:C6:20:C4:01:F9:00:00:00:00:00:00:00:00:00:00:00:00:00:00:00:00:E6
A5:5A:20:1D:20:C6:20:C6:20:C5:01:FA:00:00:00:00:00:00:00:00:00:00:00:00:00:00:00:00:E8
A5:5A:20:1D:20:C5:20:C6:20:C4:01:F9:00:00:00:00:00:00:00:00:00:00:00:00:00:00:00:00:E5
A5:5A:20:1D:20:C6:20:C6:20:C4:01:F9:00:00:00:00:00:00:00:00:00:00:00:00:00:00:00:00:E6
A5:5A:20:1D:20:C6:20:C6:20:C4:01:F9:00:00:00:00:00:00:00:00:00:00:00:00:00:00:00:00:E6
A5:5A:20:1D:20:C6:20:C6:20:C4:01:FA:00:00:00:00:00:00:00:00:00:00:00:00:00:00:00:00:E7
A5:5A:20:1D:20:C6:20:C6:20:C5:01:FA:00:00:00:00:00:00:00:00:00:00:00:00:00:00:00:00:E8
A5:5A:20:1D:20:C6:20:C6:20:C4:01:FA:00:00:00:00:00:00:00:00:00:00:00:00:00:00:00:00:E7
A5:5A:20:1D:20:C6:20:C6:20:C5:01:FA:00:00:00:00:00:00:00:00:00:00:00:00:00:00:00:00:E8
A5:5A:20:1D:20:C6:20:C6:20:C4:01:F9:00:00:00:00:00:00:00:00:00:00:00:00:00:00:00:00:E6
A5:5A:20:1D:20:C6:20:C7:20:C4:01:FA:00:00:00:00:00:00:00:00:00:00:00:00:00:00:00:00:E8
A5:5A:20:1D:20:C5:20:C6:20:C4:01:F9:00:00:00:00:00:00:00:00:00:00:00:00:00:00:00:00:E5
A5:5A:20:1D:20:C6:20:C6:20:C5:01:FA:00:00:00:00:00:00:00:00:00:00:00:00:00:00:00:00:E8
A5:5A:20:1D:20:C6:20:C7:20:C5:01:FA:00:00:00:00:00:00:00:00:00:00:00:00:00:00:00:00:E9
A5:5A:20:1D:20:C6:20:C6:20:C4:01:FA:00:00:00:00:00:00:00:00:00:00:00:00:00:00:00:00:E7
A5:5A:20:1D:20:C6:20:C6:20:C4:01:F9:00:00:00:00:00:00:00:00:00:00:00:00:00:00:00:00:E6
A5:5A:20:1D:20:C6:20:C6:20:C4:01:F9:00:00:00:00:00:00:00:00:00:00:00:00:00:00:00:00:E6
A5:5A:20:1D:20:C6:20:C6:20:C4:01:F9:00:00:00:00:00:00:00:00:00:00:00:00:00:00:00:00:E6
A5:5A:20:1D:20:C6:20:C6:20:C4:01:F9:00:00:00:00:00:00:00:00:00:00:00:00:00:00:00:00:E6
A5:5A:20:1D:20:C6:20:C6:20:C4:01:F9:00:00:00:00:00:00:00:00:00:00:00:00:00:00:00:00:E6
A5:5A:20:1D:20:C6:20:C6:20:C4:01:F9:00:00:00:00:00:00:00:00:00:00:00:00:00:00:00:00:E6
A5:5A:20:1D:20:C6:20:C6:20:C4:01:F9:00:00:00:00:00:00:00:00:00:00:00:00:00:00:00:00:E6
A5:5A:20:1D:20:C5:20:C5:20:C3:01:F1:00:00:00:00:00:00:00:00:00:00:00:00:00:00:00:00:DB
A5:5A:20:1D:20:C5:20:C5:20:C4:01:F2:00:00:00:00:00:00:00:00:00:00:00:00:00:00:00:00:DD
A5:5A:20:1D:20:C5:20:C6:20:C4:01:F4:00:00:00:00:00:00:00:00:00:00:00:00:00:00:00:00:E0
A5:5A:20:1D:20:C5:20:C6:20:C4:01:F3:00:00:00:00:00:00:00:00:00:00:00:00:00:00:00:00:DF
A5:5A:20:1D:20:C4:20:C4:20:C3:01:E9:00:00:00:00:00:00:00:00:00:00:00:00:00:00:00:00:D1
A5:5A:20:1D:20:C5:20:C6:20:C4:01:F4:00:00:00:00:00:00:00:00:00:00:00:00:00:00:00:00:E0
A5:5A:20:1D:20:C5:20:C5:20:C4:01:F1:00:00:00:00:00:00:00:00:00:00:00:00:00:00:00:00:DC
A5:5A:20:1D:20:C4:20:C5:20:C3:01:ED:00:00:00:00:00:00:00:00:00:00:00:00:00:00:00:00:D6
A5:5A:20:1D:20:C5:20:C5:20:C4:01:F4:00:00:00:00:00:00:00:00:00:00:00:00:00:00:00:00:DF
A5:5A:20:1D:20:C5:20:C6:20:C4:01:F5:00:00:00:00:00:00:00:00:00:00:00:00:00:00:00:00:E1
A5:5A:20:1D:20:C5:20:C5:20:C4:01:F3:00:00:00:00:00:00:00:00:00:00:00:00:00:00:00:00:DE
A5:5A:20:1D:20:C4:20:C5:20:C3:01:EE:00:00:00:00:00:00:00:00:00:00:00:00:00:00:00:00:D7
A5:5A:20:1D:20:C5:20:C6:20:C4:01:F3:00:00:00:00:00:00:00:00:00:00:00:00:00:00:00:00:DF
A5:5A:20:1D:20:C5:20:C6:20:C4:01:F3:00:00:00:00:00:00:00:00:00:00:00:00:00:00:00:00:DF
A5:5A:20:1D:20:C5:20:C6:20:C4:01:F4:00:00:00:00:00:00:00:00:00:00:00:00:00:00:00:00:E0
A5:5A:20:1D:20:C3:20:C4:20:C2:01:E4:00:00:00:00:00:00:00:00:00:00:00:00:00:00:00:00:CA
A5:5A:20:1D:20:C5:20:C6:20:C4:01:F4:00:00:00:00:00:00:00:00:00:00:00:00:00:00:00:00:E0
A5:5A:20:1D:20:C5:20:C6:20:C4:01:F4:00:00:00:00:00:00:00:00:00:00:00:00:00:00:00:00:E0
A5:5A:20:1D:20:C4:20:C5:20:C3:01:F0:00:00:00:00:00:00:00:00:00:00:00:00:00:00:00:00:D9
A5:5A:20:1D:20:C5:20:C6:20:C4:01:F3:00:00:00:00:00:00:00:00:00:00:00:00:00:00:00:00:DF
A5:5A:20:1D:20:C5:20:C6:20:C4:01:F4:00:00:00:00:00:00:00:00:00:00:00:00:00:00:00:00:E0
A5:5A:20:1D:20:C5:20:C5:20:C4:01:F4:00:00:00:00:00:00:00:00:00:00:00:00:00:00:00:00:DF
A5:5A:20:1D:20:C5:20:C6:20:C4:01:F3:00:00:00:00:00:00:00:00:00:00:00:00:00:00:00:00:DF
A5:5A:20:1D:20:C5:20:C6:20:C4:01:F4:00:00:00:00:00:00:00:00:00:00:00:00:00:00:00:00:E0
A5:5A:20:1D:20:C4:20:C5:20:C3:01:F3:00:00:00:00:00:00:00:00:00:00:00:00:00:00:00:00:DC
A5:5A:20:1D:20:C4:20:C4:20:C2:01:EF:00:00:00:00:00:00:00:00:00:00:00:00:00:00:00:00:D6
A5:5A:20:1D:20:C4:20:C5:20:C3:01:F3:00:00:00:00:00:00:00:00:00:00:00:00:00:00:00:00:DC
A5:5A:20:1D:20:C4:20:C4:20:C2:01:F0:00:00:00:00:00:00:00:00:00:00:00:00:00:00:00:00:D7
A5:5A:20:1D:20:C4:20:C4:20:C3:01:F3:00:00:00:00:00:00:00:00:00:00:00:00:00:00:00:00:DB
A5:5A:20:1D:20:C4:20:C4:20:C2:01:EE:00:00:00:00:00:00:00:00:00:00:00:00:00:00:00:00:D5
A5:5A:20:1D:20:C4:20:C5:20:C3:01:F5:00:00:00:00:00:00:00:00:00:00:00:00:00:00:00:00:DE
A5:5A:20:1D:20:C4:20:C4:20:C2:01:EE:00:00:00:00:00:00:00:00:00:00:00:00:00:00:00:00:D5
A5:5A:20:1D:20:C4:20:C4:20:C2:01:F3:00:00:00:00:00:00:00:00:00:00:00:00:00:00:00:00:DA
A5:5A:20:1D:20:C4:20:C4:20:C3:01:F2:00:00:00:00:00:00:00:00:00:00:00:00:00:00:00:00:DA
A5:5A:20:1D:20:C4:20:C5:20:C3:01:F4:00:00:00:00:00:00:00:00:00:00:00:00:00:00:00:00:DD
A5:5A:20:1D:20:C2:20:C3:20:C1:01:E3:00:00:00:00:00:00:00:00:00:00:00:00:00:00:00:00:C6
A5:5A:20:1D:20:C4:20:C5:20:C3:01:F4:00:00:00:00:00:00:00:00:00:00:00:00:00:00:00:00:DD
A5:5A:20:1D:20:C4:20:C4:20:C2:01:EE:00:00:00:00:00:00:00:00:00:00:00:00:00:00:00:00:D5
A5:5A:20:1D:20:C4:20:C4:20:C2:01:F3:00:00:00:00:00:00:00:00:00:00:00:00:00:00:00:00:DA
A5:5A:20:1D:20:C4:20:C4:20:C3:01:F3:00:00:00:00:00:00:00:00:00:00:00:00:00:00:00:00:DB
A5:5A:20:1D:20:C4:20:C5:20:C3:01:F4:00:00:00:00:00:00:00:00:00:00:00:00:00:00:00:00:DD
A5:5A:20:1D:20:C4:20:C5:20:C3:01:F4:00:00:00:00:00:00:00:00:00:00:00:00:00:00:00:00:DD
A5:5A:20:1D:20:C4:20:C4:20:C2:01:EF:00:00:00:00:00:00:00:00:00:00:00:00:00:00:00:00:D6
A5:5A:20:1D:20:C3:20:C4:20:C2:01:E8:00:00:00:00:00:00:00:00:00:00:00:00:00:00:00:00:CE
A5:5A:20:1D:20:C4:20:C4:20:C3:01:F2:00:00:00:00:00:00:00:00:00:00:00:00:00:00:00:00:DA
A5:5A:20:1D:20:C3:20:C4:20:C2:01:ED:00:00:00:00:00:00:00:00:00:00:00:00:00:00:00:00:D3
A5:5A:20:1D:20:C4:20:C4:20:C3:01:F4:00:00:00:00:00:00:00:00:00:00:00:00:00:00:00:00:DC
A5:5A:20:1D:20:C4:20:C4:20:C2:01:F1:00:00:00:00:00:00:00:00:00:00:00:00:00:00:00:00:D8
A5:5A:20:1D:20:C4:20:C4:20:C2:01:F1:00:00:00:00:00:00:00:00:00:00:00:00:00:00:00:00:D8
A5:5A:20:1D:20:C2:20:C3:20:C1:01:E3:00:00:00:00:00:00:00:00:00:00:00:00:00:00:00:00:C6
A5:5A:20:1D:20:C2:20:C3:20:C1:01:E2:00:00:00:00:00:00:00:00:00:00:00:00:00:00:00:00:C5
A5:5A:20:1D:20:C2:20:C3:20:C1:01:E3:00:00:00:00:00:00:00:00:00:00:00:00:00:00:00:00:C6
A5:5A:20:1D:20:C2:20:C2:20:C1:01:E1:00:00:00:00:00:00:00:00:00:00:00:00:00:00:00:00:C3
A5:5A:20:1D:20:C4:20:C4:20:C2:01:F3:00:00:00:00:00:00:00:00:00:00:00:00:00:00:00:00:DA
A5:5A:20:1D:20:C4:20:C4:20:C3:01:F3:00:00:00:00:00:00:00:00:00:00:00:00:00:00:00:00:DB
A5:5A:20:1D:20:C3:20:C4:20:C2:01:EF:00:00:00:00:00:00:00:00:00:00:00:00:00:00:00:00:D5
A5:5A:20:1D:20:C4:20:C5:20:C3:01:F3:00:00:00:00:00:00:00:00:00:00:00:00:00:00:00:00:DC
A5:5A:20:1D:20:C3:20:C4:20:C2:01:F3:00:00:00:00:00:00:00:00:00:00:00:00:00:00:00:00:D9
A5:5A:20:1D:20:C4:20:C4:20:C2:01:F1:00:00:00:00:00:00:00:00:00:00:00:00:00:00:00:00:D8
A5:5A:20:1D:20:C3:20:C4:20:C2:01:EC:00:00:00:00:00:00:00:00:00:00:00:00:00:00:00:00:D2
A5:5A:20:1D:20:C4:20:C4:20:C2:01:F1:00:00:00:00:00:00:00:00:00:00:00:00:00:00:00:00:D8
A5:5A:20:1D:20:C3:20:C4:20:C2:01:EA:00:00:00:00:00:00:00:00:00:00:00:00:00:00:00:00:D0
A5:5A:20:1D:20:C2:20:C3:20:C1:01:E1:00:00:00:00:00:00:00:00:00:00:00:00:00:00:00:00:C4
A5:5A:20:1D:20:C4:20:C4:20:C2:01:F3:00:00:00:00:00:00:00:00:00:00:00:00:00:00:00:00:DA
A5:5A:20:1D:20:C2:20:C3:20:C1:01:E8:00:00:00:00:00:00:00:00:00:00:00:00:00:00:00:00:CB
A5:5A:20:1D:20:C2:20:C3:20:C1:01:E3:00:00:00:00:00:00:00:00:00:00:00:00:00:00:00:00:C6
A5:5A:20:1D:20:C4:20:C5:20:C3:01:F4:00:00:00:00:00:00:00:00:00:00:00:00:00:00:00:00:DD
A5:5A:20:1D:20:C4:20:C4:20:C3:01:F2:00:00:00:00:00:00:00:00:00:00:00:00:00:00:00:00:DA
A5:5A:20:1D:20:C2:20:C2:20:C1:01:E2:00:00:00:00:00:00:00:00:00:00:00:00:00:00:00:00:C4
A5:5A:20:1D:20:C2:20:C3:20:C1:01:E1:00:00:00:00:00:00:00:00:00:00:00:00:00:00:00:00:C4
A5:5A:20:1D:20:C4:20:C4:20:C2:01:F2:00:00:00:00:00:00:00:00:00:00:00:00:00:00:00:00:D9
A5:5A:20:1D:20:C2:20:C2:20:C1:01:E3:00:00:00:00:00:00:00:00:00:00:00:00:00:00:00:00:C5
A5:5A:20:1D:20:C2:20:C3:20:C1:01:E2:00:00:00:00:00:00:00:00:00:00:00:00:00:00:00:00:C5
A5:5A:20:1D:20:C2:20:C3:20:C1:01:E2:00:00:00:00:00:00:00:00:00:00:00:00:00:00:00:00:C5
A5:5A:20:1D:20:C2:20:C3:20:C1:01:E5:00:00:00:00:00:00:00:00:00:00:00:00:00:00:00:00:C8
A5:5A:20:1D:20:C2:20:C2:20:C0:01:E2:00:00:00:00:00:00:00:00:00:00:00:00:00:00:00:00:C3
A5:5A:20:1D:20:C4:20:C4:20:C2:01:EE:00:00:00:00:00:00:00:00:00:00:00:00:00:00:00:00:D5
A5:5A:20:1D:20:C4:20:C4:20:C3:01:F3:00:00:00:00:00:00:00:00:00:00:00:00:00:00:00:00:DB
A5:5A:20:1D:20:C2:20:C3:20:C1:01:E3:00:00:00:00:00:00:00:00:00:00:00:00:00:00:00:00:C6
A5:5A:20:1D:20:C3:20:C4:20:C2:01:EB:00:00:00:00:00:00:00:00:00:00:00:00:00:00:00:00:D1
A5:5A:20:1D:20:C4:20:C4:20:C2:01:F0:00:00:00:00:00:00:00:00:00:00:00:00:00:00:00:00:D7
A5:5A:20:1D:20:C2:20:C3:20:C1:01:E3:00:00:00:00:00:00:00:00:00:00:00:00:00:00:00:00:C6
A5:5A:20:1D:20:C2:20:C3:20:C1:01:E2:00:00:00:00:00:00:00:00:00:00:00:00:00:00:00:00:C5
A5:5A:20:1D:20:C2:20:C3:20:C1:01:E2:00:00:00:00:00:00:00:00:00:00:00:00:00:00:00:00:C5
A5:5A:20:1D:20:C3:20:C4:20:C2:01:E9:00:00:00:00:00:00:00:00:00:00:00:00:00:00:00:00:CF
A5:5A:20:1D:20:C3:20:C3:20:C2:01:E7:00:00:00:00:00:00:00:00:00:00:00:00:00:00:00:00:CC
A5:5A:20:1D:20:C2:20:C3:20:C1:01:E6:00:00:00:00:00:00:00:00:00:00:00:00:00:00:00:00:C9
A5:5A:20:1D:20:C4:20:C4:20:C2:01:F3:00:00:00:00:00:00:00:00:00:00:00:00:00:00:00:00:DA
A5:5A:20:1D:20:C4:20:C5:20:C3:01:F3:00:00:00:00:00:00:00:00:00:00:00:00:00:00:00:00:DC
A5:5A:20:1D:20:C4:20:C4:20:C2:01:F2:00:00:00:00:00:00:00:00:00:00:00:00:00:00:00:00:D9
A5:5A:20:1D:20:C4:20:C4:20:C3:01:F1:00:00:00:00:00:00:00:00:00:00:00:00:00:00:00:00:D9
A5:5A:20:1D:20:C3:20:C4:20:C2:01:E9:00:00:00:00:00:00:00:00:00:00:00:00:00:00:00:00:CF
A5:5A:20:1D:20:C2:20:C3:20:C1:01:E3:00:00:00:00:00:00:00:00:00:00:00:00:00:00:00:00:C6
A5:5A:20:1D:20:C4:20:C5:20:C3:01:F3:00:00:00:00:00:00:00:00:00:00:00:00:00:00:00:00:DC
A5:5A:20:1D:20:C4:20:C5:20:C4:01:F4:00:00:00:00:00:00:00:00:00:00:00:00:00:00:00:00:DE
A5:5A:20:1D:20:C4:20:C5:20:C3:01:F4:00:00:00:00:00:00:00:00:00:00:00:00:00:00:00:00:DD
A5:5A:20:1D:20:C4:20:C5:20:C3:01:F4:00:00:00:00:00:00:00:00:00:00:00:00:00:00:00:00:DD
A5:5A:20:1D:20:C4:20:C5:20:C4:01:F5:00:00:00:00:00:00:00:00:00:00:00:00:00:00:00:00:DF
A5:5A:20:1D:20:C4:20:C4:20:C3:01:F1:00:00:00:00:00:00:00:00:00:00:00:00:00:00:00:00:D9
A5:5A:20:1D:20:C4:20:C5:20:C3:01:F4:00:00:00:00:00:00:00:00:00:00:00:00:00:00:00:00:DD
A5:5A:20:1D:20:C4:20:C4:20:C2:01:EF:00:00:00:00:00:00:00:00:00:00:00:00:00:00:00:00:D6
A5:5A:20:1D:20:C4:20:C5:20:C3:01:F3:00:00:00:00:00:00:00:00:00:00:00:00:00:00:00:00:DC
A5:5A:20:1D:20:C2:20:C3:20:C1:01:E3:00:00:00:00:00:00:00:00:00:00:00:00:00:00:00:00:C6
A5:5A:20:1D:20:C4:20:C5:20:C3:01:F2:00:00:00:00:00:00:00:00:00:00:00:00:00:00:00:00:DB
A5:5A:20:1D:20:C2:20:C3:20:C1:01:E2:00:00:00:00:00:00:00:00:00:00:00:00:00:00:00:00:C5
A5:5A:20:1D:20:C3:20:C4:20:C2:01:E3:00:00:00:00:00:00:00:00:00:00:00:00:00:00:00:00:C9
A5:5A:20:1D:20:C2:20:C3:20:C1:01:E3:00:00:00:00:00:00:00:00:00:00:00:00:00:00:00:00:C6
A5:5A:20:1D:20:C4:20:C5:20:C3:01:F4:00:00:00:00:00:00:00:00:00:00:00:00:00:00:00:00:DD
A5:5A:20:1D:20:C2:20:C3:20:C1:01:E4:00:00:00:00:00:00:00:00:00:00:00:00:00:00:00:00:C7
A5:5A:20:1D:20:C3:20:C4:20:C2:01:E7:00:00:00:00:00:00:00:00:00:00:00:00:00:00:00:00:CD
A5:5A:20:1D:20:C4:20:C5:20:C3:01:F4:00:00:00:00:00:00:00:00:00:00:00:00:00:00:00:00:DD
A5:5A:20:1D:20:C3:20:C4:20:C2:01:EA:00:00:00:00:00:00:00:00:00:00:00:00:00:00:00:00:D0
A5:5A:20:1D:20:C2:20:C3:20:C1:01:E2:00:00:00:00:00:00:00:00:00:00:00:00:00:00:00:00:C5
A5:5A:20:1D:20:C4:20:C4:20:C2:01:F3:00:00:00:00:00:00:00:00:00:00:00:00:00:00:00:00:DA
A5:5A:20:1D:20:C4:20:C5:20:C3:01:F4:00:00:00:00:00:00:00:00:00:00:00:00:00:00:00:00:DD
A5:5A:20:1D:20:C4:20:C5:20:C3:01:F5:00:00:00:00:00:00:00:00:00:00:00:00:00:00:00:00:DE
A5:5A:20:1D:20:C3:20:C4:20:C2:01:EF:00:00:00:00:00:00:00:00:00:00:00:00:00:00:00:00:D5
A5:5A:20:1D:20:C4:20:C5:20:C3:01:F3:00:00:00:00:00:00:00:00:00:00:00:00:00:00:00:00:DC
A5:5A:20:1D:20:C2:20:C3:20:C1:01:E3:00:00:00:00:00:00:00:00:00:00:00:00:00:00:00:00:C6
A5:5A:20:1D:20:C2:20:C3:20:C2:01:E4:00:00:00:00:00:00:00:00:00:00:00:00:00:00:00:00:C8
A5:5A:20:1D:20:C4:20:C5:20:C3:01:F2:00:00:00:00:00:00:00:00:00:00:00:00:00:00:00:00:DB
A5:5A:20:1D:20:C4:20:C5:20:C3:01:F3:00:00:00:00:00:00:00:00:00:00:00:00:00:00:00:00:DC
A5:5A:20:1D:20:C3:20:C3:20:C1:01:E4:00:00:00:00:00:00:00:00:00:00:00:00:00:00:00:00:C8
A5:5A:20:1D:20:C4:20:C4:20:C3:01:F3:00:00:00:00:00:00:00:00:00:00:00:00:00:00:00:00:DB
A5:5A:20:1D:20:C3:20:C3:20:C1:01:E3:00:00:00:00:00:00:00:00:00:00:00:00:00:00:00:00:C7
A5:5A:20:1D:20:C2:20:C3:20:C1:01:E3:00:00:00:00:00:00:00:00:00:00:00:00:00:00:00:00:C6
A5:5A:20:1D:20:C3:20:C4:20:C2:01:EB:00:00:00:00:00:00:00:00:00:00:00:00:00:00:00:00:D1
A5:5A:20:1D:20:C4:20:C4:20:C2:01:ED:00:00:00:00:00:00:00:00:00:00:00:00:00:00:00:00:D4
A5:5A:20:1D:20:C4:20:C4:20:C2:01:EE:00:00:00:00:00:00:00:00:00:00:00:00:00:00:00:00:D5
A5:5A:20:1D:20:C3:20:C4:20:C2:01:E4:00:00:00:00:00:00:00:00:00:00:00:00:00:00:00:00:CA
A5:5A:20:1D:20:C4:20:C5:20:C3:01:F2:00:00:00:00:00:00:00:00:00:00:00:00:00:00:00:00:DB
A5:5A:20:1D:20:C4:20:C5:20:C3:01:F4:00:00:00:00:00:00:00:00:00:00:00:00:00:00:00:00:DD
A5:5A:20:1D:20:C3:20:C4:20:C2:01:E9:00:00:00:00:00:00:00:00:00:00:00:00:00:00:00:00:CF
A5:5A:20:1D:20:C4:20:C4:20:C3:01:F3:00:00:00:00:00:00:00:00:00:00:00:00:00:00:00:00:DB
A5:5A:20:1D:20:C4:20:C4:20:C3:01:F1:00:00:00:00:00:00:00:00:00:00:00:00:00:00:00:00:D9
A5:5A:20:1D:20:C3:20:C4:20:C2:01:E8:00:00:00:00:00:00:00:00:00:00:00:00:00:00:00:00:CE
A5:5A:20:1D:20:C4:20:C5:20:C3:01:F4:00:00:00:00:00:00:00:00:00:00:00:00:00:00:00:00:DD
A5:5A:20:1D:20:C4:20:C5:20:C3:01:F3:00:00:00:00:00:00:00:00:00:00:00:00:00:00:00:00:DC
A5:5A:20:1D:20:C2:20:C3:20:C2:01:E3:00:00:00:00:00:00:00:00:00:00:00:00:00:00:00:00:C7
A5:5A:20:1D:20:C4:20:C4:20:C3:01:F3:00:00:00:00:00:00:00:00:00:00:00:00:00:00:00:00:DB
A5:5A:20:1D:20:C4:20:C4:20:C3:01:F2:00:00:00:00:00:00:00:00:00:00:00:00:00:00:00:00:DA
A5:5A:20:1D:20:C4:20:C4:20:C2:01:F1:00:00:00:00:00:00:00:00:00:00:00:00:00:00:00:00:D8
A5:5A:20:1D:20:C2:20:C3:20:C1:01:E2:00:00:00:00:00:00:00:00:00:00:00:00:00:00:00:00:C5
A5:5A:20:1D:20:C4:20:C4:20:C2:01:F1:00:00:00:00:00:00:00:00:00:00:00:00:00:00:00:00:D8
A5:5A:20:1D:20:C2:20:C3:20:C1:01:E3:00:00:00:00:00:00:00:00:00:00:00:00:00:00:00:00:C6
A5:5A:20:1D:20:C4:20:C4:20:C2:01:F1:00:00:00:00:00:00:00:00:00:00:00:00:00:00:00:00:D8
A5:5A:20:1D:20:C3:20:C4:20:C2:01:E8:00:00:00:00:00:00:00:00:00:00:00:00:00:00:00:00:CE
A5:5A:20:1D:20:C4:20:C4:20:C3:01:F3:00:00:00:00:00:00:00:00:00:00:00:00:00:00:00:00:DB
A5:5A:20:1D:20:C2:20:C3:20:C1:01:E3:00:00:00:00:00:00:00:00:00:00:00:00:00:00:00:00:C6
A5:5A:20:1D:20:C2:20:C3:20:C1:01:E3:00:00:00:00:00:00:00:00:00:00:00:00:00:00:00:00:C6
A5:5A:20:1D:20:C4:20:C5:20:C3:01:F2:00:00:00:00:00:00:00:00:00:00:00:00:00:00:00:00:DB
A5:5A:20:1D:20:C4:20:C5:20:C3:01:F3:00:00:00:00:00:00:00:00:00:00:00:00:00:00:00:00:DC
A5:5A:20:1D:20:C3:20:C4:20:C2:01:E7:00:00:00:00:00:00:00:00:00:00:00:00:00:00:00:00:CD
A5:5A:20:1D:20:C4:20:C4:20:C2:01:EF:00:00:00:00:00:00:00:00:00:00:00:00:00:00:00:00:D6
A5:5A:20:1D:20:C4:20:C5:20:C3:01:F2:00:00:00:00:00:00:00:00:00:00:00:00:00:00:00:00:DB
A5:5A:20:1D:20:C4:20:C5:20:C3:01:F1:00:00:00:00:00:00:00:00:00:00:00:00:00:00:00:00:DA
A5:5A:20:1D:20:C4:20:C5:20:C3:01:F3:00:00:00:00:00:00:00:00:00:00:00:00:00:00:00:00:DC
A5:5A:20:1D:20:C4:20:C5:20:C3:01:F3:00:00:00:00:00:00:00:00:00:00:00:00:00:00:00:00:DC
A5:5A:20:1D:20:C4:20:C4:20:C3:01:F1:00:00:00:00:00:00:00:00:00:00:00:00:00:00:00:00:D9
A5:5A:20:1D:20:C4:20:C4:20:C2:01:EE:00:00:00:00:00:00:00:00:00:00:00:00:00:00:00:00:D5
A5:5A:20:1D:20:C4:20:C4:20:C2:01:F1:00:00:00:00:00:00:00:00:00:00:00:00:00:00:00:00:D8
A5:5A:20:1D:20:C3:20:C4:20:C2:01:E9:00:00:00:00:00:00:00:00:00:00:00:00:00:00:00:00:CF
A5:5A:20:1D:20:C3:20:C4:20:C2:01:E8:00:00:00:00:00:00:00:00:00:00:00:00:00:00:00:00:CE
A5:5A:20:1D:20:C4:20:C4:20:C2:01:EA:00:00:00:00:00:00:00:00:00:00:00:00:00:00:00:00:D1
A5:5A:20:1D:20:C3:20:C4:20:C2:01:E8:00:00:00:00:00:00:00:00:00:00:00:00:00:00:00:00:CE
A5:5A:20:1D:20:C4:20:C5:20:C3:01:F3:00:00:00:00:00:00:00:00:00:00:00:00:00:00:00:00:DC
A5:5A:20:1D:20:C4:20:C5:20:C3:01:F2:00:00:00:00:00:00:00:00:00:00:00:00:00:00:00:00:DB
A5:5A:20:1D:20:C3:20:C4:20:C2:01:E8:00:00:00:00:00:00:00:00:00:00:00:00:00:00:00:00:CE
A5:5A:20:1D:20:C2:20:C3:20:C1:01:E2:00:00:00:00:00:00:00:00:00:00:00:00:00:00:00:00:C5
A5:5A:20:1D:20:C2:20:C4:20:C2:01:E5:00:00:00:00:00:00:00:00:00:00:00:00:00:00:00:00:CA
A5:5A:20:1D:20:C2:20:C3:20:C1:01:E3:00:00:00:00:00:00:00:00:00:00:00:00:00:00:00:00:C6
A5:5A:20:1D:20:C3:20:C4:20:C2:01:F1:00:00:00:00:00:00:00:00:00:00:00:00:00:00:00:00:D7
A5:5A:20:1D:20:C3:20:C4:20:C2:01:ED:00:00:00:00:00:00:00:00:00:00:00:00:00:00:00:00:D3
A5:5A:20:1D:20:C3:20:C4:20:C2:01:EB:00:00:00:00:00:00:00:00:00:00:00:00:00:00:00:00:D1
A5:5A:20:1D:20:C4:20:C4:20:C2:01:F1:00:00:00:00:00:00:00:00:00:00:00:00:00:00:00:00:D8
A5:5A:20:1D:20:C4:20:C4:20:C2:01:EF:00:00:00:00:00:00:00:00:00:00:00:00:00:00:00:00:D6
A5:5A:20:1D:20:C4:20:C4:20:C2:01:EF:00:00:00:00:00:00:00:00:00:00:00:00:00:00:00:00:D6
A5:5A:20:1D:20:C4:20:C4:20:C3:01:F0:00:00:00:00:00:00:00:00:00:00:00:00:00:00:00:00:D8
A5:5A:20:1D:20:C4:20:C5:20:C3:01:F3:00:00:00:00:00:00:00:00:00:00:00:00:00:00:00:00:DC
A5:5A:20:1D:20:C4:20:C5:20:C3:01:F3:00:00:00:00:00:00:00:00:00:00:00:00:00:00:00:00:DC
A5:5A:20:1D:20:C3:20:C4:20:C2:01:E8:00:00:00:00:00:00:00:00:00:00:00:00:00:00:00:00:CE
A5:5A:20:1D:20:C3:20:C3:20:C2:01:E9:00:00:00:00:00:00:00:00:00:00:00:00:00:00:00:00:CE
A5:5A:20:1D:20:C2:20:C3:20:C1:01:E2:00:00:00:00:00:00:00:00:00:00:00:00:00:00:00:00:C5
A5:5A:20:1D:20:C4:20:C5:20:C3:01:F4:00:00:00:00:00:00:00:00:00:00:00:00:00:00:00:00:DD
A5:5A:20:1D:20:C4:20:C5:20:C3:01:F3:00:00:00:00:00:00:00:00:00:00:00:00:00:00:00:00:DC
A5:5A:20:1D:20:C4:20:C4:20:C3:01:F3:00:00:00:00:00:00:00:00:00:00:00:00:00:00:00:00:DB
A5:5A:20:1D:20:C2:20:C3:20:C1:01:E3:00:00:00:00:00:00:00:00:00:00:00:00:00:00:00:00:C6
A5:5A:20:1D:20:C3:20:C4:20:C2:01:E3:00:00:00:00:00:00:00:00:00:00:00:00:00:00:00:00:C9
A5:5A:20:1D:20:C4:20:C5:20:C3:01:F4:00:00:00:00:00:00:00:00:00:00:00:00:00:00:00:00:DD
A5:5A:20:1D:20:C4:20:C4:20:C3:01:F3:00:00:00:00:00:00:00:00:00:00:00:00:00:00:00:00:DB
A5:5A:20:1D:20:C4:20:C5:20:C3:01:F3:00:00:00:00:00:00:00:00:00:00:00:00:00:00:00:00:DC
A5:5A:20:1D:20:C3:20:C4:20:C2:01:E8:00:00:00:00:00:00:00:00:00:00:00:00:00:00:00:00:CE
A5:5A:20:1D:20:C2:20:C3:20:C1:01:E3:00:00:00:00:00:00:00:00:00:00:00:00:00:00:00:00:C6
A5:5A:20:1D:20:C4:20:C4:20:C3:01:F1:00:00:00:00:00:00:00:00:00:00:00:00:00:00:00:00:D9
A5:5A:20:1D:20:C4:20:C5:20:C3:01:F3:00:00:00:00:00:00:00:00:00:00:00:00:00:00:00:00:DC
A5:5A:20:1D:20:C4:20:C5:20:C3:01:F4:00:00:00:00:00:00:00:00:00:00:00:00:00:00:00:00:DD
A5:5A:20:1D:20:C4:20:C4:20:C2:01:EB:00:00:00:00:00:00:00:00:00:00:00:00:00:00:00:00:D2
A5:5A:20:1D:20:C3:20:C4:20:C2:01:EF:00:00:00:00:00:00:00:00:00:00:00:00:00:00:00:00:D5
A5:5A:20:1D:20:C4:20:C4:20:C2:01:F2:00:00:00:00:00:00:00:00:00:00:00:00:00:00:00:00:D9
A5:5A:20:1D:20:C4:20:C5:20:C3:01:F4:00:00:00:00:00:00:00:00:00:00:00:00:00:00:00:00:DD
A5:5A:20:1D:20:C2:20:C3:20:C1:01:E4:00:00:00:00:00:00:00:00:00:00:00:00:00:00:00:00:C7
A5:5A:20:1D:20:C4:20:C5:20:C3:01:F4:00:00:00:00:00:00:00:00:00:00:00:00:00:00:00:00:DD
A5:5A:20:1D:20:C2:20:C3:20:C1:01:E3:00:00:00:00:00:00:00:00:00:00:00:00:00:00:00:00:C6
A5:5A:20:1D:20:C3:20:C4:20:C2:01:EC:00:00:00:00:00:00:00:00:00:00:00:00:00:00:00:00:D2
A5:5A:20:1D:20:C3:20:C3:20:C2:01:E7:00:00:00:00:00:00:00:00:00:00:00:00:00:00:00:00:CC
A5:5A:20:1D:20:C3:20:C4:20:C2:01:EF:00:00:00:00:00:00:00:00:00:00:00:00:00:00:00:00:D5
A5:5A:20:1D:20:C2:20:C3:20:C1:01:E3:00:00:00:00:00:00:00:00:00:00:00:00:00:00:00:00:C6
A5:5A:20:1D:20:C2:20:C3:20:C1:01:E2:00:00:00:00:00:00:00:00:00:00:00:00:00:00:00:00:C5
A5:5A:20:1D:20:C2:20:C3:20:C1:01:E2:00:00:00:00:00:00:00:00:00:00:00:00:00:00:00:00:C5
A5:5A:20:1D:20:C4:20:C4:20:C2:01:EF:00:00:00:00:00:00:00:00:00:00:00:00:00:00:00:00:D6
A5:5A:20:1D:20:C4:20:C4:20:C2:01:F2:00:00:00:00:00:00:00:00:00:00:00:00:00:00:00:00:D9
A5:5A:20:1D:20:C3:20:C3:20:C1:01:E3:00:00:00:00:00:00:00:00:00:00:00:00:00:00:00:00:C7
A5:5A:20:1D:20:C2:20:C3:20:C1:01:E3:00:00:00:00:00:00:00:00:00:00:00:00:00:00:00:00:C6
A5:5A:20:1D:20:C4:20:C4:20:C3:01:F3:00:00:00:00:00:00:00:00:00:00:00:00:00:00:00:00:DB
A5:5A:20:1D:20:C4:20:C5:20:C3:01:F4:00:00:00:00:00:00:00:00:00:00:00:00:00:00:00:00:DD
A5:5A:20:1D:20:C3:20:C4:20:C2:01:EA:00:00:00:00:00:00:00:00:00:00:00:00:00:00:00:00:D0
A5:5A:20:1D:20:C3:20:C4:20:C2:01:E4:00:00:00:00:00:00:00:00:00:00:00:00:00:00:00:00:CA
A5:5A:20:1D:20:C4:20:C4:20:C3:01:F0:00:00:00:00:00:00:00:00:00:00:00:00:00:00:00:00:D8
A5:5A:20:1D:20:C4:20:C5:20:C3:01:F1:00:00:00:00:00:00:00:00:00:00:00:00:00:00:00:00:DA
A5:5A:20:1D:20:C3:20:C3:20:C2:01:E2:00:00:00:00:00:00:00:00:00:00:00:00:00:00:00:00:C7
A5:5A:20:1D:20:C4:20:C4:20:C2:01:ED:00:00:00:00:00:00:00:00:00:00:00:00:00:00:00:00:D4
A5:5A:20:1D:20:C2:20:C3:20:C1:01:E1:00:00:00:00:00:00:00:00:00:00:00:00:00:00:00:00:C4:4A:4D:41:5F:57:49:52:45:4C:45:53:53:2D:50:42:43:4F:4D:20:0A:0D:48:57:5F:31:2E:30:2E:30:20:0A:0D:46:57:5F:31:2E:30:2E:30:20:0A:0D
A5:5A:20:1D:20:C2:20:C3:20:C1:01:E4:00:00:00:00:00:00:00:00:00:00:00:00:00:00:00:00:C7
A5:5A:20:1D:20:C4:20:C4:20:C3:01:F3:00:00:00:00:00:00:00:00:00:00:00:00:00:00:00:00:DB
A5:5A:20:1D:20:C4:20:C4:20:C2:01:EF:00:00:00:00:00:00:00:00:00:00:00:00:00:00:00:00:D6
A5:5A:20:1D:20:C4:20:C4:20:C2:01:F1:00:00:00:00:00:00:00:00:00:00:00:00:00:00:00:00:D8
A5:5A:20:1D:20:C4:20:C4:20:C2:01:F2:00:00:00:00:00:00:00:00:00:00:00:00:00:00:00:00:D9
A5:5A:20:1D:20:C2:20:C3:20:C1:01:E3:00:00:00:00:00:00:00:00:00:00:00:00:00:00:00:00:C6
A5:5A:20:1D:20:C3:20:C3:20:C1:01:E6:00:00:00:00:00:00:00:00:00:00:00:00:00:00:00:00:CA
A5:5A:20:1D:20:C2:20:C3:20:C1:01:E2:00:00:00:00:00:00:00:00:00:00:00:00:00:00:00:00:C5
A5:5A:20:1D:20:C2:20:C3:20:C1:01:E3:00:00:00:00:00:00:00:00:00:00:00:00:00:00:00:00:C6
A5:5A:20:1D:20:C2:20:C3:20:C1:01:E2:00:00:00:00:00:00:00:00:00:00:00:00:00:00:00:00:C5
A5:5A:20:1D:20:C3:20:C4:20:C2:01:EF:00:00:00:00:00:00:00:00:00:00:00:00:00:00:00:00:D5
A5:5A:20:1D:20:C3:20:C4:20:C2:01:ED:00:00:00:00:00:00:00:00:00:00:00:00:00:00:00:00:D3
A5:5A:20:1D:20:C2:20:C2:20:C1:01:E2:00:00:00:00:00:00:00:00:00:00:00:00:00:00:00:00:C4
A5:5A:20:1D:20:C4:20:C4:20:C3:01:F3:00:00:00:00:00:00:00:00:00:00:00:00:00:00:00:00:DB
A5:5A:20:1D:20:C2:20:C2:20:C1:01:E2:00:00:00:00:00:00:00:00:00:00:00:00:00:00:00:00:C4
A5:5A:20:1D:20:C3:20:C4:20:C2:01:EB:00:00:00:00:00:00:00:00:00:00:00:00:00:00:00:00:D1
A5:5A:20:1D:20:C4:20:C4:20:C2:01:F2:00:00:00:00:00:00:00:00:00:00:00:00:00:00:00:00:D9
A5:5A:20:1D:20:C3:20:C4:20:C2:01:EA:00:00:00:00:00:00:00:00:00:00:00:00:00:00:00:00:D0
A5:5A:20:1D:20:C4:20:C4:20:C3:01:F3:00:00:00:00:00:00:00:00:00:00:00:00:00:00:00:00:DB
A5:5A:20:1D:20:C4:20:C4:20:C2:01:F0:00:00:00:00:00:00:00:00:00:00:00:00:00:00:00:00:D7
A5:5A:20:1D:20:C4:20:C4:20:C2:01:F2:00:00:00:00:00:00:00:00:00:00:00:00:00:00:00:00:D9
A5:5A:20:1D:20:C4:20:C4:20:C2:01:EC:00:00:00:00:00:00:00:00:00:00:00:00:00:00:00:00:D3
A5:5A:20:1D:20:C3:20:C4:20:C2:01:F0:00:00:00:00:00:00:00:00:00:00:00:00:00:00:00:00:D6
A5:5A:20:1D:20:C4:20:C4:20:C3:01:F3:00:00:00:00:00:00:00:00:00:00:00:00:00:00:00:00:DB
A5:5A:20:1D:20:C3:20:C4:20:C2:01:EB:00:00:00:00:00:00:00:00:00:00:00:00:00:00:00:00:D1
A5:5A:20:1D:20:C4:20:C4:20:C2:01:F1:00:00:00:00:00:00:00:00:00:00:00:00:00:00:00:00:D8
A5:5A:20:1D:20:C4:20:C5:20:C3:01:F3:00:00:00:00:00:00:00:00:00:00:00:00:00:00:00:00:DC
A5:5A:20:1D:20:C2:20:C2:20:C1:01:E1:00:00:00:00:00:00:00:00:00:00:00:00:00:00:00:00:C3
A5:5A:20:1D:20:C2:20:C2:20:C1:01:E2:00:00:00:00:00:00:00:00:00:00:00:00:00:00:00:00:C4
A5:5A:20:1D:20:C4:20:C4:20:C2:01:F2:00:00:00:00:00:00:00:00:00:00:00:00:00:00:00:00:D9
A5:5A:20:1D:20:C4:20:C4:20:C2:01:F0:00:00:00:00:00:00:00:00:00:00:00:00:00:00:00:00:D7
A5:5A:20:1D:20:C2:20:C3:20:C1:01:E3:00:00:00:00:00:00:00:00:00:00:00:00:00:00:00:00:C6
A5:5A:20:1D:20:C2:20:C3:20:C1:01:E2:00:00:00:00:00:00:00:00:00:00:00:00:00:00:00:00:C5
A5:5A:20:1D:20:C4:20:C4:20:C2:01:F0:00:00:00:00:00:00:00:00:00:00:00:00:00:00:00:00:D7
A5:5A:20:1D:20:C4:20:C4:20:C2:01:F1:00:00:00:00:00:00:00:00:00:00:00:00:00:00:00:00:D8
A5:5A:20:1D:20:C3:20:C4:20:C2:01:EE:00:00:00:00:00:00:00:00:00:00:00:00:00:00:00:00:D4
A5:5A:20:1D:20:C4:20:C4:20:C2:01:F2:00:00:00:00:00:00:00:00:00:00:00:00:00:00:00:00:D9
A5:5A:20:1D:20:C2:20:C3:20:C1:01:E2:00:00:00:00:00:00:00:00:00:00:00:00:00:00:00:00:C5
A5:5A:20:1D:20:C2:20:C2:20:C1:01:E1:00:00:00:00:00:00:00:00:00:00:00:00:00:00:00:00:C3
A5:5A:20:1D:20:C2:20:C3:20:C1:01:E1:00:00:00:00:00:00:00:00:00:00:00:00:00:00:00:00:C4
A5:5A:20:1D:20:C2:20:C3:20:C1:01:E1:00:00:00:00:00:00:00:00:00:00:00:00:00:00:00:00:C4
A5:5A:20:1D:20:C2:20:C2:20:C1:01:E1:00:00:00:00:00:00:00:00:00:00:00:00:00:00:00:00:C3
A5:5A:20:1D:20:C3:20:C4:20:C2:01:E7:00:00:00:00:00:00:00:00:00:00:00:00:00:00:00:00:CD
A5:5A:20:1D:20:C4:20:C4:20:C3:01:F3:00:00:00:00:00:00:00:00:00:00:00:00:00:00:00:00:DB
A5:5A:20:1D:20:C2:20:C2:20:C1:01:E1:00:00:00:00:00:00:00:00:00:00:00:00:00:00:00:00:C3
A5:5A:20:1D:20:C2:20:C3:20:C1:01:E1:00:00:00:00:00:00:00:00:00:00:00:00:00:00:00:00:C4
A5:5A:20:1D:20:C2:20:C3:20:C1:01:E1:00:00:00:00:00:00:00:00:00:00:00:00:00:00:00:00:C4
A5:5A:20:1D:20:C3:20:C4:20:C2:01:E9:00:00:00:00:00:00:00:00:00:00:00:00:00:00:00:00:CF
A5:5A:20:1D:20:C2:20:C3:20:C1:01:E1:00:00:00:00:00:00:00:00:00:00:00:00:00:00:00:00:C4
A5:5A:20:1D:20:C4:20:C4:20:C3:01:F3:00:00:00:00:00:00:00:00:00:00:00:00:00:00:00:00:DB
A5:5A:20:1D:20:C4:20:C4:20:C2:01:ED:00:00:00:00:00:00:00:00:00:00:00:00:00:00:00:00:D4
A5:5A:20:1D:20:C3:20:C3:20:C1:01:E7:00:00:00:00:00:00:00:00:00:00:00:00:00:00:00:00:CB
A5:5A:20:1D:20:C3:20:C4:20:C2:01:EA:00:00:00:00:00:00:00:00:00:00:00:00:00:00:00:00:D0
A5:5A:20:1D:20:C3:20:C4:20:C2:01:EF:00:00:00:00:00:00:00:00:00:00:00:00:00:00:00:00:D5
A5:5A:20:1D:20:C2:20:C3:20:C1:01:E1:00:00:00:00:00:00:00:00:00:00:00:00:00:00:00:00:C4
A5:5A:20:1D:20:C2:20:C3:20:C1:01:E1:00:00:00:00:00:00:00:00:00:00:00:00:00:00:00:00:C4
A5:5A:20:1D:20:C2:20:C3:20:C1:01:E4:00:00:00:00:00:00:00:00:00:00:00:00:00:00:00:00:C7
A5:5A:20:1D:20:C2:20:C3:20:C1:01:E1:00:00:00:00:00:00:00:00:00:00:00:00:00:00:00:00:C4
A5:5A:20:1D:20:C2:20:C2:20:C1:01:E1:00:00:00:00:00:00:00:00:00:00:00:00:00:00:00:00:C3
A5:5A:20:1D:20:C3:20:C4:20:C2:01:EF:00:00:00:00:00:00:00:00:00:00:00:00:00:00:00:00:D5
A5:5A:20:1D:20:C2:20:C3:20:C1:01:E1:00:00:00:00:00:00:00:00:00:00:00:00:00:00:00:00:C4
A5:5A:20:1D:20:C3:20:C4:20:C2:01:E9:00:00:00:00:00:00:00:00:00:00:00:00:00:00:00:00:CF
A5:5A:20:1D:20:C2:20:C3:20:C0:01:E1:00:00:00:00:00:00:00:00:00:00:00:00:00:00:00:00:C3
A5:5A:20:1D:20:C3:20:C3:20:C1:01:EA:00:00:00:00:00:00:00:00:00:00:00:00:00:00:00:00:CE
A5:5A:20:1D:20:C2:20:C3:20:C1:01:E1:00:00:00:00:00:00:00:00:00:00:00:00:00:00:00:00:C4
A5:5A:20:1D:20:C2:20:C3:20:C1:01:E2:00:00:00:00:00:00:00:00:00:00:00:00:00:00:00:00:C5
A5:5A:20:1D:20:C4:20:C4:20:C2:01:F1:00:00:00:00:00:00:00:00:00:00:00:00:00:00:00:00:D8
A5:5A:20:1D:20:C2:20:C3:20:C1:01:E1:00:00:00:00:00:00:00:00:00:00:00:00:00:00:00:00:C4
A5:5A:20:1D:20:C4:20:C4:20:C2:01:F2:00:00:00:00:00:00:00:00:00:00:00:00:00:00:00:00:D9
A5:5A:20:1D:20:C2:20:C3:20:C1:01:E1:00:00:00:00:00:00:00:00:00:00:00:00:00:00:00:00:C4
A5:5A:20:1D:20:C4:20:C4:20:C2:01:F3:00:00:00:00:00:00:00:00:00:00:00:00:00:00:00:00:DA
A5:5A:20:1D:20:C4:20:C4:20:C2:01:F3:00:00:00:00:00:00:00:00:00:00:00:00:00:00:00:00:DA
A5:5A:20:1D:20:C4:20:C5:20:C3:01:F1:00:00:00:00:00:00:00:00:00:00:00:00:00:00:00:00:DA
A5:5A:20:1D:20:C4:20:C5:20:C3:01:F3:00:00:00:00:00:00:00:00:00:00:00:00:00:00:00:00:DC
A5:5A:20:1D:20:C2:20:C2:20:C1:01:E1:00:00:00:00:00:00:00:00:00:00:00:00:00:00:00:00:C3
A5:5A:20:1D:20:C2:20:C2:20:C1:01:E4:00:00:00:00:00:00:00:00:00:00:00:00:00:00:00:00:C6
A5:5A:20:1D:20:C2:20:C2:20:C1:01:E1:00:00:00:00:00:00:00:00:00:00:00:00:00:00:00:00:C3
A5:5A:20:1D:20:C2:20:C2:20:C0:01:DF:00:00:00:00:00:00:00:00:00:00:00:00:00:00:00:00:C0
A5:5A:20:1D:20:C3:20:C3:20:C1:01:E5:00:00:00:00:00:00:00:00:00:00:00:00:00:00:00:00:C9
A5:5A:20:1D:20:C4:20:C4:20:C2:01:F3:00:00:00:00:00:00:00:00:00:00:00:00:00:00:00:00:DA
A5:5A:20:1D:20:C4:20:C4:20:C2:01:EF:00:00:00:00:00:00:00:00:00:00:00:00:00:00:00:00:D6
A5:5A:20:1D:20:C3:20:C4:20:C2:01:F0:00:00:00:00:00:00:00:00:00:00:00:00:00:00:00:00:D6
A5:5A:20:1D:20:C2:20:C4:20:C1:01:EB:00:00:00:00:00:00:00:00:00:00:00:00:00:00:00:00:CF
A5:5A:20:1D:20:C2:20:C2:20:C0:01:E3:00:00:00:00:00:00:00:00:00:00:00:00:00:00:00:00:C4
A5:5A:20:1D:20:C4:20:C4:20:C2:01:F2:00:00:00:00:00:00:00:00:00:00:00:00:00:00:00:00:D9
A5:5A:20:1D:20:C4:20:C4:20:C2:01:F1:00:00:00:00:00:00:00:00:00:00:00:00:00:00:00:00:D8
A5:5A:20:1D:20:C3:20:C4:20:C2:01:EC:00:00:00:00:00:00:00:00:00:00:00:00:00:00:00:00:D2
A5:5A:20:1D:20:C2:20:C3:20:C1:01:E1:00:00:00:00:00:00:00:00:00:00:00:00:00:00:00:00:C4
A5:5A:20:1D:20:C2:20:C3:20:C1:01:E5:00:00:00:00:00:00:00:00:00:00:00:00:00:00:00:00:C8
A5:5A:20:1D:20:C4:20:C4:20:C3:01:F3:00:00:00:00:00:00:00:00:00:00:00:00:00:00:00:00:DB
A5:5A:20:1D:20:C4:20:C4:20:C3:01:F3:00:00:00:00:00:00:00:00:00:00:00:00:00:00:00:00:DB
A5:5A:20:1D:20:C2:20:C3:20:C1:01:E8:00:00:00:00:00:00:00:00:00:00:00:00:00:00:00:00:CB
A5:5A:20:1D:20:C4:20:C4:20:C2:01:F1:00:00:00:00:00:00:00:00:00:00:00:00:00:00:00:00:D8
A5:5A:20:1D:20:C4:20:C4:20:C2:01:F1:00:00:00:00:00:00:00:00:00:00:00:00:00:00:00:00:D8
A5:5A:20:1D:20:C4:20:C4:20:C3:01:F1:00:00:00:00:00:00:00:00:00:00:00:00:00:00:00:00:D9
A5:5A:20:1D:20:C2:20:C3:20:C1:01:E6:00:00:00:00:00:00:00:00:00:00:00:00:00:00:00:00:C9
A5:5A:20:1D:20:C4:20:C4:20:C2:01:F2:00:00:00:00:00:00:00:00:00:00:00:00:00:00:00:00:D9
A5:5A:20:1D:20:C2:20:C3:20:C1:01:E1:00:00:00:00:00:00:00:00:00:00:00:00:00:00:00:00:C4
A5:5A:20:1D:20:C4:20:C4:20:C3:01:F3:00:00:00:00:00:00:00:00:00:00:00:00:00:00:00:00:DB
A5:5A:20:1D:20:C4:20:C4:20:C3:01:F0:00:00:00:00:00:00:00:00:00:00:00:00:00:00:00:00:D8
A5:5A:20:1D:20:C4:20:C5:20:C3:01:F4:00:00:00:00:00:00:00:00:00:00:00:00:00:00:00:00:DD
A5:5A:20:1D:20:C4:20:C5:20:C3:01:F0:00:00:00:00:00:00:00:00:00:00:00:00:00:00:00:00:D9
A5:5A:20:1D:20:C4:20:C4:20:C2:01:F2:00:00:00:00:00:00:00:00:00:00:00:00:00:00:00:00:D9
A5:5A:20:1D:20:C2:20:C3:20:C1:01:E1:00:00:00:00:00:00:00:00:00:00:00:00:00:00:00:00:C4
A5:5A:20:1D:20:C4:20:C4:20:C2:01:F0:00:00:00:00:00:00:00:00:00:00:00:00:00:00:00:00:D7
A5:5A:20:1D:20:C4:20:C5:20:C3:01:F4:00:00:00:00:00:00:00:00:00:00:00:00:00:00:00:00:DD
A5:5A:20:1D:20:C2:20:C3:20:C1:01:E2:00:00:00:00:00:00:00:00:00:00:00:00:00:00:00:00:C5
A5:5A:20:1D:20:C2:20:C3:20:C1:01:E1:00:00:00:00:00:00:00:00:00:00:00:00:00:00:00:00:C4
A5:5A:20:1D:20:C4:20:C4:20:C2:01:F3:00:00:00:00:00:00:00:00:00:00:00:00:00:00:00:00:DA
A5:5A:20:1D:20:C4:20:C4:20:C2:01:F1:00:00:00:00:00:00:00:00:00:00:00:00:00:00:00:00:D8
A5:5A:20:1D:20:C3:20:C4:20:C2:01:ED:00:00:00:00:00:00:00:00:00:00:00:00:00:00:00:00:D3
A5:5A:20:1D:20:C3:20:C4:20:C2:01:E8:00:00:00:00:00:00:00:00:00:00:00:00:00:00:00:00:CE
A5:5A:20:1D:20:C3:20:C4:20:C2:01:EF:00:00:00:00:00:00:00:00:00:00:00:00:00:00:00:00:D5
A5:5A:20:1D:20:C3:20:C4:20:C2:01:EB:00:00:00:00:00:00:00:00:00:00:00:00:00:00:00:00:D1
A5:5A:20:1D:20:C3:20:C4:20:C2:01:E8:00:00:00:00:00:00:00:00:00:00:00:00:00:00:00:00:CE
A5:5A:20:1D:20:C2:20:C4:20:C1:01:E3:00:00:00:00:00:00:00:00:00:00:00:00:00:00:00:00:C7
A5:5A:20:1D:20:C2:20:C3:20:C2:01:E2:00:00:00:00:00:00:00:00:00:00:00:00:00:00:00:00:C6
A5:5A:20:1D:20:C2:20:C3:20:C1:01:E3:00:00:00:00:00:00:00:00:00:00:00:00:00:00:00:00:C6
A5:5A:20:1D:20:C4:20:C4:20:C3:01:ED:00:00:00:00:00:00:00:00:00:00:00:00:00:00:00:00:D5
A5:5A:20:1D:20:C3:20:C3:20:C2:01:E5:00:00:00:00:00:00:00:00:00:00:00:00:00:00:00:00:CA
A5:5A:20:1D:20:C4:20:C5:20:C4:01:F3:00:00:00:00:00:00:00:00:00:00:00:00:00:00:00:00:DD
A5:5A:20:1D:20:C3:20:C4:20:C2:01:E3:00:00:00:00:00:00:00:00:00:00:00:00:00:00:00:00:C9
A5:5A:20:1D:20:C2:20:C3:20:C2:01:E3:00:00:00:00:00:00:00:00:00:00:00:00:00:00:00:00:C7
A5:5A:20:1D:20:C3:20:C4:20:C2:01:E9:00:00:00:00:00:00:00:00:00:00:00:00:00:00:00:00:CF
A5:5A:20:1D:20:C3:20:C4:20:C2:01:E8:00:00:00:00:00:00:00:00:00:00:00:00:00:00:00:00:CE
A5:5A:20:1D:20:C4:20:C5:20:C2:01:F3:00:00:00:00:00:00:00:00:00:00:00:00:00:00:00:00:DB
A5:5A:20:1D:20:C3:20:C4:20:C2:01:EB:00:00:00:00:00:00:00:00:00:00:00:00:00:00:00:00:D1
A5:5A:20:1D:20:C2:20:C3:20:C1:01:E2:00:00:00:00:00:00:00:00:00:00:00:00:00:00:00:00:C5
A5:5A:20:1D:20:C2:20:C3:20:C1:01:E1:00:00:00:00:00:00:00:00:00:00:00:00:00:00:00:00:C4
A5:5A:20:1D:20:C2:20:C3:20:C1:01:E2:00:00:00:00:00:00:00:00:00:00:00:00:00:00:00:00:C5
A5:5A:20:1D:20:C2:20:C3:20:C1:01:E3:00:00:00:00:00:00:00:00:00:00:00:00:00:00:00:00:C6
A5:5A:20:1D:20:C3:20:C4:20:C2:01:EF:00:00:00:00:00:00:00:00:00:00:00:00:00:00:00:00:D5
A5:5A:20:1D:20:C4:20:C4:20:C2:01:ED:00:00:00:00:00:00:00:00:00:00:00:00:00:00:00:00:D4
A5:5A:20:1D:20:C4:20:C5:20:C3:01:F1:00:00:00:00:00:00:00:00:00:00:00:00:00:00:00:00:DA
A5:5A:20:1D:20:C3:20:C4:20:C2:01:EA:00:00:00:00:00:00:00:00:00:00:00:00:00:00:00:00:D0
A5:5A:20:1D:20:C2:20:C3:20:C1:01:E3:00:00:00:00:00:00:00:00:00:00:00:00:00:00:00:00:C6
A5:5A:20:1D:20:C2:20:C3:20:C1:01:E2:00:00:00:00:00:00:00:00:00:00:00:00:00:00:00:00:C5
A5:5A:20:1D:20:C2:20:C2:20:C1:01:E2:00:00:00:00:00:00:00:00:00:00:00:00:00:00:00:00:C4
A5:5A:20:1D:20:C4:20:C4:20:C2:01:EE:00:00:00:00:00:00:00:00:00:00:00:00:00:00:00:00:D5
A5:5A:20:1D:20:C2:20:C3:20:C1:01:E3:00:00:00:00:00:00:00:00:00:00:00:00:00:00:00:00:C6
A5:5A:20:1D:20:C4:20:C4:20:C3:01:F1:00:00:00:00:00:00:00:00:00:00:00:00:00:00:00:00:D9