%
M48
M72
T01C0.01000
T02C0.03937
T03C0.05118
%
T01
X142000Y121400
X142000Y131400
X162000Y131400
X162000Y121400
X179000Y131900
X195000Y131900
X195000Y148900
X206000Y159900
X227500Y158900
X245000Y158400
X262000Y164400
X269000Y159400
X261000Y179400
X269000Y184400
X264000Y196400
X286000Y203400
X288000Y220400
X298000Y220400
X303000Y229400
X288000Y235400
X284000Y245400
X277000Y244400
X272000Y230400
X266000Y230400
X267000Y225400
X263000Y217400
X260000Y236400
X261000Y243900
X257000Y262900
X264000Y266400
X285000Y285400
X303000Y271400
X324000Y289400
X324000Y298400
X306000Y297400
X325000Y317400
X331000Y318400
X331000Y328400
X346000Y320400
X357000Y309400
X346000Y298400
X362000Y291400
X364000Y279400
X349000Y271400
X370500Y255400
X374000Y257900
X376000Y260900
X377000Y249400
X372000Y249400
X388000Y234400
X393000Y234400
X398000Y238400
X401000Y235400
X396000Y245400
X396000Y252400
X393500Y255900
X414000Y257400
X424000Y264400
X420000Y267900
X428000Y260900
X442000Y251400
X455000Y255400
X470500Y250400
X477500Y250400
X472500Y258900
X472000Y266400
X477000Y269550
X484000Y263400
X486000Y257400
X502000Y251400
X512000Y249400
X512000Y235400
X502000Y231400
X512000Y221400
X502000Y211400
X493000Y210400
X488000Y201400
X477000Y192400
X484000Y187400
X486000Y182400
X478500Y175400
X476000Y182400
X472000Y184400
X469500Y175400
X471000Y163900
X477000Y163900
X483000Y163400
X502000Y171400
X512000Y175400
X512000Y159400
X512000Y141400
X490000Y121400
X482000Y131400
X468000Y121400
X456000Y145400
X456000Y163400
X459000Y170400
X456000Y175400
X456000Y181400
X456000Y191400
X468000Y198400
X442000Y191400
X442000Y175400
X438000Y163400
X422000Y163400
X422000Y179400
X402000Y171400
X391000Y155900
X402000Y151400
X407000Y146400
X422000Y145400
X438000Y145400
X423000Y129400
X392000Y121400
X387000Y134400
X377000Y134400
X367000Y134400
X357000Y134400
X347000Y134400
X337000Y134400
X327000Y134400
X317000Y134400
X307000Y134400
X297000Y134400
X287000Y134400
X277000Y134400
X267000Y134400
X257000Y134400
X240000Y139400
X222500Y179400
X206000Y206900
X217000Y209400
X223000Y209400
X218000Y223400
X230000Y242400
X221000Y249400
X230000Y256400
X239000Y257400
X239000Y249400
X239000Y241400
X206000Y254900
X175000Y248900
X169000Y248400
X169000Y234400
X175000Y234900
X175000Y220900
X169000Y220400
X169000Y206400
X175000Y206900
X175000Y192900
X169000Y192400
X169000Y178400
X175000Y178900
X175000Y164900
X169000Y164400
X169000Y150400
X175000Y150400
X183000Y148900
X126000Y151400
X112000Y151400
X124500Y176400
X124500Y186400
X124500Y196400
X124500Y206400
X124500Y215400
X124500Y225400
X124500Y235400
X124500Y246400
X124500Y256400
X124500Y265400
X124500Y276400
X124500Y286400
X124500Y296400
X124500Y304400
X112000Y331400
X112000Y355400
X142000Y371400
X145000Y388400
X162000Y371400
X182000Y371400
X202500Y374900
X215000Y385400
X222000Y391400
X220000Y401400
X240000Y401400
X256000Y398400
X272000Y405400
X282000Y391400
X296500Y387400
X308500Y375400
X324000Y362400
X305000Y345400
X305000Y339400
X305000Y333400
X305000Y327400
X305000Y321400
X256000Y299400
X233000Y311400
X216000Y311400
X216000Y299400
X193000Y315900
X190000Y332900
X175000Y318900
X169000Y318400
X169000Y304400
X175000Y304900
X175000Y290900
X169000Y290400
X169000Y276400
X175000Y276900
X175000Y262900
X169000Y262400
X169000Y332400
X164000Y336900
X142000Y331400
X123000Y392400
X112000Y405400
X142000Y431400
X154000Y419400
X172000Y419400
X172000Y405400
X192000Y419400
X195000Y395400
X222000Y431400
X242000Y431400
X272000Y427400
X307000Y427400
X307000Y405400
X263000Y377400
X250000Y379400
X233000Y333400
X216000Y333400
X326000Y250400
X349000Y227400
X352600Y217400
X366000Y222400
X369000Y218400
X391000Y204400
X400000Y204400
X414000Y221400
X422000Y211400
X422000Y231400
X442000Y211400
X465000Y238400
X477000Y238400
X483000Y235400
X468500Y272900
X468500Y277900
X488000Y281400
X493000Y288400
X502000Y291400
X512000Y303400
X512000Y317400
X512000Y333400
X502000Y331400
X486000Y339400
X478500Y332400
X469500Y332400
X472000Y341400
X476500Y351400
X483500Y347400
X488000Y361400
X493000Y370400
X502000Y371400
X512000Y379400
X512000Y395400
X512000Y411400
X482000Y411400
X482000Y431400
X452000Y423400
X437000Y423400
X422000Y411400
X405000Y424400
X395000Y421400
X385000Y421400
X375000Y421400
X380000Y403400
X390000Y403400
X400000Y403400
X402000Y391400
X402000Y371400
X402000Y351400
X375000Y331400
X367000Y337400
X372000Y324400
X385000Y309900
X382000Y291400
X396000Y279400
X402000Y291400
X415000Y277400
X424000Y281400
X433000Y277400
X442000Y271400
X442000Y291400
X430000Y309400
X422000Y311400
X440000Y321400
X451000Y324400
X455000Y338400
X471000Y322400
X477000Y322400
X468500Y357900
X475000Y368400
X474500Y374400
X462000Y391400
X440000Y403400
X422000Y391400
X440000Y357400
X362000Y351400
X362000Y371400
X362000Y391400
X352000Y421400
X327200Y210400
X328000Y206400
X322500Y202400
X308000Y189400
X311000Y186400
X318000Y183400
X326000Y184400
X328000Y174400
X310000Y158900
X308000Y173400
X354000Y164400
X359000Y158400
X367000Y164400
X371000Y166400
X374000Y169400
X369000Y176400
X362000Y171400
X369000Y192400
X353000Y192400
T02
X352000Y121400
X342000Y121400
X332000Y121400
X322000Y121400
X312000Y121400
X302000Y121400
X292000Y121400
X282000Y121400
X272000Y121400
X262000Y121400
X252000Y121400
X236000Y121400
X226000Y121400
X216000Y121400
X206000Y121400
X187000Y121400
X132000Y166400
X132000Y176400
X132000Y186400
X132000Y196400
X132000Y206400
X132000Y215400
X132000Y225400
X133000Y236400
X133000Y246400
X133000Y256400
X133000Y266400
X133000Y276400
X133000Y286400
X133000Y296400
X112000Y300400
X112000Y290400
X112000Y280400
X112000Y269900
X112000Y260400
X112000Y250400
X112000Y240400
X112000Y230400
X112000Y220400
X112000Y211400
X112000Y201400
X112000Y191400
X112000Y181400
X112000Y171400
X242000Y193400
X242000Y203400
X242000Y213400
X242000Y223400
X258000Y221400
X362000Y121400
X372000Y121400
X382000Y121400
X407000Y121400
X417000Y121400
X427000Y121400
X437000Y121400
X447000Y121400
X457000Y121400
X469000Y151400
X479000Y151400
X489000Y151400
X499000Y151400
X493000Y165400
X493000Y175400
X512000Y185400
X512000Y195400
X512000Y205400
X489500Y221400
X479500Y221400
X469500Y221400
X459500Y221400
X493000Y239400
X493000Y249400
X512000Y261400
X512000Y271400
X512000Y281400
X489500Y301400
X479500Y301400
X469500Y301400
X459500Y301400
X493000Y313400
X493000Y323400
X512000Y343400
X512000Y353400
X512000Y363400
X489500Y381400
X479500Y381400
X469500Y381400
X459500Y381400
X457000Y431400
X447000Y431400
X437000Y431400
X427000Y431400
X400000Y431400
X390000Y431400
X380000Y431400
X342000Y421400
X342000Y411400
X332000Y411400
X332000Y421400
X322000Y421400
X322000Y411400
X312000Y411400
X312000Y421400
X302000Y421400
X302000Y411400
X292000Y411400
X292000Y421400
X282000Y421400
X282000Y411400
X182000Y411400
X182000Y401400
X182000Y391400
X162000Y391400
X162000Y401400
X162000Y411400
X162000Y431400
X172000Y431400
X182000Y431400
T03
X125000Y353243
X125000Y333557
M30
