G04 EAGLE Gerber X2 export*
G75*
%MOMM*%
%FSLAX34Y34*%
%LPD*%
%AMOC8*
5,1,8,0,0,1.08239X$1,22.5*%
G01*
%ADD10C,0.000000*%
%ADD11C,0.101600*%
%ADD12C,0.203200*%


D10*
X0Y0D02*
X1143000Y0D01*
X1143000Y762000D01*
X0Y762000D01*
X0Y0D01*
X56388Y685800D02*
X56394Y686286D01*
X56412Y686772D01*
X56442Y687257D01*
X56483Y687742D01*
X56537Y688225D01*
X56602Y688707D01*
X56680Y689187D01*
X56769Y689665D01*
X56869Y690141D01*
X56982Y690614D01*
X57106Y691084D01*
X57241Y691551D01*
X57388Y692015D01*
X57546Y692474D01*
X57716Y692930D01*
X57896Y693382D01*
X58088Y693829D01*
X58290Y694271D01*
X58503Y694708D01*
X58727Y695139D01*
X58962Y695565D01*
X59207Y695985D01*
X59462Y696399D01*
X59727Y696807D01*
X60002Y697208D01*
X60287Y697602D01*
X60581Y697989D01*
X60885Y698369D01*
X61198Y698741D01*
X61520Y699105D01*
X61851Y699461D01*
X62191Y699809D01*
X62539Y700149D01*
X62895Y700480D01*
X63259Y700802D01*
X63631Y701115D01*
X64011Y701419D01*
X64398Y701713D01*
X64792Y701998D01*
X65193Y702273D01*
X65601Y702538D01*
X66015Y702793D01*
X66435Y703038D01*
X66861Y703273D01*
X67292Y703497D01*
X67729Y703710D01*
X68171Y703912D01*
X68618Y704104D01*
X69070Y704284D01*
X69526Y704454D01*
X69985Y704612D01*
X70449Y704759D01*
X70916Y704894D01*
X71386Y705018D01*
X71859Y705131D01*
X72335Y705231D01*
X72813Y705320D01*
X73293Y705398D01*
X73775Y705463D01*
X74258Y705517D01*
X74743Y705558D01*
X75228Y705588D01*
X75714Y705606D01*
X76200Y705612D01*
X76686Y705606D01*
X77172Y705588D01*
X77657Y705558D01*
X78142Y705517D01*
X78625Y705463D01*
X79107Y705398D01*
X79587Y705320D01*
X80065Y705231D01*
X80541Y705131D01*
X81014Y705018D01*
X81484Y704894D01*
X81951Y704759D01*
X82415Y704612D01*
X82874Y704454D01*
X83330Y704284D01*
X83782Y704104D01*
X84229Y703912D01*
X84671Y703710D01*
X85108Y703497D01*
X85539Y703273D01*
X85965Y703038D01*
X86385Y702793D01*
X86799Y702538D01*
X87207Y702273D01*
X87608Y701998D01*
X88002Y701713D01*
X88389Y701419D01*
X88769Y701115D01*
X89141Y700802D01*
X89505Y700480D01*
X89861Y700149D01*
X90209Y699809D01*
X90549Y699461D01*
X90880Y699105D01*
X91202Y698741D01*
X91515Y698369D01*
X91819Y697989D01*
X92113Y697602D01*
X92398Y697208D01*
X92673Y696807D01*
X92938Y696399D01*
X93193Y695985D01*
X93438Y695565D01*
X93673Y695139D01*
X93897Y694708D01*
X94110Y694271D01*
X94312Y693829D01*
X94504Y693382D01*
X94684Y692930D01*
X94854Y692474D01*
X95012Y692015D01*
X95159Y691551D01*
X95294Y691084D01*
X95418Y690614D01*
X95531Y690141D01*
X95631Y689665D01*
X95720Y689187D01*
X95798Y688707D01*
X95863Y688225D01*
X95917Y687742D01*
X95958Y687257D01*
X95988Y686772D01*
X96006Y686286D01*
X96012Y685800D01*
X96006Y685314D01*
X95988Y684828D01*
X95958Y684343D01*
X95917Y683858D01*
X95863Y683375D01*
X95798Y682893D01*
X95720Y682413D01*
X95631Y681935D01*
X95531Y681459D01*
X95418Y680986D01*
X95294Y680516D01*
X95159Y680049D01*
X95012Y679585D01*
X94854Y679126D01*
X94684Y678670D01*
X94504Y678218D01*
X94312Y677771D01*
X94110Y677329D01*
X93897Y676892D01*
X93673Y676461D01*
X93438Y676035D01*
X93193Y675615D01*
X92938Y675201D01*
X92673Y674793D01*
X92398Y674392D01*
X92113Y673998D01*
X91819Y673611D01*
X91515Y673231D01*
X91202Y672859D01*
X90880Y672495D01*
X90549Y672139D01*
X90209Y671791D01*
X89861Y671451D01*
X89505Y671120D01*
X89141Y670798D01*
X88769Y670485D01*
X88389Y670181D01*
X88002Y669887D01*
X87608Y669602D01*
X87207Y669327D01*
X86799Y669062D01*
X86385Y668807D01*
X85965Y668562D01*
X85539Y668327D01*
X85108Y668103D01*
X84671Y667890D01*
X84229Y667688D01*
X83782Y667496D01*
X83330Y667316D01*
X82874Y667146D01*
X82415Y666988D01*
X81951Y666841D01*
X81484Y666706D01*
X81014Y666582D01*
X80541Y666469D01*
X80065Y666369D01*
X79587Y666280D01*
X79107Y666202D01*
X78625Y666137D01*
X78142Y666083D01*
X77657Y666042D01*
X77172Y666012D01*
X76686Y665994D01*
X76200Y665988D01*
X75714Y665994D01*
X75228Y666012D01*
X74743Y666042D01*
X74258Y666083D01*
X73775Y666137D01*
X73293Y666202D01*
X72813Y666280D01*
X72335Y666369D01*
X71859Y666469D01*
X71386Y666582D01*
X70916Y666706D01*
X70449Y666841D01*
X69985Y666988D01*
X69526Y667146D01*
X69070Y667316D01*
X68618Y667496D01*
X68171Y667688D01*
X67729Y667890D01*
X67292Y668103D01*
X66861Y668327D01*
X66435Y668562D01*
X66015Y668807D01*
X65601Y669062D01*
X65193Y669327D01*
X64792Y669602D01*
X64398Y669887D01*
X64011Y670181D01*
X63631Y670485D01*
X63259Y670798D01*
X62895Y671120D01*
X62539Y671451D01*
X62191Y671791D01*
X61851Y672139D01*
X61520Y672495D01*
X61198Y672859D01*
X60885Y673231D01*
X60581Y673611D01*
X60287Y673998D01*
X60002Y674392D01*
X59727Y674793D01*
X59462Y675201D01*
X59207Y675615D01*
X58962Y676035D01*
X58727Y676461D01*
X58503Y676892D01*
X58290Y677329D01*
X58088Y677771D01*
X57896Y678218D01*
X57716Y678670D01*
X57546Y679126D01*
X57388Y679585D01*
X57241Y680049D01*
X57106Y680516D01*
X56982Y680986D01*
X56869Y681459D01*
X56769Y681935D01*
X56680Y682413D01*
X56602Y682893D01*
X56537Y683375D01*
X56483Y683858D01*
X56442Y684343D01*
X56412Y684828D01*
X56394Y685314D01*
X56388Y685800D01*
X843788Y685800D02*
X843794Y686286D01*
X843812Y686772D01*
X843842Y687257D01*
X843883Y687742D01*
X843937Y688225D01*
X844002Y688707D01*
X844080Y689187D01*
X844169Y689665D01*
X844269Y690141D01*
X844382Y690614D01*
X844506Y691084D01*
X844641Y691551D01*
X844788Y692015D01*
X844946Y692474D01*
X845116Y692930D01*
X845296Y693382D01*
X845488Y693829D01*
X845690Y694271D01*
X845903Y694708D01*
X846127Y695139D01*
X846362Y695565D01*
X846607Y695985D01*
X846862Y696399D01*
X847127Y696807D01*
X847402Y697208D01*
X847687Y697602D01*
X847981Y697989D01*
X848285Y698369D01*
X848598Y698741D01*
X848920Y699105D01*
X849251Y699461D01*
X849591Y699809D01*
X849939Y700149D01*
X850295Y700480D01*
X850659Y700802D01*
X851031Y701115D01*
X851411Y701419D01*
X851798Y701713D01*
X852192Y701998D01*
X852593Y702273D01*
X853001Y702538D01*
X853415Y702793D01*
X853835Y703038D01*
X854261Y703273D01*
X854692Y703497D01*
X855129Y703710D01*
X855571Y703912D01*
X856018Y704104D01*
X856470Y704284D01*
X856926Y704454D01*
X857385Y704612D01*
X857849Y704759D01*
X858316Y704894D01*
X858786Y705018D01*
X859259Y705131D01*
X859735Y705231D01*
X860213Y705320D01*
X860693Y705398D01*
X861175Y705463D01*
X861658Y705517D01*
X862143Y705558D01*
X862628Y705588D01*
X863114Y705606D01*
X863600Y705612D01*
X864086Y705606D01*
X864572Y705588D01*
X865057Y705558D01*
X865542Y705517D01*
X866025Y705463D01*
X866507Y705398D01*
X866987Y705320D01*
X867465Y705231D01*
X867941Y705131D01*
X868414Y705018D01*
X868884Y704894D01*
X869351Y704759D01*
X869815Y704612D01*
X870274Y704454D01*
X870730Y704284D01*
X871182Y704104D01*
X871629Y703912D01*
X872071Y703710D01*
X872508Y703497D01*
X872939Y703273D01*
X873365Y703038D01*
X873785Y702793D01*
X874199Y702538D01*
X874607Y702273D01*
X875008Y701998D01*
X875402Y701713D01*
X875789Y701419D01*
X876169Y701115D01*
X876541Y700802D01*
X876905Y700480D01*
X877261Y700149D01*
X877609Y699809D01*
X877949Y699461D01*
X878280Y699105D01*
X878602Y698741D01*
X878915Y698369D01*
X879219Y697989D01*
X879513Y697602D01*
X879798Y697208D01*
X880073Y696807D01*
X880338Y696399D01*
X880593Y695985D01*
X880838Y695565D01*
X881073Y695139D01*
X881297Y694708D01*
X881510Y694271D01*
X881712Y693829D01*
X881904Y693382D01*
X882084Y692930D01*
X882254Y692474D01*
X882412Y692015D01*
X882559Y691551D01*
X882694Y691084D01*
X882818Y690614D01*
X882931Y690141D01*
X883031Y689665D01*
X883120Y689187D01*
X883198Y688707D01*
X883263Y688225D01*
X883317Y687742D01*
X883358Y687257D01*
X883388Y686772D01*
X883406Y686286D01*
X883412Y685800D01*
X883406Y685314D01*
X883388Y684828D01*
X883358Y684343D01*
X883317Y683858D01*
X883263Y683375D01*
X883198Y682893D01*
X883120Y682413D01*
X883031Y681935D01*
X882931Y681459D01*
X882818Y680986D01*
X882694Y680516D01*
X882559Y680049D01*
X882412Y679585D01*
X882254Y679126D01*
X882084Y678670D01*
X881904Y678218D01*
X881712Y677771D01*
X881510Y677329D01*
X881297Y676892D01*
X881073Y676461D01*
X880838Y676035D01*
X880593Y675615D01*
X880338Y675201D01*
X880073Y674793D01*
X879798Y674392D01*
X879513Y673998D01*
X879219Y673611D01*
X878915Y673231D01*
X878602Y672859D01*
X878280Y672495D01*
X877949Y672139D01*
X877609Y671791D01*
X877261Y671451D01*
X876905Y671120D01*
X876541Y670798D01*
X876169Y670485D01*
X875789Y670181D01*
X875402Y669887D01*
X875008Y669602D01*
X874607Y669327D01*
X874199Y669062D01*
X873785Y668807D01*
X873365Y668562D01*
X872939Y668327D01*
X872508Y668103D01*
X872071Y667890D01*
X871629Y667688D01*
X871182Y667496D01*
X870730Y667316D01*
X870274Y667146D01*
X869815Y666988D01*
X869351Y666841D01*
X868884Y666706D01*
X868414Y666582D01*
X867941Y666469D01*
X867465Y666369D01*
X866987Y666280D01*
X866507Y666202D01*
X866025Y666137D01*
X865542Y666083D01*
X865057Y666042D01*
X864572Y666012D01*
X864086Y665994D01*
X863600Y665988D01*
X863114Y665994D01*
X862628Y666012D01*
X862143Y666042D01*
X861658Y666083D01*
X861175Y666137D01*
X860693Y666202D01*
X860213Y666280D01*
X859735Y666369D01*
X859259Y666469D01*
X858786Y666582D01*
X858316Y666706D01*
X857849Y666841D01*
X857385Y666988D01*
X856926Y667146D01*
X856470Y667316D01*
X856018Y667496D01*
X855571Y667688D01*
X855129Y667890D01*
X854692Y668103D01*
X854261Y668327D01*
X853835Y668562D01*
X853415Y668807D01*
X853001Y669062D01*
X852593Y669327D01*
X852192Y669602D01*
X851798Y669887D01*
X851411Y670181D01*
X851031Y670485D01*
X850659Y670798D01*
X850295Y671120D01*
X849939Y671451D01*
X849591Y671791D01*
X849251Y672139D01*
X848920Y672495D01*
X848598Y672859D01*
X848285Y673231D01*
X847981Y673611D01*
X847687Y673998D01*
X847402Y674392D01*
X847127Y674793D01*
X846862Y675201D01*
X846607Y675615D01*
X846362Y676035D01*
X846127Y676461D01*
X845903Y676892D01*
X845690Y677329D01*
X845488Y677771D01*
X845296Y678218D01*
X845116Y678670D01*
X844946Y679126D01*
X844788Y679585D01*
X844641Y680049D01*
X844506Y680516D01*
X844382Y680986D01*
X844269Y681459D01*
X844169Y681935D01*
X844080Y682413D01*
X844002Y682893D01*
X843937Y683375D01*
X843883Y683858D01*
X843842Y684343D01*
X843812Y684828D01*
X843794Y685314D01*
X843788Y685800D01*
X56388Y76200D02*
X56394Y76686D01*
X56412Y77172D01*
X56442Y77657D01*
X56483Y78142D01*
X56537Y78625D01*
X56602Y79107D01*
X56680Y79587D01*
X56769Y80065D01*
X56869Y80541D01*
X56982Y81014D01*
X57106Y81484D01*
X57241Y81951D01*
X57388Y82415D01*
X57546Y82874D01*
X57716Y83330D01*
X57896Y83782D01*
X58088Y84229D01*
X58290Y84671D01*
X58503Y85108D01*
X58727Y85539D01*
X58962Y85965D01*
X59207Y86385D01*
X59462Y86799D01*
X59727Y87207D01*
X60002Y87608D01*
X60287Y88002D01*
X60581Y88389D01*
X60885Y88769D01*
X61198Y89141D01*
X61520Y89505D01*
X61851Y89861D01*
X62191Y90209D01*
X62539Y90549D01*
X62895Y90880D01*
X63259Y91202D01*
X63631Y91515D01*
X64011Y91819D01*
X64398Y92113D01*
X64792Y92398D01*
X65193Y92673D01*
X65601Y92938D01*
X66015Y93193D01*
X66435Y93438D01*
X66861Y93673D01*
X67292Y93897D01*
X67729Y94110D01*
X68171Y94312D01*
X68618Y94504D01*
X69070Y94684D01*
X69526Y94854D01*
X69985Y95012D01*
X70449Y95159D01*
X70916Y95294D01*
X71386Y95418D01*
X71859Y95531D01*
X72335Y95631D01*
X72813Y95720D01*
X73293Y95798D01*
X73775Y95863D01*
X74258Y95917D01*
X74743Y95958D01*
X75228Y95988D01*
X75714Y96006D01*
X76200Y96012D01*
X76686Y96006D01*
X77172Y95988D01*
X77657Y95958D01*
X78142Y95917D01*
X78625Y95863D01*
X79107Y95798D01*
X79587Y95720D01*
X80065Y95631D01*
X80541Y95531D01*
X81014Y95418D01*
X81484Y95294D01*
X81951Y95159D01*
X82415Y95012D01*
X82874Y94854D01*
X83330Y94684D01*
X83782Y94504D01*
X84229Y94312D01*
X84671Y94110D01*
X85108Y93897D01*
X85539Y93673D01*
X85965Y93438D01*
X86385Y93193D01*
X86799Y92938D01*
X87207Y92673D01*
X87608Y92398D01*
X88002Y92113D01*
X88389Y91819D01*
X88769Y91515D01*
X89141Y91202D01*
X89505Y90880D01*
X89861Y90549D01*
X90209Y90209D01*
X90549Y89861D01*
X90880Y89505D01*
X91202Y89141D01*
X91515Y88769D01*
X91819Y88389D01*
X92113Y88002D01*
X92398Y87608D01*
X92673Y87207D01*
X92938Y86799D01*
X93193Y86385D01*
X93438Y85965D01*
X93673Y85539D01*
X93897Y85108D01*
X94110Y84671D01*
X94312Y84229D01*
X94504Y83782D01*
X94684Y83330D01*
X94854Y82874D01*
X95012Y82415D01*
X95159Y81951D01*
X95294Y81484D01*
X95418Y81014D01*
X95531Y80541D01*
X95631Y80065D01*
X95720Y79587D01*
X95798Y79107D01*
X95863Y78625D01*
X95917Y78142D01*
X95958Y77657D01*
X95988Y77172D01*
X96006Y76686D01*
X96012Y76200D01*
X96006Y75714D01*
X95988Y75228D01*
X95958Y74743D01*
X95917Y74258D01*
X95863Y73775D01*
X95798Y73293D01*
X95720Y72813D01*
X95631Y72335D01*
X95531Y71859D01*
X95418Y71386D01*
X95294Y70916D01*
X95159Y70449D01*
X95012Y69985D01*
X94854Y69526D01*
X94684Y69070D01*
X94504Y68618D01*
X94312Y68171D01*
X94110Y67729D01*
X93897Y67292D01*
X93673Y66861D01*
X93438Y66435D01*
X93193Y66015D01*
X92938Y65601D01*
X92673Y65193D01*
X92398Y64792D01*
X92113Y64398D01*
X91819Y64011D01*
X91515Y63631D01*
X91202Y63259D01*
X90880Y62895D01*
X90549Y62539D01*
X90209Y62191D01*
X89861Y61851D01*
X89505Y61520D01*
X89141Y61198D01*
X88769Y60885D01*
X88389Y60581D01*
X88002Y60287D01*
X87608Y60002D01*
X87207Y59727D01*
X86799Y59462D01*
X86385Y59207D01*
X85965Y58962D01*
X85539Y58727D01*
X85108Y58503D01*
X84671Y58290D01*
X84229Y58088D01*
X83782Y57896D01*
X83330Y57716D01*
X82874Y57546D01*
X82415Y57388D01*
X81951Y57241D01*
X81484Y57106D01*
X81014Y56982D01*
X80541Y56869D01*
X80065Y56769D01*
X79587Y56680D01*
X79107Y56602D01*
X78625Y56537D01*
X78142Y56483D01*
X77657Y56442D01*
X77172Y56412D01*
X76686Y56394D01*
X76200Y56388D01*
X75714Y56394D01*
X75228Y56412D01*
X74743Y56442D01*
X74258Y56483D01*
X73775Y56537D01*
X73293Y56602D01*
X72813Y56680D01*
X72335Y56769D01*
X71859Y56869D01*
X71386Y56982D01*
X70916Y57106D01*
X70449Y57241D01*
X69985Y57388D01*
X69526Y57546D01*
X69070Y57716D01*
X68618Y57896D01*
X68171Y58088D01*
X67729Y58290D01*
X67292Y58503D01*
X66861Y58727D01*
X66435Y58962D01*
X66015Y59207D01*
X65601Y59462D01*
X65193Y59727D01*
X64792Y60002D01*
X64398Y60287D01*
X64011Y60581D01*
X63631Y60885D01*
X63259Y61198D01*
X62895Y61520D01*
X62539Y61851D01*
X62191Y62191D01*
X61851Y62539D01*
X61520Y62895D01*
X61198Y63259D01*
X60885Y63631D01*
X60581Y64011D01*
X60287Y64398D01*
X60002Y64792D01*
X59727Y65193D01*
X59462Y65601D01*
X59207Y66015D01*
X58962Y66435D01*
X58727Y66861D01*
X58503Y67292D01*
X58290Y67729D01*
X58088Y68171D01*
X57896Y68618D01*
X57716Y69070D01*
X57546Y69526D01*
X57388Y69985D01*
X57241Y70449D01*
X57106Y70916D01*
X56982Y71386D01*
X56869Y71859D01*
X56769Y72335D01*
X56680Y72813D01*
X56602Y73293D01*
X56537Y73775D01*
X56483Y74258D01*
X56442Y74743D01*
X56412Y75228D01*
X56394Y75714D01*
X56388Y76200D01*
X843788Y76200D02*
X843794Y76686D01*
X843812Y77172D01*
X843842Y77657D01*
X843883Y78142D01*
X843937Y78625D01*
X844002Y79107D01*
X844080Y79587D01*
X844169Y80065D01*
X844269Y80541D01*
X844382Y81014D01*
X844506Y81484D01*
X844641Y81951D01*
X844788Y82415D01*
X844946Y82874D01*
X845116Y83330D01*
X845296Y83782D01*
X845488Y84229D01*
X845690Y84671D01*
X845903Y85108D01*
X846127Y85539D01*
X846362Y85965D01*
X846607Y86385D01*
X846862Y86799D01*
X847127Y87207D01*
X847402Y87608D01*
X847687Y88002D01*
X847981Y88389D01*
X848285Y88769D01*
X848598Y89141D01*
X848920Y89505D01*
X849251Y89861D01*
X849591Y90209D01*
X849939Y90549D01*
X850295Y90880D01*
X850659Y91202D01*
X851031Y91515D01*
X851411Y91819D01*
X851798Y92113D01*
X852192Y92398D01*
X852593Y92673D01*
X853001Y92938D01*
X853415Y93193D01*
X853835Y93438D01*
X854261Y93673D01*
X854692Y93897D01*
X855129Y94110D01*
X855571Y94312D01*
X856018Y94504D01*
X856470Y94684D01*
X856926Y94854D01*
X857385Y95012D01*
X857849Y95159D01*
X858316Y95294D01*
X858786Y95418D01*
X859259Y95531D01*
X859735Y95631D01*
X860213Y95720D01*
X860693Y95798D01*
X861175Y95863D01*
X861658Y95917D01*
X862143Y95958D01*
X862628Y95988D01*
X863114Y96006D01*
X863600Y96012D01*
X864086Y96006D01*
X864572Y95988D01*
X865057Y95958D01*
X865542Y95917D01*
X866025Y95863D01*
X866507Y95798D01*
X866987Y95720D01*
X867465Y95631D01*
X867941Y95531D01*
X868414Y95418D01*
X868884Y95294D01*
X869351Y95159D01*
X869815Y95012D01*
X870274Y94854D01*
X870730Y94684D01*
X871182Y94504D01*
X871629Y94312D01*
X872071Y94110D01*
X872508Y93897D01*
X872939Y93673D01*
X873365Y93438D01*
X873785Y93193D01*
X874199Y92938D01*
X874607Y92673D01*
X875008Y92398D01*
X875402Y92113D01*
X875789Y91819D01*
X876169Y91515D01*
X876541Y91202D01*
X876905Y90880D01*
X877261Y90549D01*
X877609Y90209D01*
X877949Y89861D01*
X878280Y89505D01*
X878602Y89141D01*
X878915Y88769D01*
X879219Y88389D01*
X879513Y88002D01*
X879798Y87608D01*
X880073Y87207D01*
X880338Y86799D01*
X880593Y86385D01*
X880838Y85965D01*
X881073Y85539D01*
X881297Y85108D01*
X881510Y84671D01*
X881712Y84229D01*
X881904Y83782D01*
X882084Y83330D01*
X882254Y82874D01*
X882412Y82415D01*
X882559Y81951D01*
X882694Y81484D01*
X882818Y81014D01*
X882931Y80541D01*
X883031Y80065D01*
X883120Y79587D01*
X883198Y79107D01*
X883263Y78625D01*
X883317Y78142D01*
X883358Y77657D01*
X883388Y77172D01*
X883406Y76686D01*
X883412Y76200D01*
X883406Y75714D01*
X883388Y75228D01*
X883358Y74743D01*
X883317Y74258D01*
X883263Y73775D01*
X883198Y73293D01*
X883120Y72813D01*
X883031Y72335D01*
X882931Y71859D01*
X882818Y71386D01*
X882694Y70916D01*
X882559Y70449D01*
X882412Y69985D01*
X882254Y69526D01*
X882084Y69070D01*
X881904Y68618D01*
X881712Y68171D01*
X881510Y67729D01*
X881297Y67292D01*
X881073Y66861D01*
X880838Y66435D01*
X880593Y66015D01*
X880338Y65601D01*
X880073Y65193D01*
X879798Y64792D01*
X879513Y64398D01*
X879219Y64011D01*
X878915Y63631D01*
X878602Y63259D01*
X878280Y62895D01*
X877949Y62539D01*
X877609Y62191D01*
X877261Y61851D01*
X876905Y61520D01*
X876541Y61198D01*
X876169Y60885D01*
X875789Y60581D01*
X875402Y60287D01*
X875008Y60002D01*
X874607Y59727D01*
X874199Y59462D01*
X873785Y59207D01*
X873365Y58962D01*
X872939Y58727D01*
X872508Y58503D01*
X872071Y58290D01*
X871629Y58088D01*
X871182Y57896D01*
X870730Y57716D01*
X870274Y57546D01*
X869815Y57388D01*
X869351Y57241D01*
X868884Y57106D01*
X868414Y56982D01*
X867941Y56869D01*
X867465Y56769D01*
X866987Y56680D01*
X866507Y56602D01*
X866025Y56537D01*
X865542Y56483D01*
X865057Y56442D01*
X864572Y56412D01*
X864086Y56394D01*
X863600Y56388D01*
X863114Y56394D01*
X862628Y56412D01*
X862143Y56442D01*
X861658Y56483D01*
X861175Y56537D01*
X860693Y56602D01*
X860213Y56680D01*
X859735Y56769D01*
X859259Y56869D01*
X858786Y56982D01*
X858316Y57106D01*
X857849Y57241D01*
X857385Y57388D01*
X856926Y57546D01*
X856470Y57716D01*
X856018Y57896D01*
X855571Y58088D01*
X855129Y58290D01*
X854692Y58503D01*
X854261Y58727D01*
X853835Y58962D01*
X853415Y59207D01*
X853001Y59462D01*
X852593Y59727D01*
X852192Y60002D01*
X851798Y60287D01*
X851411Y60581D01*
X851031Y60885D01*
X850659Y61198D01*
X850295Y61520D01*
X849939Y61851D01*
X849591Y62191D01*
X849251Y62539D01*
X848920Y62895D01*
X848598Y63259D01*
X848285Y63631D01*
X847981Y64011D01*
X847687Y64398D01*
X847402Y64792D01*
X847127Y65193D01*
X846862Y65601D01*
X846607Y66015D01*
X846362Y66435D01*
X846127Y66861D01*
X845903Y67292D01*
X845690Y67729D01*
X845488Y68171D01*
X845296Y68618D01*
X845116Y69070D01*
X844946Y69526D01*
X844788Y69985D01*
X844641Y70449D01*
X844506Y70916D01*
X844382Y71386D01*
X844269Y71859D01*
X844169Y72335D01*
X844080Y72813D01*
X844002Y73293D01*
X843937Y73775D01*
X843883Y74258D01*
X843842Y74743D01*
X843812Y75228D01*
X843794Y75714D01*
X843788Y76200D01*
X49784Y561660D02*
X49789Y562059D01*
X49804Y562458D01*
X49828Y562856D01*
X49862Y563253D01*
X49906Y563650D01*
X49960Y564045D01*
X50023Y564439D01*
X50096Y564831D01*
X50179Y565222D01*
X50271Y565610D01*
X50373Y565996D01*
X50484Y566379D01*
X50604Y566759D01*
X50734Y567136D01*
X50873Y567510D01*
X51021Y567881D01*
X51179Y568248D01*
X51345Y568610D01*
X51520Y568969D01*
X51703Y569323D01*
X51896Y569673D01*
X52097Y570017D01*
X52306Y570357D01*
X52524Y570691D01*
X52749Y571020D01*
X52983Y571344D01*
X53225Y571661D01*
X53474Y571973D01*
X53731Y572278D01*
X53995Y572577D01*
X54267Y572869D01*
X54545Y573155D01*
X54831Y573433D01*
X55123Y573705D01*
X55422Y573969D01*
X55727Y574226D01*
X56039Y574475D01*
X56356Y574717D01*
X56680Y574951D01*
X57009Y575176D01*
X57343Y575394D01*
X57683Y575603D01*
X58027Y575804D01*
X58377Y575997D01*
X58731Y576180D01*
X59090Y576355D01*
X59452Y576521D01*
X59819Y576679D01*
X60190Y576827D01*
X60564Y576966D01*
X60941Y577096D01*
X61321Y577216D01*
X61704Y577327D01*
X62090Y577429D01*
X62478Y577521D01*
X62869Y577604D01*
X63261Y577677D01*
X63655Y577740D01*
X64050Y577794D01*
X64447Y577838D01*
X64844Y577872D01*
X65242Y577896D01*
X65641Y577911D01*
X66040Y577916D01*
X66439Y577911D01*
X66838Y577896D01*
X67236Y577872D01*
X67633Y577838D01*
X68030Y577794D01*
X68425Y577740D01*
X68819Y577677D01*
X69211Y577604D01*
X69602Y577521D01*
X69990Y577429D01*
X70376Y577327D01*
X70759Y577216D01*
X71139Y577096D01*
X71516Y576966D01*
X71890Y576827D01*
X72261Y576679D01*
X72628Y576521D01*
X72990Y576355D01*
X73349Y576180D01*
X73703Y575997D01*
X74053Y575804D01*
X74397Y575603D01*
X74737Y575394D01*
X75071Y575176D01*
X75400Y574951D01*
X75724Y574717D01*
X76041Y574475D01*
X76353Y574226D01*
X76658Y573969D01*
X76957Y573705D01*
X77249Y573433D01*
X77535Y573155D01*
X77813Y572869D01*
X78085Y572577D01*
X78349Y572278D01*
X78606Y571973D01*
X78855Y571661D01*
X79097Y571344D01*
X79331Y571020D01*
X79556Y570691D01*
X79774Y570357D01*
X79983Y570017D01*
X80184Y569673D01*
X80377Y569323D01*
X80560Y568969D01*
X80735Y568610D01*
X80901Y568248D01*
X81059Y567881D01*
X81207Y567510D01*
X81346Y567136D01*
X81476Y566759D01*
X81596Y566379D01*
X81707Y565996D01*
X81809Y565610D01*
X81901Y565222D01*
X81984Y564831D01*
X82057Y564439D01*
X82120Y564045D01*
X82174Y563650D01*
X82218Y563253D01*
X82252Y562856D01*
X82276Y562458D01*
X82291Y562059D01*
X82296Y561660D01*
X82291Y561261D01*
X82276Y560862D01*
X82252Y560464D01*
X82218Y560067D01*
X82174Y559670D01*
X82120Y559275D01*
X82057Y558881D01*
X81984Y558489D01*
X81901Y558098D01*
X81809Y557710D01*
X81707Y557324D01*
X81596Y556941D01*
X81476Y556561D01*
X81346Y556184D01*
X81207Y555810D01*
X81059Y555439D01*
X80901Y555072D01*
X80735Y554710D01*
X80560Y554351D01*
X80377Y553997D01*
X80184Y553647D01*
X79983Y553303D01*
X79774Y552963D01*
X79556Y552629D01*
X79331Y552300D01*
X79097Y551976D01*
X78855Y551659D01*
X78606Y551347D01*
X78349Y551042D01*
X78085Y550743D01*
X77813Y550451D01*
X77535Y550165D01*
X77249Y549887D01*
X76957Y549615D01*
X76658Y549351D01*
X76353Y549094D01*
X76041Y548845D01*
X75724Y548603D01*
X75400Y548369D01*
X75071Y548144D01*
X74737Y547926D01*
X74397Y547717D01*
X74053Y547516D01*
X73703Y547323D01*
X73349Y547140D01*
X72990Y546965D01*
X72628Y546799D01*
X72261Y546641D01*
X71890Y546493D01*
X71516Y546354D01*
X71139Y546224D01*
X70759Y546104D01*
X70376Y545993D01*
X69990Y545891D01*
X69602Y545799D01*
X69211Y545716D01*
X68819Y545643D01*
X68425Y545580D01*
X68030Y545526D01*
X67633Y545482D01*
X67236Y545448D01*
X66838Y545424D01*
X66439Y545409D01*
X66040Y545404D01*
X65641Y545409D01*
X65242Y545424D01*
X64844Y545448D01*
X64447Y545482D01*
X64050Y545526D01*
X63655Y545580D01*
X63261Y545643D01*
X62869Y545716D01*
X62478Y545799D01*
X62090Y545891D01*
X61704Y545993D01*
X61321Y546104D01*
X60941Y546224D01*
X60564Y546354D01*
X60190Y546493D01*
X59819Y546641D01*
X59452Y546799D01*
X59090Y546965D01*
X58731Y547140D01*
X58377Y547323D01*
X58027Y547516D01*
X57683Y547717D01*
X57343Y547926D01*
X57009Y548144D01*
X56680Y548369D01*
X56356Y548603D01*
X56039Y548845D01*
X55727Y549094D01*
X55422Y549351D01*
X55123Y549615D01*
X54831Y549887D01*
X54545Y550165D01*
X54267Y550451D01*
X53995Y550743D01*
X53731Y551042D01*
X53474Y551347D01*
X53225Y551659D01*
X52983Y551976D01*
X52749Y552300D01*
X52524Y552629D01*
X52306Y552963D01*
X52097Y553303D01*
X51896Y553647D01*
X51703Y553997D01*
X51520Y554351D01*
X51345Y554710D01*
X51179Y555072D01*
X51021Y555439D01*
X50873Y555810D01*
X50734Y556184D01*
X50604Y556561D01*
X50484Y556941D01*
X50373Y557324D01*
X50271Y557710D01*
X50179Y558098D01*
X50096Y558489D01*
X50023Y558881D01*
X49960Y559275D01*
X49906Y559670D01*
X49862Y560067D01*
X49828Y560464D01*
X49804Y560862D01*
X49789Y561261D01*
X49784Y561660D01*
X49784Y434660D02*
X49789Y435059D01*
X49804Y435458D01*
X49828Y435856D01*
X49862Y436253D01*
X49906Y436650D01*
X49960Y437045D01*
X50023Y437439D01*
X50096Y437831D01*
X50179Y438222D01*
X50271Y438610D01*
X50373Y438996D01*
X50484Y439379D01*
X50604Y439759D01*
X50734Y440136D01*
X50873Y440510D01*
X51021Y440881D01*
X51179Y441248D01*
X51345Y441610D01*
X51520Y441969D01*
X51703Y442323D01*
X51896Y442673D01*
X52097Y443017D01*
X52306Y443357D01*
X52524Y443691D01*
X52749Y444020D01*
X52983Y444344D01*
X53225Y444661D01*
X53474Y444973D01*
X53731Y445278D01*
X53995Y445577D01*
X54267Y445869D01*
X54545Y446155D01*
X54831Y446433D01*
X55123Y446705D01*
X55422Y446969D01*
X55727Y447226D01*
X56039Y447475D01*
X56356Y447717D01*
X56680Y447951D01*
X57009Y448176D01*
X57343Y448394D01*
X57683Y448603D01*
X58027Y448804D01*
X58377Y448997D01*
X58731Y449180D01*
X59090Y449355D01*
X59452Y449521D01*
X59819Y449679D01*
X60190Y449827D01*
X60564Y449966D01*
X60941Y450096D01*
X61321Y450216D01*
X61704Y450327D01*
X62090Y450429D01*
X62478Y450521D01*
X62869Y450604D01*
X63261Y450677D01*
X63655Y450740D01*
X64050Y450794D01*
X64447Y450838D01*
X64844Y450872D01*
X65242Y450896D01*
X65641Y450911D01*
X66040Y450916D01*
X66439Y450911D01*
X66838Y450896D01*
X67236Y450872D01*
X67633Y450838D01*
X68030Y450794D01*
X68425Y450740D01*
X68819Y450677D01*
X69211Y450604D01*
X69602Y450521D01*
X69990Y450429D01*
X70376Y450327D01*
X70759Y450216D01*
X71139Y450096D01*
X71516Y449966D01*
X71890Y449827D01*
X72261Y449679D01*
X72628Y449521D01*
X72990Y449355D01*
X73349Y449180D01*
X73703Y448997D01*
X74053Y448804D01*
X74397Y448603D01*
X74737Y448394D01*
X75071Y448176D01*
X75400Y447951D01*
X75724Y447717D01*
X76041Y447475D01*
X76353Y447226D01*
X76658Y446969D01*
X76957Y446705D01*
X77249Y446433D01*
X77535Y446155D01*
X77813Y445869D01*
X78085Y445577D01*
X78349Y445278D01*
X78606Y444973D01*
X78855Y444661D01*
X79097Y444344D01*
X79331Y444020D01*
X79556Y443691D01*
X79774Y443357D01*
X79983Y443017D01*
X80184Y442673D01*
X80377Y442323D01*
X80560Y441969D01*
X80735Y441610D01*
X80901Y441248D01*
X81059Y440881D01*
X81207Y440510D01*
X81346Y440136D01*
X81476Y439759D01*
X81596Y439379D01*
X81707Y438996D01*
X81809Y438610D01*
X81901Y438222D01*
X81984Y437831D01*
X82057Y437439D01*
X82120Y437045D01*
X82174Y436650D01*
X82218Y436253D01*
X82252Y435856D01*
X82276Y435458D01*
X82291Y435059D01*
X82296Y434660D01*
X82291Y434261D01*
X82276Y433862D01*
X82252Y433464D01*
X82218Y433067D01*
X82174Y432670D01*
X82120Y432275D01*
X82057Y431881D01*
X81984Y431489D01*
X81901Y431098D01*
X81809Y430710D01*
X81707Y430324D01*
X81596Y429941D01*
X81476Y429561D01*
X81346Y429184D01*
X81207Y428810D01*
X81059Y428439D01*
X80901Y428072D01*
X80735Y427710D01*
X80560Y427351D01*
X80377Y426997D01*
X80184Y426647D01*
X79983Y426303D01*
X79774Y425963D01*
X79556Y425629D01*
X79331Y425300D01*
X79097Y424976D01*
X78855Y424659D01*
X78606Y424347D01*
X78349Y424042D01*
X78085Y423743D01*
X77813Y423451D01*
X77535Y423165D01*
X77249Y422887D01*
X76957Y422615D01*
X76658Y422351D01*
X76353Y422094D01*
X76041Y421845D01*
X75724Y421603D01*
X75400Y421369D01*
X75071Y421144D01*
X74737Y420926D01*
X74397Y420717D01*
X74053Y420516D01*
X73703Y420323D01*
X73349Y420140D01*
X72990Y419965D01*
X72628Y419799D01*
X72261Y419641D01*
X71890Y419493D01*
X71516Y419354D01*
X71139Y419224D01*
X70759Y419104D01*
X70376Y418993D01*
X69990Y418891D01*
X69602Y418799D01*
X69211Y418716D01*
X68819Y418643D01*
X68425Y418580D01*
X68030Y418526D01*
X67633Y418482D01*
X67236Y418448D01*
X66838Y418424D01*
X66439Y418409D01*
X66040Y418404D01*
X65641Y418409D01*
X65242Y418424D01*
X64844Y418448D01*
X64447Y418482D01*
X64050Y418526D01*
X63655Y418580D01*
X63261Y418643D01*
X62869Y418716D01*
X62478Y418799D01*
X62090Y418891D01*
X61704Y418993D01*
X61321Y419104D01*
X60941Y419224D01*
X60564Y419354D01*
X60190Y419493D01*
X59819Y419641D01*
X59452Y419799D01*
X59090Y419965D01*
X58731Y420140D01*
X58377Y420323D01*
X58027Y420516D01*
X57683Y420717D01*
X57343Y420926D01*
X57009Y421144D01*
X56680Y421369D01*
X56356Y421603D01*
X56039Y421845D01*
X55727Y422094D01*
X55422Y422351D01*
X55123Y422615D01*
X54831Y422887D01*
X54545Y423165D01*
X54267Y423451D01*
X53995Y423743D01*
X53731Y424042D01*
X53474Y424347D01*
X53225Y424659D01*
X52983Y424976D01*
X52749Y425300D01*
X52524Y425629D01*
X52306Y425963D01*
X52097Y426303D01*
X51896Y426647D01*
X51703Y426997D01*
X51520Y427351D01*
X51345Y427710D01*
X51179Y428072D01*
X51021Y428439D01*
X50873Y428810D01*
X50734Y429184D01*
X50604Y429561D01*
X50484Y429941D01*
X50373Y430324D01*
X50271Y430710D01*
X50179Y431098D01*
X50096Y431489D01*
X50023Y431881D01*
X49960Y432275D01*
X49906Y432670D01*
X49862Y433067D01*
X49828Y433464D01*
X49804Y433862D01*
X49789Y434261D01*
X49784Y434660D01*
X1050544Y586740D02*
X1050549Y587139D01*
X1050564Y587538D01*
X1050588Y587936D01*
X1050622Y588333D01*
X1050666Y588730D01*
X1050720Y589125D01*
X1050783Y589519D01*
X1050856Y589911D01*
X1050939Y590302D01*
X1051031Y590690D01*
X1051133Y591076D01*
X1051244Y591459D01*
X1051364Y591839D01*
X1051494Y592216D01*
X1051633Y592590D01*
X1051781Y592961D01*
X1051939Y593328D01*
X1052105Y593690D01*
X1052280Y594049D01*
X1052463Y594403D01*
X1052656Y594753D01*
X1052857Y595097D01*
X1053066Y595437D01*
X1053284Y595771D01*
X1053509Y596100D01*
X1053743Y596424D01*
X1053985Y596741D01*
X1054234Y597053D01*
X1054491Y597358D01*
X1054755Y597657D01*
X1055027Y597949D01*
X1055305Y598235D01*
X1055591Y598513D01*
X1055883Y598785D01*
X1056182Y599049D01*
X1056487Y599306D01*
X1056799Y599555D01*
X1057116Y599797D01*
X1057440Y600031D01*
X1057769Y600256D01*
X1058103Y600474D01*
X1058443Y600683D01*
X1058787Y600884D01*
X1059137Y601077D01*
X1059491Y601260D01*
X1059850Y601435D01*
X1060212Y601601D01*
X1060579Y601759D01*
X1060950Y601907D01*
X1061324Y602046D01*
X1061701Y602176D01*
X1062081Y602296D01*
X1062464Y602407D01*
X1062850Y602509D01*
X1063238Y602601D01*
X1063629Y602684D01*
X1064021Y602757D01*
X1064415Y602820D01*
X1064810Y602874D01*
X1065207Y602918D01*
X1065604Y602952D01*
X1066002Y602976D01*
X1066401Y602991D01*
X1066800Y602996D01*
X1067199Y602991D01*
X1067598Y602976D01*
X1067996Y602952D01*
X1068393Y602918D01*
X1068790Y602874D01*
X1069185Y602820D01*
X1069579Y602757D01*
X1069971Y602684D01*
X1070362Y602601D01*
X1070750Y602509D01*
X1071136Y602407D01*
X1071519Y602296D01*
X1071899Y602176D01*
X1072276Y602046D01*
X1072650Y601907D01*
X1073021Y601759D01*
X1073388Y601601D01*
X1073750Y601435D01*
X1074109Y601260D01*
X1074463Y601077D01*
X1074813Y600884D01*
X1075157Y600683D01*
X1075497Y600474D01*
X1075831Y600256D01*
X1076160Y600031D01*
X1076484Y599797D01*
X1076801Y599555D01*
X1077113Y599306D01*
X1077418Y599049D01*
X1077717Y598785D01*
X1078009Y598513D01*
X1078295Y598235D01*
X1078573Y597949D01*
X1078845Y597657D01*
X1079109Y597358D01*
X1079366Y597053D01*
X1079615Y596741D01*
X1079857Y596424D01*
X1080091Y596100D01*
X1080316Y595771D01*
X1080534Y595437D01*
X1080743Y595097D01*
X1080944Y594753D01*
X1081137Y594403D01*
X1081320Y594049D01*
X1081495Y593690D01*
X1081661Y593328D01*
X1081819Y592961D01*
X1081967Y592590D01*
X1082106Y592216D01*
X1082236Y591839D01*
X1082356Y591459D01*
X1082467Y591076D01*
X1082569Y590690D01*
X1082661Y590302D01*
X1082744Y589911D01*
X1082817Y589519D01*
X1082880Y589125D01*
X1082934Y588730D01*
X1082978Y588333D01*
X1083012Y587936D01*
X1083036Y587538D01*
X1083051Y587139D01*
X1083056Y586740D01*
X1083051Y586341D01*
X1083036Y585942D01*
X1083012Y585544D01*
X1082978Y585147D01*
X1082934Y584750D01*
X1082880Y584355D01*
X1082817Y583961D01*
X1082744Y583569D01*
X1082661Y583178D01*
X1082569Y582790D01*
X1082467Y582404D01*
X1082356Y582021D01*
X1082236Y581641D01*
X1082106Y581264D01*
X1081967Y580890D01*
X1081819Y580519D01*
X1081661Y580152D01*
X1081495Y579790D01*
X1081320Y579431D01*
X1081137Y579077D01*
X1080944Y578727D01*
X1080743Y578383D01*
X1080534Y578043D01*
X1080316Y577709D01*
X1080091Y577380D01*
X1079857Y577056D01*
X1079615Y576739D01*
X1079366Y576427D01*
X1079109Y576122D01*
X1078845Y575823D01*
X1078573Y575531D01*
X1078295Y575245D01*
X1078009Y574967D01*
X1077717Y574695D01*
X1077418Y574431D01*
X1077113Y574174D01*
X1076801Y573925D01*
X1076484Y573683D01*
X1076160Y573449D01*
X1075831Y573224D01*
X1075497Y573006D01*
X1075157Y572797D01*
X1074813Y572596D01*
X1074463Y572403D01*
X1074109Y572220D01*
X1073750Y572045D01*
X1073388Y571879D01*
X1073021Y571721D01*
X1072650Y571573D01*
X1072276Y571434D01*
X1071899Y571304D01*
X1071519Y571184D01*
X1071136Y571073D01*
X1070750Y570971D01*
X1070362Y570879D01*
X1069971Y570796D01*
X1069579Y570723D01*
X1069185Y570660D01*
X1068790Y570606D01*
X1068393Y570562D01*
X1067996Y570528D01*
X1067598Y570504D01*
X1067199Y570489D01*
X1066800Y570484D01*
X1066401Y570489D01*
X1066002Y570504D01*
X1065604Y570528D01*
X1065207Y570562D01*
X1064810Y570606D01*
X1064415Y570660D01*
X1064021Y570723D01*
X1063629Y570796D01*
X1063238Y570879D01*
X1062850Y570971D01*
X1062464Y571073D01*
X1062081Y571184D01*
X1061701Y571304D01*
X1061324Y571434D01*
X1060950Y571573D01*
X1060579Y571721D01*
X1060212Y571879D01*
X1059850Y572045D01*
X1059491Y572220D01*
X1059137Y572403D01*
X1058787Y572596D01*
X1058443Y572797D01*
X1058103Y573006D01*
X1057769Y573224D01*
X1057440Y573449D01*
X1057116Y573683D01*
X1056799Y573925D01*
X1056487Y574174D01*
X1056182Y574431D01*
X1055883Y574695D01*
X1055591Y574967D01*
X1055305Y575245D01*
X1055027Y575531D01*
X1054755Y575823D01*
X1054491Y576122D01*
X1054234Y576427D01*
X1053985Y576739D01*
X1053743Y577056D01*
X1053509Y577380D01*
X1053284Y577709D01*
X1053066Y578043D01*
X1052857Y578383D01*
X1052656Y578727D01*
X1052463Y579077D01*
X1052280Y579431D01*
X1052105Y579790D01*
X1051939Y580152D01*
X1051781Y580519D01*
X1051633Y580890D01*
X1051494Y581264D01*
X1051364Y581641D01*
X1051244Y582021D01*
X1051133Y582404D01*
X1051031Y582790D01*
X1050939Y583178D01*
X1050856Y583569D01*
X1050783Y583961D01*
X1050720Y584355D01*
X1050666Y584750D01*
X1050622Y585147D01*
X1050588Y585544D01*
X1050564Y585942D01*
X1050549Y586341D01*
X1050544Y586740D01*
X1050544Y713740D02*
X1050549Y714139D01*
X1050564Y714538D01*
X1050588Y714936D01*
X1050622Y715333D01*
X1050666Y715730D01*
X1050720Y716125D01*
X1050783Y716519D01*
X1050856Y716911D01*
X1050939Y717302D01*
X1051031Y717690D01*
X1051133Y718076D01*
X1051244Y718459D01*
X1051364Y718839D01*
X1051494Y719216D01*
X1051633Y719590D01*
X1051781Y719961D01*
X1051939Y720328D01*
X1052105Y720690D01*
X1052280Y721049D01*
X1052463Y721403D01*
X1052656Y721753D01*
X1052857Y722097D01*
X1053066Y722437D01*
X1053284Y722771D01*
X1053509Y723100D01*
X1053743Y723424D01*
X1053985Y723741D01*
X1054234Y724053D01*
X1054491Y724358D01*
X1054755Y724657D01*
X1055027Y724949D01*
X1055305Y725235D01*
X1055591Y725513D01*
X1055883Y725785D01*
X1056182Y726049D01*
X1056487Y726306D01*
X1056799Y726555D01*
X1057116Y726797D01*
X1057440Y727031D01*
X1057769Y727256D01*
X1058103Y727474D01*
X1058443Y727683D01*
X1058787Y727884D01*
X1059137Y728077D01*
X1059491Y728260D01*
X1059850Y728435D01*
X1060212Y728601D01*
X1060579Y728759D01*
X1060950Y728907D01*
X1061324Y729046D01*
X1061701Y729176D01*
X1062081Y729296D01*
X1062464Y729407D01*
X1062850Y729509D01*
X1063238Y729601D01*
X1063629Y729684D01*
X1064021Y729757D01*
X1064415Y729820D01*
X1064810Y729874D01*
X1065207Y729918D01*
X1065604Y729952D01*
X1066002Y729976D01*
X1066401Y729991D01*
X1066800Y729996D01*
X1067199Y729991D01*
X1067598Y729976D01*
X1067996Y729952D01*
X1068393Y729918D01*
X1068790Y729874D01*
X1069185Y729820D01*
X1069579Y729757D01*
X1069971Y729684D01*
X1070362Y729601D01*
X1070750Y729509D01*
X1071136Y729407D01*
X1071519Y729296D01*
X1071899Y729176D01*
X1072276Y729046D01*
X1072650Y728907D01*
X1073021Y728759D01*
X1073388Y728601D01*
X1073750Y728435D01*
X1074109Y728260D01*
X1074463Y728077D01*
X1074813Y727884D01*
X1075157Y727683D01*
X1075497Y727474D01*
X1075831Y727256D01*
X1076160Y727031D01*
X1076484Y726797D01*
X1076801Y726555D01*
X1077113Y726306D01*
X1077418Y726049D01*
X1077717Y725785D01*
X1078009Y725513D01*
X1078295Y725235D01*
X1078573Y724949D01*
X1078845Y724657D01*
X1079109Y724358D01*
X1079366Y724053D01*
X1079615Y723741D01*
X1079857Y723424D01*
X1080091Y723100D01*
X1080316Y722771D01*
X1080534Y722437D01*
X1080743Y722097D01*
X1080944Y721753D01*
X1081137Y721403D01*
X1081320Y721049D01*
X1081495Y720690D01*
X1081661Y720328D01*
X1081819Y719961D01*
X1081967Y719590D01*
X1082106Y719216D01*
X1082236Y718839D01*
X1082356Y718459D01*
X1082467Y718076D01*
X1082569Y717690D01*
X1082661Y717302D01*
X1082744Y716911D01*
X1082817Y716519D01*
X1082880Y716125D01*
X1082934Y715730D01*
X1082978Y715333D01*
X1083012Y714936D01*
X1083036Y714538D01*
X1083051Y714139D01*
X1083056Y713740D01*
X1083051Y713341D01*
X1083036Y712942D01*
X1083012Y712544D01*
X1082978Y712147D01*
X1082934Y711750D01*
X1082880Y711355D01*
X1082817Y710961D01*
X1082744Y710569D01*
X1082661Y710178D01*
X1082569Y709790D01*
X1082467Y709404D01*
X1082356Y709021D01*
X1082236Y708641D01*
X1082106Y708264D01*
X1081967Y707890D01*
X1081819Y707519D01*
X1081661Y707152D01*
X1081495Y706790D01*
X1081320Y706431D01*
X1081137Y706077D01*
X1080944Y705727D01*
X1080743Y705383D01*
X1080534Y705043D01*
X1080316Y704709D01*
X1080091Y704380D01*
X1079857Y704056D01*
X1079615Y703739D01*
X1079366Y703427D01*
X1079109Y703122D01*
X1078845Y702823D01*
X1078573Y702531D01*
X1078295Y702245D01*
X1078009Y701967D01*
X1077717Y701695D01*
X1077418Y701431D01*
X1077113Y701174D01*
X1076801Y700925D01*
X1076484Y700683D01*
X1076160Y700449D01*
X1075831Y700224D01*
X1075497Y700006D01*
X1075157Y699797D01*
X1074813Y699596D01*
X1074463Y699403D01*
X1074109Y699220D01*
X1073750Y699045D01*
X1073388Y698879D01*
X1073021Y698721D01*
X1072650Y698573D01*
X1072276Y698434D01*
X1071899Y698304D01*
X1071519Y698184D01*
X1071136Y698073D01*
X1070750Y697971D01*
X1070362Y697879D01*
X1069971Y697796D01*
X1069579Y697723D01*
X1069185Y697660D01*
X1068790Y697606D01*
X1068393Y697562D01*
X1067996Y697528D01*
X1067598Y697504D01*
X1067199Y697489D01*
X1066800Y697484D01*
X1066401Y697489D01*
X1066002Y697504D01*
X1065604Y697528D01*
X1065207Y697562D01*
X1064810Y697606D01*
X1064415Y697660D01*
X1064021Y697723D01*
X1063629Y697796D01*
X1063238Y697879D01*
X1062850Y697971D01*
X1062464Y698073D01*
X1062081Y698184D01*
X1061701Y698304D01*
X1061324Y698434D01*
X1060950Y698573D01*
X1060579Y698721D01*
X1060212Y698879D01*
X1059850Y699045D01*
X1059491Y699220D01*
X1059137Y699403D01*
X1058787Y699596D01*
X1058443Y699797D01*
X1058103Y700006D01*
X1057769Y700224D01*
X1057440Y700449D01*
X1057116Y700683D01*
X1056799Y700925D01*
X1056487Y701174D01*
X1056182Y701431D01*
X1055883Y701695D01*
X1055591Y701967D01*
X1055305Y702245D01*
X1055027Y702531D01*
X1054755Y702823D01*
X1054491Y703122D01*
X1054234Y703427D01*
X1053985Y703739D01*
X1053743Y704056D01*
X1053509Y704380D01*
X1053284Y704709D01*
X1053066Y705043D01*
X1052857Y705383D01*
X1052656Y705727D01*
X1052463Y706077D01*
X1052280Y706431D01*
X1052105Y706790D01*
X1051939Y707152D01*
X1051781Y707519D01*
X1051633Y707890D01*
X1051494Y708264D01*
X1051364Y708641D01*
X1051244Y709021D01*
X1051133Y709404D01*
X1051031Y709790D01*
X1050939Y710178D01*
X1050856Y710569D01*
X1050783Y710961D01*
X1050720Y711355D01*
X1050666Y711750D01*
X1050622Y712147D01*
X1050588Y712544D01*
X1050564Y712942D01*
X1050549Y713341D01*
X1050544Y713740D01*
X1050544Y388620D02*
X1050549Y389019D01*
X1050564Y389418D01*
X1050588Y389816D01*
X1050622Y390213D01*
X1050666Y390610D01*
X1050720Y391005D01*
X1050783Y391399D01*
X1050856Y391791D01*
X1050939Y392182D01*
X1051031Y392570D01*
X1051133Y392956D01*
X1051244Y393339D01*
X1051364Y393719D01*
X1051494Y394096D01*
X1051633Y394470D01*
X1051781Y394841D01*
X1051939Y395208D01*
X1052105Y395570D01*
X1052280Y395929D01*
X1052463Y396283D01*
X1052656Y396633D01*
X1052857Y396977D01*
X1053066Y397317D01*
X1053284Y397651D01*
X1053509Y397980D01*
X1053743Y398304D01*
X1053985Y398621D01*
X1054234Y398933D01*
X1054491Y399238D01*
X1054755Y399537D01*
X1055027Y399829D01*
X1055305Y400115D01*
X1055591Y400393D01*
X1055883Y400665D01*
X1056182Y400929D01*
X1056487Y401186D01*
X1056799Y401435D01*
X1057116Y401677D01*
X1057440Y401911D01*
X1057769Y402136D01*
X1058103Y402354D01*
X1058443Y402563D01*
X1058787Y402764D01*
X1059137Y402957D01*
X1059491Y403140D01*
X1059850Y403315D01*
X1060212Y403481D01*
X1060579Y403639D01*
X1060950Y403787D01*
X1061324Y403926D01*
X1061701Y404056D01*
X1062081Y404176D01*
X1062464Y404287D01*
X1062850Y404389D01*
X1063238Y404481D01*
X1063629Y404564D01*
X1064021Y404637D01*
X1064415Y404700D01*
X1064810Y404754D01*
X1065207Y404798D01*
X1065604Y404832D01*
X1066002Y404856D01*
X1066401Y404871D01*
X1066800Y404876D01*
X1067199Y404871D01*
X1067598Y404856D01*
X1067996Y404832D01*
X1068393Y404798D01*
X1068790Y404754D01*
X1069185Y404700D01*
X1069579Y404637D01*
X1069971Y404564D01*
X1070362Y404481D01*
X1070750Y404389D01*
X1071136Y404287D01*
X1071519Y404176D01*
X1071899Y404056D01*
X1072276Y403926D01*
X1072650Y403787D01*
X1073021Y403639D01*
X1073388Y403481D01*
X1073750Y403315D01*
X1074109Y403140D01*
X1074463Y402957D01*
X1074813Y402764D01*
X1075157Y402563D01*
X1075497Y402354D01*
X1075831Y402136D01*
X1076160Y401911D01*
X1076484Y401677D01*
X1076801Y401435D01*
X1077113Y401186D01*
X1077418Y400929D01*
X1077717Y400665D01*
X1078009Y400393D01*
X1078295Y400115D01*
X1078573Y399829D01*
X1078845Y399537D01*
X1079109Y399238D01*
X1079366Y398933D01*
X1079615Y398621D01*
X1079857Y398304D01*
X1080091Y397980D01*
X1080316Y397651D01*
X1080534Y397317D01*
X1080743Y396977D01*
X1080944Y396633D01*
X1081137Y396283D01*
X1081320Y395929D01*
X1081495Y395570D01*
X1081661Y395208D01*
X1081819Y394841D01*
X1081967Y394470D01*
X1082106Y394096D01*
X1082236Y393719D01*
X1082356Y393339D01*
X1082467Y392956D01*
X1082569Y392570D01*
X1082661Y392182D01*
X1082744Y391791D01*
X1082817Y391399D01*
X1082880Y391005D01*
X1082934Y390610D01*
X1082978Y390213D01*
X1083012Y389816D01*
X1083036Y389418D01*
X1083051Y389019D01*
X1083056Y388620D01*
X1083051Y388221D01*
X1083036Y387822D01*
X1083012Y387424D01*
X1082978Y387027D01*
X1082934Y386630D01*
X1082880Y386235D01*
X1082817Y385841D01*
X1082744Y385449D01*
X1082661Y385058D01*
X1082569Y384670D01*
X1082467Y384284D01*
X1082356Y383901D01*
X1082236Y383521D01*
X1082106Y383144D01*
X1081967Y382770D01*
X1081819Y382399D01*
X1081661Y382032D01*
X1081495Y381670D01*
X1081320Y381311D01*
X1081137Y380957D01*
X1080944Y380607D01*
X1080743Y380263D01*
X1080534Y379923D01*
X1080316Y379589D01*
X1080091Y379260D01*
X1079857Y378936D01*
X1079615Y378619D01*
X1079366Y378307D01*
X1079109Y378002D01*
X1078845Y377703D01*
X1078573Y377411D01*
X1078295Y377125D01*
X1078009Y376847D01*
X1077717Y376575D01*
X1077418Y376311D01*
X1077113Y376054D01*
X1076801Y375805D01*
X1076484Y375563D01*
X1076160Y375329D01*
X1075831Y375104D01*
X1075497Y374886D01*
X1075157Y374677D01*
X1074813Y374476D01*
X1074463Y374283D01*
X1074109Y374100D01*
X1073750Y373925D01*
X1073388Y373759D01*
X1073021Y373601D01*
X1072650Y373453D01*
X1072276Y373314D01*
X1071899Y373184D01*
X1071519Y373064D01*
X1071136Y372953D01*
X1070750Y372851D01*
X1070362Y372759D01*
X1069971Y372676D01*
X1069579Y372603D01*
X1069185Y372540D01*
X1068790Y372486D01*
X1068393Y372442D01*
X1067996Y372408D01*
X1067598Y372384D01*
X1067199Y372369D01*
X1066800Y372364D01*
X1066401Y372369D01*
X1066002Y372384D01*
X1065604Y372408D01*
X1065207Y372442D01*
X1064810Y372486D01*
X1064415Y372540D01*
X1064021Y372603D01*
X1063629Y372676D01*
X1063238Y372759D01*
X1062850Y372851D01*
X1062464Y372953D01*
X1062081Y373064D01*
X1061701Y373184D01*
X1061324Y373314D01*
X1060950Y373453D01*
X1060579Y373601D01*
X1060212Y373759D01*
X1059850Y373925D01*
X1059491Y374100D01*
X1059137Y374283D01*
X1058787Y374476D01*
X1058443Y374677D01*
X1058103Y374886D01*
X1057769Y375104D01*
X1057440Y375329D01*
X1057116Y375563D01*
X1056799Y375805D01*
X1056487Y376054D01*
X1056182Y376311D01*
X1055883Y376575D01*
X1055591Y376847D01*
X1055305Y377125D01*
X1055027Y377411D01*
X1054755Y377703D01*
X1054491Y378002D01*
X1054234Y378307D01*
X1053985Y378619D01*
X1053743Y378936D01*
X1053509Y379260D01*
X1053284Y379589D01*
X1053066Y379923D01*
X1052857Y380263D01*
X1052656Y380607D01*
X1052463Y380957D01*
X1052280Y381311D01*
X1052105Y381670D01*
X1051939Y382032D01*
X1051781Y382399D01*
X1051633Y382770D01*
X1051494Y383144D01*
X1051364Y383521D01*
X1051244Y383901D01*
X1051133Y384284D01*
X1051031Y384670D01*
X1050939Y385058D01*
X1050856Y385449D01*
X1050783Y385841D01*
X1050720Y386235D01*
X1050666Y386630D01*
X1050622Y387027D01*
X1050588Y387424D01*
X1050564Y387822D01*
X1050549Y388221D01*
X1050544Y388620D01*
X1050544Y515620D02*
X1050549Y516019D01*
X1050564Y516418D01*
X1050588Y516816D01*
X1050622Y517213D01*
X1050666Y517610D01*
X1050720Y518005D01*
X1050783Y518399D01*
X1050856Y518791D01*
X1050939Y519182D01*
X1051031Y519570D01*
X1051133Y519956D01*
X1051244Y520339D01*
X1051364Y520719D01*
X1051494Y521096D01*
X1051633Y521470D01*
X1051781Y521841D01*
X1051939Y522208D01*
X1052105Y522570D01*
X1052280Y522929D01*
X1052463Y523283D01*
X1052656Y523633D01*
X1052857Y523977D01*
X1053066Y524317D01*
X1053284Y524651D01*
X1053509Y524980D01*
X1053743Y525304D01*
X1053985Y525621D01*
X1054234Y525933D01*
X1054491Y526238D01*
X1054755Y526537D01*
X1055027Y526829D01*
X1055305Y527115D01*
X1055591Y527393D01*
X1055883Y527665D01*
X1056182Y527929D01*
X1056487Y528186D01*
X1056799Y528435D01*
X1057116Y528677D01*
X1057440Y528911D01*
X1057769Y529136D01*
X1058103Y529354D01*
X1058443Y529563D01*
X1058787Y529764D01*
X1059137Y529957D01*
X1059491Y530140D01*
X1059850Y530315D01*
X1060212Y530481D01*
X1060579Y530639D01*
X1060950Y530787D01*
X1061324Y530926D01*
X1061701Y531056D01*
X1062081Y531176D01*
X1062464Y531287D01*
X1062850Y531389D01*
X1063238Y531481D01*
X1063629Y531564D01*
X1064021Y531637D01*
X1064415Y531700D01*
X1064810Y531754D01*
X1065207Y531798D01*
X1065604Y531832D01*
X1066002Y531856D01*
X1066401Y531871D01*
X1066800Y531876D01*
X1067199Y531871D01*
X1067598Y531856D01*
X1067996Y531832D01*
X1068393Y531798D01*
X1068790Y531754D01*
X1069185Y531700D01*
X1069579Y531637D01*
X1069971Y531564D01*
X1070362Y531481D01*
X1070750Y531389D01*
X1071136Y531287D01*
X1071519Y531176D01*
X1071899Y531056D01*
X1072276Y530926D01*
X1072650Y530787D01*
X1073021Y530639D01*
X1073388Y530481D01*
X1073750Y530315D01*
X1074109Y530140D01*
X1074463Y529957D01*
X1074813Y529764D01*
X1075157Y529563D01*
X1075497Y529354D01*
X1075831Y529136D01*
X1076160Y528911D01*
X1076484Y528677D01*
X1076801Y528435D01*
X1077113Y528186D01*
X1077418Y527929D01*
X1077717Y527665D01*
X1078009Y527393D01*
X1078295Y527115D01*
X1078573Y526829D01*
X1078845Y526537D01*
X1079109Y526238D01*
X1079366Y525933D01*
X1079615Y525621D01*
X1079857Y525304D01*
X1080091Y524980D01*
X1080316Y524651D01*
X1080534Y524317D01*
X1080743Y523977D01*
X1080944Y523633D01*
X1081137Y523283D01*
X1081320Y522929D01*
X1081495Y522570D01*
X1081661Y522208D01*
X1081819Y521841D01*
X1081967Y521470D01*
X1082106Y521096D01*
X1082236Y520719D01*
X1082356Y520339D01*
X1082467Y519956D01*
X1082569Y519570D01*
X1082661Y519182D01*
X1082744Y518791D01*
X1082817Y518399D01*
X1082880Y518005D01*
X1082934Y517610D01*
X1082978Y517213D01*
X1083012Y516816D01*
X1083036Y516418D01*
X1083051Y516019D01*
X1083056Y515620D01*
X1083051Y515221D01*
X1083036Y514822D01*
X1083012Y514424D01*
X1082978Y514027D01*
X1082934Y513630D01*
X1082880Y513235D01*
X1082817Y512841D01*
X1082744Y512449D01*
X1082661Y512058D01*
X1082569Y511670D01*
X1082467Y511284D01*
X1082356Y510901D01*
X1082236Y510521D01*
X1082106Y510144D01*
X1081967Y509770D01*
X1081819Y509399D01*
X1081661Y509032D01*
X1081495Y508670D01*
X1081320Y508311D01*
X1081137Y507957D01*
X1080944Y507607D01*
X1080743Y507263D01*
X1080534Y506923D01*
X1080316Y506589D01*
X1080091Y506260D01*
X1079857Y505936D01*
X1079615Y505619D01*
X1079366Y505307D01*
X1079109Y505002D01*
X1078845Y504703D01*
X1078573Y504411D01*
X1078295Y504125D01*
X1078009Y503847D01*
X1077717Y503575D01*
X1077418Y503311D01*
X1077113Y503054D01*
X1076801Y502805D01*
X1076484Y502563D01*
X1076160Y502329D01*
X1075831Y502104D01*
X1075497Y501886D01*
X1075157Y501677D01*
X1074813Y501476D01*
X1074463Y501283D01*
X1074109Y501100D01*
X1073750Y500925D01*
X1073388Y500759D01*
X1073021Y500601D01*
X1072650Y500453D01*
X1072276Y500314D01*
X1071899Y500184D01*
X1071519Y500064D01*
X1071136Y499953D01*
X1070750Y499851D01*
X1070362Y499759D01*
X1069971Y499676D01*
X1069579Y499603D01*
X1069185Y499540D01*
X1068790Y499486D01*
X1068393Y499442D01*
X1067996Y499408D01*
X1067598Y499384D01*
X1067199Y499369D01*
X1066800Y499364D01*
X1066401Y499369D01*
X1066002Y499384D01*
X1065604Y499408D01*
X1065207Y499442D01*
X1064810Y499486D01*
X1064415Y499540D01*
X1064021Y499603D01*
X1063629Y499676D01*
X1063238Y499759D01*
X1062850Y499851D01*
X1062464Y499953D01*
X1062081Y500064D01*
X1061701Y500184D01*
X1061324Y500314D01*
X1060950Y500453D01*
X1060579Y500601D01*
X1060212Y500759D01*
X1059850Y500925D01*
X1059491Y501100D01*
X1059137Y501283D01*
X1058787Y501476D01*
X1058443Y501677D01*
X1058103Y501886D01*
X1057769Y502104D01*
X1057440Y502329D01*
X1057116Y502563D01*
X1056799Y502805D01*
X1056487Y503054D01*
X1056182Y503311D01*
X1055883Y503575D01*
X1055591Y503847D01*
X1055305Y504125D01*
X1055027Y504411D01*
X1054755Y504703D01*
X1054491Y505002D01*
X1054234Y505307D01*
X1053985Y505619D01*
X1053743Y505936D01*
X1053509Y506260D01*
X1053284Y506589D01*
X1053066Y506923D01*
X1052857Y507263D01*
X1052656Y507607D01*
X1052463Y507957D01*
X1052280Y508311D01*
X1052105Y508670D01*
X1051939Y509032D01*
X1051781Y509399D01*
X1051633Y509770D01*
X1051494Y510144D01*
X1051364Y510521D01*
X1051244Y510901D01*
X1051133Y511284D01*
X1051031Y511670D01*
X1050939Y512058D01*
X1050856Y512449D01*
X1050783Y512841D01*
X1050720Y513235D01*
X1050666Y513630D01*
X1050622Y514027D01*
X1050588Y514424D01*
X1050564Y514822D01*
X1050549Y515221D01*
X1050544Y515620D01*
D11*
X-1372Y-19038D02*
X-4169Y-16242D01*
X-9762Y-16242D01*
X-12558Y-19038D01*
X-12558Y-21834D01*
X-9762Y-24631D01*
X-4169Y-24631D01*
X-1372Y-27427D01*
X-1372Y-30224D01*
X-4169Y-33020D01*
X-9762Y-33020D01*
X-12558Y-30224D01*
X3814Y-30224D02*
X3814Y-21834D01*
X3814Y-30224D02*
X6610Y-33020D01*
X14999Y-33020D01*
X14999Y-35816D02*
X14999Y-21834D01*
X14999Y-35816D02*
X12203Y-38613D01*
X9406Y-38613D01*
X20185Y-33020D02*
X20185Y-21834D01*
X22982Y-21834D01*
X25778Y-24631D01*
X25778Y-33020D01*
X25778Y-24631D02*
X28574Y-21834D01*
X31371Y-24631D01*
X31371Y-33020D01*
X38750Y-39116D02*
X-19670Y-39116D01*
X38750Y-39116D02*
X38750Y-9906D01*
X43322Y-16242D02*
X43322Y-33020D01*
X54508Y-33020D02*
X43322Y-16242D01*
X54508Y-16242D02*
X54508Y-33020D01*
X62490Y-16242D02*
X65286Y-16242D01*
X68083Y-19038D01*
X68083Y-21834D01*
X65286Y-24631D01*
X62490Y-24631D01*
X59694Y-21834D01*
X59694Y-19038D01*
X62490Y-16242D01*
X76850Y-39116D02*
X38750Y-39116D01*
X76850Y-39116D02*
X76850Y-9906D01*
X218582Y-16242D02*
X218582Y-33020D01*
X224175Y-21834D02*
X218582Y-16242D01*
X224175Y-21834D02*
X229768Y-16242D01*
X229768Y-33020D01*
X234954Y-33020D02*
X234954Y-16242D01*
X240546Y-21834D01*
X246139Y-16242D01*
X246139Y-33020D01*
X272430Y-39116D02*
X272430Y-9906D01*
X105552Y-16242D02*
X105552Y-33020D01*
X111145Y-21834D02*
X105552Y-16242D01*
X111145Y-21834D02*
X116738Y-16242D01*
X116738Y-33020D01*
X121924Y-21834D02*
X124720Y-21834D01*
X124720Y-33020D01*
X121924Y-33020D02*
X127516Y-33020D01*
X124720Y-16242D02*
X124720Y-13445D01*
X132838Y-16242D02*
X135634Y-16242D01*
X135634Y-33020D01*
X132838Y-33020D02*
X138431Y-33020D01*
X143752Y-33020D02*
X152141Y-33020D01*
X154938Y-30224D01*
X152141Y-27427D01*
X146549Y-27427D01*
X143752Y-24631D01*
X146549Y-21834D01*
X154938Y-21834D01*
X193690Y-39116D02*
X76850Y-39116D01*
X193690Y-39116D02*
X193690Y-9906D01*
X279542Y-19038D02*
X279542Y-30224D01*
X279542Y-19038D02*
X282338Y-16242D01*
X287931Y-16242D01*
X290728Y-19038D01*
X290728Y-30224D01*
X287931Y-33020D01*
X282338Y-33020D01*
X279542Y-30224D01*
X285135Y-27427D02*
X290728Y-33020D01*
X298710Y-30224D02*
X298710Y-19038D01*
X298710Y-30224D02*
X301506Y-33020D01*
X301506Y-21834D02*
X295914Y-21834D01*
X306828Y-21834D02*
X306828Y-30224D01*
X309624Y-33020D01*
X318013Y-33020D01*
X318013Y-35816D02*
X318013Y-21834D01*
X318013Y-35816D02*
X315217Y-38613D01*
X312421Y-38613D01*
X330850Y-39116D02*
X272430Y-39116D01*
X330850Y-39116D02*
X330850Y-9906D01*
X344566Y-16242D02*
X344566Y-33020D01*
X344566Y-16242D02*
X352955Y-16242D01*
X355752Y-19038D01*
X355752Y-24631D01*
X352955Y-27427D01*
X344566Y-27427D01*
X360938Y-16242D02*
X363734Y-16242D01*
X363734Y-33020D01*
X360938Y-33020D02*
X366530Y-33020D01*
X374648Y-21834D02*
X380241Y-21834D01*
X383037Y-24631D01*
X383037Y-33020D01*
X374648Y-33020D01*
X371852Y-30224D01*
X374648Y-27427D01*
X383037Y-27427D01*
X391020Y-30224D02*
X391020Y-19038D01*
X391020Y-30224D02*
X393816Y-33020D01*
X393816Y-21834D02*
X388224Y-21834D01*
X401934Y-33020D02*
X407527Y-33020D01*
X401934Y-33020D02*
X399138Y-30224D01*
X399138Y-24631D01*
X401934Y-21834D01*
X407527Y-21834D01*
X410323Y-24631D01*
X410323Y-27427D01*
X399138Y-27427D01*
X426695Y-33020D02*
X426695Y-16242D01*
X426695Y-33020D02*
X418306Y-33020D01*
X415509Y-30224D01*
X415509Y-24631D01*
X418306Y-21834D01*
X426695Y-21834D01*
X447690Y-39116D02*
X330850Y-39116D01*
X447690Y-39116D02*
X447690Y-9906D01*
X499765Y-16242D02*
X499765Y-33020D01*
X494172Y-16242D02*
X505358Y-16242D01*
X513340Y-33020D02*
X518933Y-33020D01*
X521729Y-30224D01*
X521729Y-24631D01*
X518933Y-21834D01*
X513340Y-21834D01*
X510544Y-24631D01*
X510544Y-30224D01*
X513340Y-33020D01*
X526915Y-16242D02*
X529712Y-16242D01*
X529712Y-33020D01*
X532508Y-33020D02*
X526915Y-33020D01*
X584850Y-39116D02*
X447690Y-39116D01*
X9540Y-48768D02*
X9540Y-58928D01*
X4460Y-53848D02*
X14620Y-53848D01*
X38750Y-68326D02*
X-19670Y-68326D01*
X38750Y-68326D02*
X38750Y-39116D01*
X50688Y-51044D02*
X56281Y-45452D01*
X56281Y-62230D01*
X50688Y-62230D02*
X61874Y-62230D01*
X76850Y-68326D02*
X38750Y-68326D01*
X76850Y-68326D02*
X76850Y-39116D01*
X203342Y-48248D02*
X203342Y-59434D01*
X203342Y-48248D02*
X206138Y-45452D01*
X211731Y-45452D01*
X214528Y-48248D01*
X214528Y-59434D01*
X211731Y-62230D01*
X206138Y-62230D01*
X203342Y-59434D01*
X214528Y-48248D01*
X219714Y-59434D02*
X219714Y-62230D01*
X219714Y-59434D02*
X222510Y-59434D01*
X222510Y-62230D01*
X219714Y-62230D01*
X227899Y-62230D02*
X239085Y-62230D01*
X227899Y-62230D02*
X239085Y-51044D01*
X239085Y-48248D01*
X236289Y-45452D01*
X230696Y-45452D01*
X227899Y-48248D01*
X244271Y-45452D02*
X255456Y-45452D01*
X244271Y-45452D02*
X244271Y-53841D01*
X249864Y-51044D01*
X252660Y-51044D01*
X255456Y-53841D01*
X255456Y-59434D01*
X252660Y-62230D01*
X247067Y-62230D01*
X244271Y-59434D01*
X272430Y-68326D02*
X272430Y-39116D01*
X103525Y-45452D02*
X97932Y-51044D01*
X103525Y-45452D02*
X103525Y-62230D01*
X97932Y-62230D02*
X109118Y-62230D01*
X114304Y-59434D02*
X114304Y-48248D01*
X117100Y-45452D01*
X122693Y-45452D01*
X125489Y-48248D01*
X125489Y-59434D01*
X122693Y-62230D01*
X117100Y-62230D01*
X114304Y-59434D01*
X125489Y-48248D01*
X130675Y-59434D02*
X130675Y-62230D01*
X130675Y-59434D02*
X133472Y-59434D01*
X133472Y-62230D01*
X130675Y-62230D01*
X138861Y-59434D02*
X138861Y-48248D01*
X141657Y-45452D01*
X147250Y-45452D01*
X150046Y-48248D01*
X150046Y-59434D01*
X147250Y-62230D01*
X141657Y-62230D01*
X138861Y-59434D01*
X150046Y-48248D01*
X155232Y-48248D02*
X155232Y-59434D01*
X155232Y-48248D02*
X158029Y-45452D01*
X163622Y-45452D01*
X166418Y-48248D01*
X166418Y-59434D01*
X163622Y-62230D01*
X158029Y-62230D01*
X155232Y-59434D01*
X166418Y-48248D01*
X193690Y-68326D02*
X76850Y-68326D01*
X193690Y-68326D02*
X272430Y-68326D01*
X193690Y-68326D02*
X193690Y-39116D01*
X279542Y-51044D02*
X285135Y-45452D01*
X285135Y-62230D01*
X279542Y-62230D02*
X290728Y-62230D01*
X295914Y-45452D02*
X307099Y-45452D01*
X307099Y-48248D01*
X295914Y-59434D01*
X295914Y-62230D01*
X312285Y-51044D02*
X317878Y-45452D01*
X317878Y-62230D01*
X312285Y-62230D02*
X323471Y-62230D01*
X330850Y-68326D02*
X272430Y-68326D01*
X330850Y-68326D02*
X330850Y-39116D01*
X367172Y-45452D02*
X367172Y-48248D01*
X372765Y-53841D01*
X378358Y-48248D01*
X378358Y-45452D01*
X372765Y-53841D02*
X372765Y-62230D01*
X383544Y-45452D02*
X394729Y-45452D01*
X383544Y-45452D02*
X383544Y-62230D01*
X394729Y-62230D01*
X389136Y-53841D02*
X383544Y-53841D01*
X408304Y-45452D02*
X411101Y-48248D01*
X408304Y-45452D02*
X402712Y-45452D01*
X399915Y-48248D01*
X399915Y-51044D01*
X402712Y-53841D01*
X408304Y-53841D01*
X411101Y-56637D01*
X411101Y-59434D01*
X408304Y-62230D01*
X402712Y-62230D01*
X399915Y-59434D01*
X447690Y-68326D02*
X330850Y-68326D01*
X447690Y-68326D02*
X447690Y-39116D01*
X463946Y-53841D02*
X475132Y-53841D01*
X480318Y-62230D02*
X491503Y-45452D01*
X496689Y-53841D02*
X507875Y-53841D01*
X502282Y-48248D02*
X502282Y-59434D01*
X513061Y-59434D02*
X513061Y-48248D01*
X515857Y-45452D01*
X521450Y-45452D01*
X524246Y-48248D01*
X524246Y-59434D01*
X521450Y-62230D01*
X515857Y-62230D01*
X513061Y-59434D01*
X524246Y-48248D01*
X529432Y-59434D02*
X529432Y-62230D01*
X529432Y-59434D02*
X532229Y-59434D01*
X532229Y-62230D01*
X529432Y-62230D01*
X537618Y-59434D02*
X537618Y-48248D01*
X540414Y-45452D01*
X546007Y-45452D01*
X548804Y-48248D01*
X548804Y-59434D01*
X546007Y-62230D01*
X540414Y-62230D01*
X537618Y-59434D01*
X548804Y-48248D01*
X553990Y-45452D02*
X565175Y-45452D01*
X553990Y-45452D02*
X553990Y-53841D01*
X559582Y-51044D01*
X562379Y-51044D01*
X565175Y-53841D01*
X565175Y-59434D01*
X562379Y-62230D01*
X556786Y-62230D01*
X553990Y-59434D01*
X584850Y-68326D02*
X447690Y-68326D01*
X584850Y-68326D02*
X584850Y-39116D01*
X14620Y-88138D02*
X4460Y-77978D01*
X14620Y-77978D02*
X4460Y-88138D01*
X-19670Y-97536D02*
X38750Y-97536D01*
X38750Y-68326D01*
X50688Y-91440D02*
X61874Y-91440D01*
X50688Y-91440D02*
X61874Y-80254D01*
X61874Y-77458D01*
X59077Y-74662D01*
X53484Y-74662D01*
X50688Y-77458D01*
X38750Y-97536D02*
X76850Y-97536D01*
X76850Y-68326D01*
X203342Y-77458D02*
X203342Y-88644D01*
X203342Y-77458D02*
X206138Y-74662D01*
X211731Y-74662D01*
X214528Y-77458D01*
X214528Y-88644D01*
X211731Y-91440D01*
X206138Y-91440D01*
X203342Y-88644D01*
X214528Y-77458D01*
X219714Y-88644D02*
X219714Y-91440D01*
X219714Y-88644D02*
X222510Y-88644D01*
X222510Y-91440D01*
X219714Y-91440D01*
X227899Y-77458D02*
X230696Y-74662D01*
X236289Y-74662D01*
X239085Y-77458D01*
X239085Y-80254D01*
X236289Y-83051D01*
X233492Y-83051D01*
X236289Y-83051D02*
X239085Y-85847D01*
X239085Y-88644D01*
X236289Y-91440D01*
X230696Y-91440D01*
X227899Y-88644D01*
X244271Y-74662D02*
X255456Y-74662D01*
X244271Y-74662D02*
X244271Y-83051D01*
X249864Y-80254D01*
X252660Y-80254D01*
X255456Y-83051D01*
X255456Y-88644D01*
X252660Y-91440D01*
X247067Y-91440D01*
X244271Y-88644D01*
X272430Y-97536D02*
X272430Y-68326D01*
X103525Y-74662D02*
X97932Y-80254D01*
X103525Y-74662D02*
X103525Y-91440D01*
X97932Y-91440D02*
X109118Y-91440D01*
X114304Y-77458D02*
X117100Y-74662D01*
X122693Y-74662D01*
X125489Y-77458D01*
X125489Y-80254D01*
X122693Y-83051D01*
X119896Y-83051D01*
X122693Y-83051D02*
X125489Y-85847D01*
X125489Y-88644D01*
X122693Y-91440D01*
X117100Y-91440D01*
X114304Y-88644D01*
X130675Y-88644D02*
X130675Y-91440D01*
X130675Y-88644D02*
X133472Y-88644D01*
X133472Y-91440D01*
X130675Y-91440D01*
X138861Y-74662D02*
X150046Y-74662D01*
X150046Y-77458D01*
X138861Y-88644D01*
X138861Y-91440D01*
X155232Y-77458D02*
X158029Y-74662D01*
X163622Y-74662D01*
X166418Y-77458D01*
X166418Y-80254D01*
X163622Y-83051D01*
X166418Y-85847D01*
X166418Y-88644D01*
X163622Y-91440D01*
X158029Y-91440D01*
X155232Y-88644D01*
X155232Y-85847D01*
X158029Y-83051D01*
X155232Y-80254D01*
X155232Y-77458D01*
X158029Y-83051D02*
X163622Y-83051D01*
X193690Y-97536D02*
X76850Y-97536D01*
X193690Y-97536D02*
X272430Y-97536D01*
X193690Y-97536D02*
X193690Y-68326D01*
X300121Y-77458D02*
X305714Y-74662D01*
X300121Y-77458D02*
X294528Y-83051D01*
X294528Y-88644D01*
X297324Y-91440D01*
X302917Y-91440D01*
X305714Y-88644D01*
X305714Y-85847D01*
X302917Y-83051D01*
X294528Y-83051D01*
X272430Y-97536D02*
X330850Y-97536D01*
X330850Y-68326D01*
X367172Y-74662D02*
X367172Y-77458D01*
X372765Y-83051D01*
X378358Y-77458D01*
X378358Y-74662D01*
X372765Y-83051D02*
X372765Y-91440D01*
X383544Y-74662D02*
X394729Y-74662D01*
X383544Y-74662D02*
X383544Y-91440D01*
X394729Y-91440D01*
X389136Y-83051D02*
X383544Y-83051D01*
X408304Y-74662D02*
X411101Y-77458D01*
X408304Y-74662D02*
X402712Y-74662D01*
X399915Y-77458D01*
X399915Y-80254D01*
X402712Y-83051D01*
X408304Y-83051D01*
X411101Y-85847D01*
X411101Y-88644D01*
X408304Y-91440D01*
X402712Y-91440D01*
X399915Y-88644D01*
X447690Y-97536D02*
X330850Y-97536D01*
X447690Y-97536D02*
X447690Y-68326D01*
X463946Y-83051D02*
X475132Y-83051D01*
X480318Y-91440D02*
X491503Y-74662D01*
X496689Y-83051D02*
X507875Y-83051D01*
X502282Y-77458D02*
X502282Y-88644D01*
X513061Y-88644D02*
X513061Y-77458D01*
X515857Y-74662D01*
X521450Y-74662D01*
X524246Y-77458D01*
X524246Y-88644D01*
X521450Y-91440D01*
X515857Y-91440D01*
X513061Y-88644D01*
X524246Y-77458D01*
X529432Y-88644D02*
X529432Y-91440D01*
X529432Y-88644D02*
X532229Y-88644D01*
X532229Y-91440D01*
X529432Y-91440D01*
X537618Y-88644D02*
X537618Y-77458D01*
X540414Y-74662D01*
X546007Y-74662D01*
X548804Y-77458D01*
X548804Y-88644D01*
X546007Y-91440D01*
X540414Y-91440D01*
X537618Y-88644D01*
X548804Y-77458D01*
X553990Y-74662D02*
X565175Y-74662D01*
X553990Y-74662D02*
X553990Y-83051D01*
X559582Y-80254D01*
X562379Y-80254D01*
X565175Y-83051D01*
X565175Y-88644D01*
X562379Y-91440D01*
X556786Y-91440D01*
X553990Y-88644D01*
X584850Y-97536D02*
X447690Y-97536D01*
X584850Y-97536D02*
X584850Y-68326D01*
X9540Y-107188D02*
X9540Y-112268D01*
X9540Y-107188D02*
X14620Y-107188D01*
X14620Y-117348D01*
X4460Y-117348D01*
X4460Y-107188D01*
X9540Y-107188D01*
X-19670Y-126746D02*
X38750Y-126746D01*
X38750Y-97536D01*
X50688Y-106668D02*
X53484Y-103872D01*
X59077Y-103872D01*
X61874Y-106668D01*
X61874Y-109464D01*
X59077Y-112261D01*
X56281Y-112261D01*
X59077Y-112261D02*
X61874Y-115057D01*
X61874Y-117854D01*
X59077Y-120650D01*
X53484Y-120650D01*
X50688Y-117854D01*
X38750Y-126746D02*
X76850Y-126746D01*
X76850Y-97536D01*
X203342Y-106668D02*
X203342Y-117854D01*
X203342Y-106668D02*
X206138Y-103872D01*
X211731Y-103872D01*
X214528Y-106668D01*
X214528Y-117854D01*
X211731Y-120650D01*
X206138Y-120650D01*
X203342Y-117854D01*
X214528Y-106668D01*
X219714Y-117854D02*
X219714Y-120650D01*
X219714Y-117854D02*
X222510Y-117854D01*
X222510Y-120650D01*
X219714Y-120650D01*
X227899Y-103872D02*
X239085Y-103872D01*
X239085Y-106668D01*
X227899Y-117854D01*
X227899Y-120650D01*
X244271Y-117854D02*
X244271Y-106668D01*
X247067Y-103872D01*
X252660Y-103872D01*
X255456Y-106668D01*
X255456Y-117854D01*
X252660Y-120650D01*
X247067Y-120650D01*
X244271Y-117854D01*
X255456Y-106668D01*
X272430Y-97536D02*
X272430Y-126746D01*
X109118Y-120650D02*
X97932Y-120650D01*
X109118Y-109464D01*
X109118Y-106668D01*
X106321Y-103872D01*
X100728Y-103872D01*
X97932Y-106668D01*
X114304Y-103872D02*
X125489Y-103872D01*
X125489Y-106668D01*
X114304Y-117854D01*
X114304Y-120650D01*
X130675Y-120650D02*
X130675Y-117854D01*
X133472Y-117854D01*
X133472Y-120650D01*
X130675Y-120650D01*
X138861Y-103872D02*
X150046Y-103872D01*
X138861Y-103872D02*
X138861Y-112261D01*
X144454Y-109464D01*
X147250Y-109464D01*
X150046Y-112261D01*
X150046Y-117854D01*
X147250Y-120650D01*
X141657Y-120650D01*
X138861Y-117854D01*
X160825Y-106668D02*
X166418Y-103872D01*
X160825Y-106668D02*
X155232Y-112261D01*
X155232Y-117854D01*
X158029Y-120650D01*
X163622Y-120650D01*
X166418Y-117854D01*
X166418Y-115057D01*
X163622Y-112261D01*
X155232Y-112261D01*
X193690Y-126746D02*
X76850Y-126746D01*
X193690Y-126746D02*
X272430Y-126746D01*
X193690Y-126746D02*
X193690Y-97536D01*
X287162Y-120650D02*
X298348Y-120650D01*
X287162Y-120650D02*
X298348Y-109464D01*
X298348Y-106668D01*
X295551Y-103872D01*
X289958Y-103872D01*
X287162Y-106668D01*
X303534Y-106668D02*
X306330Y-103872D01*
X311923Y-103872D01*
X314719Y-106668D01*
X314719Y-109464D01*
X311923Y-112261D01*
X314719Y-115057D01*
X314719Y-117854D01*
X311923Y-120650D01*
X306330Y-120650D01*
X303534Y-117854D01*
X303534Y-115057D01*
X306330Y-112261D01*
X303534Y-109464D01*
X303534Y-106668D01*
X306330Y-112261D02*
X311923Y-112261D01*
X330850Y-126746D02*
X272430Y-126746D01*
X330850Y-126746D02*
X330850Y-97536D01*
X367172Y-103872D02*
X367172Y-106668D01*
X372765Y-112261D01*
X378358Y-106668D01*
X378358Y-103872D01*
X372765Y-112261D02*
X372765Y-120650D01*
X383544Y-103872D02*
X394729Y-103872D01*
X383544Y-103872D02*
X383544Y-120650D01*
X394729Y-120650D01*
X389136Y-112261D02*
X383544Y-112261D01*
X408304Y-103872D02*
X411101Y-106668D01*
X408304Y-103872D02*
X402712Y-103872D01*
X399915Y-106668D01*
X399915Y-109464D01*
X402712Y-112261D01*
X408304Y-112261D01*
X411101Y-115057D01*
X411101Y-117854D01*
X408304Y-120650D01*
X402712Y-120650D01*
X399915Y-117854D01*
X447690Y-126746D02*
X330850Y-126746D01*
X447690Y-126746D02*
X447690Y-97536D01*
X463946Y-112261D02*
X475132Y-112261D01*
X480318Y-120650D02*
X491503Y-103872D01*
X496689Y-112261D02*
X507875Y-112261D01*
X502282Y-106668D02*
X502282Y-117854D01*
X513061Y-117854D02*
X513061Y-106668D01*
X515857Y-103872D01*
X521450Y-103872D01*
X524246Y-106668D01*
X524246Y-117854D01*
X521450Y-120650D01*
X515857Y-120650D01*
X513061Y-117854D01*
X524246Y-106668D01*
X529432Y-117854D02*
X529432Y-120650D01*
X529432Y-117854D02*
X532229Y-117854D01*
X532229Y-120650D01*
X529432Y-120650D01*
X537618Y-117854D02*
X537618Y-106668D01*
X540414Y-103872D01*
X546007Y-103872D01*
X548804Y-106668D01*
X548804Y-117854D01*
X546007Y-120650D01*
X540414Y-120650D01*
X537618Y-117854D01*
X548804Y-106668D01*
X553990Y-103872D02*
X565175Y-103872D01*
X553990Y-103872D02*
X553990Y-112261D01*
X559582Y-109464D01*
X562379Y-109464D01*
X565175Y-112261D01*
X565175Y-117854D01*
X562379Y-120650D01*
X556786Y-120650D01*
X553990Y-117854D01*
X584850Y-126746D02*
X447690Y-126746D01*
X584850Y-126746D02*
X584850Y-97536D01*
X9540Y-136398D02*
X9540Y-141478D01*
X9540Y-136398D02*
X14620Y-141478D01*
X9540Y-146558D01*
X4460Y-141478D01*
X9540Y-136398D01*
X-19670Y-155956D02*
X38750Y-155956D01*
X38750Y-126746D01*
X59077Y-133082D02*
X59077Y-149860D01*
X50688Y-141471D02*
X59077Y-133082D01*
X61874Y-141471D02*
X50688Y-141471D01*
X38750Y-155956D02*
X76850Y-155956D01*
X76850Y-126746D01*
X203342Y-135878D02*
X203342Y-147064D01*
X203342Y-135878D02*
X206138Y-133082D01*
X211731Y-133082D01*
X214528Y-135878D01*
X214528Y-147064D01*
X211731Y-149860D01*
X206138Y-149860D01*
X203342Y-147064D01*
X214528Y-135878D01*
X219714Y-147064D02*
X219714Y-149860D01*
X219714Y-147064D02*
X222510Y-147064D01*
X222510Y-149860D01*
X219714Y-149860D01*
X227899Y-135878D02*
X230696Y-133082D01*
X236289Y-133082D01*
X239085Y-135878D01*
X239085Y-138674D01*
X236289Y-141471D01*
X239085Y-144267D01*
X239085Y-147064D01*
X236289Y-149860D01*
X230696Y-149860D01*
X227899Y-147064D01*
X227899Y-144267D01*
X230696Y-141471D01*
X227899Y-138674D01*
X227899Y-135878D01*
X230696Y-141471D02*
X236289Y-141471D01*
X244271Y-147064D02*
X247067Y-149860D01*
X252660Y-149860D01*
X255456Y-147064D01*
X255456Y-135878D01*
X252660Y-133082D01*
X247067Y-133082D01*
X244271Y-135878D01*
X244271Y-138674D01*
X247067Y-141471D01*
X255456Y-141471D01*
X272430Y-155956D02*
X272430Y-126746D01*
X100728Y-133082D02*
X97932Y-135878D01*
X100728Y-133082D02*
X106321Y-133082D01*
X109118Y-135878D01*
X109118Y-138674D01*
X106321Y-141471D01*
X103525Y-141471D01*
X106321Y-141471D02*
X109118Y-144267D01*
X109118Y-147064D01*
X106321Y-149860D01*
X100728Y-149860D01*
X97932Y-147064D01*
X114304Y-133082D02*
X125489Y-133082D01*
X114304Y-133082D02*
X114304Y-141471D01*
X119896Y-138674D01*
X122693Y-138674D01*
X125489Y-141471D01*
X125489Y-147064D01*
X122693Y-149860D01*
X117100Y-149860D01*
X114304Y-147064D01*
X130675Y-147064D02*
X130675Y-149860D01*
X130675Y-147064D02*
X133472Y-147064D01*
X133472Y-149860D01*
X130675Y-149860D01*
X138861Y-147064D02*
X138861Y-135878D01*
X141657Y-133082D01*
X147250Y-133082D01*
X150046Y-135878D01*
X150046Y-147064D01*
X147250Y-149860D01*
X141657Y-149860D01*
X138861Y-147064D01*
X150046Y-135878D01*
X155232Y-135878D02*
X155232Y-147064D01*
X155232Y-135878D02*
X158029Y-133082D01*
X163622Y-133082D01*
X166418Y-135878D01*
X166418Y-147064D01*
X163622Y-149860D01*
X158029Y-149860D01*
X155232Y-147064D01*
X166418Y-135878D01*
X193690Y-155956D02*
X76850Y-155956D01*
X193690Y-155956D02*
X272430Y-155956D01*
X193690Y-155956D02*
X193690Y-126746D01*
X287162Y-135878D02*
X289958Y-133082D01*
X295551Y-133082D01*
X298348Y-135878D01*
X298348Y-138674D01*
X295551Y-141471D01*
X292755Y-141471D01*
X295551Y-141471D02*
X298348Y-144267D01*
X298348Y-147064D01*
X295551Y-149860D01*
X289958Y-149860D01*
X287162Y-147064D01*
X309126Y-135878D02*
X314719Y-133082D01*
X309126Y-135878D02*
X303534Y-141471D01*
X303534Y-147064D01*
X306330Y-149860D01*
X311923Y-149860D01*
X314719Y-147064D01*
X314719Y-144267D01*
X311923Y-141471D01*
X303534Y-141471D01*
X330850Y-155956D02*
X272430Y-155956D01*
X330850Y-155956D02*
X330850Y-126746D01*
X367172Y-133082D02*
X367172Y-135878D01*
X372765Y-141471D01*
X378358Y-135878D01*
X378358Y-133082D01*
X372765Y-141471D02*
X372765Y-149860D01*
X383544Y-133082D02*
X394729Y-133082D01*
X383544Y-133082D02*
X383544Y-149860D01*
X394729Y-149860D01*
X389136Y-141471D02*
X383544Y-141471D01*
X408304Y-133082D02*
X411101Y-135878D01*
X408304Y-133082D02*
X402712Y-133082D01*
X399915Y-135878D01*
X399915Y-138674D01*
X402712Y-141471D01*
X408304Y-141471D01*
X411101Y-144267D01*
X411101Y-147064D01*
X408304Y-149860D01*
X402712Y-149860D01*
X399915Y-147064D01*
X447690Y-155956D02*
X330850Y-155956D01*
X447690Y-155956D02*
X447690Y-126746D01*
X463946Y-141471D02*
X475132Y-141471D01*
X480318Y-149860D02*
X491503Y-133082D01*
X496689Y-141471D02*
X507875Y-141471D01*
X502282Y-135878D02*
X502282Y-147064D01*
X513061Y-147064D02*
X513061Y-135878D01*
X515857Y-133082D01*
X521450Y-133082D01*
X524246Y-135878D01*
X524246Y-147064D01*
X521450Y-149860D01*
X515857Y-149860D01*
X513061Y-147064D01*
X524246Y-135878D01*
X529432Y-147064D02*
X529432Y-149860D01*
X529432Y-147064D02*
X532229Y-147064D01*
X532229Y-149860D01*
X529432Y-149860D01*
X537618Y-147064D02*
X537618Y-135878D01*
X540414Y-133082D01*
X546007Y-133082D01*
X548804Y-135878D01*
X548804Y-147064D01*
X546007Y-149860D01*
X540414Y-149860D01*
X537618Y-147064D01*
X548804Y-135878D01*
X553990Y-133082D02*
X565175Y-133082D01*
X553990Y-133082D02*
X553990Y-141471D01*
X559582Y-138674D01*
X562379Y-138674D01*
X565175Y-141471D01*
X565175Y-147064D01*
X562379Y-149860D01*
X556786Y-149860D01*
X553990Y-147064D01*
X584850Y-155956D02*
X447690Y-155956D01*
X584850Y-155956D02*
X584850Y-126746D01*
X14620Y-165608D02*
X4460Y-165608D01*
X14620Y-165608D02*
X4460Y-175768D01*
X14620Y-175768D01*
X4460Y-165608D01*
X-19670Y-185166D02*
X38750Y-185166D01*
X38750Y-155956D01*
X50688Y-162292D02*
X61874Y-162292D01*
X50688Y-162292D02*
X50688Y-170681D01*
X56281Y-167884D01*
X59077Y-167884D01*
X61874Y-170681D01*
X61874Y-176274D01*
X59077Y-179070D01*
X53484Y-179070D01*
X50688Y-176274D01*
X38750Y-185166D02*
X76850Y-185166D01*
X76850Y-155956D01*
X203342Y-167884D02*
X208935Y-162292D01*
X208935Y-179070D01*
X203342Y-179070D02*
X214528Y-179070D01*
X219714Y-179070D02*
X219714Y-176274D01*
X222510Y-176274D01*
X222510Y-179070D01*
X219714Y-179070D01*
X227899Y-176274D02*
X227899Y-165088D01*
X230696Y-162292D01*
X236289Y-162292D01*
X239085Y-165088D01*
X239085Y-176274D01*
X236289Y-179070D01*
X230696Y-179070D01*
X227899Y-176274D01*
X239085Y-165088D01*
X244271Y-165088D02*
X244271Y-176274D01*
X244271Y-165088D02*
X247067Y-162292D01*
X252660Y-162292D01*
X255456Y-165088D01*
X255456Y-176274D01*
X252660Y-179070D01*
X247067Y-179070D01*
X244271Y-176274D01*
X255456Y-165088D01*
X272430Y-155956D02*
X272430Y-185166D01*
X100728Y-162292D02*
X97932Y-165088D01*
X100728Y-162292D02*
X106321Y-162292D01*
X109118Y-165088D01*
X109118Y-167884D01*
X106321Y-170681D01*
X103525Y-170681D01*
X106321Y-170681D02*
X109118Y-173477D01*
X109118Y-176274D01*
X106321Y-179070D01*
X100728Y-179070D01*
X97932Y-176274D01*
X114304Y-176274D02*
X117100Y-179070D01*
X122693Y-179070D01*
X125489Y-176274D01*
X125489Y-165088D01*
X122693Y-162292D01*
X117100Y-162292D01*
X114304Y-165088D01*
X114304Y-167884D01*
X117100Y-170681D01*
X125489Y-170681D01*
X130675Y-176274D02*
X130675Y-179070D01*
X130675Y-176274D02*
X133472Y-176274D01*
X133472Y-179070D01*
X130675Y-179070D01*
X138861Y-165088D02*
X141657Y-162292D01*
X147250Y-162292D01*
X150046Y-165088D01*
X150046Y-167884D01*
X147250Y-170681D01*
X144454Y-170681D01*
X147250Y-170681D02*
X150046Y-173477D01*
X150046Y-176274D01*
X147250Y-179070D01*
X141657Y-179070D01*
X138861Y-176274D01*
X155232Y-162292D02*
X166418Y-162292D01*
X166418Y-165088D01*
X155232Y-176274D01*
X155232Y-179070D01*
X193690Y-185166D02*
X76850Y-185166D01*
X193690Y-185166D02*
X272430Y-185166D01*
X193690Y-185166D02*
X193690Y-155956D01*
X287162Y-179070D02*
X298348Y-179070D01*
X287162Y-179070D02*
X298348Y-167884D01*
X298348Y-165088D01*
X295551Y-162292D01*
X289958Y-162292D01*
X287162Y-165088D01*
X303534Y-162292D02*
X314719Y-162292D01*
X314719Y-165088D01*
X303534Y-176274D01*
X303534Y-179070D01*
X330850Y-185166D02*
X272430Y-185166D01*
X330850Y-185166D02*
X330850Y-155956D01*
X367172Y-162292D02*
X367172Y-165088D01*
X372765Y-170681D01*
X378358Y-165088D01*
X378358Y-162292D01*
X372765Y-170681D02*
X372765Y-179070D01*
X383544Y-162292D02*
X394729Y-162292D01*
X383544Y-162292D02*
X383544Y-179070D01*
X394729Y-179070D01*
X389136Y-170681D02*
X383544Y-170681D01*
X408304Y-162292D02*
X411101Y-165088D01*
X408304Y-162292D02*
X402712Y-162292D01*
X399915Y-165088D01*
X399915Y-167884D01*
X402712Y-170681D01*
X408304Y-170681D01*
X411101Y-173477D01*
X411101Y-176274D01*
X408304Y-179070D01*
X402712Y-179070D01*
X399915Y-176274D01*
X447690Y-185166D02*
X330850Y-185166D01*
X447690Y-185166D02*
X447690Y-155956D01*
X463946Y-170681D02*
X475132Y-170681D01*
X480318Y-179070D02*
X491503Y-162292D01*
X496689Y-170681D02*
X507875Y-170681D01*
X502282Y-165088D02*
X502282Y-176274D01*
X513061Y-176274D02*
X513061Y-165088D01*
X515857Y-162292D01*
X521450Y-162292D01*
X524246Y-165088D01*
X524246Y-176274D01*
X521450Y-179070D01*
X515857Y-179070D01*
X513061Y-176274D01*
X524246Y-165088D01*
X529432Y-176274D02*
X529432Y-179070D01*
X529432Y-176274D02*
X532229Y-176274D01*
X532229Y-179070D01*
X529432Y-179070D01*
X537618Y-176274D02*
X537618Y-165088D01*
X540414Y-162292D01*
X546007Y-162292D01*
X548804Y-165088D01*
X548804Y-176274D01*
X546007Y-179070D01*
X540414Y-179070D01*
X537618Y-176274D01*
X548804Y-165088D01*
X553990Y-162292D02*
X565175Y-162292D01*
X553990Y-162292D02*
X553990Y-170681D01*
X559582Y-167884D01*
X562379Y-167884D01*
X565175Y-170681D01*
X565175Y-176274D01*
X562379Y-179070D01*
X556786Y-179070D01*
X553990Y-176274D01*
X584850Y-185166D02*
X447690Y-185166D01*
X584850Y-185166D02*
X584850Y-155956D01*
X14620Y-204978D02*
X4460Y-194818D01*
X14620Y-194818D02*
X14620Y-204978D01*
X14620Y-194818D02*
X4460Y-204978D01*
X4460Y-194818D01*
X-19670Y-214376D02*
X38750Y-214376D01*
X38750Y-185166D01*
X56281Y-194298D02*
X61874Y-191502D01*
X56281Y-194298D02*
X50688Y-199891D01*
X50688Y-205484D01*
X53484Y-208280D01*
X59077Y-208280D01*
X61874Y-205484D01*
X61874Y-202687D01*
X59077Y-199891D01*
X50688Y-199891D01*
X38750Y-214376D02*
X76850Y-214376D01*
X76850Y-185166D01*
X203342Y-197094D02*
X208935Y-191502D01*
X208935Y-208280D01*
X203342Y-208280D02*
X214528Y-208280D01*
X219714Y-208280D02*
X219714Y-205484D01*
X222510Y-205484D01*
X222510Y-208280D01*
X219714Y-208280D01*
X227899Y-208280D02*
X239085Y-208280D01*
X227899Y-208280D02*
X239085Y-197094D01*
X239085Y-194298D01*
X236289Y-191502D01*
X230696Y-191502D01*
X227899Y-194298D01*
X244271Y-194298D02*
X244271Y-205484D01*
X244271Y-194298D02*
X247067Y-191502D01*
X252660Y-191502D01*
X255456Y-194298D01*
X255456Y-205484D01*
X252660Y-208280D01*
X247067Y-208280D01*
X244271Y-205484D01*
X255456Y-194298D01*
X272430Y-185166D02*
X272430Y-214376D01*
X106321Y-208280D02*
X106321Y-191502D01*
X97932Y-199891D01*
X109118Y-199891D01*
X114304Y-191502D02*
X125489Y-191502D01*
X125489Y-194298D01*
X114304Y-205484D01*
X114304Y-208280D01*
X130675Y-208280D02*
X130675Y-205484D01*
X133472Y-205484D01*
X133472Y-208280D01*
X130675Y-208280D01*
X138861Y-208280D02*
X150046Y-208280D01*
X138861Y-208280D02*
X150046Y-197094D01*
X150046Y-194298D01*
X147250Y-191502D01*
X141657Y-191502D01*
X138861Y-194298D01*
X163622Y-191502D02*
X163622Y-208280D01*
X155232Y-199891D02*
X163622Y-191502D01*
X166418Y-199891D02*
X155232Y-199891D01*
X193690Y-214376D02*
X76850Y-214376D01*
X193690Y-214376D02*
X272430Y-214376D01*
X193690Y-214376D02*
X193690Y-185166D01*
X294528Y-194298D02*
X297324Y-191502D01*
X302917Y-191502D01*
X305714Y-194298D01*
X305714Y-197094D01*
X302917Y-199891D01*
X300121Y-199891D01*
X302917Y-199891D02*
X305714Y-202687D01*
X305714Y-205484D01*
X302917Y-208280D01*
X297324Y-208280D01*
X294528Y-205484D01*
X272430Y-214376D02*
X330850Y-214376D01*
X330850Y-185166D01*
X367172Y-191502D02*
X367172Y-194298D01*
X372765Y-199891D01*
X378358Y-194298D01*
X378358Y-191502D01*
X372765Y-199891D02*
X372765Y-208280D01*
X383544Y-191502D02*
X394729Y-191502D01*
X383544Y-191502D02*
X383544Y-208280D01*
X394729Y-208280D01*
X389136Y-199891D02*
X383544Y-199891D01*
X408304Y-191502D02*
X411101Y-194298D01*
X408304Y-191502D02*
X402712Y-191502D01*
X399915Y-194298D01*
X399915Y-197094D01*
X402712Y-199891D01*
X408304Y-199891D01*
X411101Y-202687D01*
X411101Y-205484D01*
X408304Y-208280D01*
X402712Y-208280D01*
X399915Y-205484D01*
X447690Y-214376D02*
X330850Y-214376D01*
X447690Y-214376D02*
X447690Y-185166D01*
X463946Y-199891D02*
X475132Y-199891D01*
X480318Y-208280D02*
X491503Y-191502D01*
X496689Y-199891D02*
X507875Y-199891D01*
X502282Y-194298D02*
X502282Y-205484D01*
X513061Y-205484D02*
X513061Y-194298D01*
X515857Y-191502D01*
X521450Y-191502D01*
X524246Y-194298D01*
X524246Y-205484D01*
X521450Y-208280D01*
X515857Y-208280D01*
X513061Y-205484D01*
X524246Y-194298D01*
X529432Y-205484D02*
X529432Y-208280D01*
X529432Y-205484D02*
X532229Y-205484D01*
X532229Y-208280D01*
X529432Y-208280D01*
X537618Y-205484D02*
X537618Y-194298D01*
X540414Y-191502D01*
X546007Y-191502D01*
X548804Y-194298D01*
X548804Y-205484D01*
X546007Y-208280D01*
X540414Y-208280D01*
X537618Y-205484D01*
X548804Y-194298D01*
X553990Y-191502D02*
X565175Y-191502D01*
X553990Y-191502D02*
X553990Y-199891D01*
X559582Y-197094D01*
X562379Y-197094D01*
X565175Y-199891D01*
X565175Y-205484D01*
X562379Y-208280D01*
X556786Y-208280D01*
X553990Y-205484D01*
X584850Y-214376D02*
X447690Y-214376D01*
X584850Y-214376D02*
X584850Y-185166D01*
X14620Y-229108D02*
X4460Y-229108D01*
X9540Y-224028D02*
X14620Y-229108D01*
X9540Y-224028D02*
X9540Y-234188D01*
X4460Y-229108D01*
X-19670Y-243586D02*
X38750Y-243586D01*
X38750Y-214376D01*
X50688Y-220712D02*
X61874Y-220712D01*
X61874Y-223508D01*
X50688Y-234694D01*
X50688Y-237490D01*
X38750Y-243586D02*
X76850Y-243586D01*
X76850Y-214376D01*
X203342Y-226304D02*
X208935Y-220712D01*
X208935Y-237490D01*
X203342Y-237490D02*
X214528Y-237490D01*
X219714Y-237490D02*
X219714Y-234694D01*
X222510Y-234694D01*
X222510Y-237490D01*
X219714Y-237490D01*
X233492Y-223508D02*
X239085Y-220712D01*
X233492Y-223508D02*
X227899Y-229101D01*
X227899Y-234694D01*
X230696Y-237490D01*
X236289Y-237490D01*
X239085Y-234694D01*
X239085Y-231897D01*
X236289Y-229101D01*
X227899Y-229101D01*
X244271Y-234694D02*
X244271Y-223508D01*
X247067Y-220712D01*
X252660Y-220712D01*
X255456Y-223508D01*
X255456Y-234694D01*
X252660Y-237490D01*
X247067Y-237490D01*
X244271Y-234694D01*
X255456Y-223508D01*
X272430Y-214376D02*
X272430Y-243586D01*
X109118Y-220712D02*
X103525Y-223508D01*
X97932Y-229101D01*
X97932Y-234694D01*
X100728Y-237490D01*
X106321Y-237490D01*
X109118Y-234694D01*
X109118Y-231897D01*
X106321Y-229101D01*
X97932Y-229101D01*
X114304Y-237490D02*
X125489Y-237490D01*
X114304Y-237490D02*
X125489Y-226304D01*
X125489Y-223508D01*
X122693Y-220712D01*
X117100Y-220712D01*
X114304Y-223508D01*
X130675Y-234694D02*
X130675Y-237490D01*
X130675Y-234694D02*
X133472Y-234694D01*
X133472Y-237490D01*
X130675Y-237490D01*
X138861Y-234694D02*
X141657Y-237490D01*
X147250Y-237490D01*
X150046Y-234694D01*
X150046Y-223508D01*
X147250Y-220712D01*
X141657Y-220712D01*
X138861Y-223508D01*
X138861Y-226304D01*
X141657Y-229101D01*
X150046Y-229101D01*
X155232Y-234694D02*
X158029Y-237490D01*
X163622Y-237490D01*
X166418Y-234694D01*
X166418Y-223508D01*
X163622Y-220712D01*
X158029Y-220712D01*
X155232Y-223508D01*
X155232Y-226304D01*
X158029Y-229101D01*
X166418Y-229101D01*
X193690Y-243586D02*
X76850Y-243586D01*
X193690Y-243586D02*
X272430Y-243586D01*
X193690Y-243586D02*
X193690Y-214376D01*
X300121Y-223508D02*
X305714Y-220712D01*
X300121Y-223508D02*
X294528Y-229101D01*
X294528Y-234694D01*
X297324Y-237490D01*
X302917Y-237490D01*
X305714Y-234694D01*
X305714Y-231897D01*
X302917Y-229101D01*
X294528Y-229101D01*
X272430Y-243586D02*
X330850Y-243586D01*
X330850Y-214376D01*
X367172Y-220712D02*
X367172Y-223508D01*
X372765Y-229101D01*
X378358Y-223508D01*
X378358Y-220712D01*
X372765Y-229101D02*
X372765Y-237490D01*
X383544Y-220712D02*
X394729Y-220712D01*
X383544Y-220712D02*
X383544Y-237490D01*
X394729Y-237490D01*
X389136Y-229101D02*
X383544Y-229101D01*
X408304Y-220712D02*
X411101Y-223508D01*
X408304Y-220712D02*
X402712Y-220712D01*
X399915Y-223508D01*
X399915Y-226304D01*
X402712Y-229101D01*
X408304Y-229101D01*
X411101Y-231897D01*
X411101Y-234694D01*
X408304Y-237490D01*
X402712Y-237490D01*
X399915Y-234694D01*
X447690Y-243586D02*
X330850Y-243586D01*
X447690Y-243586D02*
X447690Y-214376D01*
X463946Y-229101D02*
X475132Y-229101D01*
X480318Y-237490D02*
X491503Y-220712D01*
X496689Y-229101D02*
X507875Y-229101D01*
X502282Y-223508D02*
X502282Y-234694D01*
X513061Y-234694D02*
X513061Y-223508D01*
X515857Y-220712D01*
X521450Y-220712D01*
X524246Y-223508D01*
X524246Y-234694D01*
X521450Y-237490D01*
X515857Y-237490D01*
X513061Y-234694D01*
X524246Y-223508D01*
X529432Y-234694D02*
X529432Y-237490D01*
X529432Y-234694D02*
X532229Y-234694D01*
X532229Y-237490D01*
X529432Y-237490D01*
X537618Y-234694D02*
X537618Y-223508D01*
X540414Y-220712D01*
X546007Y-220712D01*
X548804Y-223508D01*
X548804Y-234694D01*
X546007Y-237490D01*
X540414Y-237490D01*
X537618Y-234694D01*
X548804Y-223508D01*
X553990Y-220712D02*
X565175Y-220712D01*
X553990Y-220712D02*
X553990Y-229101D01*
X559582Y-226304D01*
X562379Y-226304D01*
X565175Y-229101D01*
X565175Y-234694D01*
X562379Y-237490D01*
X556786Y-237490D01*
X553990Y-234694D01*
X584850Y-243586D02*
X447690Y-243586D01*
X584850Y-243586D02*
X584850Y-214376D01*
X9540Y-253238D02*
X9540Y-263398D01*
X14620Y-258318D01*
X4460Y-258318D01*
X9540Y-253238D01*
X-19670Y-272796D02*
X38750Y-272796D01*
X38750Y-243586D01*
X50688Y-252718D02*
X53484Y-249922D01*
X59077Y-249922D01*
X61874Y-252718D01*
X61874Y-255514D01*
X59077Y-258311D01*
X61874Y-261107D01*
X61874Y-263904D01*
X59077Y-266700D01*
X53484Y-266700D01*
X50688Y-263904D01*
X50688Y-261107D01*
X53484Y-258311D01*
X50688Y-255514D01*
X50688Y-252718D01*
X53484Y-258311D02*
X59077Y-258311D01*
X76850Y-272796D02*
X38750Y-272796D01*
X76850Y-272796D02*
X76850Y-243586D01*
X203342Y-252718D02*
X206138Y-249922D01*
X211731Y-249922D01*
X214528Y-252718D01*
X214528Y-255514D01*
X211731Y-258311D01*
X208935Y-258311D01*
X211731Y-258311D02*
X214528Y-261107D01*
X214528Y-263904D01*
X211731Y-266700D01*
X206138Y-266700D01*
X203342Y-263904D01*
X219714Y-263904D02*
X219714Y-266700D01*
X219714Y-263904D02*
X222510Y-263904D01*
X222510Y-266700D01*
X219714Y-266700D01*
X227899Y-266700D02*
X239085Y-266700D01*
X227899Y-266700D02*
X239085Y-255514D01*
X239085Y-252718D01*
X236289Y-249922D01*
X230696Y-249922D01*
X227899Y-252718D01*
X244271Y-249922D02*
X255456Y-249922D01*
X244271Y-249922D02*
X244271Y-258311D01*
X249864Y-255514D01*
X252660Y-255514D01*
X255456Y-258311D01*
X255456Y-263904D01*
X252660Y-266700D01*
X247067Y-266700D01*
X244271Y-263904D01*
X272430Y-272796D02*
X272430Y-243586D01*
X96159Y-249922D02*
X90566Y-255514D01*
X96159Y-249922D02*
X96159Y-266700D01*
X90566Y-266700D02*
X101752Y-266700D01*
X106938Y-266700D02*
X118123Y-266700D01*
X106938Y-266700D02*
X118123Y-255514D01*
X118123Y-252718D01*
X115327Y-249922D01*
X109734Y-249922D01*
X106938Y-252718D01*
X123309Y-252718D02*
X126106Y-249922D01*
X131698Y-249922D01*
X134495Y-252718D01*
X134495Y-255514D01*
X131698Y-258311D01*
X134495Y-261107D01*
X134495Y-263904D01*
X131698Y-266700D01*
X126106Y-266700D01*
X123309Y-263904D01*
X123309Y-261107D01*
X126106Y-258311D01*
X123309Y-255514D01*
X123309Y-252718D01*
X126106Y-258311D02*
X131698Y-258311D01*
X139681Y-263904D02*
X139681Y-266700D01*
X139681Y-263904D02*
X142477Y-263904D01*
X142477Y-266700D01*
X139681Y-266700D01*
X147866Y-263904D02*
X147866Y-252718D01*
X150663Y-249922D01*
X156256Y-249922D01*
X159052Y-252718D01*
X159052Y-263904D01*
X156256Y-266700D01*
X150663Y-266700D01*
X147866Y-263904D01*
X159052Y-252718D01*
X164238Y-252718D02*
X164238Y-263904D01*
X164238Y-252718D02*
X167034Y-249922D01*
X172627Y-249922D01*
X175424Y-252718D01*
X175424Y-263904D01*
X172627Y-266700D01*
X167034Y-266700D01*
X164238Y-263904D01*
X175424Y-252718D01*
X193690Y-272796D02*
X76850Y-272796D01*
X193690Y-272796D02*
X272430Y-272796D01*
X193690Y-272796D02*
X193690Y-243586D01*
X300121Y-252718D02*
X305714Y-249922D01*
X300121Y-252718D02*
X294528Y-258311D01*
X294528Y-263904D01*
X297324Y-266700D01*
X302917Y-266700D01*
X305714Y-263904D01*
X305714Y-261107D01*
X302917Y-258311D01*
X294528Y-258311D01*
X272430Y-272796D02*
X330850Y-272796D01*
X330850Y-243586D01*
X367172Y-249922D02*
X367172Y-266700D01*
X378358Y-266700D02*
X367172Y-249922D01*
X378358Y-249922D02*
X378358Y-266700D01*
X386340Y-249922D02*
X391933Y-249922D01*
X386340Y-249922D02*
X383544Y-252718D01*
X383544Y-263904D01*
X386340Y-266700D01*
X391933Y-266700D01*
X394729Y-263904D01*
X394729Y-252718D01*
X391933Y-249922D01*
X405508Y-249922D02*
X405508Y-266700D01*
X399915Y-249922D02*
X411101Y-249922D01*
X447690Y-272796D02*
X330850Y-272796D01*
X447690Y-272796D02*
X447690Y-243586D01*
X463946Y-258311D02*
X475132Y-258311D01*
X480318Y-266700D02*
X491503Y-249922D01*
X496689Y-258311D02*
X507875Y-258311D01*
X502282Y-252718D02*
X502282Y-263904D01*
X513061Y-263904D02*
X513061Y-252718D01*
X515857Y-249922D01*
X521450Y-249922D01*
X524246Y-252718D01*
X524246Y-263904D01*
X521450Y-266700D01*
X515857Y-266700D01*
X513061Y-263904D01*
X524246Y-252718D01*
X529432Y-263904D02*
X529432Y-266700D01*
X529432Y-263904D02*
X532229Y-263904D01*
X532229Y-266700D01*
X529432Y-266700D01*
X537618Y-263904D02*
X537618Y-252718D01*
X540414Y-249922D01*
X546007Y-249922D01*
X548804Y-252718D01*
X548804Y-263904D01*
X546007Y-266700D01*
X540414Y-266700D01*
X537618Y-263904D01*
X548804Y-252718D01*
X553990Y-249922D02*
X565175Y-249922D01*
X553990Y-249922D02*
X553990Y-258311D01*
X559582Y-255514D01*
X562379Y-255514D01*
X565175Y-258311D01*
X565175Y-263904D01*
X562379Y-266700D01*
X556786Y-266700D01*
X553990Y-263904D01*
X584850Y-272796D02*
X447690Y-272796D01*
X584850Y-272796D02*
X584850Y-243586D01*
X14620Y-292608D02*
X4460Y-282448D01*
X14620Y-282448D02*
X4460Y-292608D01*
X9540Y-292608D02*
X9540Y-282448D01*
X-19670Y-302006D02*
X38750Y-302006D01*
X38750Y-272796D01*
X50688Y-293114D02*
X53484Y-295910D01*
X59077Y-295910D01*
X61874Y-293114D01*
X61874Y-281928D01*
X59077Y-279132D01*
X53484Y-279132D01*
X50688Y-281928D01*
X50688Y-284724D01*
X53484Y-287521D01*
X61874Y-287521D01*
X76850Y-302006D02*
X38750Y-302006D01*
X76850Y-302006D02*
X76850Y-272796D01*
X203342Y-281928D02*
X206138Y-279132D01*
X211731Y-279132D01*
X214528Y-281928D01*
X214528Y-284724D01*
X211731Y-287521D01*
X208935Y-287521D01*
X211731Y-287521D02*
X214528Y-290317D01*
X214528Y-293114D01*
X211731Y-295910D01*
X206138Y-295910D01*
X203342Y-293114D01*
X219714Y-293114D02*
X219714Y-295910D01*
X219714Y-293114D02*
X222510Y-293114D01*
X222510Y-295910D01*
X219714Y-295910D01*
X227899Y-293114D02*
X230696Y-295910D01*
X236289Y-295910D01*
X239085Y-293114D01*
X239085Y-281928D01*
X236289Y-279132D01*
X230696Y-279132D01*
X227899Y-281928D01*
X227899Y-284724D01*
X230696Y-287521D01*
X239085Y-287521D01*
X249864Y-281928D02*
X255456Y-279132D01*
X249864Y-281928D02*
X244271Y-287521D01*
X244271Y-293114D01*
X247067Y-295910D01*
X252660Y-295910D01*
X255456Y-293114D01*
X255456Y-290317D01*
X252660Y-287521D01*
X244271Y-287521D01*
X272430Y-302006D02*
X272430Y-272796D01*
X96159Y-279132D02*
X90566Y-284724D01*
X96159Y-279132D02*
X96159Y-295910D01*
X90566Y-295910D02*
X101752Y-295910D01*
X106938Y-279132D02*
X118123Y-279132D01*
X106938Y-279132D02*
X106938Y-287521D01*
X112530Y-284724D01*
X115327Y-284724D01*
X118123Y-287521D01*
X118123Y-293114D01*
X115327Y-295910D01*
X109734Y-295910D01*
X106938Y-293114D01*
X128902Y-281928D02*
X134495Y-279132D01*
X128902Y-281928D02*
X123309Y-287521D01*
X123309Y-293114D01*
X126106Y-295910D01*
X131698Y-295910D01*
X134495Y-293114D01*
X134495Y-290317D01*
X131698Y-287521D01*
X123309Y-287521D01*
X139681Y-293114D02*
X139681Y-295910D01*
X139681Y-293114D02*
X142477Y-293114D01*
X142477Y-295910D01*
X139681Y-295910D01*
X147866Y-293114D02*
X147866Y-281928D01*
X150663Y-279132D01*
X156256Y-279132D01*
X159052Y-281928D01*
X159052Y-293114D01*
X156256Y-295910D01*
X150663Y-295910D01*
X147866Y-293114D01*
X159052Y-281928D01*
X164238Y-281928D02*
X164238Y-293114D01*
X164238Y-281928D02*
X167034Y-279132D01*
X172627Y-279132D01*
X175424Y-281928D01*
X175424Y-293114D01*
X172627Y-295910D01*
X167034Y-295910D01*
X164238Y-293114D01*
X175424Y-281928D01*
X193690Y-302006D02*
X76850Y-302006D01*
X193690Y-302006D02*
X272430Y-302006D01*
X193690Y-302006D02*
X193690Y-272796D01*
X302917Y-279132D02*
X302917Y-295910D01*
X294528Y-287521D02*
X302917Y-279132D01*
X305714Y-287521D02*
X294528Y-287521D01*
X272430Y-302006D02*
X330850Y-302006D01*
X330850Y-272796D01*
X367172Y-279132D02*
X367172Y-295910D01*
X378358Y-295910D02*
X367172Y-279132D01*
X378358Y-279132D02*
X378358Y-295910D01*
X386340Y-279132D02*
X391933Y-279132D01*
X386340Y-279132D02*
X383544Y-281928D01*
X383544Y-293114D01*
X386340Y-295910D01*
X391933Y-295910D01*
X394729Y-293114D01*
X394729Y-281928D01*
X391933Y-279132D01*
X405508Y-279132D02*
X405508Y-295910D01*
X399915Y-279132D02*
X411101Y-279132D01*
X447690Y-302006D02*
X330850Y-302006D01*
X447690Y-302006D02*
X447690Y-272796D01*
X463946Y-287521D02*
X475132Y-287521D01*
X480318Y-295910D02*
X491503Y-279132D01*
X496689Y-287521D02*
X507875Y-287521D01*
X502282Y-281928D02*
X502282Y-293114D01*
X513061Y-293114D02*
X513061Y-281928D01*
X515857Y-279132D01*
X521450Y-279132D01*
X524246Y-281928D01*
X524246Y-293114D01*
X521450Y-295910D01*
X515857Y-295910D01*
X513061Y-293114D01*
X524246Y-281928D01*
X529432Y-293114D02*
X529432Y-295910D01*
X529432Y-293114D02*
X532229Y-293114D01*
X532229Y-295910D01*
X529432Y-295910D01*
X537618Y-293114D02*
X537618Y-281928D01*
X540414Y-279132D01*
X546007Y-279132D01*
X548804Y-281928D01*
X548804Y-293114D01*
X546007Y-295910D01*
X540414Y-295910D01*
X537618Y-293114D01*
X548804Y-281928D01*
X553990Y-279132D02*
X565175Y-279132D01*
X553990Y-279132D02*
X553990Y-287521D01*
X559582Y-284724D01*
X562379Y-284724D01*
X565175Y-287521D01*
X565175Y-293114D01*
X562379Y-295910D01*
X556786Y-295910D01*
X553990Y-293114D01*
X584850Y-302006D02*
X447690Y-302006D01*
X584850Y-302006D02*
X584850Y-272796D01*
X272430Y-39116D02*
X193690Y-39116D01*
X584850Y-39116D02*
X584850Y-9906D01*
X-19670Y-9906D02*
X-19670Y-39116D01*
D12*
X-19670Y-302006D02*
X584850Y-302006D01*
X584850Y-9906D01*
X-19670Y-9906D01*
X-19670Y-302006D01*
M02*
