G04 EAGLE Gerber X2 export*
G75*
%MOMM*%
%FSLAX34Y34*%
%LPD*%
%AMOC8*
5,1,8,0,0,1.08239X$1,22.5*%
G01*
%ADD10C,0.279400*%
%ADD11R,0.190500X0.190500*%
%ADD12R,0.190500X0.381000*%
%ADD13R,0.190500X1.524000*%
%ADD14R,0.190500X1.333500*%
%ADD15R,0.190500X0.762000*%
%ADD16R,0.190500X0.571500*%
%ADD17R,0.190500X1.714500*%
%ADD18R,0.190500X1.143000*%
%ADD19R,0.190500X0.952500*%
%ADD20R,0.190500X2.857500*%
%ADD21R,0.190500X2.095500*%
%ADD22R,0.190500X1.905000*%
%ADD23R,0.190500X2.286000*%
%ADD24R,0.190500X2.476500*%
%ADD25R,0.190500X2.667000*%
%ADD26R,0.190500X3.619500*%
%ADD27R,0.190500X4.381500*%
%ADD28R,0.190500X4.762500*%
%ADD29R,0.190500X5.143500*%
%ADD30R,0.190500X5.524500*%
%ADD31R,0.190500X5.905500*%
%ADD32R,0.190500X6.096000*%
%ADD33R,0.190500X6.286500*%
%ADD34R,0.190500X3.048000*%
%ADD35R,0.190500X7.810500*%
%ADD36R,0.190500X3.238500*%
%ADD37R,0.190500X7.429500*%
%ADD38R,0.190500X3.429000*%
%ADD39R,0.190500X7.239000*%
%ADD40R,0.190500X7.048500*%
%ADD41R,0.190500X4.191000*%
%ADD42R,0.190500X4.000500*%
%ADD43R,0.190500X3.810000*%
%ADD44C,0.127000*%

G36*
X583271Y87073D02*
X583271Y87073D01*
X583285Y87070D01*
X583335Y87092D01*
X583387Y87108D01*
X583396Y87119D01*
X583409Y87125D01*
X583438Y87170D01*
X583473Y87212D01*
X583474Y87227D01*
X583482Y87239D01*
X583479Y87268D01*
X583487Y87347D01*
X583464Y87391D01*
X583461Y87419D01*
X562248Y124660D01*
X562238Y124669D01*
X562233Y124682D01*
X562189Y124715D01*
X562149Y124753D01*
X562136Y124756D01*
X562125Y124764D01*
X562096Y124763D01*
X562016Y124777D01*
X561971Y124757D01*
X561944Y124756D01*
X552987Y120514D01*
X552962Y120491D01*
X552931Y120477D01*
X552913Y120447D01*
X552886Y120423D01*
X552878Y120390D01*
X552860Y120361D01*
X552864Y120335D01*
X552853Y120292D01*
X552882Y120208D01*
X552886Y120182D01*
X554296Y117832D01*
X554738Y116947D01*
X554738Y113240D01*
X553341Y94608D01*
X552686Y94608D01*
X551383Y95477D01*
X550475Y97293D01*
X549545Y100082D01*
X549078Y104287D01*
X549078Y113231D01*
X549039Y113361D01*
X549035Y113364D01*
X549035Y113367D01*
X546678Y116666D01*
X546663Y116678D01*
X546654Y116694D01*
X546626Y116706D01*
X546570Y116749D01*
X546514Y116753D01*
X546487Y116764D01*
X545073Y116764D01*
X545001Y116743D01*
X544971Y116741D01*
X532243Y110613D01*
X532215Y110587D01*
X532181Y110569D01*
X532172Y110548D01*
X532144Y110522D01*
X532119Y110421D01*
X532111Y110402D01*
X532111Y109931D01*
X532112Y109926D01*
X532111Y109920D01*
X532119Y109903D01*
X532150Y109801D01*
X532179Y109777D01*
X532189Y109756D01*
X541123Y101762D01*
X542984Y98970D01*
X543896Y97148D01*
X543896Y95843D01*
X543466Y94984D01*
X543090Y94608D01*
X542306Y94608D01*
X539065Y96461D01*
X535303Y98812D01*
X532009Y101165D01*
X532005Y101166D01*
X532003Y101169D01*
X527760Y103997D01*
X527756Y103998D01*
X527754Y104001D01*
X523983Y106358D01*
X523872Y106388D01*
X523859Y106393D01*
X522916Y106393D01*
X522849Y106373D01*
X522819Y106372D01*
X483692Y88459D01*
X483667Y88437D01*
X483659Y88435D01*
X483654Y88428D01*
X483625Y88413D01*
X483616Y88393D01*
X483590Y88369D01*
X483583Y88342D01*
X483573Y88331D01*
X483569Y88291D01*
X483561Y88260D01*
X483555Y88246D01*
X483555Y87303D01*
X483561Y87281D01*
X483559Y87259D01*
X483580Y87218D01*
X483594Y87173D01*
X483611Y87159D01*
X483622Y87139D01*
X483649Y87127D01*
X483698Y87087D01*
X483761Y87080D01*
X483789Y87069D01*
X583257Y87069D01*
X583271Y87073D01*
G37*
G36*
X548448Y124805D02*
X548448Y124805D01*
X548478Y124806D01*
X557906Y129520D01*
X557927Y129541D01*
X557954Y129553D01*
X557975Y129586D01*
X558004Y129613D01*
X558011Y129642D01*
X558027Y129667D01*
X558023Y129695D01*
X558035Y129745D01*
X558008Y129818D01*
X558004Y129847D01*
X533490Y172274D01*
X533479Y172284D01*
X533474Y172298D01*
X533430Y172330D01*
X533391Y172367D01*
X533376Y172369D01*
X533364Y172378D01*
X533311Y172380D01*
X533258Y172389D01*
X533244Y172383D01*
X533229Y172384D01*
X533206Y172366D01*
X533134Y172334D01*
X533107Y172291D01*
X533084Y172274D01*
X514228Y139747D01*
X514206Y139651D01*
X514197Y139630D01*
X514197Y138687D01*
X514197Y138686D01*
X514217Y138619D01*
X514236Y138557D01*
X514238Y138556D01*
X514340Y138471D01*
X514371Y138468D01*
X514388Y138457D01*
X536945Y134227D01*
X537364Y133807D01*
X537371Y133804D01*
X537373Y133799D01*
X547273Y124842D01*
X547395Y124784D01*
X547417Y124787D01*
X547430Y124782D01*
X548373Y124782D01*
X548448Y124805D01*
G37*
G36*
X491410Y98405D02*
X491410Y98405D01*
X491433Y98406D01*
X515003Y109720D01*
X515032Y109746D01*
X515066Y109764D01*
X515075Y109785D01*
X515103Y109811D01*
X515128Y109913D01*
X515136Y109931D01*
X515136Y110402D01*
X515097Y110532D01*
X515080Y110546D01*
X515075Y110560D01*
X504704Y121874D01*
X504654Y121904D01*
X504607Y121938D01*
X504596Y121938D01*
X504587Y121943D01*
X504529Y121940D01*
X504472Y121943D01*
X504465Y121937D01*
X504452Y121937D01*
X504343Y121856D01*
X504337Y121840D01*
X504328Y121832D01*
X491129Y98733D01*
X491114Y98670D01*
X491098Y98605D01*
X491099Y98603D01*
X491098Y98601D01*
X491121Y98540D01*
X491144Y98478D01*
X491145Y98477D01*
X491146Y98475D01*
X491199Y98436D01*
X491252Y98397D01*
X491254Y98397D01*
X491256Y98395D01*
X491391Y98390D01*
X491410Y98405D01*
G37*
G36*
X529123Y115375D02*
X529123Y115375D01*
X529146Y115377D01*
X539045Y120091D01*
X539054Y120099D01*
X539067Y120103D01*
X539104Y120144D01*
X539145Y120182D01*
X539148Y120194D01*
X539157Y120204D01*
X539164Y120259D01*
X539178Y120313D01*
X539174Y120325D01*
X539175Y120338D01*
X539161Y120362D01*
X539133Y120441D01*
X539094Y120469D01*
X539080Y120493D01*
X535780Y122850D01*
X535652Y122893D01*
X535647Y122892D01*
X535644Y122893D01*
X534702Y122893D01*
X534660Y122881D01*
X534635Y122883D01*
X529920Y121469D01*
X529883Y121445D01*
X529857Y121440D01*
X528443Y120497D01*
X528403Y120449D01*
X528378Y120432D01*
X527435Y119018D01*
X527434Y119014D01*
X527430Y119011D01*
X527428Y118994D01*
X527396Y118888D01*
X527406Y118854D01*
X527403Y118831D01*
X527875Y116945D01*
X527902Y116900D01*
X527907Y116872D01*
X528850Y115458D01*
X528854Y115455D01*
X528856Y115449D01*
X528906Y115412D01*
X528955Y115372D01*
X528960Y115371D01*
X528964Y115368D01*
X528983Y115369D01*
X529089Y115358D01*
X529123Y115375D01*
G37*
D10*
X758063Y41876D02*
X753063Y46876D01*
X753063Y31877D01*
X748064Y31877D02*
X758063Y31877D01*
X741691Y46876D02*
X731692Y46876D01*
X741691Y46876D02*
X741691Y39376D01*
X736692Y41876D01*
X734192Y41876D01*
X731692Y39376D01*
X731692Y34377D01*
X734192Y31877D01*
X739192Y31877D01*
X741691Y34377D01*
X725320Y44376D02*
X722820Y46876D01*
X717820Y46876D01*
X715321Y44376D01*
X715321Y41876D01*
X717820Y39376D01*
X720320Y39376D01*
X717820Y39376D02*
X715321Y36877D01*
X715321Y34377D01*
X717820Y31877D01*
X722820Y31877D01*
X725320Y34377D01*
X708948Y46876D02*
X698949Y46876D01*
X708948Y46876D02*
X708948Y39376D01*
X703949Y41876D01*
X701449Y41876D01*
X698949Y39376D01*
X698949Y34377D01*
X701449Y31877D01*
X706449Y31877D01*
X708948Y34377D01*
X692577Y34377D02*
X690077Y31877D01*
X685077Y31877D01*
X682578Y34377D01*
X682578Y44376D01*
X685077Y46876D01*
X690077Y46876D01*
X692577Y44376D01*
X692577Y41876D01*
X690077Y39376D01*
X682578Y39376D01*
X676205Y39376D02*
X666206Y39376D01*
X659834Y34377D02*
X659834Y44376D01*
X657334Y46876D01*
X652334Y46876D01*
X649834Y44376D01*
X649834Y34377D01*
X652334Y31877D01*
X657334Y31877D01*
X659834Y34377D01*
X649834Y44376D01*
X643462Y41876D02*
X638462Y46876D01*
X638462Y31877D01*
X633463Y31877D02*
X643462Y31877D01*
X750564Y59817D02*
X750564Y74816D01*
X758063Y67316D01*
X748064Y67316D01*
X741691Y62317D02*
X741691Y72316D01*
X739192Y74816D01*
X734192Y74816D01*
X731692Y72316D01*
X731692Y62317D01*
X734192Y59817D01*
X739192Y59817D01*
X741691Y62317D01*
X731692Y72316D01*
X725320Y69816D02*
X720320Y74816D01*
X720320Y59817D01*
X715321Y59817D02*
X725320Y59817D01*
X708948Y74816D02*
X698949Y74816D01*
X698949Y72316D01*
X708948Y62317D01*
X708948Y59817D01*
X582803Y58547D02*
X582803Y73546D01*
X575304Y73546D01*
X572804Y71046D01*
X572804Y66046D01*
X575304Y63547D01*
X582803Y63547D01*
X563932Y73546D02*
X558932Y73546D01*
X563932Y73546D02*
X566431Y71046D01*
X566431Y61047D01*
X563932Y58547D01*
X558932Y58547D01*
X556432Y61047D01*
X556432Y71046D01*
X558932Y73546D01*
X550060Y73546D02*
X550060Y58547D01*
X545060Y63547D01*
X540061Y58547D01*
X540061Y73546D01*
X533688Y73546D02*
X523689Y73546D01*
X533688Y73546D02*
X533688Y58547D01*
X523689Y58547D01*
X528689Y66046D02*
X533688Y66046D01*
X517317Y58547D02*
X517317Y73546D01*
X509817Y73546D01*
X507318Y71046D01*
X507318Y66046D01*
X509817Y63547D01*
X517317Y63547D01*
X512317Y63547D02*
X507318Y58547D01*
X484574Y58547D02*
X484574Y73546D01*
X477074Y73546D01*
X474574Y71046D01*
X474574Y68546D01*
X477074Y66046D01*
X474574Y63547D01*
X474574Y61047D01*
X477074Y58547D01*
X484574Y58547D01*
X484574Y66046D02*
X477074Y66046D01*
X465702Y73546D02*
X460703Y73546D01*
X465702Y73546D02*
X468202Y71046D01*
X468202Y61047D01*
X465702Y58547D01*
X460703Y58547D01*
X458203Y61047D01*
X458203Y71046D01*
X460703Y73546D01*
X449331Y73546D02*
X444331Y73546D01*
X449331Y73546D02*
X451831Y71046D01*
X451831Y61047D01*
X449331Y58547D01*
X444331Y58547D01*
X441831Y61047D01*
X441831Y71046D01*
X444331Y73546D01*
X427960Y73546D02*
X425460Y71046D01*
X427960Y73546D02*
X432959Y73546D01*
X435459Y71046D01*
X435459Y68546D01*
X432959Y66046D01*
X427960Y66046D01*
X425460Y63547D01*
X425460Y61047D01*
X427960Y58547D01*
X432959Y58547D01*
X435459Y61047D01*
X414088Y58547D02*
X414088Y73546D01*
X419087Y73546D02*
X409088Y73546D01*
X572804Y44376D02*
X575304Y46876D01*
X580303Y46876D01*
X582803Y44376D01*
X582803Y34377D01*
X580303Y31877D01*
X575304Y31877D01*
X572804Y34377D01*
X563932Y46876D02*
X558932Y46876D01*
X563932Y46876D02*
X566431Y44376D01*
X566431Y34377D01*
X563932Y31877D01*
X558932Y31877D01*
X556432Y34377D01*
X556432Y44376D01*
X558932Y46876D01*
X550060Y46876D02*
X550060Y31877D01*
X545060Y41876D02*
X550060Y46876D01*
X545060Y41876D02*
X540061Y46876D01*
X540061Y31877D01*
X533688Y31877D02*
X533688Y46876D01*
X528689Y41876D01*
X523689Y46876D01*
X523689Y31877D01*
X517317Y34377D02*
X517317Y46876D01*
X517317Y34377D02*
X514817Y31877D01*
X509817Y31877D01*
X507318Y34377D01*
X507318Y46876D01*
X500945Y46876D02*
X500945Y31877D01*
X490946Y31877D02*
X500945Y46876D01*
X490946Y46876D02*
X490946Y31877D01*
X484574Y31877D02*
X479574Y31877D01*
X482074Y31877D02*
X482074Y46876D01*
X484574Y46876D02*
X479574Y46876D01*
X466160Y46876D02*
X463660Y44376D01*
X466160Y46876D02*
X471159Y46876D01*
X473659Y44376D01*
X473659Y34377D01*
X471159Y31877D01*
X466160Y31877D01*
X463660Y34377D01*
X457288Y31877D02*
X457288Y41876D01*
X452288Y46876D01*
X447289Y41876D01*
X447289Y31877D01*
X447289Y39376D02*
X457288Y39376D01*
X435917Y31877D02*
X435917Y46876D01*
X440916Y46876D02*
X430917Y46876D01*
X424545Y31877D02*
X419545Y31877D01*
X422045Y31877D02*
X422045Y46876D01*
X424545Y46876D02*
X419545Y46876D01*
X411130Y46876D02*
X406131Y46876D01*
X411130Y46876D02*
X413630Y44376D01*
X413630Y34377D01*
X411130Y31877D01*
X406131Y31877D01*
X403631Y34377D01*
X403631Y44376D01*
X406131Y46876D01*
X397259Y46876D02*
X397259Y31877D01*
X387259Y31877D02*
X397259Y46876D01*
X387259Y46876D02*
X387259Y31877D01*
X364516Y31877D02*
X364516Y46876D01*
X357016Y46876D01*
X354516Y44376D01*
X354516Y41876D01*
X357016Y39376D01*
X354516Y36877D01*
X354516Y34377D01*
X357016Y31877D01*
X364516Y31877D01*
X364516Y39376D02*
X357016Y39376D01*
X345644Y46876D02*
X340645Y46876D01*
X345644Y46876D02*
X348144Y44376D01*
X348144Y34377D01*
X345644Y31877D01*
X340645Y31877D01*
X338145Y34377D01*
X338145Y44376D01*
X340645Y46876D01*
X331772Y41876D02*
X331772Y31877D01*
X331772Y41876D02*
X326773Y46876D01*
X321773Y41876D01*
X321773Y31877D01*
X321773Y39376D02*
X331772Y39376D01*
X315401Y31877D02*
X315401Y46876D01*
X307901Y46876D01*
X305402Y44376D01*
X305402Y39376D01*
X307901Y36877D01*
X315401Y36877D01*
X310401Y36877D02*
X305402Y31877D01*
X299029Y31877D02*
X299029Y46876D01*
X299029Y31877D02*
X291530Y31877D01*
X289030Y34377D01*
X289030Y44376D01*
X291530Y46876D01*
X299029Y46876D01*
D11*
X396875Y544830D03*
X396875Y531495D03*
X396875Y502920D03*
X396875Y476250D03*
D12*
X396875Y461963D03*
D13*
X396875Y429578D03*
D14*
X396875Y392430D03*
D13*
X396875Y355283D03*
D15*
X396875Y317183D03*
X396875Y277178D03*
D16*
X394970Y544830D03*
X394970Y531495D03*
D12*
X394970Y501968D03*
X394970Y477203D03*
D16*
X394970Y462915D03*
D17*
X394970Y430530D03*
X394970Y392430D03*
X394970Y356235D03*
D13*
X394970Y317183D03*
X394970Y277178D03*
D16*
X393065Y544830D03*
X393065Y531495D03*
D12*
X393065Y501968D03*
X393065Y477203D03*
X393065Y463868D03*
X393065Y437198D03*
D16*
X393065Y398145D03*
D12*
X393065Y362903D03*
X393065Y322898D03*
X393065Y309563D03*
D16*
X393065Y283845D03*
D12*
X393065Y271463D03*
D16*
X391160Y544830D03*
X391160Y531495D03*
D12*
X391160Y501968D03*
X391160Y477203D03*
D16*
X391160Y464820D03*
D12*
X391160Y437198D03*
D16*
X391160Y398145D03*
D12*
X391160Y362903D03*
X391160Y324803D03*
X391160Y309563D03*
X391160Y284798D03*
X391160Y269558D03*
X389255Y547688D03*
D11*
X389255Y542925D03*
X389255Y533400D03*
D12*
X389255Y528638D03*
X389255Y501968D03*
X389255Y477203D03*
X389255Y465773D03*
X389255Y437198D03*
D16*
X389255Y398145D03*
D12*
X389255Y362903D03*
X389255Y324803D03*
X389255Y309563D03*
D11*
X389255Y285750D03*
D12*
X389255Y269558D03*
X387350Y547688D03*
X387350Y541973D03*
X387350Y534353D03*
X387350Y528638D03*
X387350Y501968D03*
D13*
X387350Y471488D03*
D12*
X387350Y437198D03*
D16*
X387350Y398145D03*
D12*
X387350Y362903D03*
D16*
X387350Y310515D03*
X387350Y272415D03*
D12*
X385445Y547688D03*
X385445Y541973D03*
X385445Y534353D03*
X385445Y528638D03*
X385445Y501968D03*
D17*
X385445Y470535D03*
X385445Y430530D03*
D16*
X385445Y398145D03*
D17*
X385445Y356235D03*
D18*
X385445Y315278D03*
X385445Y275273D03*
D11*
X383540Y548640D03*
X383540Y541020D03*
X383540Y535305D03*
X383540Y527685D03*
D12*
X383540Y501968D03*
X383540Y477203D03*
X383540Y463868D03*
D13*
X383540Y431483D03*
D16*
X383540Y398145D03*
D13*
X383540Y357188D03*
D18*
X383540Y319088D03*
D19*
X383540Y280035D03*
D12*
X381635Y549593D03*
D11*
X381635Y541020D03*
D12*
X381635Y536258D03*
X381635Y526733D03*
X381635Y501968D03*
X381635Y477203D03*
X381635Y461963D03*
X381635Y437198D03*
D16*
X381635Y398145D03*
D12*
X381635Y362903D03*
X381635Y322898D03*
D16*
X381635Y283845D03*
D12*
X379730Y549593D03*
D15*
X379730Y538163D03*
D12*
X379730Y526733D03*
X379730Y501968D03*
X379730Y477203D03*
X379730Y461963D03*
X379730Y437198D03*
D16*
X379730Y398145D03*
D12*
X379730Y362903D03*
D16*
X379730Y323850D03*
D12*
X379730Y309563D03*
X379730Y284798D03*
X379730Y271463D03*
X377825Y549593D03*
D15*
X377825Y538163D03*
D12*
X377825Y526733D03*
X377825Y501968D03*
X377825Y477203D03*
D16*
X377825Y462915D03*
D12*
X377825Y437198D03*
D16*
X377825Y398145D03*
D12*
X377825Y362903D03*
X377825Y322898D03*
D16*
X377825Y310515D03*
D12*
X377825Y284798D03*
X377825Y271463D03*
X375920Y551498D03*
X375920Y538163D03*
X375920Y524828D03*
X375920Y501968D03*
D17*
X375920Y470535D03*
X375920Y430530D03*
D16*
X375920Y398145D03*
D17*
X375920Y356235D03*
D13*
X375920Y317183D03*
X375920Y277178D03*
D12*
X374015Y551498D03*
X374015Y538163D03*
X374015Y524828D03*
X374015Y501968D03*
D13*
X374015Y471488D03*
D17*
X374015Y430530D03*
D11*
X374015Y398145D03*
D13*
X374015Y355283D03*
D18*
X374015Y317183D03*
D19*
X374015Y278130D03*
D17*
X353060Y529590D03*
D20*
X351155Y529590D03*
D21*
X351155Y462915D03*
D22*
X351155Y421958D03*
D23*
X351155Y380048D03*
D24*
X351155Y348615D03*
D25*
X351155Y280988D03*
D26*
X349250Y529590D03*
D23*
X349250Y461963D03*
D21*
X349250Y421005D03*
D23*
X349250Y380048D03*
D25*
X349250Y347663D03*
D24*
X349250Y281940D03*
D27*
X347345Y529590D03*
D23*
X347345Y461963D03*
D21*
X347345Y421005D03*
D23*
X347345Y380048D03*
D24*
X347345Y346710D03*
X347345Y281940D03*
D28*
X345440Y529590D03*
D23*
X345440Y461963D03*
D21*
X345440Y421005D03*
D23*
X345440Y380048D03*
D24*
X345440Y346710D03*
X345440Y281940D03*
D29*
X343535Y529590D03*
D23*
X343535Y461963D03*
X343535Y421958D03*
X343535Y380048D03*
D24*
X343535Y346710D03*
D25*
X343535Y282893D03*
D30*
X341630Y529590D03*
D23*
X341630Y461963D03*
D24*
X341630Y421005D03*
D23*
X341630Y380048D03*
D25*
X341630Y345758D03*
D24*
X341630Y283845D03*
D31*
X339725Y529590D03*
D23*
X339725Y461963D03*
D24*
X339725Y421005D03*
D23*
X339725Y380048D03*
D24*
X339725Y344805D03*
X339725Y283845D03*
D32*
X337820Y530543D03*
D23*
X337820Y461963D03*
D24*
X337820Y421005D03*
D23*
X337820Y380048D03*
D24*
X337820Y344805D03*
X337820Y283845D03*
D33*
X335915Y529590D03*
D23*
X335915Y461963D03*
D24*
X335915Y421005D03*
D23*
X335915Y380048D03*
D24*
X335915Y344805D03*
X335915Y283845D03*
D33*
X334010Y527685D03*
D23*
X334010Y461963D03*
D25*
X334010Y421958D03*
D23*
X334010Y380048D03*
D24*
X334010Y344805D03*
X334010Y285750D03*
D32*
X332105Y526733D03*
D23*
X332105Y461963D03*
D20*
X332105Y421005D03*
D23*
X332105Y380048D03*
D24*
X332105Y342900D03*
X332105Y285750D03*
D31*
X330200Y525780D03*
D23*
X330200Y461963D03*
D20*
X330200Y421005D03*
D23*
X330200Y380048D03*
D24*
X330200Y342900D03*
X330200Y285750D03*
D22*
X328295Y543878D03*
D34*
X328295Y509588D03*
D23*
X328295Y461963D03*
D20*
X328295Y421005D03*
D23*
X328295Y380048D03*
D24*
X328295Y342900D03*
X328295Y285750D03*
D18*
X326390Y543878D03*
D25*
X326390Y507683D03*
D23*
X326390Y461963D03*
D34*
X326390Y421958D03*
D23*
X326390Y380048D03*
D35*
X326390Y314325D03*
D15*
X324485Y543878D03*
D24*
X324485Y506730D03*
D23*
X324485Y461963D03*
D36*
X324485Y421005D03*
D23*
X324485Y380048D03*
D35*
X324485Y314325D03*
D16*
X322580Y542925D03*
D24*
X322580Y506730D03*
D23*
X322580Y461963D03*
D36*
X322580Y421005D03*
D23*
X322580Y380048D03*
D35*
X322580Y314325D03*
D11*
X320675Y542925D03*
D24*
X320675Y504825D03*
D23*
X320675Y461963D03*
D36*
X320675Y421005D03*
D23*
X320675Y380048D03*
D35*
X320675Y314325D03*
D24*
X318770Y504825D03*
D23*
X318770Y461963D03*
D36*
X318770Y421005D03*
D23*
X318770Y380048D03*
D37*
X318770Y314325D03*
D24*
X316865Y504825D03*
D23*
X316865Y461963D03*
D38*
X316865Y421958D03*
D23*
X316865Y380048D03*
D37*
X316865Y314325D03*
D24*
X314960Y504825D03*
D23*
X314960Y461963D03*
D26*
X314960Y421005D03*
D23*
X314960Y380048D03*
D37*
X314960Y314325D03*
D24*
X313055Y504825D03*
D23*
X313055Y461963D03*
D17*
X313055Y430530D03*
X313055Y411480D03*
D23*
X313055Y380048D03*
D39*
X313055Y315278D03*
D24*
X311150Y504825D03*
D23*
X311150Y461963D03*
D17*
X311150Y430530D03*
X311150Y411480D03*
D23*
X311150Y380048D03*
D40*
X311150Y314325D03*
D24*
X309245Y504825D03*
D23*
X309245Y461963D03*
D22*
X309245Y431483D03*
D17*
X309245Y411480D03*
D23*
X309245Y380048D03*
D40*
X309245Y314325D03*
D24*
X307340Y504825D03*
D23*
X307340Y461963D03*
D22*
X307340Y431483D03*
X307340Y410528D03*
D23*
X307340Y380048D03*
D40*
X307340Y314325D03*
D24*
X305435Y504825D03*
D23*
X305435Y461963D03*
D17*
X305435Y432435D03*
D22*
X305435Y410528D03*
D23*
X305435Y380048D03*
D24*
X305435Y337185D03*
D23*
X305435Y292418D03*
D24*
X303530Y504825D03*
D23*
X303530Y461963D03*
D17*
X303530Y432435D03*
X303530Y409575D03*
D23*
X303530Y380048D03*
X303530Y336233D03*
X303530Y292418D03*
D24*
X301625Y504825D03*
D23*
X301625Y461963D03*
D17*
X301625Y432435D03*
X301625Y409575D03*
D23*
X301625Y380048D03*
X301625Y336233D03*
X301625Y292418D03*
D24*
X299720Y504825D03*
D23*
X299720Y461963D03*
D22*
X299720Y433388D03*
D17*
X299720Y409575D03*
D23*
X299720Y380048D03*
X299720Y336233D03*
X299720Y292418D03*
D24*
X297815Y504825D03*
D23*
X297815Y461963D03*
D17*
X297815Y434340D03*
D22*
X297815Y408623D03*
D23*
X297815Y380048D03*
D21*
X297815Y335280D03*
D23*
X297815Y294323D03*
D24*
X295910Y504825D03*
D23*
X295910Y461963D03*
D17*
X295910Y434340D03*
D22*
X295910Y408623D03*
D23*
X295910Y380048D03*
X295910Y334328D03*
X295910Y294323D03*
D24*
X294005Y504825D03*
D23*
X294005Y461963D03*
D17*
X294005Y434340D03*
X294005Y407670D03*
D23*
X294005Y380048D03*
X294005Y334328D03*
X294005Y294323D03*
D24*
X292100Y504825D03*
D23*
X292100Y461963D03*
D22*
X292100Y435293D03*
D17*
X292100Y407670D03*
D23*
X292100Y380048D03*
X292100Y334328D03*
X292100Y294323D03*
D24*
X290195Y504825D03*
D23*
X290195Y461963D03*
D22*
X290195Y435293D03*
X290195Y406718D03*
D23*
X290195Y380048D03*
D21*
X290195Y333375D03*
X290195Y295275D03*
D24*
X288290Y504825D03*
D23*
X288290Y461963D03*
D17*
X288290Y436245D03*
D22*
X288290Y406718D03*
D23*
X288290Y380048D03*
X288290Y332423D03*
X288290Y296228D03*
D24*
X286385Y504825D03*
D23*
X286385Y461963D03*
D17*
X286385Y436245D03*
D22*
X286385Y406718D03*
D23*
X286385Y380048D03*
X286385Y332423D03*
X286385Y296228D03*
D24*
X284480Y504825D03*
D23*
X284480Y461963D03*
D17*
X284480Y436245D03*
X284480Y405765D03*
D23*
X284480Y380048D03*
X284480Y332423D03*
D21*
X284480Y297180D03*
D24*
X282575Y504825D03*
D23*
X282575Y461963D03*
D22*
X282575Y437198D03*
D17*
X282575Y405765D03*
D23*
X282575Y380048D03*
D21*
X282575Y331470D03*
X282575Y297180D03*
D24*
X280670Y504825D03*
D23*
X280670Y461963D03*
D22*
X280670Y437198D03*
X280670Y404813D03*
D23*
X280670Y380048D03*
D21*
X280670Y331470D03*
X280670Y297180D03*
D24*
X278765Y504825D03*
D23*
X278765Y461963D03*
D17*
X278765Y438150D03*
D22*
X278765Y404813D03*
D23*
X278765Y380048D03*
X278765Y330518D03*
X278765Y298133D03*
D24*
X276860Y504825D03*
D23*
X276860Y461963D03*
D17*
X276860Y438150D03*
D22*
X276860Y404813D03*
D23*
X276860Y380048D03*
X276860Y330518D03*
D21*
X276860Y299085D03*
D24*
X274955Y504825D03*
D23*
X274955Y461963D03*
D22*
X274955Y439103D03*
D17*
X274955Y403860D03*
D23*
X274955Y380048D03*
D21*
X274955Y329565D03*
X274955Y299085D03*
D24*
X273050Y504825D03*
D23*
X273050Y461963D03*
D22*
X273050Y439103D03*
X273050Y402908D03*
D23*
X273050Y380048D03*
D21*
X273050Y329565D03*
X273050Y299085D03*
D24*
X271145Y504825D03*
D23*
X271145Y461963D03*
D22*
X271145Y439103D03*
X271145Y402908D03*
D23*
X271145Y380048D03*
D21*
X271145Y329565D03*
X271145Y299085D03*
D24*
X269240Y504825D03*
D23*
X269240Y461963D03*
D17*
X269240Y440055D03*
D22*
X269240Y402908D03*
D23*
X269240Y380048D03*
X269240Y328613D03*
D21*
X269240Y300990D03*
D24*
X267335Y504825D03*
D41*
X267335Y452438D03*
D17*
X267335Y401955D03*
D23*
X267335Y380048D03*
D21*
X267335Y327660D03*
X267335Y300990D03*
D24*
X265430Y504825D03*
D41*
X265430Y452438D03*
D17*
X265430Y401955D03*
D23*
X265430Y380048D03*
D21*
X265430Y327660D03*
X265430Y300990D03*
D24*
X263525Y504825D03*
D41*
X263525Y452438D03*
X263525Y389573D03*
D21*
X263525Y327660D03*
X263525Y300990D03*
D24*
X261620Y504825D03*
D41*
X261620Y452438D03*
X261620Y389573D03*
D22*
X261620Y326708D03*
D21*
X261620Y302895D03*
D24*
X259715Y504825D03*
D42*
X259715Y453390D03*
D41*
X259715Y389573D03*
D21*
X259715Y325755D03*
X259715Y302895D03*
D24*
X257810Y504825D03*
D42*
X257810Y453390D03*
X257810Y388620D03*
D21*
X257810Y325755D03*
X257810Y302895D03*
D24*
X255905Y504825D03*
D42*
X255905Y453390D03*
X255905Y388620D03*
D21*
X255905Y325755D03*
X255905Y302895D03*
D24*
X254000Y504825D03*
D42*
X254000Y453390D03*
X254000Y388620D03*
D22*
X254000Y324803D03*
X254000Y303848D03*
D24*
X252095Y504825D03*
D42*
X252095Y453390D03*
X252095Y388620D03*
X252095Y314325D03*
D24*
X250190Y504825D03*
D43*
X250190Y454343D03*
D42*
X250190Y388620D03*
X250190Y314325D03*
D24*
X248285Y504825D03*
D43*
X248285Y454343D03*
X248285Y387668D03*
D42*
X248285Y314325D03*
D24*
X246380Y504825D03*
D43*
X246380Y454343D03*
X246380Y387668D03*
D26*
X246380Y314325D03*
D24*
X244475Y504825D03*
D43*
X244475Y454343D03*
X244475Y387668D03*
D12*
X244475Y347663D03*
D26*
X244475Y314325D03*
D11*
X244475Y281940D03*
D24*
X242570Y504825D03*
D43*
X242570Y454343D03*
X242570Y387668D03*
D12*
X242570Y351473D03*
D11*
X242570Y340995D03*
D26*
X242570Y314325D03*
D11*
X242570Y287655D03*
X242570Y278130D03*
D24*
X240665Y504825D03*
D26*
X240665Y455295D03*
D43*
X240665Y387668D03*
D12*
X240665Y355283D03*
D11*
X240665Y344805D03*
D12*
X240665Y336233D03*
D38*
X240665Y315278D03*
D12*
X240665Y292418D03*
D11*
X240665Y283845D03*
D12*
X240665Y275273D03*
D24*
X238760Y504825D03*
D26*
X238760Y455295D03*
X238760Y386715D03*
D12*
X238760Y357188D03*
X238760Y347663D03*
X238760Y338138D03*
D36*
X238760Y314325D03*
D12*
X238760Y290513D03*
X238760Y280988D03*
X238760Y271463D03*
D24*
X236855Y504825D03*
D26*
X236855Y455295D03*
X236855Y386715D03*
D12*
X236855Y359093D03*
X236855Y349568D03*
X236855Y340043D03*
D36*
X236855Y314325D03*
D12*
X236855Y288608D03*
X236855Y279083D03*
X236855Y269558D03*
D24*
X234950Y504825D03*
D26*
X234950Y455295D03*
X234950Y386715D03*
D12*
X234950Y360998D03*
X234950Y351473D03*
X234950Y341948D03*
D36*
X234950Y314325D03*
D12*
X234950Y286703D03*
X234950Y277178D03*
X234950Y267653D03*
D23*
X233045Y505778D03*
D38*
X233045Y456248D03*
X233045Y385763D03*
D12*
X233045Y362903D03*
X233045Y351473D03*
X233045Y341948D03*
D20*
X233045Y314325D03*
D12*
X233045Y286703D03*
X233045Y277178D03*
X233045Y267653D03*
X231140Y362903D03*
D11*
X231140Y352425D03*
D12*
X231140Y341948D03*
X231140Y286703D03*
X231140Y277178D03*
X231140Y265748D03*
D16*
X229235Y363855D03*
D11*
X229235Y352425D03*
D12*
X229235Y341948D03*
D16*
X229235Y287655D03*
D12*
X229235Y277178D03*
X229235Y265748D03*
X227330Y364808D03*
X227330Y351473D03*
X227330Y340043D03*
X227330Y288608D03*
X227330Y277178D03*
D16*
X227330Y264795D03*
D12*
X225425Y364808D03*
X225425Y351473D03*
X225425Y338138D03*
X225425Y290513D03*
X225425Y277178D03*
D16*
X225425Y264795D03*
X223520Y363855D03*
X223520Y350520D03*
X223520Y335280D03*
X223520Y293370D03*
X223520Y278130D03*
X223520Y264795D03*
X221615Y363855D03*
X221615Y348615D03*
D12*
X221615Y332423D03*
D16*
X221615Y297180D03*
X221615Y280035D03*
D12*
X221615Y265748D03*
X219710Y362903D03*
D15*
X219710Y347663D03*
X219710Y280988D03*
D16*
X219710Y266700D03*
X217805Y361950D03*
X217805Y344805D03*
X217805Y283845D03*
X217805Y266700D03*
X215900Y360045D03*
D15*
X215900Y341948D03*
X215900Y286703D03*
D16*
X215900Y268605D03*
X213995Y358140D03*
D15*
X213995Y338138D03*
X213995Y290513D03*
D16*
X213995Y270510D03*
X212090Y356235D03*
D11*
X212090Y333375D03*
D12*
X212090Y294323D03*
D15*
X212090Y273368D03*
X210185Y353378D03*
D16*
X210185Y276225D03*
D15*
X208280Y349568D03*
X208280Y279083D03*
X206375Y345758D03*
X206375Y282893D03*
D12*
X204470Y341948D03*
D16*
X204470Y287655D03*
D44*
X137160Y566740D02*
X137160Y579440D01*
X137160Y566740D02*
X144780Y566740D01*
X137160Y551500D01*
X129540Y566740D01*
X137160Y566740D01*
X137160Y551500D02*
X144780Y551500D01*
X137160Y551500D02*
X129540Y551500D01*
X137160Y551500D02*
X137160Y538800D01*
X135890Y461330D02*
X135890Y448630D01*
X143510Y448630D01*
X135890Y433390D01*
X128270Y448630D01*
X135890Y448630D01*
X135890Y433390D02*
X143510Y433390D01*
X135890Y433390D02*
X128270Y433390D01*
X135890Y433390D02*
X135890Y420690D01*
X78111Y462983D02*
X75823Y460695D01*
X78111Y462983D02*
X71247Y462983D01*
X71247Y460695D02*
X71247Y465271D01*
X128275Y531951D02*
X129419Y533095D01*
X129419Y535383D01*
X128275Y536527D01*
X127131Y536527D01*
X125987Y535383D01*
X124843Y536527D01*
X123699Y536527D01*
X122555Y535383D01*
X122555Y533095D01*
X123699Y531951D01*
X124843Y531951D01*
X125987Y533095D01*
X127131Y531951D01*
X128275Y531951D01*
X125987Y533095D02*
X125987Y535383D01*
X130433Y571185D02*
X132721Y573473D01*
X125857Y573473D01*
X125857Y571185D02*
X125857Y575761D01*
X125857Y578669D02*
X125857Y583245D01*
X125857Y578669D02*
X130433Y583245D01*
X131577Y583245D01*
X132721Y582101D01*
X132721Y579813D01*
X131577Y578669D01*
X124587Y423739D02*
X125731Y422595D01*
X124587Y423739D02*
X124587Y426027D01*
X125731Y427171D01*
X130307Y427171D01*
X131451Y426027D01*
X131451Y423739D01*
X130307Y422595D01*
X129163Y422595D01*
X128019Y423739D01*
X128019Y427171D01*
X112140Y587060D02*
X171450Y587060D01*
X112140Y587060D02*
X106040Y593160D01*
X94040Y593160D01*
X88040Y587160D01*
X8890Y587160D01*
X8890Y409160D01*
X88040Y409160D01*
X94040Y403160D01*
X106040Y403160D01*
X112140Y409260D01*
X171450Y409260D01*
X171450Y587060D01*
X995680Y581660D02*
X995680Y568960D01*
X995680Y581660D02*
X988060Y581660D01*
X995680Y596900D01*
X1003300Y581660D01*
X995680Y581660D01*
X995680Y596900D02*
X988060Y596900D01*
X995680Y596900D02*
X1003300Y596900D01*
X995680Y596900D02*
X995680Y609600D01*
X996950Y687070D02*
X996950Y699770D01*
X989330Y699770D01*
X996950Y715010D01*
X1004570Y699770D01*
X996950Y699770D01*
X996950Y715010D02*
X989330Y715010D01*
X996950Y715010D02*
X1004570Y715010D01*
X996950Y715010D02*
X996950Y727710D01*
X1059311Y681491D02*
X1061599Y683779D01*
X1054735Y683779D01*
X1054735Y681491D02*
X1054735Y686067D01*
X1010291Y611379D02*
X1009147Y610235D01*
X1010291Y611379D02*
X1010291Y613667D01*
X1009147Y614811D01*
X1008003Y614811D01*
X1006859Y613667D01*
X1005715Y614811D01*
X1004571Y614811D01*
X1003427Y613667D01*
X1003427Y611379D01*
X1004571Y610235D01*
X1005715Y610235D01*
X1006859Y611379D01*
X1008003Y610235D01*
X1009147Y610235D01*
X1006859Y611379D02*
X1006859Y613667D01*
X1006989Y565805D02*
X1004701Y563517D01*
X1006989Y565805D02*
X1000125Y565805D01*
X1000125Y563517D02*
X1000125Y568093D01*
X1000125Y571001D02*
X1000125Y575577D01*
X1000125Y571001D02*
X1004701Y575577D01*
X1005845Y575577D01*
X1006989Y574433D01*
X1006989Y572145D01*
X1005845Y571001D01*
X1002539Y719591D02*
X1001395Y720735D01*
X1001395Y723023D01*
X1002539Y724167D01*
X1007115Y724167D01*
X1008259Y723023D01*
X1008259Y720735D01*
X1007115Y719591D01*
X1005971Y719591D01*
X1004827Y720735D01*
X1004827Y724167D01*
X1020700Y561340D02*
X961390Y561340D01*
X1020700Y561340D02*
X1026800Y555240D01*
X1038800Y555240D01*
X1044800Y561240D01*
X1123950Y561240D01*
X1123950Y739240D01*
X1044800Y739240D01*
X1038800Y745240D01*
X1026800Y745240D01*
X1020700Y739140D01*
X961390Y739140D01*
X961390Y561340D01*
X995680Y383540D02*
X995680Y370840D01*
X995680Y383540D02*
X988060Y383540D01*
X995680Y398780D01*
X1003300Y383540D01*
X995680Y383540D01*
X995680Y398780D02*
X988060Y398780D01*
X995680Y398780D02*
X1003300Y398780D01*
X995680Y398780D02*
X995680Y411480D01*
X996950Y488950D02*
X996950Y501650D01*
X989330Y501650D01*
X996950Y516890D01*
X1004570Y501650D01*
X996950Y501650D01*
X996950Y516890D02*
X989330Y516890D01*
X996950Y516890D02*
X1004570Y516890D01*
X996950Y516890D02*
X996950Y529590D01*
X1059311Y483371D02*
X1061599Y485659D01*
X1054735Y485659D01*
X1054735Y483371D02*
X1054735Y487947D01*
X1010291Y413259D02*
X1009147Y412115D01*
X1010291Y413259D02*
X1010291Y415547D01*
X1009147Y416691D01*
X1008003Y416691D01*
X1006859Y415547D01*
X1005715Y416691D01*
X1004571Y416691D01*
X1003427Y415547D01*
X1003427Y413259D01*
X1004571Y412115D01*
X1005715Y412115D01*
X1006859Y413259D01*
X1008003Y412115D01*
X1009147Y412115D01*
X1006859Y413259D02*
X1006859Y415547D01*
X1006989Y367685D02*
X1004701Y365397D01*
X1006989Y367685D02*
X1000125Y367685D01*
X1000125Y365397D02*
X1000125Y369973D01*
X1000125Y372881D02*
X1000125Y377457D01*
X1000125Y372881D02*
X1004701Y377457D01*
X1005845Y377457D01*
X1006989Y376313D01*
X1006989Y374025D01*
X1005845Y372881D01*
X1002539Y521471D02*
X1001395Y522615D01*
X1001395Y524903D01*
X1002539Y526047D01*
X1007115Y526047D01*
X1008259Y524903D01*
X1008259Y522615D01*
X1007115Y521471D01*
X1005971Y521471D01*
X1004827Y522615D01*
X1004827Y526047D01*
X1020700Y363220D02*
X961390Y363220D01*
X1020700Y363220D02*
X1026800Y357120D01*
X1038800Y357120D01*
X1044800Y363120D01*
X1123950Y363120D01*
X1123950Y541120D01*
X1044800Y541120D01*
X1038800Y547120D01*
X1026800Y547120D01*
X1020700Y541020D01*
X961390Y541020D01*
X961390Y363220D01*
M02*
