G04 EAGLE Gerber X2 export*
G75*
%MOMM*%
%FSLAX34Y34*%
%LPD*%
%AMOC8*
5,1,8,0,0,1.08239X$1,22.5*%
G01*
%ADD10C,4.165600*%
%ADD11R,114.300000X1.016000*%
%ADD12R,1.016000X76.200000*%
%ADD13C,1.711200*%
%ADD14C,3.454400*%
%ADD15C,2.603200*%
%ADD16C,1.600200*%
%ADD17C,2.003200*%
%ADD18C,1.411200*%
%ADD19C,0.959600*%


D10*
X76200Y685800D03*
X863600Y685800D03*
X76200Y76200D03*
X863600Y76200D03*
D11*
X571500Y756920D03*
X571500Y5080D03*
D12*
X5080Y381000D03*
X1137920Y381000D03*
D13*
X558800Y381000D03*
X558800Y406400D03*
X685800Y431800D03*
X685800Y406400D03*
X711200Y431800D03*
X711200Y406400D03*
X431800Y292100D03*
X457200Y292100D03*
X431800Y317500D03*
X457200Y317500D03*
X431800Y368300D03*
X457200Y368300D03*
X431800Y393700D03*
X457200Y393700D03*
D14*
X66040Y561660D03*
X66040Y434660D03*
D15*
X100330Y579440D03*
X100330Y416880D03*
D16*
X109220Y533720D03*
X109220Y513400D03*
X109220Y493080D03*
X109220Y472760D03*
X91440Y523560D03*
X91440Y503240D03*
X91440Y482920D03*
X91440Y462600D03*
X157480Y566740D03*
X157480Y543880D03*
X157480Y429580D03*
X157480Y452440D03*
D14*
X1066800Y586740D03*
X1066800Y713740D03*
D15*
X1032510Y568960D03*
X1032510Y731520D03*
D16*
X1023620Y614680D03*
X1023620Y635000D03*
X1023620Y655320D03*
X1023620Y675640D03*
X1041400Y624840D03*
X1041400Y645160D03*
X1041400Y665480D03*
X1041400Y685800D03*
X975360Y581660D03*
X975360Y604520D03*
X975360Y718820D03*
X975360Y695960D03*
D14*
X1066800Y388620D03*
X1066800Y515620D03*
D15*
X1032510Y370840D03*
X1032510Y533400D03*
D16*
X1023620Y416560D03*
X1023620Y436880D03*
X1023620Y457200D03*
X1023620Y477520D03*
X1041400Y426720D03*
X1041400Y447040D03*
X1041400Y467360D03*
X1041400Y487680D03*
X975360Y383540D03*
X975360Y406400D03*
X975360Y520700D03*
X975360Y497840D03*
D17*
X86360Y297660D03*
X86360Y259560D03*
X86360Y221460D03*
D18*
X1006000Y209240D03*
X1026000Y209240D03*
X1006000Y229240D03*
X1026000Y229240D03*
X1006000Y249240D03*
X1026000Y249240D03*
X1006000Y269240D03*
X1026000Y269240D03*
X1006000Y289240D03*
X1026000Y289240D03*
X1006000Y309240D03*
X1026000Y309240D03*
X1006000Y329240D03*
X1026000Y329240D03*
X899000Y299240D03*
X879000Y299240D03*
X899000Y279240D03*
X879000Y279240D03*
X899000Y259240D03*
X879000Y259240D03*
X899000Y239240D03*
X879000Y239240D03*
X1097300Y74600D03*
X1097300Y100000D03*
X1097300Y125400D03*
X1071900Y125400D03*
X1071900Y100000D03*
X1071900Y74600D03*
D13*
X431800Y228600D03*
X431800Y254000D03*
X431800Y342900D03*
X457200Y342900D03*
X533400Y406400D03*
X533400Y381000D03*
X736600Y431800D03*
X736600Y406400D03*
X533400Y533400D03*
X609600Y584200D03*
X609600Y533400D03*
X609600Y558800D03*
X431800Y203200D03*
D19*
X662940Y599440D03*
X645160Y520700D03*
X916940Y637540D03*
X916940Y586740D03*
X1092200Y551180D03*
X951385Y361414D03*
M02*
