###############################################################################
#
# IAR C/C++ Compiler V6.50.4.971/W32 for MSP430           13/Feb/2018  14:05:58
# Copyright 1996-2016 IAR Systems AB.
# Network license: ENGENT (STD)
#
#    __rt_version  =  3
#    __double_size =  32
#    __reg_r4      =  free
#    __reg_r5      =  free
#    __pic         =  no
#    __core        =  430X
#    __data_model  =  small
#    __code_model  =  large
#    Source file   =  
#        C:\Users\rgandhi\Desktop\BS_VRS\Firmware\Driver\DIGITAL\digital_io.c
#    Command line  =  
#        C:\Users\rgandhi\Desktop\BS_VRS\Firmware\Driver\DIGITAL\digital_io.c
#        -lC C:\Users\rgandhi\Desktop\BS_VRS\Firmware\Debug\List -lA
#        C:\Users\rgandhi\Desktop\BS_VRS\Firmware\Debug\List -o
#        C:\Users\rgandhi\Desktop\BS_VRS\Firmware\Debug\Obj --no_cse
#        --no_unroll --no_inline --no_code_motion --no_tbaa --debug
#        -D__MSP430F5438A__ -e --double=32 --dlib_config "C:\Program Files
#        (x86)\IAR Systems\Embedded Workbench 7.4\430\lib\dlib\dl430xlsfn.h" -I
#        C:\Users\rgandhi\Desktop\BS_VRS\Firmware\ -I
#        C:\Users\rgandhi\Desktop\BS_VRS\Firmware\Application\ -I
#        C:\Users\rgandhi\Desktop\BS_VRS\Firmware\Driver\ -I
#        C:\Users\rgandhi\Desktop\BS_VRS\Firmware\Protocol\ -I
#        C:\Users\rgandhi\Desktop\BS_VRS\Firmware\Processor\MSP430F5438A\ -I
#        C:\Users\rgandhi\Desktop\BS_VRS\Firmware\Processor\ -I
#        C:\Users\rgandhi\Desktop\BS_VRS\Firmware\Driver\ANALOG\ -I
#        C:\Users\rgandhi\Desktop\BS_VRS\Firmware\Driver\DIGITAL\ -I
#        C:\Users\rgandhi\Desktop\BS_VRS\Firmware\Driver\I2C\ -I
#        C:\Users\rgandhi\Desktop\BS_VRS\Firmware\Driver\SPI\ -I
#        C:\Users\rgandhi\Desktop\BS_VRS\Firmware\Driver\UART\ --core=430X
#        --data_model=small -On --multiplier=32 --hw_workaround=CPU40
#        --hw_workaround=nop_after_lpm --code_model=large
#    Locale        =  English_United States.1252
#    List file     =  
#        C:\Users\rgandhi\Desktop\BS_VRS\Firmware\Debug\List\digital_io.lst
#    Object file   =  
#        C:\Users\rgandhi\Desktop\BS_VRS\Firmware\Debug\Obj\digital_io.r43
#
###############################################################################

C:\Users\rgandhi\Desktop\BS_VRS\Firmware\Driver\DIGITAL\digital_io.c
      1          /***************************************************************************//**
      2          * FILE INCLUDES
      3          *******************************************************************************/
      4          #include "digital_io.h"

   \                                 In  segment DATA16_AN, at 0x202
   \   union <unnamed> _A_PAOUT_L
   \                     _A_PAOUT_L:
   \   000000                DS8 2

   \                                 In  segment DATA16_AN, at 0x204
   \   union <unnamed> _A_PADIR_L
   \                     _A_PADIR_L:
   \   000000                DS8 2

   \                                 In  segment DATA16_AN, at 0x20a
   \   union <unnamed> _A_PASEL_L
   \                     _A_PASEL_L:
   \   000000                DS8 2

   \                                 In  segment DATA16_AN, at 0x222
   \   union <unnamed> _A_PBOUT_L
   \                     _A_PBOUT_L:
   \   000000                DS8 2

   \                                 In  segment DATA16_AN, at 0x224
   \   union <unnamed> _A_PBDIR_L
   \                     _A_PBDIR_L:
   \   000000                DS8 2

   \                                 In  segment DATA16_AN, at 0x22a
   \   union <unnamed> _A_PBSEL_L
   \                     _A_PBSEL_L:
   \   000000                DS8 2

   \                                 In  segment DATA16_AN, at 0x242
   \   union <unnamed> _A_PCOUT_L
   \                     _A_PCOUT_L:
   \   000000                DS8 2

   \                                 In  segment DATA16_AN, at 0x244
   \   union <unnamed> _A_PCDIR_L
   \                     _A_PCDIR_L:
   \   000000                DS8 2

   \                                 In  segment DATA16_AN, at 0x24a
   \   union <unnamed> _A_PCSEL_L
   \                     _A_PCSEL_L:
   \   000000                DS8 2

   \                                 In  segment DATA16_AN, at 0x262
   \   union <unnamed> _A_PDOUT_L
   \                     _A_PDOUT_L:
   \   000000                DS8 2

   \                                 In  segment DATA16_AN, at 0x264
   \   union <unnamed> _A_PDDIR_L
   \                     _A_PDDIR_L:
   \   000000                DS8 2

   \                                 In  segment DATA16_AN, at 0x26a
   \   union <unnamed> _A_PDSEL_L
   \                     _A_PDSEL_L:
   \   000000                DS8 2

   \                                 In  segment DATA16_AN, at 0x282
   \   union <unnamed> _A_PEOUT_L
   \                     _A_PEOUT_L:
   \   000000                DS8 2

   \                                 In  segment DATA16_AN, at 0x284
   \   union <unnamed> _A_PEDIR_L
   \                     _A_PEDIR_L:
   \   000000                DS8 2

   \                                 In  segment DATA16_AN, at 0x28a
   \   union <unnamed> _A_PESEL_L
   \                     _A_PESEL_L:
   \   000000                DS8 2

   \                                 In  segment DATA16_AN, at 0x2a2
   \   union <unnamed> _A_PFOUT_L
   \                     _A_PFOUT_L:
   \   000000                DS8 2

   \                                 In  segment DATA16_AN, at 0x2a4
   \   union <unnamed> _A_PFDIR_L
   \                     _A_PFDIR_L:
   \   000000                DS8 2

   \                                 In  segment DATA16_AN, at 0x2aa
   \   union <unnamed> _A_PFSEL_L
   \                     _A_PFSEL_L:
   \   000000                DS8 2
      5          
      6          /***************************************************************************//**
      7           * FUNCTION DEFINATION
      8           ******************************************************************************/
      9          /***************************************************************************//**
     10           * @param Function      
     11           * @param Input         void
     12           * @param Return        void
     13           * @param Calling_Func  
     14           * @param Description   
     15           ******************************************************************************/

   \                                 In  segment CODE, align 2
     16          void Init_Hardware()
   \                     Init_Hardware:
     17          {
   \   000000   3B15         PUSHM.W #0x4, R11
     18            /********************** PORT 1 Defination**********************
     19             P1.0 - TP9, Default IN 
     20             P1.1 - TP10, Default IN
     21             P1.2 - NC
     22             P1.3 - NC
     23             P1.4 - NC
     24             P1.5 - NC
     25             P1.6 - NC
     26             P1.7 - NC
     27          **************************************************************/    
     28            P1SEL &= ~(TP9_BIT + TP10_BIT + BIT2 + BIT3 + BIT4 + BIT5 + BIT6 + BIT7);
   \   000002   5E420A02     MOV.B   &0x20a, R14
   \   000006   C2430A02     MOV.B   #0x0, &0x20a
     29            P1DIR &= ~(TP9_BIT + TP10_BIT + BIT2 + BIT3 + BIT4 + BIT5 + BIT6 + BIT7);
   \   00000A   5F420402     MOV.B   &0x204, R15
   \   00000E   C2430402     MOV.B   #0x0, &0x204
     30             
     31           /********************** PORT 2 Defination**********************
     32             P2.0 - TP2, Default IN 
     33             P2.1 - TP1, Default IN 
     34             P2.2 - TP4, Default IN 
     35             P2.3 - TP3, Default IN 
     36             P2.4 - NC
     37             P2.5 - NC
     38             P2.6 - NC
     39             P2.7 - TP6, Default IN 
     40          **************************************************************/      
     41            P2SEL &= ~(PBC_ERROR_BIT + TP1_BIT + TP4_BIT + TP3_BIT + BIT4 + BIT5 + BIT6 + BIT7);
   \   000012   5D420B02     MOV.B   &0x20b, R13
   \   000016   C2430B02     MOV.B   #0x0, &0x20b
     42            P2DIR &= ~(TP1_BIT + TP4_BIT + TP3_BIT + BIT4 + BIT5 + BIT6 + TP6_BIT);
   \   00001A   F2F041000502 AND.B   #0x41, &0x205
     43            P2DIR |=  (PBC_ERROR_BIT);
   \   000020   D2D30502     BIS.B   #0x1, &0x205
     44           /********************** PORT 3 Defination**********************
     45             P3.0 - TP5, Default IN         
     46             P3.1 - TP8, Default IN                          
     47             P3.2 - TP7, Default IN                
     48             P3.3 - NC           
     49             P3.4 - PBC_TX - Delta              
     50             P3.5 - PBC_RX - Delta             
     51             P3.6 - NC    
     52             P3.7 - NC      
     53          **************************************************************/     
     54            P3SEL &= ~(TP5_BIT + TP8_BIT + TP7_BIT + BIT3 + BIT6 + BIT7);
   \   000024   F2F030002A02 AND.B   #0x30, &0x22a
     55            P3SEL |=  (PBC_TX_BIT + PBC_RX_BIT);
   \   00002A   F2D030002A02 BIS.B   #0x30, &0x22a
     56            P3DIR &= ~(TP5_BIT + TP8_BIT + TP7_BIT + BIT3 + BIT6 + BIT7);
   \   000030   F2F030002402 AND.B   #0x30, &0x224
     57           
     58           /********************** PORT 4 Defination**********************
     59             P4.0 - NC
     60             P4.1 - NC
     61             P4.2 - NC
     62             P4.3 - NC
     63             P4.4 - NC
     64             P4.5 - NC  
     65             P4.6 - PBC_DE, Default IN 
     66             P4.7 - PBC_RE, Default IN 
     67          **************************************************************/     
     68            P4SEL &= ~(BIT0 + BIT1 + BIT2 + BIT3 + BIT4 + BIT5 + PBC_DE + PBC_RE);
   \   000036   5C422B02     MOV.B   &0x22b, R12
   \   00003A   C2432B02     MOV.B   #0x0, &0x22b
     69            P4DIR &= ~(BIT0 + BIT1 + BIT2 + BIT3 + BIT4 + BIT5 + PBC_DE);
   \   00003E   F2F080002502 AND.B   #0x80, &0x225
     70            P4DIR |=  PBC_RE;
   \   000044   F2D080002502 BIS.B   #0x80, &0x225
     71            P4OUT &= ~PBC_RE;
   \   00004A   F2C080002302 BIC.B   #0x80, &0x223
     72          /********************** PORT 5 Defination**********************
     73             P5.0 - NC
     74             P5.1 - NC
     75             P5.2 - NC
     76             P5.3 - NC
     77             P5.4 - COM_RX_LED
     78             P5.5 - COM_TX_LED
     79             P5.6 - COM_DBG_UART_TX
     80             P5.7 - COM_DBG_UART_RX
     81          **************************************************************/       
     82            P5SEL &=  ~(BIT0 + BIT1 + BIT2 + BIT3 + COM_RX_LED_BIT + COM_TX_LED_BIT);
   \   000050   F2F0C0004A02 AND.B   #0xc0, &0x24a
     83            P5SEL |=   (COM_DBG_UART_TX_BIT + COM_DBG_UART_RX_BIT);
   \   000056   F2D0C0004A02 BIS.B   #0xc0, &0x24a
     84            P5DIR |=   (COM_RX_LED_BIT + COM_TX_LED_BIT);
   \   00005C   F2D030004402 BIS.B   #0x30, &0x244
     85          //  P5DIR &=  ~(BIT0 + BIT1 + BIT2 + BIT3);
     86            P5OUT &=  ~(COM_RX_LED_BIT + COM_TX_LED_BIT);
   \   000062   F2F0CF004202 AND.B   #0xcf, &0x242
     87            
     88            /********************** PORT 6 Defination**********************
     89             P6.0 - LED_1
     90             P6.1 - LED_2
     91             P6.2 - LED_3
     92             P6.3 - LED_4
     93             P6.4 - TP11
     94             P6.5 - TP12 
     95             P6.6 - TP13
     96             P6.7 - TP14
     97          **************************************************************/   
     98            P6SEL &= ~(LED_1_BIT + LED_2_BIT + LED_3_BIT + LED_4_BIT + TP11_BIT + TP12_BIT + TP13_BIT + TP14_BIT);
   \   000068   5A424B02     MOV.B   &0x24b, R10
   \   00006C   C2434B02     MOV.B   #0x0, &0x24b
     99            P6DIR =   (LED_1_BIT + LED_2_BIT + LED_3_BIT + LED_4_BIT);
   \   000070   F2400F004502 MOV.B   #0xf, &0x245
    100            P6OUT =    0x00;
   \   000076   C2434302     MOV.B   #0x0, &0x243
    101          //  P6OUT &= ~(LED_1_BIT + LED_2_BIT + LED_3_BIT + LED_4_BIT);
    102            
    103           /********************** PORT 7 Defination**********************
    104             P7.0 - XIN - SP, IN
    105             P7.1 - XOUT - SP, OUT
    106             P7.2 - NC
    107             P7.3 - NC
    108             P7.4 - NC
    109             P7.5 - NC
    110             P7.6 - NC
    111             P7.7 - NC
    112          **************************************************************/ 
    113          P7SEL =  (XIN_BIT + XOUT_BIT);
   \   00007A   F24003006A02 MOV.B   #0x3, &0x26a
    114          //P7DIR =  (XOUT_BIT);
    115          P7OUT &= ~(0xFC);
   \   000080   F2F003006202 AND.B   #0x3, &0x262
    116          /********************** PORT 8 Defination**********************
    117             P8.0 - NC
    118             P8.1 - NC
    119             P8.2 - NC
    120             P8.3 - NC
    121             P8.4 - NC
    122             P8.5 - Mode_In_0
    123             P8.6 - Mode_In_1
    124             P8.7 - Mode_In_2
    125          **************************************************************/  
    126            P8SEL &= ~(BIT0 + BIT1 + BIT2 + BIT3 + BIT4 + Mode_In_0_BIT + Mode_In_1_BIT + Mode_In_2_BIT);
   \   000086   5B426B02     MOV.B   &0x26b, R11
   \   00008A   C2436B02     MOV.B   #0x0, &0x26b
    127            P8DIR &= ~(BIT0 + BIT1 + BIT2 + BIT3 + BIT4 + Mode_In_0_BIT + Mode_In_1_BIT + Mode_In_2_BIT);
   \   00008E   58426502     MOV.B   &0x265, R8
   \   000092   C2436502     MOV.B   #0x0, &0x265
    128            
    129          /********************** PORT 9 Defination**********************
    130             P9.0 - NC
    131             P9.1 - NC
    132             P9.2 - NC
    133             P9.3 - NC
    134             P9.4 - COM_TXD
    135             P9.5 - COM_RXD
    136             P9.6 - RS_485_INT
    137             P9.7 - NC
    138          **************************************************************/ 
    139            P9SEL &= ~(BIT0 + BIT1 + BIT2 + BIT3 + RS_485_INT_BIT + BIT7);
   \   000096   F2F030008A02 AND.B   #0x30, &0x28a
    140            P9SEL |= (COM_TXD_BIT + COM_RXD_BIT);
   \   00009C   F2D030008A02 BIS.B   #0x30, &0x28a
    141            P9DIR = (RS_485_INT_BIT);
   \   0000A2   F24040008402 MOV.B   #0x40, &0x284
    142           
    143          
    144          /********************** PORT 10 Defination**********************
    145             P10.0 - ADD_1
    146             P10.1 - ADD_2
    147             P10.2 - ADD_4
    148             P10.3 - ADD_8
    149             P10.4 - PBC_DBG_TX
    150             P10.5 - PBC_DBG_RX
    151             P10.6 - PBC_DBG_LED_RX
    152             P10.7 - PBC_DBG_LED_TX
    153          
    154          **************************************************************/  
    155            P10SEL &= ~(ADD_1_BIT + ADD_2_BIT + ADD_4_BIT + ADD_8_BIT + PBC_DBG_LED_RX_BIT + PBC_DBG_LED_TX_BIT);
   \   0000A8   F2F030008B02 AND.B   #0x30, &0x28b
    156            P10SEL |=  (PBC_DBG_TX_BIT + PBC_DBG_RX_BIT);
   \   0000AE   F2D030008B02 BIS.B   #0x30, &0x28b
    157            P10DIR |=  (PBC_DBG_LED_RX_BIT + PBC_DBG_LED_TX_BIT);
   \   0000B4   F2D0C0008502 BIS.B   #0xc0, &0x285
    158            P10OUT &= ~(PBC_DBG_LED_RX_BIT + PBC_DBG_LED_TX_BIT);
   \   0000BA   F2F03F008302 AND.B   #0x3f, &0x283
    159            
    160          /********************** PORT 11 Defination**********************
    161             P11.0 - Status_Led_3
    162             P11.1 - Status_Led_2
    163             P11.2 - Status_Led_1
    164          **************************************************************/    
    165            P11SEL &= ~(Status_Led_3_BIT + Status_Led_2_BIT + Status_Led_1_BIT);
   \   0000C0   F2F0F800AA02 AND.B   #0xf8, &0x2aa
    166            P11DIR |= (Status_Led_3_BIT + Status_Led_2_BIT + Status_Led_1_BIT);
   \   0000C6   F2D00700A402 BIS.B   #0x7, &0x2a4
    167            P11OUT &= ~(Status_Led_3_BIT + Status_Led_2_BIT + Status_Led_1_BIT);
   \   0000CC   F2F0F800A202 AND.B   #0xf8, &0x2a2
    168            
    169          }
   \   0000D2   3817         POPM.W  #0x4, R11
   \   0000D4   1001         RETA
   \   0000D6                REQUIRE _A_PASEL_L
   \   0000D6                REQUIRE _A_PADIR_L
   \   0000D6                REQUIRE _A_PBSEL_L
   \   0000D6                REQUIRE _A_PBDIR_L
   \   0000D6                REQUIRE _A_PBOUT_L
   \   0000D6                REQUIRE _A_PCSEL_L
   \   0000D6                REQUIRE _A_PCDIR_L
   \   0000D6                REQUIRE _A_PCOUT_L
   \   0000D6                REQUIRE _A_PDSEL_L
   \   0000D6                REQUIRE _A_PDOUT_L
   \   0000D6                REQUIRE _A_PDDIR_L
   \   0000D6                REQUIRE _A_PESEL_L
   \   0000D6                REQUIRE _A_PEDIR_L
   \   0000D6                REQUIRE _A_PEOUT_L
   \   0000D6                REQUIRE _A_PFSEL_L
   \   0000D6                REQUIRE _A_PFDIR_L
   \   0000D6                REQUIRE _A_PFOUT_L
    170          
    171          /***************************************************************************//**
    172           * @param Function      
    173           * @param Input         void
    174           * @param Return        void
    175           * @param Calling_Func  
    176           * @param Description   
    177           ******************************************************************************/

   \                                 In  segment CODE, align 2
    178          void Change_Led( unsigned char led_name, unsigned char state)
   \                     Change_Led:
    179          {
    180            switch(led_name)
   \   000000   4E4C         MOV.B   R12, R14
   \   000002   4E83         SUB.B   #0x0, R14
   \   000004   0F24         JEQ     ??Change_Led_8
   \   000006   5E83         SUB.B   #0x1, R14
   \   000008   1A24         JEQ     ??Change_Led_9
   \   00000A   5E83         SUB.B   #0x1, R14
   \   00000C   2524         JEQ     ??Change_Led_10
   \   00000E   5E83         SUB.B   #0x1, R14
   \   000010   3024         JEQ     ??Change_Led_11
   \   000012   5E83         SUB.B   #0x1, R14
   \   000014   3B24         JEQ     ??Change_Led_12
   \   000016   5E83         SUB.B   #0x1, R14
   \   000018   4624         JEQ     ??Change_Led_13
   \   00001A   5E83         SUB.B   #0x1, R14
   \   00001C   5124         JEQ     ??Change_Led_14
   \   00001E   5E83         SUB.B   #0x1, R14
   \   000020   5C24         JEQ     ??Change_Led_15
   \   000022   1001         RETA
    181            {
    182            case RED_LED:
    183              if (state == ON)
   \                     ??Change_Led_8:
   \   000024   5D93         CMP.B   #0x1, R13
   \   000026   0320         JNE     ??Change_Led_16
    184                Status_Led_POUT |= Status_Led_3_BIT;
   \   000028   D2D3A202     BIS.B   #0x1, &0x2a2
   \   00002C   1001         RETA
    185              else if (state == OFF)
   \                     ??Change_Led_16:
   \   00002E   4D93         CMP.B   #0x0, R13
   \   000030   0320         JNE     ??Change_Led_17
    186                Status_Led_POUT &= ~Status_Led_3_BIT;
   \   000032   D2C3A202     BIC.B   #0x1, &0x2a2
   \   000036   1001         RETA
    187              else
    188                Status_Led_POUT ^= Status_Led_3_BIT;
   \                     ??Change_Led_17:
   \   000038   D2E3A202     XOR.B   #0x1, &0x2a2
    189              break;
   \   00003C   1001         RETA
    190            case YEL_LED: 
    191              if (state == ON)
   \                     ??Change_Led_9:
   \   00003E   5D93         CMP.B   #0x1, R13
   \   000040   0320         JNE     ??Change_Led_18
    192                Status_Led_POUT |= Status_Led_2_BIT;
   \   000042   E2D3A202     BIS.B   #0x2, &0x2a2
   \   000046   1001         RETA
    193              else if (state == OFF)
   \                     ??Change_Led_18:
   \   000048   4D93         CMP.B   #0x0, R13
   \   00004A   0320         JNE     ??Change_Led_19
    194                Status_Led_POUT &= ~Status_Led_2_BIT;
   \   00004C   E2C3A202     BIC.B   #0x2, &0x2a2
   \   000050   1001         RETA
    195              else
    196                Status_Led_POUT ^= Status_Led_2_BIT;
   \                     ??Change_Led_19:
   \   000052   E2E3A202     XOR.B   #0x2, &0x2a2
    197              break;
   \   000056   1001         RETA
    198            case GRN_LED:
    199              if (state == ON)
   \                     ??Change_Led_10:
   \   000058   5D93         CMP.B   #0x1, R13
   \   00005A   0320         JNE     ??Change_Led_20
    200                Status_Led_POUT |= Status_Led_1_BIT;
   \   00005C   E2D2A202     BIS.B   #0x4, &0x2a2
   \   000060   1001         RETA
    201              else if (state == OFF)
   \                     ??Change_Led_20:
   \   000062   4D93         CMP.B   #0x0, R13
   \   000064   0320         JNE     ??Change_Led_21
    202                Status_Led_POUT &= ~Status_Led_1_BIT;
   \   000066   E2C2A202     BIC.B   #0x4, &0x2a2
   \   00006A   1001         RETA
    203              else
    204                Status_Led_POUT ^= Status_Led_1_BIT;
   \                     ??Change_Led_21:
   \   00006C   E2E2A202     XOR.B   #0x4, &0x2a2
    205              break;
   \   000070   1001         RETA
    206            case LED_1:
    207              if (state == ON)
   \                     ??Change_Led_11:
   \   000072   5D93         CMP.B   #0x1, R13
   \   000074   0320         JNE     ??Change_Led_22
    208                RJ45_LED_POUT |= LED_1_BIT;
   \   000076   D2D34302     BIS.B   #0x1, &0x243
   \   00007A   1001         RETA
    209              else if (state == OFF)
   \                     ??Change_Led_22:
   \   00007C   4D93         CMP.B   #0x0, R13
   \   00007E   0320         JNE     ??Change_Led_23
    210                RJ45_LED_POUT &= ~LED_1_BIT;
   \   000080   D2C34302     BIC.B   #0x1, &0x243
   \   000084   1001         RETA
    211              else
    212                RJ45_LED_POUT ^= LED_1_BIT;
   \                     ??Change_Led_23:
   \   000086   D2E34302     XOR.B   #0x1, &0x243
    213              break;
   \   00008A   1001         RETA
    214              case LED_2:
    215              if (state == ON)
   \                     ??Change_Led_12:
   \   00008C   5D93         CMP.B   #0x1, R13
   \   00008E   0320         JNE     ??Change_Led_24
    216                RJ45_LED_POUT |= LED_2_BIT;
   \   000090   E2D34302     BIS.B   #0x2, &0x243
   \   000094   1001         RETA
    217              else if (state == OFF)
   \                     ??Change_Led_24:
   \   000096   4D93         CMP.B   #0x0, R13
   \   000098   0320         JNE     ??Change_Led_25
    218                RJ45_LED_POUT &= ~LED_2_BIT;
   \   00009A   E2C34302     BIC.B   #0x2, &0x243
   \   00009E   1001         RETA
    219              else
    220                RJ45_LED_POUT ^= LED_2_BIT;
   \                     ??Change_Led_25:
   \   0000A0   E2E34302     XOR.B   #0x2, &0x243
    221              break;
   \   0000A4   1001         RETA
    222              case LED_3:
    223              if (state == ON)
   \                     ??Change_Led_13:
   \   0000A6   5D93         CMP.B   #0x1, R13
   \   0000A8   0320         JNE     ??Change_Led_26
    224                RJ45_LED_POUT |= LED_3_BIT;
   \   0000AA   E2D24302     BIS.B   #0x4, &0x243
   \   0000AE   1001         RETA
    225              else if (state == OFF)
   \                     ??Change_Led_26:
   \   0000B0   4D93         CMP.B   #0x0, R13
   \   0000B2   0320         JNE     ??Change_Led_27
    226                RJ45_LED_POUT &= ~LED_3_BIT;
   \   0000B4   E2C24302     BIC.B   #0x4, &0x243
   \   0000B8   1001         RETA
    227              else
    228                RJ45_LED_POUT ^= LED_3_BIT;
   \                     ??Change_Led_27:
   \   0000BA   E2E24302     XOR.B   #0x4, &0x243
    229              break;
   \   0000BE   1001         RETA
    230              case LED_4:
    231              if (state == ON)
   \                     ??Change_Led_14:
   \   0000C0   5D93         CMP.B   #0x1, R13
   \   0000C2   0320         JNE     ??Change_Led_28
    232                RJ45_LED_POUT |= LED_4_BIT;
   \   0000C4   F2D24302     BIS.B   #0x8, &0x243
   \   0000C8   1001         RETA
    233              else if (state == OFF)
   \                     ??Change_Led_28:
   \   0000CA   4D93         CMP.B   #0x0, R13
   \   0000CC   0320         JNE     ??Change_Led_29
    234                RJ45_LED_POUT &= ~LED_4_BIT;
   \   0000CE   F2C24302     BIC.B   #0x8, &0x243
   \   0000D2   1001         RETA
    235              else
    236                RJ45_LED_POUT ^= LED_4_BIT;
   \                     ??Change_Led_29:
   \   0000D4   F2E24302     XOR.B   #0x8, &0x243
    237              break;
   \   0000D8   1001         RETA
    238              case PBC_LED:
    239              if (state == ON)
   \                     ??Change_Led_15:
   \   0000DA   5D93         CMP.B   #0x1, R13
   \   0000DC   0320         JNE     ??Change_Led_30
    240                PBC_ERROR_POUT |= PBC_ERROR_BIT;
   \   0000DE   D2D30302     BIS.B   #0x1, &0x203
   \   0000E2   1001         RETA
    241              else if (state == OFF)
   \                     ??Change_Led_30:
   \   0000E4   4D93         CMP.B   #0x0, R13
   \   0000E6   0320         JNE     ??Change_Led_31
    242                RJ45_LED_POUT &= ~PBC_ERROR_BIT;
   \   0000E8   D2C34302     BIC.B   #0x1, &0x243
   \   0000EC   1001         RETA
    243              else
    244                RJ45_LED_POUT ^= PBC_ERROR_BIT;
   \                     ??Change_Led_31:
   \   0000EE   D2E34302     XOR.B   #0x1, &0x243
    245              break;
    246            
    247            }
    248          }
   \   0000F2   1001         RETA
   \   0000F4                REQUIRE _A_PFOUT_L
   \   0000F4                REQUIRE _A_PCOUT_L
   \   0000F4                REQUIRE _A_PAOUT_L
    249           
    250          /***************************************************************************//**
    251           * @param Function      
    252           * @param Input         void
    253           * @param Return        void
    254           * @param Calling_Func  
    255           * @param Description   
    256           ******************************************************************************/

   \                                 In  segment CODE, align 2
    257          void Set_UART0_LED(unsigned char mode, unsigned char state)
   \                     Set_UART0_LED:
    258          {
    259            switch(mode)
   \   000000   5C93         CMP.B   #0x1, R12
    260            {
    261            case TX:
    262              if (state == ON)
    263              {
    264                //P1OUT |= Fault_Led_14_BIT;
    265              }
    266              else
    267              {
    268                //P1OUT &= ~Fault_Led_14_BIT;
    269              }  
    270              break;
    271            default:
    272              if (state == ON)
    273              {
    274                //P2OUT |= Fault_Led_13_BIT;
    275              }
    276              else
    277              {
    278                //P2OUT &= ~Fault_Led_13_BIT;
    279              }  
    280              
    281              break;
    282            }
    283          }
   \   000002   1001         RETA
    284          /***************************************************************************//**
    285           *                         End of Function
    286           ******************************************************************************/

   Maximum stack usage in bytes:

   CSTACK Function
   ------ --------
      4   Change_Led
     12   Init_Hardware
      4   Set_UART0_LED


   Segment part sizes:

   Bytes  Function/Label
   -----  --------------
     244  Change_Led
     214  Init_Hardware
       4  Set_UART0_LED
       2  _A_PADIR_L
       2  _A_PAOUT_L
       2  _A_PASEL_L
       2  _A_PBDIR_L
       2  _A_PBOUT_L
       2  _A_PBSEL_L
       2  _A_PCDIR_L
       2  _A_PCOUT_L
       2  _A_PCSEL_L
       2  _A_PDDIR_L
       2  _A_PDOUT_L
       2  _A_PDSEL_L
       2  _A_PEDIR_L
       2  _A_PEOUT_L
       2  _A_PESEL_L
       2  _A_PFDIR_L
       2  _A_PFOUT_L
       2  _A_PFSEL_L

 
 462 bytes in segment CODE
  36 bytes in segment DATA16_AN
 
 462 bytes of CODE memory
   0 bytes of DATA memory (+ 36 bytes shared)

Errors: none
Warnings: none
