G75*
%MOIN*%
%OFA0B0*%
%FSLAX25Y25*%
%IPPOS*%
%LPD*%
%AMOC8*
5,1,8,0,0,1.08239X$1,22.5*
%
%ADD10C,0.16400*%
%ADD11R,4.50000X0.04000*%
%ADD12R,0.04000X3.00000*%
%ADD13C,0.06737*%
%ADD14C,0.13600*%
%ADD15C,0.10249*%
%ADD16C,0.06300*%
%ADD17C,0.07887*%
%ADD18C,0.05556*%
%ADD19C,0.03778*%
D10*
X0042744Y0150300D03*
X0042744Y0390300D03*
X0352744Y0390300D03*
X0352744Y0150300D03*
D11*
X0237744Y0122300D03*
X0237744Y0418300D03*
D12*
X0014744Y0270300D03*
X0460744Y0270300D03*
D13*
X0302744Y0280300D03*
X0292744Y0280300D03*
X0292744Y0290300D03*
X0302744Y0290300D03*
X0282744Y0290300D03*
X0282744Y0280300D03*
X0232744Y0280300D03*
X0232744Y0270300D03*
X0222744Y0270300D03*
X0222744Y0280300D03*
X0192744Y0275300D03*
X0182744Y0275300D03*
X0182744Y0265300D03*
X0182744Y0255300D03*
X0182744Y0245300D03*
X0182744Y0235300D03*
X0192744Y0235300D03*
X0192744Y0245300D03*
X0192744Y0255300D03*
X0192744Y0265300D03*
X0182744Y0220300D03*
X0182744Y0210300D03*
X0182744Y0200300D03*
X0222744Y0330300D03*
X0252744Y0330300D03*
X0252744Y0340300D03*
X0252744Y0350300D03*
D14*
X0432744Y0351300D03*
X0432744Y0323300D03*
X0432744Y0273300D03*
X0432744Y0401300D03*
X0038744Y0341426D03*
X0038744Y0291426D03*
D15*
X0052244Y0284426D03*
X0052244Y0348426D03*
X0419244Y0344300D03*
X0419244Y0330300D03*
X0419244Y0266300D03*
X0419244Y0408300D03*
D16*
X0422744Y0390300D03*
X0422744Y0382300D03*
X0422744Y0374300D03*
X0422744Y0366300D03*
X0415744Y0362300D03*
X0415744Y0370300D03*
X0415744Y0378300D03*
X0415744Y0386300D03*
X0396744Y0394300D03*
X0396744Y0403300D03*
X0396744Y0358300D03*
X0396744Y0349300D03*
X0396744Y0325300D03*
X0396744Y0316300D03*
X0415744Y0308300D03*
X0415744Y0300300D03*
X0415744Y0292300D03*
X0415744Y0284300D03*
X0422744Y0288300D03*
X0422744Y0296300D03*
X0422744Y0304300D03*
X0422744Y0312300D03*
X0396744Y0280300D03*
X0396744Y0271300D03*
X0074744Y0289426D03*
X0074744Y0298426D03*
X0055744Y0306426D03*
X0055744Y0314426D03*
X0055744Y0322426D03*
X0055744Y0330426D03*
X0048744Y0326426D03*
X0048744Y0318426D03*
X0048744Y0310426D03*
X0048744Y0302426D03*
X0074744Y0334426D03*
X0074744Y0343426D03*
D17*
X0046744Y0237489D03*
X0046744Y0222489D03*
X0046744Y0207489D03*
D18*
X0358807Y0214489D03*
X0358807Y0222363D03*
X0358807Y0230237D03*
X0358807Y0238111D03*
X0366681Y0238111D03*
X0366681Y0230237D03*
X0366681Y0222363D03*
X0366681Y0214489D03*
X0408807Y0210552D03*
X0408807Y0202678D03*
X0416681Y0202678D03*
X0416681Y0210552D03*
X0416681Y0218426D03*
X0408807Y0218426D03*
X0408807Y0226300D03*
X0408807Y0234174D03*
X0416681Y0234174D03*
X0416681Y0226300D03*
X0416681Y0242048D03*
X0408807Y0242048D03*
X0408807Y0249922D03*
X0416681Y0249922D03*
X0434752Y0169670D03*
X0434752Y0159670D03*
X0444752Y0159670D03*
X0444752Y0169670D03*
X0444752Y0149670D03*
X0434752Y0149670D03*
D19*
X0387305Y0262589D03*
X0442744Y0337300D03*
X0373744Y0351300D03*
X0373744Y0371300D03*
X0273744Y0356300D03*
X0266744Y0325300D03*
M02*
