G75*
%MOIN*%
%OFA0B0*%
%FSLAX25Y25*%
%IPPOS*%
%LPD*%
%AMOC8*
5,1,8,0,0,1.08239X$1,22.5*
%
%ADD10C,0.00000*%
%ADD11C,0.00400*%
%ADD12C,0.00800*%
D10*
X0012744Y0120300D02*
X0012744Y0420300D01*
X0462744Y0420300D01*
X0462744Y0120300D01*
X0012744Y0120300D01*
X0034944Y0150300D02*
X0034946Y0150491D01*
X0034953Y0150683D01*
X0034965Y0150874D01*
X0034982Y0151065D01*
X0035003Y0151255D01*
X0035028Y0151444D01*
X0035059Y0151634D01*
X0035094Y0151822D01*
X0035134Y0152009D01*
X0035178Y0152195D01*
X0035227Y0152380D01*
X0035280Y0152564D01*
X0035338Y0152747D01*
X0035400Y0152928D01*
X0035467Y0153107D01*
X0035538Y0153285D01*
X0035613Y0153461D01*
X0035693Y0153635D01*
X0035777Y0153807D01*
X0035865Y0153977D01*
X0035957Y0154145D01*
X0036054Y0154310D01*
X0036154Y0154473D01*
X0036259Y0154633D01*
X0036367Y0154791D01*
X0036479Y0154946D01*
X0036595Y0155099D01*
X0036715Y0155248D01*
X0036838Y0155395D01*
X0036965Y0155538D01*
X0037095Y0155678D01*
X0037229Y0155815D01*
X0037366Y0155949D01*
X0037506Y0156079D01*
X0037649Y0156206D01*
X0037796Y0156329D01*
X0037945Y0156449D01*
X0038098Y0156565D01*
X0038253Y0156677D01*
X0038411Y0156785D01*
X0038571Y0156890D01*
X0038734Y0156990D01*
X0038899Y0157087D01*
X0039067Y0157179D01*
X0039237Y0157267D01*
X0039409Y0157351D01*
X0039583Y0157431D01*
X0039759Y0157506D01*
X0039937Y0157577D01*
X0040116Y0157644D01*
X0040297Y0157706D01*
X0040480Y0157764D01*
X0040664Y0157817D01*
X0040849Y0157866D01*
X0041035Y0157910D01*
X0041222Y0157950D01*
X0041410Y0157985D01*
X0041600Y0158016D01*
X0041789Y0158041D01*
X0041979Y0158062D01*
X0042170Y0158079D01*
X0042361Y0158091D01*
X0042553Y0158098D01*
X0042744Y0158100D01*
X0042935Y0158098D01*
X0043127Y0158091D01*
X0043318Y0158079D01*
X0043509Y0158062D01*
X0043699Y0158041D01*
X0043888Y0158016D01*
X0044078Y0157985D01*
X0044266Y0157950D01*
X0044453Y0157910D01*
X0044639Y0157866D01*
X0044824Y0157817D01*
X0045008Y0157764D01*
X0045191Y0157706D01*
X0045372Y0157644D01*
X0045551Y0157577D01*
X0045729Y0157506D01*
X0045905Y0157431D01*
X0046079Y0157351D01*
X0046251Y0157267D01*
X0046421Y0157179D01*
X0046589Y0157087D01*
X0046754Y0156990D01*
X0046917Y0156890D01*
X0047077Y0156785D01*
X0047235Y0156677D01*
X0047390Y0156565D01*
X0047543Y0156449D01*
X0047692Y0156329D01*
X0047839Y0156206D01*
X0047982Y0156079D01*
X0048122Y0155949D01*
X0048259Y0155815D01*
X0048393Y0155678D01*
X0048523Y0155538D01*
X0048650Y0155395D01*
X0048773Y0155248D01*
X0048893Y0155099D01*
X0049009Y0154946D01*
X0049121Y0154791D01*
X0049229Y0154633D01*
X0049334Y0154473D01*
X0049434Y0154310D01*
X0049531Y0154145D01*
X0049623Y0153977D01*
X0049711Y0153807D01*
X0049795Y0153635D01*
X0049875Y0153461D01*
X0049950Y0153285D01*
X0050021Y0153107D01*
X0050088Y0152928D01*
X0050150Y0152747D01*
X0050208Y0152564D01*
X0050261Y0152380D01*
X0050310Y0152195D01*
X0050354Y0152009D01*
X0050394Y0151822D01*
X0050429Y0151634D01*
X0050460Y0151444D01*
X0050485Y0151255D01*
X0050506Y0151065D01*
X0050523Y0150874D01*
X0050535Y0150683D01*
X0050542Y0150491D01*
X0050544Y0150300D01*
X0050542Y0150109D01*
X0050535Y0149917D01*
X0050523Y0149726D01*
X0050506Y0149535D01*
X0050485Y0149345D01*
X0050460Y0149156D01*
X0050429Y0148966D01*
X0050394Y0148778D01*
X0050354Y0148591D01*
X0050310Y0148405D01*
X0050261Y0148220D01*
X0050208Y0148036D01*
X0050150Y0147853D01*
X0050088Y0147672D01*
X0050021Y0147493D01*
X0049950Y0147315D01*
X0049875Y0147139D01*
X0049795Y0146965D01*
X0049711Y0146793D01*
X0049623Y0146623D01*
X0049531Y0146455D01*
X0049434Y0146290D01*
X0049334Y0146127D01*
X0049229Y0145967D01*
X0049121Y0145809D01*
X0049009Y0145654D01*
X0048893Y0145501D01*
X0048773Y0145352D01*
X0048650Y0145205D01*
X0048523Y0145062D01*
X0048393Y0144922D01*
X0048259Y0144785D01*
X0048122Y0144651D01*
X0047982Y0144521D01*
X0047839Y0144394D01*
X0047692Y0144271D01*
X0047543Y0144151D01*
X0047390Y0144035D01*
X0047235Y0143923D01*
X0047077Y0143815D01*
X0046917Y0143710D01*
X0046754Y0143610D01*
X0046589Y0143513D01*
X0046421Y0143421D01*
X0046251Y0143333D01*
X0046079Y0143249D01*
X0045905Y0143169D01*
X0045729Y0143094D01*
X0045551Y0143023D01*
X0045372Y0142956D01*
X0045191Y0142894D01*
X0045008Y0142836D01*
X0044824Y0142783D01*
X0044639Y0142734D01*
X0044453Y0142690D01*
X0044266Y0142650D01*
X0044078Y0142615D01*
X0043888Y0142584D01*
X0043699Y0142559D01*
X0043509Y0142538D01*
X0043318Y0142521D01*
X0043127Y0142509D01*
X0042935Y0142502D01*
X0042744Y0142500D01*
X0042553Y0142502D01*
X0042361Y0142509D01*
X0042170Y0142521D01*
X0041979Y0142538D01*
X0041789Y0142559D01*
X0041600Y0142584D01*
X0041410Y0142615D01*
X0041222Y0142650D01*
X0041035Y0142690D01*
X0040849Y0142734D01*
X0040664Y0142783D01*
X0040480Y0142836D01*
X0040297Y0142894D01*
X0040116Y0142956D01*
X0039937Y0143023D01*
X0039759Y0143094D01*
X0039583Y0143169D01*
X0039409Y0143249D01*
X0039237Y0143333D01*
X0039067Y0143421D01*
X0038899Y0143513D01*
X0038734Y0143610D01*
X0038571Y0143710D01*
X0038411Y0143815D01*
X0038253Y0143923D01*
X0038098Y0144035D01*
X0037945Y0144151D01*
X0037796Y0144271D01*
X0037649Y0144394D01*
X0037506Y0144521D01*
X0037366Y0144651D01*
X0037229Y0144785D01*
X0037095Y0144922D01*
X0036965Y0145062D01*
X0036838Y0145205D01*
X0036715Y0145352D01*
X0036595Y0145501D01*
X0036479Y0145654D01*
X0036367Y0145809D01*
X0036259Y0145967D01*
X0036154Y0146127D01*
X0036054Y0146290D01*
X0035957Y0146455D01*
X0035865Y0146623D01*
X0035777Y0146793D01*
X0035693Y0146965D01*
X0035613Y0147139D01*
X0035538Y0147315D01*
X0035467Y0147493D01*
X0035400Y0147672D01*
X0035338Y0147853D01*
X0035280Y0148036D01*
X0035227Y0148220D01*
X0035178Y0148405D01*
X0035134Y0148591D01*
X0035094Y0148778D01*
X0035059Y0148966D01*
X0035028Y0149156D01*
X0035003Y0149345D01*
X0034982Y0149535D01*
X0034965Y0149726D01*
X0034953Y0149917D01*
X0034946Y0150109D01*
X0034944Y0150300D01*
X0032344Y0291426D02*
X0032346Y0291586D01*
X0032352Y0291745D01*
X0032362Y0291904D01*
X0032376Y0292063D01*
X0032394Y0292222D01*
X0032415Y0292380D01*
X0032441Y0292537D01*
X0032471Y0292694D01*
X0032504Y0292850D01*
X0032542Y0293005D01*
X0032583Y0293159D01*
X0032628Y0293312D01*
X0032677Y0293464D01*
X0032730Y0293615D01*
X0032786Y0293764D01*
X0032847Y0293912D01*
X0032910Y0294058D01*
X0032978Y0294203D01*
X0033049Y0294346D01*
X0033123Y0294487D01*
X0033201Y0294626D01*
X0033283Y0294763D01*
X0033368Y0294898D01*
X0033456Y0295031D01*
X0033548Y0295162D01*
X0033642Y0295290D01*
X0033740Y0295416D01*
X0033841Y0295540D01*
X0033945Y0295661D01*
X0034052Y0295779D01*
X0034162Y0295895D01*
X0034275Y0296008D01*
X0034391Y0296118D01*
X0034509Y0296225D01*
X0034630Y0296329D01*
X0034754Y0296430D01*
X0034880Y0296528D01*
X0035008Y0296622D01*
X0035139Y0296714D01*
X0035272Y0296802D01*
X0035407Y0296887D01*
X0035544Y0296969D01*
X0035683Y0297047D01*
X0035824Y0297121D01*
X0035967Y0297192D01*
X0036112Y0297260D01*
X0036258Y0297323D01*
X0036406Y0297384D01*
X0036555Y0297440D01*
X0036706Y0297493D01*
X0036858Y0297542D01*
X0037011Y0297587D01*
X0037165Y0297628D01*
X0037320Y0297666D01*
X0037476Y0297699D01*
X0037633Y0297729D01*
X0037790Y0297755D01*
X0037948Y0297776D01*
X0038107Y0297794D01*
X0038266Y0297808D01*
X0038425Y0297818D01*
X0038584Y0297824D01*
X0038744Y0297826D01*
X0038904Y0297824D01*
X0039063Y0297818D01*
X0039222Y0297808D01*
X0039381Y0297794D01*
X0039540Y0297776D01*
X0039698Y0297755D01*
X0039855Y0297729D01*
X0040012Y0297699D01*
X0040168Y0297666D01*
X0040323Y0297628D01*
X0040477Y0297587D01*
X0040630Y0297542D01*
X0040782Y0297493D01*
X0040933Y0297440D01*
X0041082Y0297384D01*
X0041230Y0297323D01*
X0041376Y0297260D01*
X0041521Y0297192D01*
X0041664Y0297121D01*
X0041805Y0297047D01*
X0041944Y0296969D01*
X0042081Y0296887D01*
X0042216Y0296802D01*
X0042349Y0296714D01*
X0042480Y0296622D01*
X0042608Y0296528D01*
X0042734Y0296430D01*
X0042858Y0296329D01*
X0042979Y0296225D01*
X0043097Y0296118D01*
X0043213Y0296008D01*
X0043326Y0295895D01*
X0043436Y0295779D01*
X0043543Y0295661D01*
X0043647Y0295540D01*
X0043748Y0295416D01*
X0043846Y0295290D01*
X0043940Y0295162D01*
X0044032Y0295031D01*
X0044120Y0294898D01*
X0044205Y0294763D01*
X0044287Y0294626D01*
X0044365Y0294487D01*
X0044439Y0294346D01*
X0044510Y0294203D01*
X0044578Y0294058D01*
X0044641Y0293912D01*
X0044702Y0293764D01*
X0044758Y0293615D01*
X0044811Y0293464D01*
X0044860Y0293312D01*
X0044905Y0293159D01*
X0044946Y0293005D01*
X0044984Y0292850D01*
X0045017Y0292694D01*
X0045047Y0292537D01*
X0045073Y0292380D01*
X0045094Y0292222D01*
X0045112Y0292063D01*
X0045126Y0291904D01*
X0045136Y0291745D01*
X0045142Y0291586D01*
X0045144Y0291426D01*
X0045142Y0291266D01*
X0045136Y0291107D01*
X0045126Y0290948D01*
X0045112Y0290789D01*
X0045094Y0290630D01*
X0045073Y0290472D01*
X0045047Y0290315D01*
X0045017Y0290158D01*
X0044984Y0290002D01*
X0044946Y0289847D01*
X0044905Y0289693D01*
X0044860Y0289540D01*
X0044811Y0289388D01*
X0044758Y0289237D01*
X0044702Y0289088D01*
X0044641Y0288940D01*
X0044578Y0288794D01*
X0044510Y0288649D01*
X0044439Y0288506D01*
X0044365Y0288365D01*
X0044287Y0288226D01*
X0044205Y0288089D01*
X0044120Y0287954D01*
X0044032Y0287821D01*
X0043940Y0287690D01*
X0043846Y0287562D01*
X0043748Y0287436D01*
X0043647Y0287312D01*
X0043543Y0287191D01*
X0043436Y0287073D01*
X0043326Y0286957D01*
X0043213Y0286844D01*
X0043097Y0286734D01*
X0042979Y0286627D01*
X0042858Y0286523D01*
X0042734Y0286422D01*
X0042608Y0286324D01*
X0042480Y0286230D01*
X0042349Y0286138D01*
X0042216Y0286050D01*
X0042081Y0285965D01*
X0041944Y0285883D01*
X0041805Y0285805D01*
X0041664Y0285731D01*
X0041521Y0285660D01*
X0041376Y0285592D01*
X0041230Y0285529D01*
X0041082Y0285468D01*
X0040933Y0285412D01*
X0040782Y0285359D01*
X0040630Y0285310D01*
X0040477Y0285265D01*
X0040323Y0285224D01*
X0040168Y0285186D01*
X0040012Y0285153D01*
X0039855Y0285123D01*
X0039698Y0285097D01*
X0039540Y0285076D01*
X0039381Y0285058D01*
X0039222Y0285044D01*
X0039063Y0285034D01*
X0038904Y0285028D01*
X0038744Y0285026D01*
X0038584Y0285028D01*
X0038425Y0285034D01*
X0038266Y0285044D01*
X0038107Y0285058D01*
X0037948Y0285076D01*
X0037790Y0285097D01*
X0037633Y0285123D01*
X0037476Y0285153D01*
X0037320Y0285186D01*
X0037165Y0285224D01*
X0037011Y0285265D01*
X0036858Y0285310D01*
X0036706Y0285359D01*
X0036555Y0285412D01*
X0036406Y0285468D01*
X0036258Y0285529D01*
X0036112Y0285592D01*
X0035967Y0285660D01*
X0035824Y0285731D01*
X0035683Y0285805D01*
X0035544Y0285883D01*
X0035407Y0285965D01*
X0035272Y0286050D01*
X0035139Y0286138D01*
X0035008Y0286230D01*
X0034880Y0286324D01*
X0034754Y0286422D01*
X0034630Y0286523D01*
X0034509Y0286627D01*
X0034391Y0286734D01*
X0034275Y0286844D01*
X0034162Y0286957D01*
X0034052Y0287073D01*
X0033945Y0287191D01*
X0033841Y0287312D01*
X0033740Y0287436D01*
X0033642Y0287562D01*
X0033548Y0287690D01*
X0033456Y0287821D01*
X0033368Y0287954D01*
X0033283Y0288089D01*
X0033201Y0288226D01*
X0033123Y0288365D01*
X0033049Y0288506D01*
X0032978Y0288649D01*
X0032910Y0288794D01*
X0032847Y0288940D01*
X0032786Y0289088D01*
X0032730Y0289237D01*
X0032677Y0289388D01*
X0032628Y0289540D01*
X0032583Y0289693D01*
X0032542Y0289847D01*
X0032504Y0290002D01*
X0032471Y0290158D01*
X0032441Y0290315D01*
X0032415Y0290472D01*
X0032394Y0290630D01*
X0032376Y0290789D01*
X0032362Y0290948D01*
X0032352Y0291107D01*
X0032346Y0291266D01*
X0032344Y0291426D01*
X0032344Y0341426D02*
X0032346Y0341586D01*
X0032352Y0341745D01*
X0032362Y0341904D01*
X0032376Y0342063D01*
X0032394Y0342222D01*
X0032415Y0342380D01*
X0032441Y0342537D01*
X0032471Y0342694D01*
X0032504Y0342850D01*
X0032542Y0343005D01*
X0032583Y0343159D01*
X0032628Y0343312D01*
X0032677Y0343464D01*
X0032730Y0343615D01*
X0032786Y0343764D01*
X0032847Y0343912D01*
X0032910Y0344058D01*
X0032978Y0344203D01*
X0033049Y0344346D01*
X0033123Y0344487D01*
X0033201Y0344626D01*
X0033283Y0344763D01*
X0033368Y0344898D01*
X0033456Y0345031D01*
X0033548Y0345162D01*
X0033642Y0345290D01*
X0033740Y0345416D01*
X0033841Y0345540D01*
X0033945Y0345661D01*
X0034052Y0345779D01*
X0034162Y0345895D01*
X0034275Y0346008D01*
X0034391Y0346118D01*
X0034509Y0346225D01*
X0034630Y0346329D01*
X0034754Y0346430D01*
X0034880Y0346528D01*
X0035008Y0346622D01*
X0035139Y0346714D01*
X0035272Y0346802D01*
X0035407Y0346887D01*
X0035544Y0346969D01*
X0035683Y0347047D01*
X0035824Y0347121D01*
X0035967Y0347192D01*
X0036112Y0347260D01*
X0036258Y0347323D01*
X0036406Y0347384D01*
X0036555Y0347440D01*
X0036706Y0347493D01*
X0036858Y0347542D01*
X0037011Y0347587D01*
X0037165Y0347628D01*
X0037320Y0347666D01*
X0037476Y0347699D01*
X0037633Y0347729D01*
X0037790Y0347755D01*
X0037948Y0347776D01*
X0038107Y0347794D01*
X0038266Y0347808D01*
X0038425Y0347818D01*
X0038584Y0347824D01*
X0038744Y0347826D01*
X0038904Y0347824D01*
X0039063Y0347818D01*
X0039222Y0347808D01*
X0039381Y0347794D01*
X0039540Y0347776D01*
X0039698Y0347755D01*
X0039855Y0347729D01*
X0040012Y0347699D01*
X0040168Y0347666D01*
X0040323Y0347628D01*
X0040477Y0347587D01*
X0040630Y0347542D01*
X0040782Y0347493D01*
X0040933Y0347440D01*
X0041082Y0347384D01*
X0041230Y0347323D01*
X0041376Y0347260D01*
X0041521Y0347192D01*
X0041664Y0347121D01*
X0041805Y0347047D01*
X0041944Y0346969D01*
X0042081Y0346887D01*
X0042216Y0346802D01*
X0042349Y0346714D01*
X0042480Y0346622D01*
X0042608Y0346528D01*
X0042734Y0346430D01*
X0042858Y0346329D01*
X0042979Y0346225D01*
X0043097Y0346118D01*
X0043213Y0346008D01*
X0043326Y0345895D01*
X0043436Y0345779D01*
X0043543Y0345661D01*
X0043647Y0345540D01*
X0043748Y0345416D01*
X0043846Y0345290D01*
X0043940Y0345162D01*
X0044032Y0345031D01*
X0044120Y0344898D01*
X0044205Y0344763D01*
X0044287Y0344626D01*
X0044365Y0344487D01*
X0044439Y0344346D01*
X0044510Y0344203D01*
X0044578Y0344058D01*
X0044641Y0343912D01*
X0044702Y0343764D01*
X0044758Y0343615D01*
X0044811Y0343464D01*
X0044860Y0343312D01*
X0044905Y0343159D01*
X0044946Y0343005D01*
X0044984Y0342850D01*
X0045017Y0342694D01*
X0045047Y0342537D01*
X0045073Y0342380D01*
X0045094Y0342222D01*
X0045112Y0342063D01*
X0045126Y0341904D01*
X0045136Y0341745D01*
X0045142Y0341586D01*
X0045144Y0341426D01*
X0045142Y0341266D01*
X0045136Y0341107D01*
X0045126Y0340948D01*
X0045112Y0340789D01*
X0045094Y0340630D01*
X0045073Y0340472D01*
X0045047Y0340315D01*
X0045017Y0340158D01*
X0044984Y0340002D01*
X0044946Y0339847D01*
X0044905Y0339693D01*
X0044860Y0339540D01*
X0044811Y0339388D01*
X0044758Y0339237D01*
X0044702Y0339088D01*
X0044641Y0338940D01*
X0044578Y0338794D01*
X0044510Y0338649D01*
X0044439Y0338506D01*
X0044365Y0338365D01*
X0044287Y0338226D01*
X0044205Y0338089D01*
X0044120Y0337954D01*
X0044032Y0337821D01*
X0043940Y0337690D01*
X0043846Y0337562D01*
X0043748Y0337436D01*
X0043647Y0337312D01*
X0043543Y0337191D01*
X0043436Y0337073D01*
X0043326Y0336957D01*
X0043213Y0336844D01*
X0043097Y0336734D01*
X0042979Y0336627D01*
X0042858Y0336523D01*
X0042734Y0336422D01*
X0042608Y0336324D01*
X0042480Y0336230D01*
X0042349Y0336138D01*
X0042216Y0336050D01*
X0042081Y0335965D01*
X0041944Y0335883D01*
X0041805Y0335805D01*
X0041664Y0335731D01*
X0041521Y0335660D01*
X0041376Y0335592D01*
X0041230Y0335529D01*
X0041082Y0335468D01*
X0040933Y0335412D01*
X0040782Y0335359D01*
X0040630Y0335310D01*
X0040477Y0335265D01*
X0040323Y0335224D01*
X0040168Y0335186D01*
X0040012Y0335153D01*
X0039855Y0335123D01*
X0039698Y0335097D01*
X0039540Y0335076D01*
X0039381Y0335058D01*
X0039222Y0335044D01*
X0039063Y0335034D01*
X0038904Y0335028D01*
X0038744Y0335026D01*
X0038584Y0335028D01*
X0038425Y0335034D01*
X0038266Y0335044D01*
X0038107Y0335058D01*
X0037948Y0335076D01*
X0037790Y0335097D01*
X0037633Y0335123D01*
X0037476Y0335153D01*
X0037320Y0335186D01*
X0037165Y0335224D01*
X0037011Y0335265D01*
X0036858Y0335310D01*
X0036706Y0335359D01*
X0036555Y0335412D01*
X0036406Y0335468D01*
X0036258Y0335529D01*
X0036112Y0335592D01*
X0035967Y0335660D01*
X0035824Y0335731D01*
X0035683Y0335805D01*
X0035544Y0335883D01*
X0035407Y0335965D01*
X0035272Y0336050D01*
X0035139Y0336138D01*
X0035008Y0336230D01*
X0034880Y0336324D01*
X0034754Y0336422D01*
X0034630Y0336523D01*
X0034509Y0336627D01*
X0034391Y0336734D01*
X0034275Y0336844D01*
X0034162Y0336957D01*
X0034052Y0337073D01*
X0033945Y0337191D01*
X0033841Y0337312D01*
X0033740Y0337436D01*
X0033642Y0337562D01*
X0033548Y0337690D01*
X0033456Y0337821D01*
X0033368Y0337954D01*
X0033283Y0338089D01*
X0033201Y0338226D01*
X0033123Y0338365D01*
X0033049Y0338506D01*
X0032978Y0338649D01*
X0032910Y0338794D01*
X0032847Y0338940D01*
X0032786Y0339088D01*
X0032730Y0339237D01*
X0032677Y0339388D01*
X0032628Y0339540D01*
X0032583Y0339693D01*
X0032542Y0339847D01*
X0032504Y0340002D01*
X0032471Y0340158D01*
X0032441Y0340315D01*
X0032415Y0340472D01*
X0032394Y0340630D01*
X0032376Y0340789D01*
X0032362Y0340948D01*
X0032352Y0341107D01*
X0032346Y0341266D01*
X0032344Y0341426D01*
X0034944Y0390300D02*
X0034946Y0390491D01*
X0034953Y0390683D01*
X0034965Y0390874D01*
X0034982Y0391065D01*
X0035003Y0391255D01*
X0035028Y0391444D01*
X0035059Y0391634D01*
X0035094Y0391822D01*
X0035134Y0392009D01*
X0035178Y0392195D01*
X0035227Y0392380D01*
X0035280Y0392564D01*
X0035338Y0392747D01*
X0035400Y0392928D01*
X0035467Y0393107D01*
X0035538Y0393285D01*
X0035613Y0393461D01*
X0035693Y0393635D01*
X0035777Y0393807D01*
X0035865Y0393977D01*
X0035957Y0394145D01*
X0036054Y0394310D01*
X0036154Y0394473D01*
X0036259Y0394633D01*
X0036367Y0394791D01*
X0036479Y0394946D01*
X0036595Y0395099D01*
X0036715Y0395248D01*
X0036838Y0395395D01*
X0036965Y0395538D01*
X0037095Y0395678D01*
X0037229Y0395815D01*
X0037366Y0395949D01*
X0037506Y0396079D01*
X0037649Y0396206D01*
X0037796Y0396329D01*
X0037945Y0396449D01*
X0038098Y0396565D01*
X0038253Y0396677D01*
X0038411Y0396785D01*
X0038571Y0396890D01*
X0038734Y0396990D01*
X0038899Y0397087D01*
X0039067Y0397179D01*
X0039237Y0397267D01*
X0039409Y0397351D01*
X0039583Y0397431D01*
X0039759Y0397506D01*
X0039937Y0397577D01*
X0040116Y0397644D01*
X0040297Y0397706D01*
X0040480Y0397764D01*
X0040664Y0397817D01*
X0040849Y0397866D01*
X0041035Y0397910D01*
X0041222Y0397950D01*
X0041410Y0397985D01*
X0041600Y0398016D01*
X0041789Y0398041D01*
X0041979Y0398062D01*
X0042170Y0398079D01*
X0042361Y0398091D01*
X0042553Y0398098D01*
X0042744Y0398100D01*
X0042935Y0398098D01*
X0043127Y0398091D01*
X0043318Y0398079D01*
X0043509Y0398062D01*
X0043699Y0398041D01*
X0043888Y0398016D01*
X0044078Y0397985D01*
X0044266Y0397950D01*
X0044453Y0397910D01*
X0044639Y0397866D01*
X0044824Y0397817D01*
X0045008Y0397764D01*
X0045191Y0397706D01*
X0045372Y0397644D01*
X0045551Y0397577D01*
X0045729Y0397506D01*
X0045905Y0397431D01*
X0046079Y0397351D01*
X0046251Y0397267D01*
X0046421Y0397179D01*
X0046589Y0397087D01*
X0046754Y0396990D01*
X0046917Y0396890D01*
X0047077Y0396785D01*
X0047235Y0396677D01*
X0047390Y0396565D01*
X0047543Y0396449D01*
X0047692Y0396329D01*
X0047839Y0396206D01*
X0047982Y0396079D01*
X0048122Y0395949D01*
X0048259Y0395815D01*
X0048393Y0395678D01*
X0048523Y0395538D01*
X0048650Y0395395D01*
X0048773Y0395248D01*
X0048893Y0395099D01*
X0049009Y0394946D01*
X0049121Y0394791D01*
X0049229Y0394633D01*
X0049334Y0394473D01*
X0049434Y0394310D01*
X0049531Y0394145D01*
X0049623Y0393977D01*
X0049711Y0393807D01*
X0049795Y0393635D01*
X0049875Y0393461D01*
X0049950Y0393285D01*
X0050021Y0393107D01*
X0050088Y0392928D01*
X0050150Y0392747D01*
X0050208Y0392564D01*
X0050261Y0392380D01*
X0050310Y0392195D01*
X0050354Y0392009D01*
X0050394Y0391822D01*
X0050429Y0391634D01*
X0050460Y0391444D01*
X0050485Y0391255D01*
X0050506Y0391065D01*
X0050523Y0390874D01*
X0050535Y0390683D01*
X0050542Y0390491D01*
X0050544Y0390300D01*
X0050542Y0390109D01*
X0050535Y0389917D01*
X0050523Y0389726D01*
X0050506Y0389535D01*
X0050485Y0389345D01*
X0050460Y0389156D01*
X0050429Y0388966D01*
X0050394Y0388778D01*
X0050354Y0388591D01*
X0050310Y0388405D01*
X0050261Y0388220D01*
X0050208Y0388036D01*
X0050150Y0387853D01*
X0050088Y0387672D01*
X0050021Y0387493D01*
X0049950Y0387315D01*
X0049875Y0387139D01*
X0049795Y0386965D01*
X0049711Y0386793D01*
X0049623Y0386623D01*
X0049531Y0386455D01*
X0049434Y0386290D01*
X0049334Y0386127D01*
X0049229Y0385967D01*
X0049121Y0385809D01*
X0049009Y0385654D01*
X0048893Y0385501D01*
X0048773Y0385352D01*
X0048650Y0385205D01*
X0048523Y0385062D01*
X0048393Y0384922D01*
X0048259Y0384785D01*
X0048122Y0384651D01*
X0047982Y0384521D01*
X0047839Y0384394D01*
X0047692Y0384271D01*
X0047543Y0384151D01*
X0047390Y0384035D01*
X0047235Y0383923D01*
X0047077Y0383815D01*
X0046917Y0383710D01*
X0046754Y0383610D01*
X0046589Y0383513D01*
X0046421Y0383421D01*
X0046251Y0383333D01*
X0046079Y0383249D01*
X0045905Y0383169D01*
X0045729Y0383094D01*
X0045551Y0383023D01*
X0045372Y0382956D01*
X0045191Y0382894D01*
X0045008Y0382836D01*
X0044824Y0382783D01*
X0044639Y0382734D01*
X0044453Y0382690D01*
X0044266Y0382650D01*
X0044078Y0382615D01*
X0043888Y0382584D01*
X0043699Y0382559D01*
X0043509Y0382538D01*
X0043318Y0382521D01*
X0043127Y0382509D01*
X0042935Y0382502D01*
X0042744Y0382500D01*
X0042553Y0382502D01*
X0042361Y0382509D01*
X0042170Y0382521D01*
X0041979Y0382538D01*
X0041789Y0382559D01*
X0041600Y0382584D01*
X0041410Y0382615D01*
X0041222Y0382650D01*
X0041035Y0382690D01*
X0040849Y0382734D01*
X0040664Y0382783D01*
X0040480Y0382836D01*
X0040297Y0382894D01*
X0040116Y0382956D01*
X0039937Y0383023D01*
X0039759Y0383094D01*
X0039583Y0383169D01*
X0039409Y0383249D01*
X0039237Y0383333D01*
X0039067Y0383421D01*
X0038899Y0383513D01*
X0038734Y0383610D01*
X0038571Y0383710D01*
X0038411Y0383815D01*
X0038253Y0383923D01*
X0038098Y0384035D01*
X0037945Y0384151D01*
X0037796Y0384271D01*
X0037649Y0384394D01*
X0037506Y0384521D01*
X0037366Y0384651D01*
X0037229Y0384785D01*
X0037095Y0384922D01*
X0036965Y0385062D01*
X0036838Y0385205D01*
X0036715Y0385352D01*
X0036595Y0385501D01*
X0036479Y0385654D01*
X0036367Y0385809D01*
X0036259Y0385967D01*
X0036154Y0386127D01*
X0036054Y0386290D01*
X0035957Y0386455D01*
X0035865Y0386623D01*
X0035777Y0386793D01*
X0035693Y0386965D01*
X0035613Y0387139D01*
X0035538Y0387315D01*
X0035467Y0387493D01*
X0035400Y0387672D01*
X0035338Y0387853D01*
X0035280Y0388036D01*
X0035227Y0388220D01*
X0035178Y0388405D01*
X0035134Y0388591D01*
X0035094Y0388778D01*
X0035059Y0388966D01*
X0035028Y0389156D01*
X0035003Y0389345D01*
X0034982Y0389535D01*
X0034965Y0389726D01*
X0034953Y0389917D01*
X0034946Y0390109D01*
X0034944Y0390300D01*
X0344944Y0390300D02*
X0344946Y0390491D01*
X0344953Y0390683D01*
X0344965Y0390874D01*
X0344982Y0391065D01*
X0345003Y0391255D01*
X0345028Y0391444D01*
X0345059Y0391634D01*
X0345094Y0391822D01*
X0345134Y0392009D01*
X0345178Y0392195D01*
X0345227Y0392380D01*
X0345280Y0392564D01*
X0345338Y0392747D01*
X0345400Y0392928D01*
X0345467Y0393107D01*
X0345538Y0393285D01*
X0345613Y0393461D01*
X0345693Y0393635D01*
X0345777Y0393807D01*
X0345865Y0393977D01*
X0345957Y0394145D01*
X0346054Y0394310D01*
X0346154Y0394473D01*
X0346259Y0394633D01*
X0346367Y0394791D01*
X0346479Y0394946D01*
X0346595Y0395099D01*
X0346715Y0395248D01*
X0346838Y0395395D01*
X0346965Y0395538D01*
X0347095Y0395678D01*
X0347229Y0395815D01*
X0347366Y0395949D01*
X0347506Y0396079D01*
X0347649Y0396206D01*
X0347796Y0396329D01*
X0347945Y0396449D01*
X0348098Y0396565D01*
X0348253Y0396677D01*
X0348411Y0396785D01*
X0348571Y0396890D01*
X0348734Y0396990D01*
X0348899Y0397087D01*
X0349067Y0397179D01*
X0349237Y0397267D01*
X0349409Y0397351D01*
X0349583Y0397431D01*
X0349759Y0397506D01*
X0349937Y0397577D01*
X0350116Y0397644D01*
X0350297Y0397706D01*
X0350480Y0397764D01*
X0350664Y0397817D01*
X0350849Y0397866D01*
X0351035Y0397910D01*
X0351222Y0397950D01*
X0351410Y0397985D01*
X0351600Y0398016D01*
X0351789Y0398041D01*
X0351979Y0398062D01*
X0352170Y0398079D01*
X0352361Y0398091D01*
X0352553Y0398098D01*
X0352744Y0398100D01*
X0352935Y0398098D01*
X0353127Y0398091D01*
X0353318Y0398079D01*
X0353509Y0398062D01*
X0353699Y0398041D01*
X0353888Y0398016D01*
X0354078Y0397985D01*
X0354266Y0397950D01*
X0354453Y0397910D01*
X0354639Y0397866D01*
X0354824Y0397817D01*
X0355008Y0397764D01*
X0355191Y0397706D01*
X0355372Y0397644D01*
X0355551Y0397577D01*
X0355729Y0397506D01*
X0355905Y0397431D01*
X0356079Y0397351D01*
X0356251Y0397267D01*
X0356421Y0397179D01*
X0356589Y0397087D01*
X0356754Y0396990D01*
X0356917Y0396890D01*
X0357077Y0396785D01*
X0357235Y0396677D01*
X0357390Y0396565D01*
X0357543Y0396449D01*
X0357692Y0396329D01*
X0357839Y0396206D01*
X0357982Y0396079D01*
X0358122Y0395949D01*
X0358259Y0395815D01*
X0358393Y0395678D01*
X0358523Y0395538D01*
X0358650Y0395395D01*
X0358773Y0395248D01*
X0358893Y0395099D01*
X0359009Y0394946D01*
X0359121Y0394791D01*
X0359229Y0394633D01*
X0359334Y0394473D01*
X0359434Y0394310D01*
X0359531Y0394145D01*
X0359623Y0393977D01*
X0359711Y0393807D01*
X0359795Y0393635D01*
X0359875Y0393461D01*
X0359950Y0393285D01*
X0360021Y0393107D01*
X0360088Y0392928D01*
X0360150Y0392747D01*
X0360208Y0392564D01*
X0360261Y0392380D01*
X0360310Y0392195D01*
X0360354Y0392009D01*
X0360394Y0391822D01*
X0360429Y0391634D01*
X0360460Y0391444D01*
X0360485Y0391255D01*
X0360506Y0391065D01*
X0360523Y0390874D01*
X0360535Y0390683D01*
X0360542Y0390491D01*
X0360544Y0390300D01*
X0360542Y0390109D01*
X0360535Y0389917D01*
X0360523Y0389726D01*
X0360506Y0389535D01*
X0360485Y0389345D01*
X0360460Y0389156D01*
X0360429Y0388966D01*
X0360394Y0388778D01*
X0360354Y0388591D01*
X0360310Y0388405D01*
X0360261Y0388220D01*
X0360208Y0388036D01*
X0360150Y0387853D01*
X0360088Y0387672D01*
X0360021Y0387493D01*
X0359950Y0387315D01*
X0359875Y0387139D01*
X0359795Y0386965D01*
X0359711Y0386793D01*
X0359623Y0386623D01*
X0359531Y0386455D01*
X0359434Y0386290D01*
X0359334Y0386127D01*
X0359229Y0385967D01*
X0359121Y0385809D01*
X0359009Y0385654D01*
X0358893Y0385501D01*
X0358773Y0385352D01*
X0358650Y0385205D01*
X0358523Y0385062D01*
X0358393Y0384922D01*
X0358259Y0384785D01*
X0358122Y0384651D01*
X0357982Y0384521D01*
X0357839Y0384394D01*
X0357692Y0384271D01*
X0357543Y0384151D01*
X0357390Y0384035D01*
X0357235Y0383923D01*
X0357077Y0383815D01*
X0356917Y0383710D01*
X0356754Y0383610D01*
X0356589Y0383513D01*
X0356421Y0383421D01*
X0356251Y0383333D01*
X0356079Y0383249D01*
X0355905Y0383169D01*
X0355729Y0383094D01*
X0355551Y0383023D01*
X0355372Y0382956D01*
X0355191Y0382894D01*
X0355008Y0382836D01*
X0354824Y0382783D01*
X0354639Y0382734D01*
X0354453Y0382690D01*
X0354266Y0382650D01*
X0354078Y0382615D01*
X0353888Y0382584D01*
X0353699Y0382559D01*
X0353509Y0382538D01*
X0353318Y0382521D01*
X0353127Y0382509D01*
X0352935Y0382502D01*
X0352744Y0382500D01*
X0352553Y0382502D01*
X0352361Y0382509D01*
X0352170Y0382521D01*
X0351979Y0382538D01*
X0351789Y0382559D01*
X0351600Y0382584D01*
X0351410Y0382615D01*
X0351222Y0382650D01*
X0351035Y0382690D01*
X0350849Y0382734D01*
X0350664Y0382783D01*
X0350480Y0382836D01*
X0350297Y0382894D01*
X0350116Y0382956D01*
X0349937Y0383023D01*
X0349759Y0383094D01*
X0349583Y0383169D01*
X0349409Y0383249D01*
X0349237Y0383333D01*
X0349067Y0383421D01*
X0348899Y0383513D01*
X0348734Y0383610D01*
X0348571Y0383710D01*
X0348411Y0383815D01*
X0348253Y0383923D01*
X0348098Y0384035D01*
X0347945Y0384151D01*
X0347796Y0384271D01*
X0347649Y0384394D01*
X0347506Y0384521D01*
X0347366Y0384651D01*
X0347229Y0384785D01*
X0347095Y0384922D01*
X0346965Y0385062D01*
X0346838Y0385205D01*
X0346715Y0385352D01*
X0346595Y0385501D01*
X0346479Y0385654D01*
X0346367Y0385809D01*
X0346259Y0385967D01*
X0346154Y0386127D01*
X0346054Y0386290D01*
X0345957Y0386455D01*
X0345865Y0386623D01*
X0345777Y0386793D01*
X0345693Y0386965D01*
X0345613Y0387139D01*
X0345538Y0387315D01*
X0345467Y0387493D01*
X0345400Y0387672D01*
X0345338Y0387853D01*
X0345280Y0388036D01*
X0345227Y0388220D01*
X0345178Y0388405D01*
X0345134Y0388591D01*
X0345094Y0388778D01*
X0345059Y0388966D01*
X0345028Y0389156D01*
X0345003Y0389345D01*
X0344982Y0389535D01*
X0344965Y0389726D01*
X0344953Y0389917D01*
X0344946Y0390109D01*
X0344944Y0390300D01*
X0426344Y0401300D02*
X0426346Y0401460D01*
X0426352Y0401619D01*
X0426362Y0401778D01*
X0426376Y0401937D01*
X0426394Y0402096D01*
X0426415Y0402254D01*
X0426441Y0402411D01*
X0426471Y0402568D01*
X0426504Y0402724D01*
X0426542Y0402879D01*
X0426583Y0403033D01*
X0426628Y0403186D01*
X0426677Y0403338D01*
X0426730Y0403489D01*
X0426786Y0403638D01*
X0426847Y0403786D01*
X0426910Y0403932D01*
X0426978Y0404077D01*
X0427049Y0404220D01*
X0427123Y0404361D01*
X0427201Y0404500D01*
X0427283Y0404637D01*
X0427368Y0404772D01*
X0427456Y0404905D01*
X0427548Y0405036D01*
X0427642Y0405164D01*
X0427740Y0405290D01*
X0427841Y0405414D01*
X0427945Y0405535D01*
X0428052Y0405653D01*
X0428162Y0405769D01*
X0428275Y0405882D01*
X0428391Y0405992D01*
X0428509Y0406099D01*
X0428630Y0406203D01*
X0428754Y0406304D01*
X0428880Y0406402D01*
X0429008Y0406496D01*
X0429139Y0406588D01*
X0429272Y0406676D01*
X0429407Y0406761D01*
X0429544Y0406843D01*
X0429683Y0406921D01*
X0429824Y0406995D01*
X0429967Y0407066D01*
X0430112Y0407134D01*
X0430258Y0407197D01*
X0430406Y0407258D01*
X0430555Y0407314D01*
X0430706Y0407367D01*
X0430858Y0407416D01*
X0431011Y0407461D01*
X0431165Y0407502D01*
X0431320Y0407540D01*
X0431476Y0407573D01*
X0431633Y0407603D01*
X0431790Y0407629D01*
X0431948Y0407650D01*
X0432107Y0407668D01*
X0432266Y0407682D01*
X0432425Y0407692D01*
X0432584Y0407698D01*
X0432744Y0407700D01*
X0432904Y0407698D01*
X0433063Y0407692D01*
X0433222Y0407682D01*
X0433381Y0407668D01*
X0433540Y0407650D01*
X0433698Y0407629D01*
X0433855Y0407603D01*
X0434012Y0407573D01*
X0434168Y0407540D01*
X0434323Y0407502D01*
X0434477Y0407461D01*
X0434630Y0407416D01*
X0434782Y0407367D01*
X0434933Y0407314D01*
X0435082Y0407258D01*
X0435230Y0407197D01*
X0435376Y0407134D01*
X0435521Y0407066D01*
X0435664Y0406995D01*
X0435805Y0406921D01*
X0435944Y0406843D01*
X0436081Y0406761D01*
X0436216Y0406676D01*
X0436349Y0406588D01*
X0436480Y0406496D01*
X0436608Y0406402D01*
X0436734Y0406304D01*
X0436858Y0406203D01*
X0436979Y0406099D01*
X0437097Y0405992D01*
X0437213Y0405882D01*
X0437326Y0405769D01*
X0437436Y0405653D01*
X0437543Y0405535D01*
X0437647Y0405414D01*
X0437748Y0405290D01*
X0437846Y0405164D01*
X0437940Y0405036D01*
X0438032Y0404905D01*
X0438120Y0404772D01*
X0438205Y0404637D01*
X0438287Y0404500D01*
X0438365Y0404361D01*
X0438439Y0404220D01*
X0438510Y0404077D01*
X0438578Y0403932D01*
X0438641Y0403786D01*
X0438702Y0403638D01*
X0438758Y0403489D01*
X0438811Y0403338D01*
X0438860Y0403186D01*
X0438905Y0403033D01*
X0438946Y0402879D01*
X0438984Y0402724D01*
X0439017Y0402568D01*
X0439047Y0402411D01*
X0439073Y0402254D01*
X0439094Y0402096D01*
X0439112Y0401937D01*
X0439126Y0401778D01*
X0439136Y0401619D01*
X0439142Y0401460D01*
X0439144Y0401300D01*
X0439142Y0401140D01*
X0439136Y0400981D01*
X0439126Y0400822D01*
X0439112Y0400663D01*
X0439094Y0400504D01*
X0439073Y0400346D01*
X0439047Y0400189D01*
X0439017Y0400032D01*
X0438984Y0399876D01*
X0438946Y0399721D01*
X0438905Y0399567D01*
X0438860Y0399414D01*
X0438811Y0399262D01*
X0438758Y0399111D01*
X0438702Y0398962D01*
X0438641Y0398814D01*
X0438578Y0398668D01*
X0438510Y0398523D01*
X0438439Y0398380D01*
X0438365Y0398239D01*
X0438287Y0398100D01*
X0438205Y0397963D01*
X0438120Y0397828D01*
X0438032Y0397695D01*
X0437940Y0397564D01*
X0437846Y0397436D01*
X0437748Y0397310D01*
X0437647Y0397186D01*
X0437543Y0397065D01*
X0437436Y0396947D01*
X0437326Y0396831D01*
X0437213Y0396718D01*
X0437097Y0396608D01*
X0436979Y0396501D01*
X0436858Y0396397D01*
X0436734Y0396296D01*
X0436608Y0396198D01*
X0436480Y0396104D01*
X0436349Y0396012D01*
X0436216Y0395924D01*
X0436081Y0395839D01*
X0435944Y0395757D01*
X0435805Y0395679D01*
X0435664Y0395605D01*
X0435521Y0395534D01*
X0435376Y0395466D01*
X0435230Y0395403D01*
X0435082Y0395342D01*
X0434933Y0395286D01*
X0434782Y0395233D01*
X0434630Y0395184D01*
X0434477Y0395139D01*
X0434323Y0395098D01*
X0434168Y0395060D01*
X0434012Y0395027D01*
X0433855Y0394997D01*
X0433698Y0394971D01*
X0433540Y0394950D01*
X0433381Y0394932D01*
X0433222Y0394918D01*
X0433063Y0394908D01*
X0432904Y0394902D01*
X0432744Y0394900D01*
X0432584Y0394902D01*
X0432425Y0394908D01*
X0432266Y0394918D01*
X0432107Y0394932D01*
X0431948Y0394950D01*
X0431790Y0394971D01*
X0431633Y0394997D01*
X0431476Y0395027D01*
X0431320Y0395060D01*
X0431165Y0395098D01*
X0431011Y0395139D01*
X0430858Y0395184D01*
X0430706Y0395233D01*
X0430555Y0395286D01*
X0430406Y0395342D01*
X0430258Y0395403D01*
X0430112Y0395466D01*
X0429967Y0395534D01*
X0429824Y0395605D01*
X0429683Y0395679D01*
X0429544Y0395757D01*
X0429407Y0395839D01*
X0429272Y0395924D01*
X0429139Y0396012D01*
X0429008Y0396104D01*
X0428880Y0396198D01*
X0428754Y0396296D01*
X0428630Y0396397D01*
X0428509Y0396501D01*
X0428391Y0396608D01*
X0428275Y0396718D01*
X0428162Y0396831D01*
X0428052Y0396947D01*
X0427945Y0397065D01*
X0427841Y0397186D01*
X0427740Y0397310D01*
X0427642Y0397436D01*
X0427548Y0397564D01*
X0427456Y0397695D01*
X0427368Y0397828D01*
X0427283Y0397963D01*
X0427201Y0398100D01*
X0427123Y0398239D01*
X0427049Y0398380D01*
X0426978Y0398523D01*
X0426910Y0398668D01*
X0426847Y0398814D01*
X0426786Y0398962D01*
X0426730Y0399111D01*
X0426677Y0399262D01*
X0426628Y0399414D01*
X0426583Y0399567D01*
X0426542Y0399721D01*
X0426504Y0399876D01*
X0426471Y0400032D01*
X0426441Y0400189D01*
X0426415Y0400346D01*
X0426394Y0400504D01*
X0426376Y0400663D01*
X0426362Y0400822D01*
X0426352Y0400981D01*
X0426346Y0401140D01*
X0426344Y0401300D01*
X0426344Y0351300D02*
X0426346Y0351460D01*
X0426352Y0351619D01*
X0426362Y0351778D01*
X0426376Y0351937D01*
X0426394Y0352096D01*
X0426415Y0352254D01*
X0426441Y0352411D01*
X0426471Y0352568D01*
X0426504Y0352724D01*
X0426542Y0352879D01*
X0426583Y0353033D01*
X0426628Y0353186D01*
X0426677Y0353338D01*
X0426730Y0353489D01*
X0426786Y0353638D01*
X0426847Y0353786D01*
X0426910Y0353932D01*
X0426978Y0354077D01*
X0427049Y0354220D01*
X0427123Y0354361D01*
X0427201Y0354500D01*
X0427283Y0354637D01*
X0427368Y0354772D01*
X0427456Y0354905D01*
X0427548Y0355036D01*
X0427642Y0355164D01*
X0427740Y0355290D01*
X0427841Y0355414D01*
X0427945Y0355535D01*
X0428052Y0355653D01*
X0428162Y0355769D01*
X0428275Y0355882D01*
X0428391Y0355992D01*
X0428509Y0356099D01*
X0428630Y0356203D01*
X0428754Y0356304D01*
X0428880Y0356402D01*
X0429008Y0356496D01*
X0429139Y0356588D01*
X0429272Y0356676D01*
X0429407Y0356761D01*
X0429544Y0356843D01*
X0429683Y0356921D01*
X0429824Y0356995D01*
X0429967Y0357066D01*
X0430112Y0357134D01*
X0430258Y0357197D01*
X0430406Y0357258D01*
X0430555Y0357314D01*
X0430706Y0357367D01*
X0430858Y0357416D01*
X0431011Y0357461D01*
X0431165Y0357502D01*
X0431320Y0357540D01*
X0431476Y0357573D01*
X0431633Y0357603D01*
X0431790Y0357629D01*
X0431948Y0357650D01*
X0432107Y0357668D01*
X0432266Y0357682D01*
X0432425Y0357692D01*
X0432584Y0357698D01*
X0432744Y0357700D01*
X0432904Y0357698D01*
X0433063Y0357692D01*
X0433222Y0357682D01*
X0433381Y0357668D01*
X0433540Y0357650D01*
X0433698Y0357629D01*
X0433855Y0357603D01*
X0434012Y0357573D01*
X0434168Y0357540D01*
X0434323Y0357502D01*
X0434477Y0357461D01*
X0434630Y0357416D01*
X0434782Y0357367D01*
X0434933Y0357314D01*
X0435082Y0357258D01*
X0435230Y0357197D01*
X0435376Y0357134D01*
X0435521Y0357066D01*
X0435664Y0356995D01*
X0435805Y0356921D01*
X0435944Y0356843D01*
X0436081Y0356761D01*
X0436216Y0356676D01*
X0436349Y0356588D01*
X0436480Y0356496D01*
X0436608Y0356402D01*
X0436734Y0356304D01*
X0436858Y0356203D01*
X0436979Y0356099D01*
X0437097Y0355992D01*
X0437213Y0355882D01*
X0437326Y0355769D01*
X0437436Y0355653D01*
X0437543Y0355535D01*
X0437647Y0355414D01*
X0437748Y0355290D01*
X0437846Y0355164D01*
X0437940Y0355036D01*
X0438032Y0354905D01*
X0438120Y0354772D01*
X0438205Y0354637D01*
X0438287Y0354500D01*
X0438365Y0354361D01*
X0438439Y0354220D01*
X0438510Y0354077D01*
X0438578Y0353932D01*
X0438641Y0353786D01*
X0438702Y0353638D01*
X0438758Y0353489D01*
X0438811Y0353338D01*
X0438860Y0353186D01*
X0438905Y0353033D01*
X0438946Y0352879D01*
X0438984Y0352724D01*
X0439017Y0352568D01*
X0439047Y0352411D01*
X0439073Y0352254D01*
X0439094Y0352096D01*
X0439112Y0351937D01*
X0439126Y0351778D01*
X0439136Y0351619D01*
X0439142Y0351460D01*
X0439144Y0351300D01*
X0439142Y0351140D01*
X0439136Y0350981D01*
X0439126Y0350822D01*
X0439112Y0350663D01*
X0439094Y0350504D01*
X0439073Y0350346D01*
X0439047Y0350189D01*
X0439017Y0350032D01*
X0438984Y0349876D01*
X0438946Y0349721D01*
X0438905Y0349567D01*
X0438860Y0349414D01*
X0438811Y0349262D01*
X0438758Y0349111D01*
X0438702Y0348962D01*
X0438641Y0348814D01*
X0438578Y0348668D01*
X0438510Y0348523D01*
X0438439Y0348380D01*
X0438365Y0348239D01*
X0438287Y0348100D01*
X0438205Y0347963D01*
X0438120Y0347828D01*
X0438032Y0347695D01*
X0437940Y0347564D01*
X0437846Y0347436D01*
X0437748Y0347310D01*
X0437647Y0347186D01*
X0437543Y0347065D01*
X0437436Y0346947D01*
X0437326Y0346831D01*
X0437213Y0346718D01*
X0437097Y0346608D01*
X0436979Y0346501D01*
X0436858Y0346397D01*
X0436734Y0346296D01*
X0436608Y0346198D01*
X0436480Y0346104D01*
X0436349Y0346012D01*
X0436216Y0345924D01*
X0436081Y0345839D01*
X0435944Y0345757D01*
X0435805Y0345679D01*
X0435664Y0345605D01*
X0435521Y0345534D01*
X0435376Y0345466D01*
X0435230Y0345403D01*
X0435082Y0345342D01*
X0434933Y0345286D01*
X0434782Y0345233D01*
X0434630Y0345184D01*
X0434477Y0345139D01*
X0434323Y0345098D01*
X0434168Y0345060D01*
X0434012Y0345027D01*
X0433855Y0344997D01*
X0433698Y0344971D01*
X0433540Y0344950D01*
X0433381Y0344932D01*
X0433222Y0344918D01*
X0433063Y0344908D01*
X0432904Y0344902D01*
X0432744Y0344900D01*
X0432584Y0344902D01*
X0432425Y0344908D01*
X0432266Y0344918D01*
X0432107Y0344932D01*
X0431948Y0344950D01*
X0431790Y0344971D01*
X0431633Y0344997D01*
X0431476Y0345027D01*
X0431320Y0345060D01*
X0431165Y0345098D01*
X0431011Y0345139D01*
X0430858Y0345184D01*
X0430706Y0345233D01*
X0430555Y0345286D01*
X0430406Y0345342D01*
X0430258Y0345403D01*
X0430112Y0345466D01*
X0429967Y0345534D01*
X0429824Y0345605D01*
X0429683Y0345679D01*
X0429544Y0345757D01*
X0429407Y0345839D01*
X0429272Y0345924D01*
X0429139Y0346012D01*
X0429008Y0346104D01*
X0428880Y0346198D01*
X0428754Y0346296D01*
X0428630Y0346397D01*
X0428509Y0346501D01*
X0428391Y0346608D01*
X0428275Y0346718D01*
X0428162Y0346831D01*
X0428052Y0346947D01*
X0427945Y0347065D01*
X0427841Y0347186D01*
X0427740Y0347310D01*
X0427642Y0347436D01*
X0427548Y0347564D01*
X0427456Y0347695D01*
X0427368Y0347828D01*
X0427283Y0347963D01*
X0427201Y0348100D01*
X0427123Y0348239D01*
X0427049Y0348380D01*
X0426978Y0348523D01*
X0426910Y0348668D01*
X0426847Y0348814D01*
X0426786Y0348962D01*
X0426730Y0349111D01*
X0426677Y0349262D01*
X0426628Y0349414D01*
X0426583Y0349567D01*
X0426542Y0349721D01*
X0426504Y0349876D01*
X0426471Y0350032D01*
X0426441Y0350189D01*
X0426415Y0350346D01*
X0426394Y0350504D01*
X0426376Y0350663D01*
X0426362Y0350822D01*
X0426352Y0350981D01*
X0426346Y0351140D01*
X0426344Y0351300D01*
X0426344Y0323300D02*
X0426346Y0323460D01*
X0426352Y0323619D01*
X0426362Y0323778D01*
X0426376Y0323937D01*
X0426394Y0324096D01*
X0426415Y0324254D01*
X0426441Y0324411D01*
X0426471Y0324568D01*
X0426504Y0324724D01*
X0426542Y0324879D01*
X0426583Y0325033D01*
X0426628Y0325186D01*
X0426677Y0325338D01*
X0426730Y0325489D01*
X0426786Y0325638D01*
X0426847Y0325786D01*
X0426910Y0325932D01*
X0426978Y0326077D01*
X0427049Y0326220D01*
X0427123Y0326361D01*
X0427201Y0326500D01*
X0427283Y0326637D01*
X0427368Y0326772D01*
X0427456Y0326905D01*
X0427548Y0327036D01*
X0427642Y0327164D01*
X0427740Y0327290D01*
X0427841Y0327414D01*
X0427945Y0327535D01*
X0428052Y0327653D01*
X0428162Y0327769D01*
X0428275Y0327882D01*
X0428391Y0327992D01*
X0428509Y0328099D01*
X0428630Y0328203D01*
X0428754Y0328304D01*
X0428880Y0328402D01*
X0429008Y0328496D01*
X0429139Y0328588D01*
X0429272Y0328676D01*
X0429407Y0328761D01*
X0429544Y0328843D01*
X0429683Y0328921D01*
X0429824Y0328995D01*
X0429967Y0329066D01*
X0430112Y0329134D01*
X0430258Y0329197D01*
X0430406Y0329258D01*
X0430555Y0329314D01*
X0430706Y0329367D01*
X0430858Y0329416D01*
X0431011Y0329461D01*
X0431165Y0329502D01*
X0431320Y0329540D01*
X0431476Y0329573D01*
X0431633Y0329603D01*
X0431790Y0329629D01*
X0431948Y0329650D01*
X0432107Y0329668D01*
X0432266Y0329682D01*
X0432425Y0329692D01*
X0432584Y0329698D01*
X0432744Y0329700D01*
X0432904Y0329698D01*
X0433063Y0329692D01*
X0433222Y0329682D01*
X0433381Y0329668D01*
X0433540Y0329650D01*
X0433698Y0329629D01*
X0433855Y0329603D01*
X0434012Y0329573D01*
X0434168Y0329540D01*
X0434323Y0329502D01*
X0434477Y0329461D01*
X0434630Y0329416D01*
X0434782Y0329367D01*
X0434933Y0329314D01*
X0435082Y0329258D01*
X0435230Y0329197D01*
X0435376Y0329134D01*
X0435521Y0329066D01*
X0435664Y0328995D01*
X0435805Y0328921D01*
X0435944Y0328843D01*
X0436081Y0328761D01*
X0436216Y0328676D01*
X0436349Y0328588D01*
X0436480Y0328496D01*
X0436608Y0328402D01*
X0436734Y0328304D01*
X0436858Y0328203D01*
X0436979Y0328099D01*
X0437097Y0327992D01*
X0437213Y0327882D01*
X0437326Y0327769D01*
X0437436Y0327653D01*
X0437543Y0327535D01*
X0437647Y0327414D01*
X0437748Y0327290D01*
X0437846Y0327164D01*
X0437940Y0327036D01*
X0438032Y0326905D01*
X0438120Y0326772D01*
X0438205Y0326637D01*
X0438287Y0326500D01*
X0438365Y0326361D01*
X0438439Y0326220D01*
X0438510Y0326077D01*
X0438578Y0325932D01*
X0438641Y0325786D01*
X0438702Y0325638D01*
X0438758Y0325489D01*
X0438811Y0325338D01*
X0438860Y0325186D01*
X0438905Y0325033D01*
X0438946Y0324879D01*
X0438984Y0324724D01*
X0439017Y0324568D01*
X0439047Y0324411D01*
X0439073Y0324254D01*
X0439094Y0324096D01*
X0439112Y0323937D01*
X0439126Y0323778D01*
X0439136Y0323619D01*
X0439142Y0323460D01*
X0439144Y0323300D01*
X0439142Y0323140D01*
X0439136Y0322981D01*
X0439126Y0322822D01*
X0439112Y0322663D01*
X0439094Y0322504D01*
X0439073Y0322346D01*
X0439047Y0322189D01*
X0439017Y0322032D01*
X0438984Y0321876D01*
X0438946Y0321721D01*
X0438905Y0321567D01*
X0438860Y0321414D01*
X0438811Y0321262D01*
X0438758Y0321111D01*
X0438702Y0320962D01*
X0438641Y0320814D01*
X0438578Y0320668D01*
X0438510Y0320523D01*
X0438439Y0320380D01*
X0438365Y0320239D01*
X0438287Y0320100D01*
X0438205Y0319963D01*
X0438120Y0319828D01*
X0438032Y0319695D01*
X0437940Y0319564D01*
X0437846Y0319436D01*
X0437748Y0319310D01*
X0437647Y0319186D01*
X0437543Y0319065D01*
X0437436Y0318947D01*
X0437326Y0318831D01*
X0437213Y0318718D01*
X0437097Y0318608D01*
X0436979Y0318501D01*
X0436858Y0318397D01*
X0436734Y0318296D01*
X0436608Y0318198D01*
X0436480Y0318104D01*
X0436349Y0318012D01*
X0436216Y0317924D01*
X0436081Y0317839D01*
X0435944Y0317757D01*
X0435805Y0317679D01*
X0435664Y0317605D01*
X0435521Y0317534D01*
X0435376Y0317466D01*
X0435230Y0317403D01*
X0435082Y0317342D01*
X0434933Y0317286D01*
X0434782Y0317233D01*
X0434630Y0317184D01*
X0434477Y0317139D01*
X0434323Y0317098D01*
X0434168Y0317060D01*
X0434012Y0317027D01*
X0433855Y0316997D01*
X0433698Y0316971D01*
X0433540Y0316950D01*
X0433381Y0316932D01*
X0433222Y0316918D01*
X0433063Y0316908D01*
X0432904Y0316902D01*
X0432744Y0316900D01*
X0432584Y0316902D01*
X0432425Y0316908D01*
X0432266Y0316918D01*
X0432107Y0316932D01*
X0431948Y0316950D01*
X0431790Y0316971D01*
X0431633Y0316997D01*
X0431476Y0317027D01*
X0431320Y0317060D01*
X0431165Y0317098D01*
X0431011Y0317139D01*
X0430858Y0317184D01*
X0430706Y0317233D01*
X0430555Y0317286D01*
X0430406Y0317342D01*
X0430258Y0317403D01*
X0430112Y0317466D01*
X0429967Y0317534D01*
X0429824Y0317605D01*
X0429683Y0317679D01*
X0429544Y0317757D01*
X0429407Y0317839D01*
X0429272Y0317924D01*
X0429139Y0318012D01*
X0429008Y0318104D01*
X0428880Y0318198D01*
X0428754Y0318296D01*
X0428630Y0318397D01*
X0428509Y0318501D01*
X0428391Y0318608D01*
X0428275Y0318718D01*
X0428162Y0318831D01*
X0428052Y0318947D01*
X0427945Y0319065D01*
X0427841Y0319186D01*
X0427740Y0319310D01*
X0427642Y0319436D01*
X0427548Y0319564D01*
X0427456Y0319695D01*
X0427368Y0319828D01*
X0427283Y0319963D01*
X0427201Y0320100D01*
X0427123Y0320239D01*
X0427049Y0320380D01*
X0426978Y0320523D01*
X0426910Y0320668D01*
X0426847Y0320814D01*
X0426786Y0320962D01*
X0426730Y0321111D01*
X0426677Y0321262D01*
X0426628Y0321414D01*
X0426583Y0321567D01*
X0426542Y0321721D01*
X0426504Y0321876D01*
X0426471Y0322032D01*
X0426441Y0322189D01*
X0426415Y0322346D01*
X0426394Y0322504D01*
X0426376Y0322663D01*
X0426362Y0322822D01*
X0426352Y0322981D01*
X0426346Y0323140D01*
X0426344Y0323300D01*
X0426344Y0273300D02*
X0426346Y0273460D01*
X0426352Y0273619D01*
X0426362Y0273778D01*
X0426376Y0273937D01*
X0426394Y0274096D01*
X0426415Y0274254D01*
X0426441Y0274411D01*
X0426471Y0274568D01*
X0426504Y0274724D01*
X0426542Y0274879D01*
X0426583Y0275033D01*
X0426628Y0275186D01*
X0426677Y0275338D01*
X0426730Y0275489D01*
X0426786Y0275638D01*
X0426847Y0275786D01*
X0426910Y0275932D01*
X0426978Y0276077D01*
X0427049Y0276220D01*
X0427123Y0276361D01*
X0427201Y0276500D01*
X0427283Y0276637D01*
X0427368Y0276772D01*
X0427456Y0276905D01*
X0427548Y0277036D01*
X0427642Y0277164D01*
X0427740Y0277290D01*
X0427841Y0277414D01*
X0427945Y0277535D01*
X0428052Y0277653D01*
X0428162Y0277769D01*
X0428275Y0277882D01*
X0428391Y0277992D01*
X0428509Y0278099D01*
X0428630Y0278203D01*
X0428754Y0278304D01*
X0428880Y0278402D01*
X0429008Y0278496D01*
X0429139Y0278588D01*
X0429272Y0278676D01*
X0429407Y0278761D01*
X0429544Y0278843D01*
X0429683Y0278921D01*
X0429824Y0278995D01*
X0429967Y0279066D01*
X0430112Y0279134D01*
X0430258Y0279197D01*
X0430406Y0279258D01*
X0430555Y0279314D01*
X0430706Y0279367D01*
X0430858Y0279416D01*
X0431011Y0279461D01*
X0431165Y0279502D01*
X0431320Y0279540D01*
X0431476Y0279573D01*
X0431633Y0279603D01*
X0431790Y0279629D01*
X0431948Y0279650D01*
X0432107Y0279668D01*
X0432266Y0279682D01*
X0432425Y0279692D01*
X0432584Y0279698D01*
X0432744Y0279700D01*
X0432904Y0279698D01*
X0433063Y0279692D01*
X0433222Y0279682D01*
X0433381Y0279668D01*
X0433540Y0279650D01*
X0433698Y0279629D01*
X0433855Y0279603D01*
X0434012Y0279573D01*
X0434168Y0279540D01*
X0434323Y0279502D01*
X0434477Y0279461D01*
X0434630Y0279416D01*
X0434782Y0279367D01*
X0434933Y0279314D01*
X0435082Y0279258D01*
X0435230Y0279197D01*
X0435376Y0279134D01*
X0435521Y0279066D01*
X0435664Y0278995D01*
X0435805Y0278921D01*
X0435944Y0278843D01*
X0436081Y0278761D01*
X0436216Y0278676D01*
X0436349Y0278588D01*
X0436480Y0278496D01*
X0436608Y0278402D01*
X0436734Y0278304D01*
X0436858Y0278203D01*
X0436979Y0278099D01*
X0437097Y0277992D01*
X0437213Y0277882D01*
X0437326Y0277769D01*
X0437436Y0277653D01*
X0437543Y0277535D01*
X0437647Y0277414D01*
X0437748Y0277290D01*
X0437846Y0277164D01*
X0437940Y0277036D01*
X0438032Y0276905D01*
X0438120Y0276772D01*
X0438205Y0276637D01*
X0438287Y0276500D01*
X0438365Y0276361D01*
X0438439Y0276220D01*
X0438510Y0276077D01*
X0438578Y0275932D01*
X0438641Y0275786D01*
X0438702Y0275638D01*
X0438758Y0275489D01*
X0438811Y0275338D01*
X0438860Y0275186D01*
X0438905Y0275033D01*
X0438946Y0274879D01*
X0438984Y0274724D01*
X0439017Y0274568D01*
X0439047Y0274411D01*
X0439073Y0274254D01*
X0439094Y0274096D01*
X0439112Y0273937D01*
X0439126Y0273778D01*
X0439136Y0273619D01*
X0439142Y0273460D01*
X0439144Y0273300D01*
X0439142Y0273140D01*
X0439136Y0272981D01*
X0439126Y0272822D01*
X0439112Y0272663D01*
X0439094Y0272504D01*
X0439073Y0272346D01*
X0439047Y0272189D01*
X0439017Y0272032D01*
X0438984Y0271876D01*
X0438946Y0271721D01*
X0438905Y0271567D01*
X0438860Y0271414D01*
X0438811Y0271262D01*
X0438758Y0271111D01*
X0438702Y0270962D01*
X0438641Y0270814D01*
X0438578Y0270668D01*
X0438510Y0270523D01*
X0438439Y0270380D01*
X0438365Y0270239D01*
X0438287Y0270100D01*
X0438205Y0269963D01*
X0438120Y0269828D01*
X0438032Y0269695D01*
X0437940Y0269564D01*
X0437846Y0269436D01*
X0437748Y0269310D01*
X0437647Y0269186D01*
X0437543Y0269065D01*
X0437436Y0268947D01*
X0437326Y0268831D01*
X0437213Y0268718D01*
X0437097Y0268608D01*
X0436979Y0268501D01*
X0436858Y0268397D01*
X0436734Y0268296D01*
X0436608Y0268198D01*
X0436480Y0268104D01*
X0436349Y0268012D01*
X0436216Y0267924D01*
X0436081Y0267839D01*
X0435944Y0267757D01*
X0435805Y0267679D01*
X0435664Y0267605D01*
X0435521Y0267534D01*
X0435376Y0267466D01*
X0435230Y0267403D01*
X0435082Y0267342D01*
X0434933Y0267286D01*
X0434782Y0267233D01*
X0434630Y0267184D01*
X0434477Y0267139D01*
X0434323Y0267098D01*
X0434168Y0267060D01*
X0434012Y0267027D01*
X0433855Y0266997D01*
X0433698Y0266971D01*
X0433540Y0266950D01*
X0433381Y0266932D01*
X0433222Y0266918D01*
X0433063Y0266908D01*
X0432904Y0266902D01*
X0432744Y0266900D01*
X0432584Y0266902D01*
X0432425Y0266908D01*
X0432266Y0266918D01*
X0432107Y0266932D01*
X0431948Y0266950D01*
X0431790Y0266971D01*
X0431633Y0266997D01*
X0431476Y0267027D01*
X0431320Y0267060D01*
X0431165Y0267098D01*
X0431011Y0267139D01*
X0430858Y0267184D01*
X0430706Y0267233D01*
X0430555Y0267286D01*
X0430406Y0267342D01*
X0430258Y0267403D01*
X0430112Y0267466D01*
X0429967Y0267534D01*
X0429824Y0267605D01*
X0429683Y0267679D01*
X0429544Y0267757D01*
X0429407Y0267839D01*
X0429272Y0267924D01*
X0429139Y0268012D01*
X0429008Y0268104D01*
X0428880Y0268198D01*
X0428754Y0268296D01*
X0428630Y0268397D01*
X0428509Y0268501D01*
X0428391Y0268608D01*
X0428275Y0268718D01*
X0428162Y0268831D01*
X0428052Y0268947D01*
X0427945Y0269065D01*
X0427841Y0269186D01*
X0427740Y0269310D01*
X0427642Y0269436D01*
X0427548Y0269564D01*
X0427456Y0269695D01*
X0427368Y0269828D01*
X0427283Y0269963D01*
X0427201Y0270100D01*
X0427123Y0270239D01*
X0427049Y0270380D01*
X0426978Y0270523D01*
X0426910Y0270668D01*
X0426847Y0270814D01*
X0426786Y0270962D01*
X0426730Y0271111D01*
X0426677Y0271262D01*
X0426628Y0271414D01*
X0426583Y0271567D01*
X0426542Y0271721D01*
X0426504Y0271876D01*
X0426471Y0272032D01*
X0426441Y0272189D01*
X0426415Y0272346D01*
X0426394Y0272504D01*
X0426376Y0272663D01*
X0426362Y0272822D01*
X0426352Y0272981D01*
X0426346Y0273140D01*
X0426344Y0273300D01*
X0344944Y0150300D02*
X0344946Y0150491D01*
X0344953Y0150683D01*
X0344965Y0150874D01*
X0344982Y0151065D01*
X0345003Y0151255D01*
X0345028Y0151444D01*
X0345059Y0151634D01*
X0345094Y0151822D01*
X0345134Y0152009D01*
X0345178Y0152195D01*
X0345227Y0152380D01*
X0345280Y0152564D01*
X0345338Y0152747D01*
X0345400Y0152928D01*
X0345467Y0153107D01*
X0345538Y0153285D01*
X0345613Y0153461D01*
X0345693Y0153635D01*
X0345777Y0153807D01*
X0345865Y0153977D01*
X0345957Y0154145D01*
X0346054Y0154310D01*
X0346154Y0154473D01*
X0346259Y0154633D01*
X0346367Y0154791D01*
X0346479Y0154946D01*
X0346595Y0155099D01*
X0346715Y0155248D01*
X0346838Y0155395D01*
X0346965Y0155538D01*
X0347095Y0155678D01*
X0347229Y0155815D01*
X0347366Y0155949D01*
X0347506Y0156079D01*
X0347649Y0156206D01*
X0347796Y0156329D01*
X0347945Y0156449D01*
X0348098Y0156565D01*
X0348253Y0156677D01*
X0348411Y0156785D01*
X0348571Y0156890D01*
X0348734Y0156990D01*
X0348899Y0157087D01*
X0349067Y0157179D01*
X0349237Y0157267D01*
X0349409Y0157351D01*
X0349583Y0157431D01*
X0349759Y0157506D01*
X0349937Y0157577D01*
X0350116Y0157644D01*
X0350297Y0157706D01*
X0350480Y0157764D01*
X0350664Y0157817D01*
X0350849Y0157866D01*
X0351035Y0157910D01*
X0351222Y0157950D01*
X0351410Y0157985D01*
X0351600Y0158016D01*
X0351789Y0158041D01*
X0351979Y0158062D01*
X0352170Y0158079D01*
X0352361Y0158091D01*
X0352553Y0158098D01*
X0352744Y0158100D01*
X0352935Y0158098D01*
X0353127Y0158091D01*
X0353318Y0158079D01*
X0353509Y0158062D01*
X0353699Y0158041D01*
X0353888Y0158016D01*
X0354078Y0157985D01*
X0354266Y0157950D01*
X0354453Y0157910D01*
X0354639Y0157866D01*
X0354824Y0157817D01*
X0355008Y0157764D01*
X0355191Y0157706D01*
X0355372Y0157644D01*
X0355551Y0157577D01*
X0355729Y0157506D01*
X0355905Y0157431D01*
X0356079Y0157351D01*
X0356251Y0157267D01*
X0356421Y0157179D01*
X0356589Y0157087D01*
X0356754Y0156990D01*
X0356917Y0156890D01*
X0357077Y0156785D01*
X0357235Y0156677D01*
X0357390Y0156565D01*
X0357543Y0156449D01*
X0357692Y0156329D01*
X0357839Y0156206D01*
X0357982Y0156079D01*
X0358122Y0155949D01*
X0358259Y0155815D01*
X0358393Y0155678D01*
X0358523Y0155538D01*
X0358650Y0155395D01*
X0358773Y0155248D01*
X0358893Y0155099D01*
X0359009Y0154946D01*
X0359121Y0154791D01*
X0359229Y0154633D01*
X0359334Y0154473D01*
X0359434Y0154310D01*
X0359531Y0154145D01*
X0359623Y0153977D01*
X0359711Y0153807D01*
X0359795Y0153635D01*
X0359875Y0153461D01*
X0359950Y0153285D01*
X0360021Y0153107D01*
X0360088Y0152928D01*
X0360150Y0152747D01*
X0360208Y0152564D01*
X0360261Y0152380D01*
X0360310Y0152195D01*
X0360354Y0152009D01*
X0360394Y0151822D01*
X0360429Y0151634D01*
X0360460Y0151444D01*
X0360485Y0151255D01*
X0360506Y0151065D01*
X0360523Y0150874D01*
X0360535Y0150683D01*
X0360542Y0150491D01*
X0360544Y0150300D01*
X0360542Y0150109D01*
X0360535Y0149917D01*
X0360523Y0149726D01*
X0360506Y0149535D01*
X0360485Y0149345D01*
X0360460Y0149156D01*
X0360429Y0148966D01*
X0360394Y0148778D01*
X0360354Y0148591D01*
X0360310Y0148405D01*
X0360261Y0148220D01*
X0360208Y0148036D01*
X0360150Y0147853D01*
X0360088Y0147672D01*
X0360021Y0147493D01*
X0359950Y0147315D01*
X0359875Y0147139D01*
X0359795Y0146965D01*
X0359711Y0146793D01*
X0359623Y0146623D01*
X0359531Y0146455D01*
X0359434Y0146290D01*
X0359334Y0146127D01*
X0359229Y0145967D01*
X0359121Y0145809D01*
X0359009Y0145654D01*
X0358893Y0145501D01*
X0358773Y0145352D01*
X0358650Y0145205D01*
X0358523Y0145062D01*
X0358393Y0144922D01*
X0358259Y0144785D01*
X0358122Y0144651D01*
X0357982Y0144521D01*
X0357839Y0144394D01*
X0357692Y0144271D01*
X0357543Y0144151D01*
X0357390Y0144035D01*
X0357235Y0143923D01*
X0357077Y0143815D01*
X0356917Y0143710D01*
X0356754Y0143610D01*
X0356589Y0143513D01*
X0356421Y0143421D01*
X0356251Y0143333D01*
X0356079Y0143249D01*
X0355905Y0143169D01*
X0355729Y0143094D01*
X0355551Y0143023D01*
X0355372Y0142956D01*
X0355191Y0142894D01*
X0355008Y0142836D01*
X0354824Y0142783D01*
X0354639Y0142734D01*
X0354453Y0142690D01*
X0354266Y0142650D01*
X0354078Y0142615D01*
X0353888Y0142584D01*
X0353699Y0142559D01*
X0353509Y0142538D01*
X0353318Y0142521D01*
X0353127Y0142509D01*
X0352935Y0142502D01*
X0352744Y0142500D01*
X0352553Y0142502D01*
X0352361Y0142509D01*
X0352170Y0142521D01*
X0351979Y0142538D01*
X0351789Y0142559D01*
X0351600Y0142584D01*
X0351410Y0142615D01*
X0351222Y0142650D01*
X0351035Y0142690D01*
X0350849Y0142734D01*
X0350664Y0142783D01*
X0350480Y0142836D01*
X0350297Y0142894D01*
X0350116Y0142956D01*
X0349937Y0143023D01*
X0349759Y0143094D01*
X0349583Y0143169D01*
X0349409Y0143249D01*
X0349237Y0143333D01*
X0349067Y0143421D01*
X0348899Y0143513D01*
X0348734Y0143610D01*
X0348571Y0143710D01*
X0348411Y0143815D01*
X0348253Y0143923D01*
X0348098Y0144035D01*
X0347945Y0144151D01*
X0347796Y0144271D01*
X0347649Y0144394D01*
X0347506Y0144521D01*
X0347366Y0144651D01*
X0347229Y0144785D01*
X0347095Y0144922D01*
X0346965Y0145062D01*
X0346838Y0145205D01*
X0346715Y0145352D01*
X0346595Y0145501D01*
X0346479Y0145654D01*
X0346367Y0145809D01*
X0346259Y0145967D01*
X0346154Y0146127D01*
X0346054Y0146290D01*
X0345957Y0146455D01*
X0345865Y0146623D01*
X0345777Y0146793D01*
X0345693Y0146965D01*
X0345613Y0147139D01*
X0345538Y0147315D01*
X0345467Y0147493D01*
X0345400Y0147672D01*
X0345338Y0147853D01*
X0345280Y0148036D01*
X0345227Y0148220D01*
X0345178Y0148405D01*
X0345134Y0148591D01*
X0345094Y0148778D01*
X0345059Y0148966D01*
X0345028Y0149156D01*
X0345003Y0149345D01*
X0344982Y0149535D01*
X0344965Y0149726D01*
X0344953Y0149917D01*
X0344946Y0150109D01*
X0344944Y0150300D01*
D11*
X0258000Y0116400D02*
X0258000Y0104900D01*
X0258000Y0093400D01*
X0258000Y0081900D01*
X0258000Y0070400D01*
X0258000Y0058900D01*
X0258000Y0047400D01*
X0258000Y0035900D01*
X0258000Y0024400D01*
X0258000Y0012900D01*
X0258000Y0001400D01*
X0189000Y0001400D01*
X0189000Y0012900D01*
X0258000Y0012900D01*
X0249645Y0015300D02*
X0249645Y0018603D01*
X0248544Y0019704D01*
X0247443Y0018603D01*
X0247443Y0015300D01*
X0245241Y0015300D02*
X0245241Y0019704D01*
X0246342Y0019704D01*
X0247443Y0018603D01*
X0243199Y0018603D02*
X0242099Y0019704D01*
X0240998Y0018603D01*
X0240998Y0015300D01*
X0243199Y0015300D02*
X0243199Y0018603D01*
X0240998Y0018603D02*
X0239897Y0019704D01*
X0238796Y0019704D01*
X0238796Y0015300D01*
X0236754Y0016401D02*
X0235653Y0015300D01*
X0233451Y0015300D01*
X0232350Y0016401D01*
X0230308Y0016401D02*
X0230308Y0020805D01*
X0225905Y0016401D01*
X0227006Y0015300D01*
X0229208Y0015300D01*
X0230308Y0016401D01*
X0232350Y0018603D02*
X0234552Y0019704D01*
X0235653Y0019704D01*
X0236754Y0018603D01*
X0236754Y0016401D01*
X0232350Y0018603D02*
X0232350Y0021906D01*
X0236754Y0021906D01*
X0235653Y0026800D02*
X0233451Y0026800D01*
X0232350Y0027901D01*
X0230308Y0027901D02*
X0230308Y0032305D01*
X0225905Y0027901D01*
X0227006Y0026800D01*
X0229208Y0026800D01*
X0230308Y0027901D01*
X0232350Y0030103D02*
X0234552Y0031204D01*
X0235653Y0031204D01*
X0236754Y0030103D01*
X0236754Y0027901D01*
X0235653Y0026800D01*
X0238796Y0026800D02*
X0238796Y0031204D01*
X0239897Y0031204D01*
X0240998Y0030103D01*
X0242099Y0031204D01*
X0243199Y0030103D01*
X0243199Y0026800D01*
X0245241Y0026800D02*
X0245241Y0031204D01*
X0246342Y0031204D01*
X0247443Y0030103D01*
X0248544Y0031204D01*
X0249645Y0030103D01*
X0249645Y0026800D01*
X0247443Y0026800D02*
X0247443Y0030103D01*
X0240998Y0030103D02*
X0240998Y0026800D01*
X0232350Y0030103D02*
X0232350Y0033406D01*
X0236754Y0033406D01*
X0235653Y0038300D02*
X0233451Y0038300D01*
X0232350Y0039401D01*
X0230308Y0039401D02*
X0230308Y0043805D01*
X0225905Y0039401D01*
X0227006Y0038300D01*
X0229208Y0038300D01*
X0230308Y0039401D01*
X0232350Y0041603D02*
X0234552Y0042704D01*
X0235653Y0042704D01*
X0236754Y0041603D01*
X0236754Y0039401D01*
X0235653Y0038300D01*
X0238796Y0038300D02*
X0238796Y0042704D01*
X0239897Y0042704D01*
X0240998Y0041603D01*
X0242099Y0042704D01*
X0243199Y0041603D01*
X0243199Y0038300D01*
X0245241Y0038300D02*
X0245241Y0042704D01*
X0246342Y0042704D01*
X0247443Y0041603D01*
X0248544Y0042704D01*
X0249645Y0041603D01*
X0249645Y0038300D01*
X0247443Y0038300D02*
X0247443Y0041603D01*
X0240998Y0041603D02*
X0240998Y0038300D01*
X0236754Y0044906D02*
X0232350Y0044906D01*
X0232350Y0041603D01*
X0230308Y0043805D02*
X0229208Y0044906D01*
X0227006Y0044906D01*
X0225905Y0043805D01*
X0225905Y0039401D01*
X0223783Y0039401D02*
X0223783Y0038300D01*
X0222682Y0038300D01*
X0222682Y0039401D01*
X0223783Y0039401D01*
X0220640Y0039401D02*
X0220640Y0043805D01*
X0216236Y0039401D01*
X0217337Y0038300D01*
X0219539Y0038300D01*
X0220640Y0039401D01*
X0216236Y0039401D02*
X0216236Y0043805D01*
X0217337Y0044906D01*
X0219539Y0044906D01*
X0220640Y0043805D01*
X0219539Y0049800D02*
X0217337Y0049800D01*
X0216236Y0050901D01*
X0220640Y0055305D01*
X0220640Y0050901D01*
X0219539Y0049800D01*
X0222682Y0049800D02*
X0223783Y0049800D01*
X0223783Y0050901D01*
X0222682Y0050901D01*
X0222682Y0049800D01*
X0225905Y0050901D02*
X0225905Y0055305D01*
X0227006Y0056406D01*
X0229208Y0056406D01*
X0230308Y0055305D01*
X0225905Y0050901D01*
X0227006Y0049800D01*
X0229208Y0049800D01*
X0230308Y0050901D01*
X0230308Y0055305D01*
X0232350Y0056406D02*
X0232350Y0053103D01*
X0234552Y0054204D01*
X0235653Y0054204D01*
X0236754Y0053103D01*
X0236754Y0050901D01*
X0235653Y0049800D01*
X0233451Y0049800D01*
X0232350Y0050901D01*
X0238796Y0049800D02*
X0238796Y0054204D01*
X0239897Y0054204D01*
X0240998Y0053103D01*
X0242099Y0054204D01*
X0243199Y0053103D01*
X0243199Y0049800D01*
X0245241Y0049800D02*
X0245241Y0054204D01*
X0246342Y0054204D01*
X0247443Y0053103D01*
X0248544Y0054204D01*
X0249645Y0053103D01*
X0249645Y0049800D01*
X0247443Y0049800D02*
X0247443Y0053103D01*
X0240998Y0053103D02*
X0240998Y0049800D01*
X0236754Y0056406D02*
X0232350Y0056406D01*
X0233451Y0061300D02*
X0232350Y0062401D01*
X0233451Y0061300D02*
X0235653Y0061300D01*
X0236754Y0062401D01*
X0236754Y0064603D01*
X0235653Y0065704D01*
X0234552Y0065704D01*
X0232350Y0064603D01*
X0232350Y0067906D01*
X0236754Y0067906D01*
X0238796Y0065704D02*
X0239897Y0065704D01*
X0240998Y0064603D01*
X0242099Y0065704D01*
X0243199Y0064603D01*
X0243199Y0061300D01*
X0245241Y0061300D02*
X0245241Y0065704D01*
X0246342Y0065704D01*
X0247443Y0064603D01*
X0248544Y0065704D01*
X0249645Y0064603D01*
X0249645Y0061300D01*
X0247443Y0061300D02*
X0247443Y0064603D01*
X0240998Y0064603D02*
X0240998Y0061300D01*
X0238796Y0061300D02*
X0238796Y0065704D01*
X0238796Y0072800D02*
X0238796Y0077204D01*
X0239897Y0077204D01*
X0240998Y0076103D01*
X0242099Y0077204D01*
X0243199Y0076103D01*
X0243199Y0072800D01*
X0245241Y0072800D02*
X0245241Y0077204D01*
X0246342Y0077204D01*
X0247443Y0076103D01*
X0248544Y0077204D01*
X0249645Y0076103D01*
X0249645Y0072800D01*
X0247443Y0072800D02*
X0247443Y0076103D01*
X0247443Y0084300D02*
X0247443Y0087603D01*
X0248544Y0088704D01*
X0249645Y0087603D01*
X0249645Y0084300D01*
X0247443Y0087603D02*
X0246342Y0088704D01*
X0245241Y0088704D01*
X0245241Y0084300D01*
X0243199Y0084300D02*
X0243199Y0087603D01*
X0242099Y0088704D01*
X0240998Y0087603D01*
X0240998Y0084300D01*
X0238796Y0084300D02*
X0238796Y0088704D01*
X0239897Y0088704D01*
X0240998Y0087603D01*
X0236754Y0087603D02*
X0236754Y0085401D01*
X0235653Y0084300D01*
X0233451Y0084300D01*
X0232350Y0085401D01*
X0230308Y0085401D02*
X0229208Y0084300D01*
X0227006Y0084300D01*
X0225905Y0085401D01*
X0230308Y0089805D01*
X0230308Y0085401D01*
X0232350Y0087603D02*
X0232350Y0090906D01*
X0236754Y0090906D01*
X0235653Y0088704D02*
X0236754Y0087603D01*
X0235653Y0088704D02*
X0234552Y0088704D01*
X0232350Y0087603D01*
X0230308Y0089805D02*
X0229208Y0090906D01*
X0227006Y0090906D01*
X0225905Y0089805D01*
X0225905Y0085401D01*
X0223783Y0085401D02*
X0223783Y0084300D01*
X0222682Y0084300D01*
X0222682Y0085401D01*
X0223783Y0085401D01*
X0220640Y0085401D02*
X0219539Y0084300D01*
X0217337Y0084300D01*
X0216236Y0085401D01*
X0220640Y0089805D01*
X0220640Y0085401D01*
X0216236Y0085401D02*
X0216236Y0089805D01*
X0217337Y0090906D01*
X0219539Y0090906D01*
X0220640Y0089805D01*
X0219539Y0095800D02*
X0217337Y0095800D01*
X0216236Y0096901D01*
X0220640Y0101305D01*
X0220640Y0096901D01*
X0219539Y0095800D01*
X0222682Y0095800D02*
X0223783Y0095800D01*
X0223783Y0096901D01*
X0222682Y0096901D01*
X0222682Y0095800D01*
X0225905Y0096901D02*
X0225905Y0101305D01*
X0227006Y0102406D01*
X0229208Y0102406D01*
X0230308Y0101305D01*
X0225905Y0096901D01*
X0227006Y0095800D01*
X0229208Y0095800D01*
X0230308Y0096901D01*
X0230308Y0101305D01*
X0232350Y0102406D02*
X0232350Y0099103D01*
X0234552Y0100204D01*
X0235653Y0100204D01*
X0236754Y0099103D01*
X0236754Y0096901D01*
X0235653Y0095800D01*
X0233451Y0095800D01*
X0232350Y0096901D01*
X0232350Y0102406D02*
X0236754Y0102406D01*
X0238796Y0100204D02*
X0239897Y0100204D01*
X0240998Y0099103D01*
X0242099Y0100204D01*
X0243199Y0099103D01*
X0243199Y0095800D01*
X0245241Y0095800D02*
X0245241Y0100204D01*
X0246342Y0100204D01*
X0247443Y0099103D01*
X0248544Y0100204D01*
X0249645Y0099103D01*
X0249645Y0095800D01*
X0247443Y0095800D02*
X0247443Y0099103D01*
X0240998Y0099103D02*
X0240998Y0095800D01*
X0238796Y0095800D02*
X0238796Y0100204D01*
X0229893Y0107300D02*
X0227691Y0107300D01*
X0228792Y0107300D02*
X0228792Y0113906D01*
X0227691Y0113906D01*
X0224548Y0111704D02*
X0222346Y0111704D01*
X0221245Y0110603D01*
X0221245Y0108401D01*
X0222346Y0107300D01*
X0224548Y0107300D01*
X0225649Y0108401D01*
X0225649Y0110603D01*
X0224548Y0111704D01*
X0219204Y0113906D02*
X0214800Y0113906D01*
X0217002Y0113906D02*
X0217002Y0107300D01*
X0217337Y0102406D02*
X0219539Y0102406D01*
X0220640Y0101305D01*
X0217337Y0102406D02*
X0216236Y0101305D01*
X0216236Y0096901D01*
X0214195Y0099103D02*
X0209791Y0099103D01*
X0211993Y0101305D02*
X0211993Y0096901D01*
X0207749Y0102406D02*
X0203345Y0095800D01*
X0201304Y0099103D02*
X0196900Y0099103D01*
X0189000Y0093400D02*
X0189000Y0081900D01*
X0189000Y0070400D01*
X0189000Y0058900D01*
X0189000Y0047400D01*
X0189000Y0035900D01*
X0189000Y0024400D01*
X0189000Y0012900D01*
X0143000Y0012900D01*
X0143000Y0001400D01*
X0189000Y0001400D01*
X0196900Y0007103D02*
X0201304Y0007103D01*
X0203345Y0003800D02*
X0207749Y0010406D01*
X0209791Y0007103D02*
X0214195Y0007103D01*
X0216236Y0009305D02*
X0217337Y0010406D01*
X0219539Y0010406D01*
X0220640Y0009305D01*
X0216236Y0004901D01*
X0217337Y0003800D01*
X0219539Y0003800D01*
X0220640Y0004901D01*
X0220640Y0009305D01*
X0216236Y0009305D02*
X0216236Y0004901D01*
X0211993Y0004901D02*
X0211993Y0009305D01*
X0211993Y0016401D02*
X0211993Y0020805D01*
X0209791Y0018603D02*
X0214195Y0018603D01*
X0216236Y0016401D02*
X0216236Y0020805D01*
X0217337Y0021906D01*
X0219539Y0021906D01*
X0220640Y0020805D01*
X0216236Y0016401D01*
X0217337Y0015300D01*
X0219539Y0015300D01*
X0220640Y0016401D01*
X0220640Y0020805D01*
X0222682Y0016401D02*
X0223783Y0016401D01*
X0223783Y0015300D01*
X0222682Y0015300D01*
X0222682Y0016401D01*
X0225905Y0016401D02*
X0225905Y0020805D01*
X0227006Y0021906D01*
X0229208Y0021906D01*
X0230308Y0020805D01*
X0225905Y0027901D02*
X0225905Y0032305D01*
X0227006Y0033406D01*
X0229208Y0033406D01*
X0230308Y0032305D01*
X0223783Y0027901D02*
X0223783Y0026800D01*
X0222682Y0026800D01*
X0222682Y0027901D01*
X0223783Y0027901D01*
X0220640Y0027901D02*
X0220640Y0032305D01*
X0216236Y0027901D01*
X0217337Y0026800D01*
X0219539Y0026800D01*
X0220640Y0027901D01*
X0216236Y0027901D02*
X0216236Y0032305D01*
X0217337Y0033406D01*
X0219539Y0033406D01*
X0220640Y0032305D01*
X0214195Y0030103D02*
X0209791Y0030103D01*
X0211993Y0032305D02*
X0211993Y0027901D01*
X0207749Y0021906D02*
X0203345Y0015300D01*
X0201304Y0018603D02*
X0196900Y0018603D01*
X0189000Y0024400D02*
X0258000Y0024400D01*
X0258000Y0035900D02*
X0189000Y0035900D01*
X0143000Y0035900D01*
X0143000Y0024400D01*
X0143000Y0012900D01*
X0120000Y0012900D01*
X0120000Y0001400D01*
X0143000Y0001400D01*
X0132003Y0003800D02*
X0132003Y0010406D01*
X0128700Y0007103D01*
X0133104Y0007103D01*
X0132003Y0015300D02*
X0129801Y0015300D01*
X0128700Y0016401D01*
X0128700Y0018603D01*
X0132003Y0018603D01*
X0133104Y0017502D01*
X0133104Y0016401D01*
X0132003Y0015300D01*
X0128700Y0018603D02*
X0130902Y0020805D01*
X0133104Y0021906D01*
X0132003Y0026800D02*
X0129801Y0026800D01*
X0128700Y0027901D01*
X0128700Y0030103D01*
X0132003Y0030103D01*
X0133104Y0029002D01*
X0133104Y0027901D01*
X0132003Y0026800D01*
X0128700Y0030103D02*
X0130902Y0032305D01*
X0133104Y0033406D01*
X0132003Y0038300D02*
X0129801Y0038300D01*
X0128700Y0039401D01*
X0130902Y0041603D02*
X0132003Y0041603D01*
X0133104Y0040502D01*
X0133104Y0039401D01*
X0132003Y0038300D01*
X0132003Y0041603D02*
X0133104Y0042704D01*
X0133104Y0043805D01*
X0132003Y0044906D01*
X0129801Y0044906D01*
X0128700Y0043805D01*
X0130204Y0049800D02*
X0125800Y0049800D01*
X0130204Y0054204D01*
X0130204Y0055305D01*
X0129103Y0056406D01*
X0126901Y0056406D01*
X0125800Y0055305D01*
X0132245Y0056406D02*
X0136649Y0056406D01*
X0136649Y0055305D01*
X0132245Y0050901D01*
X0132245Y0049800D01*
X0143000Y0047400D02*
X0143000Y0058900D01*
X0189000Y0058900D01*
X0258000Y0058900D01*
X0258000Y0047400D02*
X0189000Y0047400D01*
X0143000Y0047400D01*
X0143000Y0035900D01*
X0120000Y0035900D01*
X0120000Y0024400D01*
X0120000Y0012900D01*
X0089000Y0012900D01*
X0089000Y0001400D01*
X0120000Y0001400D01*
X0113317Y0004901D02*
X0112217Y0003800D01*
X0110015Y0003800D01*
X0108914Y0004901D01*
X0108914Y0007103D01*
X0112217Y0007103D01*
X0113317Y0006002D01*
X0113317Y0004901D01*
X0108914Y0007103D02*
X0111116Y0009305D01*
X0113317Y0010406D01*
X0112217Y0015300D02*
X0110015Y0015300D01*
X0108914Y0016401D01*
X0108914Y0018603D02*
X0111116Y0019704D01*
X0112217Y0019704D01*
X0113317Y0018603D01*
X0113317Y0016401D01*
X0112217Y0015300D01*
X0108914Y0018603D02*
X0108914Y0021906D01*
X0113317Y0021906D01*
X0112217Y0026800D02*
X0110015Y0026800D01*
X0108914Y0027901D01*
X0113317Y0032305D01*
X0113317Y0027901D01*
X0112217Y0026800D01*
X0108914Y0027901D02*
X0108914Y0032305D01*
X0110015Y0033406D01*
X0112217Y0033406D01*
X0113317Y0032305D01*
X0106872Y0033406D02*
X0104670Y0032305D01*
X0102468Y0030103D01*
X0105771Y0030103D01*
X0106872Y0029002D01*
X0106872Y0027901D01*
X0105771Y0026800D01*
X0103569Y0026800D01*
X0102468Y0027901D01*
X0102468Y0030103D01*
X0100346Y0027901D02*
X0100346Y0026800D01*
X0099245Y0026800D01*
X0099245Y0027901D01*
X0100346Y0027901D01*
X0097204Y0026800D02*
X0092800Y0026800D01*
X0095002Y0026800D02*
X0095002Y0033406D01*
X0092800Y0031204D01*
X0089000Y0035900D02*
X0089000Y0024400D01*
X0089000Y0012900D01*
X0043000Y0012900D01*
X0043000Y0001400D01*
X0089000Y0001400D01*
X0092800Y0004901D02*
X0093901Y0003800D01*
X0096103Y0003800D01*
X0097204Y0004901D01*
X0097204Y0006002D01*
X0096103Y0007103D01*
X0095002Y0007103D01*
X0096103Y0007103D02*
X0097204Y0008204D01*
X0097204Y0009305D01*
X0096103Y0010406D01*
X0093901Y0010406D01*
X0092800Y0009305D01*
X0093901Y0015300D02*
X0092800Y0016401D01*
X0093901Y0015300D02*
X0096103Y0015300D01*
X0097204Y0016401D01*
X0097204Y0017502D01*
X0096103Y0018603D01*
X0095002Y0018603D01*
X0096103Y0018603D02*
X0097204Y0019704D01*
X0097204Y0020805D01*
X0096103Y0021906D01*
X0093901Y0021906D01*
X0092800Y0020805D01*
X0089000Y0024400D02*
X0120000Y0024400D01*
X0143000Y0024400D01*
X0189000Y0024400D01*
X0196900Y0030103D02*
X0201304Y0030103D01*
X0203345Y0026800D02*
X0207749Y0033406D01*
X0203345Y0038300D02*
X0207749Y0044906D01*
X0209791Y0041603D02*
X0214195Y0041603D01*
X0211993Y0043805D02*
X0211993Y0039401D01*
X0201304Y0041603D02*
X0196900Y0041603D01*
X0203345Y0049800D02*
X0207749Y0056406D01*
X0209791Y0053103D02*
X0214195Y0053103D01*
X0216236Y0055305D02*
X0217337Y0056406D01*
X0219539Y0056406D01*
X0220640Y0055305D01*
X0216236Y0055305D02*
X0216236Y0050901D01*
X0211993Y0050901D02*
X0211993Y0055305D01*
X0211993Y0062401D02*
X0211993Y0066805D01*
X0209791Y0064603D02*
X0214195Y0064603D01*
X0216236Y0062401D02*
X0216236Y0066805D01*
X0217337Y0067906D01*
X0219539Y0067906D01*
X0220640Y0066805D01*
X0216236Y0062401D01*
X0217337Y0061300D01*
X0219539Y0061300D01*
X0220640Y0062401D01*
X0220640Y0066805D01*
X0222682Y0062401D02*
X0223783Y0062401D01*
X0223783Y0061300D01*
X0222682Y0061300D01*
X0222682Y0062401D01*
X0225905Y0062401D02*
X0225905Y0066805D01*
X0227006Y0067906D01*
X0229208Y0067906D01*
X0230308Y0066805D01*
X0225905Y0062401D01*
X0227006Y0061300D01*
X0229208Y0061300D01*
X0230308Y0062401D01*
X0230308Y0066805D01*
X0229208Y0072800D02*
X0227006Y0072800D01*
X0225905Y0073901D01*
X0230308Y0078305D01*
X0230308Y0073901D01*
X0229208Y0072800D01*
X0232350Y0073901D02*
X0233451Y0072800D01*
X0235653Y0072800D01*
X0236754Y0073901D01*
X0236754Y0076103D01*
X0235653Y0077204D01*
X0234552Y0077204D01*
X0232350Y0076103D01*
X0232350Y0079406D01*
X0236754Y0079406D01*
X0240998Y0076103D02*
X0240998Y0072800D01*
X0230308Y0078305D02*
X0229208Y0079406D01*
X0227006Y0079406D01*
X0225905Y0078305D01*
X0225905Y0073901D01*
X0223783Y0073901D02*
X0223783Y0072800D01*
X0222682Y0072800D01*
X0222682Y0073901D01*
X0223783Y0073901D01*
X0220640Y0073901D02*
X0220640Y0078305D01*
X0216236Y0073901D01*
X0217337Y0072800D01*
X0219539Y0072800D01*
X0220640Y0073901D01*
X0216236Y0073901D02*
X0216236Y0078305D01*
X0217337Y0079406D01*
X0219539Y0079406D01*
X0220640Y0078305D01*
X0214195Y0076103D02*
X0209791Y0076103D01*
X0211993Y0078305D02*
X0211993Y0073901D01*
X0207749Y0079406D02*
X0203345Y0072800D01*
X0201304Y0076103D02*
X0196900Y0076103D01*
X0203345Y0084300D02*
X0207749Y0090906D01*
X0209791Y0087603D02*
X0214195Y0087603D01*
X0211993Y0089805D02*
X0211993Y0085401D01*
X0201304Y0087603D02*
X0196900Y0087603D01*
X0189000Y0081900D02*
X0258000Y0081900D01*
X0258000Y0070400D02*
X0189000Y0070400D01*
X0143000Y0070400D01*
X0143000Y0058900D01*
X0120000Y0058900D01*
X0120000Y0047400D01*
X0120000Y0035900D01*
X0089000Y0035900D01*
X0089000Y0047400D01*
X0089000Y0058900D01*
X0089000Y0070400D01*
X0089000Y0081900D01*
X0089000Y0093400D01*
X0089000Y0104900D01*
X0120000Y0104900D01*
X0120000Y0093400D01*
X0120000Y0081900D01*
X0120000Y0070400D01*
X0120000Y0058900D01*
X0089000Y0058900D01*
X0043000Y0058900D01*
X0043000Y0047400D01*
X0043000Y0035900D01*
X0043000Y0024400D01*
X0043000Y0012900D01*
X0028000Y0012900D01*
X0028000Y0001400D01*
X0043000Y0001400D01*
X0048400Y0003800D02*
X0052804Y0003800D01*
X0050602Y0003800D02*
X0050602Y0010406D01*
X0048400Y0008204D01*
X0054845Y0007103D02*
X0054845Y0010406D01*
X0059249Y0010406D01*
X0058148Y0008204D02*
X0059249Y0007103D01*
X0059249Y0004901D01*
X0058148Y0003800D01*
X0055946Y0003800D01*
X0054845Y0004901D01*
X0054845Y0007103D02*
X0057047Y0008204D01*
X0058148Y0008204D01*
X0061291Y0007103D02*
X0064594Y0007103D01*
X0065695Y0006002D01*
X0065695Y0004901D01*
X0064594Y0003800D01*
X0062392Y0003800D01*
X0061291Y0004901D01*
X0061291Y0007103D01*
X0063493Y0009305D01*
X0065695Y0010406D01*
X0064594Y0015300D02*
X0062392Y0015300D01*
X0061291Y0016401D01*
X0061291Y0017502D01*
X0062392Y0018603D01*
X0064594Y0018603D01*
X0065695Y0017502D01*
X0065695Y0016401D01*
X0064594Y0015300D01*
X0067736Y0015300D02*
X0068837Y0015300D01*
X0068837Y0016401D01*
X0067736Y0016401D01*
X0067736Y0015300D01*
X0070959Y0016401D02*
X0070959Y0020805D01*
X0072060Y0021906D01*
X0074262Y0021906D01*
X0075363Y0020805D01*
X0070959Y0016401D01*
X0072060Y0015300D01*
X0074262Y0015300D01*
X0075363Y0016401D01*
X0075363Y0020805D01*
X0077405Y0020805D02*
X0078506Y0021906D01*
X0080708Y0021906D01*
X0081808Y0020805D01*
X0077405Y0016401D01*
X0078506Y0015300D01*
X0080708Y0015300D01*
X0081808Y0016401D01*
X0081808Y0020805D01*
X0077405Y0020805D02*
X0077405Y0016401D01*
X0078506Y0010406D02*
X0080708Y0010406D01*
X0081808Y0009305D01*
X0077405Y0004901D01*
X0078506Y0003800D01*
X0080708Y0003800D01*
X0081808Y0004901D01*
X0081808Y0009305D01*
X0078506Y0010406D02*
X0077405Y0009305D01*
X0077405Y0004901D01*
X0075363Y0004901D02*
X0074262Y0003800D01*
X0072060Y0003800D01*
X0070959Y0004901D01*
X0075363Y0009305D01*
X0075363Y0004901D01*
X0075363Y0009305D02*
X0074262Y0010406D01*
X0072060Y0010406D01*
X0070959Y0009305D01*
X0070959Y0004901D01*
X0068837Y0004901D02*
X0068837Y0003800D01*
X0067736Y0003800D01*
X0067736Y0004901D01*
X0068837Y0004901D01*
X0059249Y0015300D02*
X0054845Y0015300D01*
X0059249Y0019704D01*
X0059249Y0020805D01*
X0058148Y0021906D01*
X0055946Y0021906D01*
X0054845Y0020805D01*
X0050602Y0021906D02*
X0050602Y0015300D01*
X0048400Y0015300D02*
X0052804Y0015300D01*
X0048400Y0019704D02*
X0050602Y0021906D01*
X0052401Y0026800D02*
X0054603Y0026800D01*
X0055704Y0027901D01*
X0055704Y0029002D01*
X0054603Y0030103D01*
X0051300Y0030103D01*
X0051300Y0027901D01*
X0052401Y0026800D01*
X0051300Y0030103D02*
X0053502Y0032305D01*
X0055704Y0033406D01*
X0057745Y0032305D02*
X0058846Y0033406D01*
X0061048Y0033406D01*
X0062149Y0032305D01*
X0062149Y0031204D01*
X0057745Y0026800D01*
X0062149Y0026800D01*
X0064191Y0026800D02*
X0065292Y0026800D01*
X0065292Y0027901D01*
X0064191Y0027901D01*
X0064191Y0026800D01*
X0067414Y0027901D02*
X0068515Y0026800D01*
X0070717Y0026800D01*
X0071817Y0027901D01*
X0071817Y0032305D01*
X0070717Y0033406D01*
X0068515Y0033406D01*
X0067414Y0032305D01*
X0067414Y0031204D01*
X0068515Y0030103D01*
X0071817Y0030103D01*
X0073859Y0031204D02*
X0074960Y0030103D01*
X0078263Y0030103D01*
X0078263Y0032305D02*
X0077162Y0033406D01*
X0074960Y0033406D01*
X0073859Y0032305D01*
X0073859Y0031204D01*
X0073859Y0027901D02*
X0074960Y0026800D01*
X0077162Y0026800D01*
X0078263Y0027901D01*
X0078263Y0032305D01*
X0077162Y0038300D02*
X0077162Y0044906D01*
X0073859Y0041603D01*
X0078263Y0041603D01*
X0071817Y0042704D02*
X0071817Y0043805D01*
X0070717Y0044906D01*
X0068515Y0044906D01*
X0067414Y0043805D01*
X0071817Y0042704D02*
X0067414Y0038300D01*
X0071817Y0038300D01*
X0065292Y0038300D02*
X0064191Y0038300D01*
X0064191Y0039401D01*
X0065292Y0039401D01*
X0065292Y0038300D01*
X0062149Y0043805D02*
X0057745Y0039401D01*
X0057745Y0038300D01*
X0054603Y0038300D02*
X0054603Y0044906D01*
X0051300Y0041603D01*
X0055704Y0041603D01*
X0057745Y0044906D02*
X0062149Y0044906D01*
X0062149Y0043805D01*
X0061048Y0049800D02*
X0058846Y0049800D01*
X0057745Y0050901D01*
X0055704Y0050901D02*
X0054603Y0049800D01*
X0052401Y0049800D01*
X0051300Y0050901D01*
X0053502Y0053103D02*
X0054603Y0053103D01*
X0055704Y0052002D01*
X0055704Y0050901D01*
X0054603Y0053103D02*
X0055704Y0054204D01*
X0055704Y0055305D01*
X0054603Y0056406D01*
X0052401Y0056406D01*
X0051300Y0055305D01*
X0057745Y0055305D02*
X0058846Y0056406D01*
X0061048Y0056406D01*
X0062149Y0055305D01*
X0062149Y0050901D01*
X0061048Y0049800D01*
X0064191Y0049800D02*
X0065292Y0049800D01*
X0065292Y0050901D01*
X0064191Y0050901D01*
X0064191Y0049800D01*
X0067414Y0050901D02*
X0068515Y0049800D01*
X0070717Y0049800D01*
X0071817Y0050901D01*
X0071817Y0052002D01*
X0070717Y0053103D01*
X0069616Y0053103D01*
X0070717Y0053103D02*
X0071817Y0054204D01*
X0071817Y0055305D01*
X0070717Y0056406D01*
X0068515Y0056406D01*
X0067414Y0055305D01*
X0062149Y0053103D02*
X0058846Y0053103D01*
X0057745Y0054204D01*
X0057745Y0055305D01*
X0058846Y0061300D02*
X0057745Y0062401D01*
X0058846Y0061300D02*
X0061048Y0061300D01*
X0062149Y0062401D01*
X0062149Y0064603D01*
X0061048Y0065704D01*
X0059947Y0065704D01*
X0057745Y0064603D01*
X0057745Y0067906D01*
X0062149Y0067906D01*
X0064191Y0072800D02*
X0065292Y0072800D01*
X0065292Y0073901D01*
X0064191Y0073901D01*
X0064191Y0072800D01*
X0067414Y0073901D02*
X0068515Y0072800D01*
X0070717Y0072800D01*
X0071817Y0073901D01*
X0071817Y0076103D01*
X0070717Y0077204D01*
X0069616Y0077204D01*
X0067414Y0076103D01*
X0067414Y0079406D01*
X0071817Y0079406D01*
X0073859Y0076103D02*
X0077162Y0076103D01*
X0078263Y0075002D01*
X0078263Y0073901D01*
X0077162Y0072800D01*
X0074960Y0072800D01*
X0073859Y0073901D01*
X0073859Y0076103D01*
X0076061Y0078305D01*
X0078263Y0079406D01*
X0077162Y0084300D02*
X0074960Y0084300D01*
X0073859Y0085401D01*
X0073859Y0086502D01*
X0074960Y0087603D01*
X0077162Y0087603D01*
X0078263Y0086502D01*
X0078263Y0085401D01*
X0077162Y0084300D01*
X0077162Y0087603D02*
X0078263Y0088704D01*
X0078263Y0089805D01*
X0077162Y0090906D01*
X0074960Y0090906D01*
X0073859Y0089805D01*
X0073859Y0088704D01*
X0074960Y0087603D01*
X0071817Y0089805D02*
X0067414Y0085401D01*
X0067414Y0084300D01*
X0065292Y0084300D02*
X0064191Y0084300D01*
X0064191Y0085401D01*
X0065292Y0085401D01*
X0065292Y0084300D01*
X0062149Y0085401D02*
X0061048Y0084300D01*
X0058846Y0084300D01*
X0057745Y0085401D01*
X0055704Y0084300D02*
X0051300Y0084300D01*
X0053502Y0084300D02*
X0053502Y0090906D01*
X0051300Y0088704D01*
X0057745Y0089805D02*
X0058846Y0090906D01*
X0061048Y0090906D01*
X0062149Y0089805D01*
X0062149Y0088704D01*
X0061048Y0087603D01*
X0062149Y0086502D01*
X0062149Y0085401D01*
X0061048Y0087603D02*
X0059947Y0087603D01*
X0067414Y0090906D02*
X0071817Y0090906D01*
X0071817Y0089805D01*
X0070717Y0095800D02*
X0068515Y0095800D01*
X0067414Y0096901D01*
X0071817Y0101305D01*
X0071817Y0096901D01*
X0070717Y0095800D01*
X0073859Y0096901D02*
X0078263Y0101305D01*
X0078263Y0096901D01*
X0077162Y0095800D01*
X0074960Y0095800D01*
X0073859Y0096901D01*
X0073859Y0101305D01*
X0074960Y0102406D01*
X0077162Y0102406D01*
X0078263Y0101305D01*
X0071817Y0101305D02*
X0070717Y0102406D01*
X0068515Y0102406D01*
X0067414Y0101305D01*
X0067414Y0096901D01*
X0065292Y0096901D02*
X0065292Y0095800D01*
X0064191Y0095800D01*
X0064191Y0096901D01*
X0065292Y0096901D01*
X0062149Y0096901D02*
X0062149Y0101305D01*
X0057745Y0096901D01*
X0058846Y0095800D01*
X0061048Y0095800D01*
X0062149Y0096901D01*
X0057745Y0096901D02*
X0057745Y0101305D01*
X0058846Y0102406D01*
X0061048Y0102406D01*
X0062149Y0101305D01*
X0061846Y0107300D02*
X0061846Y0111704D01*
X0060745Y0111704D01*
X0061846Y0113906D02*
X0061846Y0115007D01*
X0058704Y0113906D02*
X0056502Y0111704D01*
X0054300Y0113906D01*
X0054300Y0107300D01*
X0058704Y0107300D02*
X0058704Y0113906D01*
X0065042Y0113906D02*
X0066143Y0113906D01*
X0066143Y0107300D01*
X0065042Y0107300D02*
X0067244Y0107300D01*
X0069339Y0107300D02*
X0072642Y0107300D01*
X0073743Y0108401D01*
X0072642Y0109502D01*
X0070440Y0109502D01*
X0069339Y0110603D01*
X0070440Y0111704D01*
X0073743Y0111704D01*
X0062947Y0107300D02*
X0060745Y0107300D01*
X0053502Y0102406D02*
X0053502Y0095800D01*
X0051300Y0095800D02*
X0055704Y0095800D01*
X0051300Y0100204D02*
X0053502Y0102406D01*
X0043000Y0104900D02*
X0043000Y0093400D01*
X0043000Y0081900D01*
X0043000Y0070400D01*
X0043000Y0058900D01*
X0028000Y0058900D01*
X0028000Y0047400D01*
X0028000Y0035900D01*
X0028000Y0024400D01*
X0028000Y0012900D01*
X0005000Y0012900D01*
X0014500Y0009100D02*
X0018500Y0005100D01*
X0016500Y0005100D02*
X0016500Y0009100D01*
X0018500Y0009100D02*
X0014500Y0005100D01*
X0005000Y0001400D02*
X0028000Y0001400D01*
X0032700Y0004901D02*
X0033801Y0003800D01*
X0036003Y0003800D01*
X0037104Y0004901D01*
X0037104Y0009305D01*
X0036003Y0010406D01*
X0033801Y0010406D01*
X0032700Y0009305D01*
X0032700Y0008204D01*
X0033801Y0007103D01*
X0037104Y0007103D01*
X0036003Y0015300D02*
X0033801Y0015300D01*
X0032700Y0016401D01*
X0032700Y0017502D01*
X0033801Y0018603D01*
X0036003Y0018603D01*
X0037104Y0017502D01*
X0037104Y0016401D01*
X0036003Y0015300D01*
X0036003Y0018603D02*
X0037104Y0019704D01*
X0037104Y0020805D01*
X0036003Y0021906D01*
X0033801Y0021906D01*
X0032700Y0020805D01*
X0032700Y0019704D01*
X0033801Y0018603D01*
X0028000Y0024400D02*
X0043000Y0024400D01*
X0089000Y0024400D01*
X0089000Y0035900D02*
X0043000Y0035900D01*
X0028000Y0035900D01*
X0005000Y0035900D01*
X0014500Y0039600D02*
X0014500Y0043600D01*
X0018500Y0039600D01*
X0018500Y0043600D01*
X0014500Y0039600D01*
X0016500Y0032100D02*
X0016500Y0028100D01*
X0014500Y0030100D01*
X0018500Y0030100D01*
X0016500Y0032100D01*
X0016500Y0020600D02*
X0014500Y0018600D01*
X0018500Y0018600D01*
X0016500Y0016600D01*
X0016500Y0020600D01*
X0005000Y0024400D02*
X0028000Y0024400D01*
X0032700Y0026800D02*
X0032700Y0027901D01*
X0037104Y0032305D01*
X0037104Y0033406D01*
X0032700Y0033406D01*
X0033801Y0038300D02*
X0036003Y0038300D01*
X0037104Y0039401D01*
X0037104Y0040502D01*
X0036003Y0041603D01*
X0032700Y0041603D01*
X0032700Y0039401D01*
X0033801Y0038300D01*
X0032700Y0041603D02*
X0034902Y0043805D01*
X0037104Y0044906D01*
X0036003Y0049800D02*
X0033801Y0049800D01*
X0032700Y0050901D01*
X0032700Y0053103D02*
X0034902Y0054204D01*
X0036003Y0054204D01*
X0037104Y0053103D01*
X0037104Y0050901D01*
X0036003Y0049800D01*
X0032700Y0053103D02*
X0032700Y0056406D01*
X0037104Y0056406D01*
X0036003Y0061300D02*
X0036003Y0067906D01*
X0032700Y0064603D01*
X0037104Y0064603D01*
X0028000Y0058900D02*
X0028000Y0070400D01*
X0043000Y0070400D01*
X0089000Y0070400D01*
X0120000Y0070400D01*
X0143000Y0070400D01*
X0143000Y0081900D01*
X0189000Y0081900D01*
X0189000Y0093400D02*
X0258000Y0093400D01*
X0258000Y0104900D02*
X0189000Y0104900D01*
X0189000Y0093400D01*
X0143000Y0093400D01*
X0143000Y0081900D01*
X0120000Y0081900D01*
X0089000Y0081900D01*
X0043000Y0081900D01*
X0028000Y0081900D01*
X0028000Y0070400D01*
X0005000Y0070400D01*
X0014500Y0074100D02*
X0014500Y0078100D01*
X0016500Y0078100D01*
X0018500Y0078100D01*
X0018500Y0074100D01*
X0014500Y0074100D01*
X0016500Y0076100D02*
X0016500Y0078100D01*
X0014500Y0085600D02*
X0018500Y0089600D01*
X0014500Y0089600D02*
X0018500Y0085600D01*
X0028000Y0081900D02*
X0005000Y0081900D01*
X0005000Y0093400D02*
X0028000Y0093400D01*
X0028000Y0081900D01*
X0032700Y0084300D02*
X0037104Y0088704D01*
X0037104Y0089805D01*
X0036003Y0090906D01*
X0033801Y0090906D01*
X0032700Y0089805D01*
X0028000Y0093400D02*
X0043000Y0093400D01*
X0089000Y0093400D01*
X0120000Y0093400D01*
X0143000Y0093400D01*
X0143000Y0104900D01*
X0189000Y0104900D01*
X0189000Y0116400D01*
X0180734Y0113906D02*
X0180734Y0107300D01*
X0177431Y0107300D01*
X0176330Y0108401D01*
X0176330Y0110603D01*
X0177431Y0111704D01*
X0180734Y0111704D01*
X0174289Y0110603D02*
X0174289Y0109502D01*
X0169885Y0109502D01*
X0169885Y0110603D02*
X0170986Y0111704D01*
X0173188Y0111704D01*
X0174289Y0110603D01*
X0173188Y0107300D02*
X0170986Y0107300D01*
X0169885Y0108401D01*
X0169885Y0110603D01*
X0167790Y0111704D02*
X0165588Y0111704D01*
X0166689Y0112805D02*
X0166689Y0108401D01*
X0167790Y0107300D01*
X0163546Y0107300D02*
X0163546Y0110603D01*
X0162445Y0111704D01*
X0160243Y0111704D01*
X0160243Y0109502D02*
X0163546Y0109502D01*
X0163546Y0107300D02*
X0160243Y0107300D01*
X0159142Y0108401D01*
X0160243Y0109502D01*
X0157047Y0107300D02*
X0154845Y0107300D01*
X0155946Y0107300D02*
X0155946Y0113906D01*
X0154845Y0113906D01*
X0152804Y0112805D02*
X0152804Y0110603D01*
X0151703Y0109502D01*
X0148400Y0109502D01*
X0148400Y0107300D02*
X0148400Y0113906D01*
X0151703Y0113906D01*
X0152804Y0112805D01*
X0143000Y0116400D02*
X0143000Y0104900D01*
X0120000Y0104900D01*
X0120000Y0116400D01*
X0122800Y0112805D02*
X0122800Y0108401D01*
X0123901Y0107300D01*
X0126103Y0107300D01*
X0127204Y0108401D01*
X0127204Y0112805D01*
X0126103Y0113906D01*
X0123901Y0113906D01*
X0122800Y0112805D01*
X0125002Y0109502D02*
X0127204Y0107300D01*
X0130346Y0108401D02*
X0131447Y0107300D01*
X0130346Y0108401D02*
X0130346Y0112805D01*
X0129245Y0111704D02*
X0131447Y0111704D01*
X0133542Y0111704D02*
X0133542Y0108401D01*
X0134643Y0107300D01*
X0137946Y0107300D01*
X0137946Y0106199D02*
X0136845Y0105098D01*
X0135744Y0105098D01*
X0137946Y0106199D02*
X0137946Y0111704D01*
X0138994Y0102406D02*
X0135691Y0099103D01*
X0140095Y0099103D01*
X0138994Y0095800D02*
X0138994Y0102406D01*
X0133649Y0102406D02*
X0133649Y0101305D01*
X0129245Y0096901D01*
X0129245Y0095800D01*
X0127204Y0095800D02*
X0122800Y0095800D01*
X0125002Y0095800D02*
X0125002Y0102406D01*
X0122800Y0100204D01*
X0129245Y0102406D02*
X0133649Y0102406D01*
X0133104Y0090906D02*
X0130902Y0089805D01*
X0128700Y0087603D01*
X0132003Y0087603D01*
X0133104Y0086502D01*
X0133104Y0085401D01*
X0132003Y0084300D01*
X0129801Y0084300D01*
X0128700Y0085401D01*
X0128700Y0087603D01*
X0129103Y0079406D02*
X0126901Y0079406D01*
X0125800Y0078305D01*
X0129103Y0079406D02*
X0130204Y0078305D01*
X0130204Y0077204D01*
X0125800Y0072800D01*
X0130204Y0072800D01*
X0132245Y0073901D02*
X0132245Y0075002D01*
X0133346Y0076103D01*
X0135548Y0076103D01*
X0136649Y0075002D01*
X0136649Y0073901D01*
X0135548Y0072800D01*
X0133346Y0072800D01*
X0132245Y0073901D01*
X0133346Y0076103D02*
X0132245Y0077204D01*
X0132245Y0078305D01*
X0133346Y0079406D01*
X0135548Y0079406D01*
X0136649Y0078305D01*
X0136649Y0077204D01*
X0135548Y0076103D01*
X0136649Y0067906D02*
X0134447Y0066805D01*
X0132245Y0064603D01*
X0135548Y0064603D01*
X0136649Y0063502D01*
X0136649Y0062401D01*
X0135548Y0061300D01*
X0133346Y0061300D01*
X0132245Y0062401D01*
X0132245Y0064603D01*
X0130204Y0065704D02*
X0129103Y0064603D01*
X0130204Y0063502D01*
X0130204Y0062401D01*
X0129103Y0061300D01*
X0126901Y0061300D01*
X0125800Y0062401D01*
X0128002Y0064603D02*
X0129103Y0064603D01*
X0130204Y0065704D02*
X0130204Y0066805D01*
X0129103Y0067906D01*
X0126901Y0067906D01*
X0125800Y0066805D01*
X0113317Y0066805D02*
X0113317Y0062401D01*
X0112217Y0061300D01*
X0110015Y0061300D01*
X0108914Y0062401D01*
X0106872Y0062401D02*
X0105771Y0061300D01*
X0103569Y0061300D01*
X0102468Y0062401D01*
X0102468Y0063502D01*
X0103569Y0064603D01*
X0105771Y0064603D01*
X0106872Y0063502D01*
X0106872Y0062401D01*
X0105771Y0064603D02*
X0106872Y0065704D01*
X0106872Y0066805D01*
X0105771Y0067906D01*
X0103569Y0067906D01*
X0102468Y0066805D01*
X0102468Y0065704D01*
X0103569Y0064603D01*
X0100346Y0062401D02*
X0100346Y0061300D01*
X0099245Y0061300D01*
X0099245Y0062401D01*
X0100346Y0062401D01*
X0097204Y0062401D02*
X0097204Y0066805D01*
X0092800Y0062401D01*
X0093901Y0061300D01*
X0096103Y0061300D01*
X0097204Y0062401D01*
X0097204Y0066805D02*
X0096103Y0067906D01*
X0093901Y0067906D01*
X0092800Y0066805D01*
X0092800Y0062401D01*
X0095002Y0056406D02*
X0095002Y0049800D01*
X0092800Y0049800D02*
X0097204Y0049800D01*
X0099245Y0049800D02*
X0100346Y0049800D01*
X0100346Y0050901D01*
X0099245Y0050901D01*
X0099245Y0049800D01*
X0102468Y0050901D02*
X0102468Y0055305D01*
X0103569Y0056406D01*
X0105771Y0056406D01*
X0106872Y0055305D01*
X0102468Y0050901D01*
X0103569Y0049800D01*
X0105771Y0049800D01*
X0106872Y0050901D01*
X0106872Y0055305D01*
X0108914Y0055305D02*
X0110015Y0056406D01*
X0112217Y0056406D01*
X0113317Y0055305D01*
X0108914Y0050901D01*
X0110015Y0049800D01*
X0112217Y0049800D01*
X0113317Y0050901D01*
X0113317Y0055305D01*
X0108914Y0055305D02*
X0108914Y0050901D01*
X0110015Y0044906D02*
X0112217Y0044906D01*
X0113317Y0043805D01*
X0108914Y0039401D01*
X0110015Y0038300D01*
X0112217Y0038300D01*
X0113317Y0039401D01*
X0113317Y0043805D01*
X0110015Y0044906D02*
X0108914Y0043805D01*
X0108914Y0039401D01*
X0106872Y0038300D02*
X0102468Y0038300D01*
X0106872Y0042704D01*
X0106872Y0043805D01*
X0105771Y0044906D01*
X0103569Y0044906D01*
X0102468Y0043805D01*
X0100346Y0039401D02*
X0100346Y0038300D01*
X0099245Y0038300D01*
X0099245Y0039401D01*
X0100346Y0039401D01*
X0097204Y0038300D02*
X0092800Y0038300D01*
X0095002Y0038300D02*
X0095002Y0044906D01*
X0092800Y0042704D01*
X0089000Y0047400D02*
X0120000Y0047400D01*
X0143000Y0047400D01*
X0157300Y0044906D02*
X0157300Y0043805D01*
X0159502Y0041603D01*
X0159502Y0038300D01*
X0159502Y0041603D02*
X0161704Y0043805D01*
X0161704Y0044906D01*
X0163745Y0044906D02*
X0163745Y0038300D01*
X0168149Y0038300D01*
X0170191Y0039401D02*
X0171292Y0038300D01*
X0173494Y0038300D01*
X0174595Y0039401D01*
X0174595Y0040502D01*
X0173494Y0041603D01*
X0171292Y0041603D01*
X0170191Y0042704D01*
X0170191Y0043805D01*
X0171292Y0044906D01*
X0173494Y0044906D01*
X0174595Y0043805D01*
X0173494Y0049800D02*
X0171292Y0049800D01*
X0170191Y0050901D01*
X0168149Y0049800D02*
X0163745Y0049800D01*
X0163745Y0056406D01*
X0168149Y0056406D01*
X0170191Y0055305D02*
X0171292Y0056406D01*
X0173494Y0056406D01*
X0174595Y0055305D01*
X0173494Y0053103D02*
X0174595Y0052002D01*
X0174595Y0050901D01*
X0173494Y0049800D01*
X0173494Y0053103D02*
X0171292Y0053103D01*
X0170191Y0054204D01*
X0170191Y0055305D01*
X0165947Y0053103D02*
X0163745Y0053103D01*
X0161704Y0055305D02*
X0161704Y0056406D01*
X0161704Y0055305D02*
X0159502Y0053103D01*
X0159502Y0049800D01*
X0159502Y0053103D02*
X0157300Y0055305D01*
X0157300Y0056406D01*
X0159502Y0061300D02*
X0159502Y0064603D01*
X0161704Y0066805D01*
X0161704Y0067906D01*
X0163745Y0067906D02*
X0163745Y0061300D01*
X0168149Y0061300D01*
X0170191Y0062401D02*
X0171292Y0061300D01*
X0173494Y0061300D01*
X0174595Y0062401D01*
X0174595Y0063502D01*
X0173494Y0064603D01*
X0171292Y0064603D01*
X0170191Y0065704D01*
X0170191Y0066805D01*
X0171292Y0067906D01*
X0173494Y0067906D01*
X0174595Y0066805D01*
X0173494Y0072800D02*
X0171292Y0072800D01*
X0170191Y0073901D01*
X0168149Y0072800D02*
X0163745Y0072800D01*
X0163745Y0079406D01*
X0168149Y0079406D01*
X0170191Y0078305D02*
X0170191Y0077204D01*
X0171292Y0076103D01*
X0173494Y0076103D01*
X0174595Y0075002D01*
X0174595Y0073901D01*
X0173494Y0072800D01*
X0174595Y0078305D02*
X0173494Y0079406D01*
X0171292Y0079406D01*
X0170191Y0078305D01*
X0165947Y0076103D02*
X0163745Y0076103D01*
X0161704Y0078305D02*
X0161704Y0079406D01*
X0161704Y0078305D02*
X0159502Y0076103D01*
X0159502Y0072800D01*
X0159502Y0076103D02*
X0157300Y0078305D01*
X0157300Y0079406D01*
X0159502Y0084300D02*
X0159502Y0087603D01*
X0161704Y0089805D01*
X0161704Y0090906D01*
X0163745Y0090906D02*
X0163745Y0084300D01*
X0168149Y0084300D01*
X0170191Y0085401D02*
X0171292Y0084300D01*
X0173494Y0084300D01*
X0174595Y0085401D01*
X0174595Y0086502D01*
X0173494Y0087603D01*
X0171292Y0087603D01*
X0170191Y0088704D01*
X0170191Y0089805D01*
X0171292Y0090906D01*
X0173494Y0090906D01*
X0174595Y0089805D01*
X0173494Y0095800D02*
X0171292Y0095800D01*
X0170191Y0096901D01*
X0168149Y0095800D02*
X0163745Y0095800D01*
X0163745Y0102406D01*
X0168149Y0102406D01*
X0170191Y0101305D02*
X0170191Y0100204D01*
X0171292Y0099103D01*
X0173494Y0099103D01*
X0174595Y0098002D01*
X0174595Y0096901D01*
X0173494Y0095800D01*
X0174595Y0101305D02*
X0173494Y0102406D01*
X0171292Y0102406D01*
X0170191Y0101305D01*
X0165947Y0099103D02*
X0163745Y0099103D01*
X0161704Y0101305D02*
X0161704Y0102406D01*
X0161704Y0101305D02*
X0159502Y0099103D01*
X0159502Y0095800D01*
X0159502Y0099103D02*
X0157300Y0101305D01*
X0157300Y0102406D01*
X0157300Y0090906D02*
X0157300Y0089805D01*
X0159502Y0087603D01*
X0163745Y0087603D02*
X0165947Y0087603D01*
X0168149Y0090906D02*
X0163745Y0090906D01*
X0163745Y0067906D02*
X0168149Y0067906D01*
X0165947Y0064603D02*
X0163745Y0064603D01*
X0159502Y0064603D02*
X0157300Y0066805D01*
X0157300Y0067906D01*
X0163745Y0044906D02*
X0168149Y0044906D01*
X0165947Y0041603D02*
X0163745Y0041603D01*
X0163745Y0033406D02*
X0163745Y0026800D01*
X0168149Y0026800D01*
X0170191Y0027901D02*
X0171292Y0026800D01*
X0173494Y0026800D01*
X0174595Y0027901D01*
X0174595Y0029002D01*
X0173494Y0030103D01*
X0171292Y0030103D01*
X0170191Y0031204D01*
X0170191Y0032305D01*
X0171292Y0033406D01*
X0173494Y0033406D01*
X0174595Y0032305D01*
X0168149Y0033406D02*
X0163745Y0033406D01*
X0161704Y0033406D02*
X0161704Y0032305D01*
X0159502Y0030103D01*
X0159502Y0026800D01*
X0159502Y0030103D02*
X0157300Y0032305D01*
X0157300Y0033406D01*
X0163745Y0030103D02*
X0165947Y0030103D01*
X0164846Y0021906D02*
X0163745Y0020805D01*
X0163745Y0016401D01*
X0164846Y0015300D01*
X0167048Y0015300D01*
X0168149Y0016401D01*
X0168149Y0020805D01*
X0167048Y0021906D01*
X0164846Y0021906D01*
X0161704Y0021906D02*
X0161704Y0015300D01*
X0157300Y0021906D01*
X0157300Y0015300D01*
X0157300Y0010406D02*
X0161704Y0003800D01*
X0161704Y0010406D01*
X0163745Y0009305D02*
X0163745Y0004901D01*
X0164846Y0003800D01*
X0167048Y0003800D01*
X0168149Y0004901D01*
X0168149Y0009305D01*
X0167048Y0010406D01*
X0164846Y0010406D01*
X0163745Y0009305D01*
X0170191Y0010406D02*
X0174595Y0010406D01*
X0172393Y0010406D02*
X0172393Y0003800D01*
X0172393Y0015300D02*
X0172393Y0021906D01*
X0170191Y0021906D02*
X0174595Y0021906D01*
X0157300Y0010406D02*
X0157300Y0003800D01*
X0106872Y0004901D02*
X0106872Y0009305D01*
X0105771Y0010406D01*
X0103569Y0010406D01*
X0102468Y0009305D01*
X0102468Y0008204D01*
X0103569Y0007103D01*
X0106872Y0007103D01*
X0106872Y0004901D02*
X0105771Y0003800D01*
X0103569Y0003800D01*
X0102468Y0004901D01*
X0100346Y0004901D02*
X0100346Y0003800D01*
X0099245Y0003800D01*
X0099245Y0004901D01*
X0100346Y0004901D01*
X0100346Y0015300D02*
X0099245Y0015300D01*
X0099245Y0016401D01*
X0100346Y0016401D01*
X0100346Y0015300D01*
X0102468Y0015300D02*
X0106872Y0019704D01*
X0106872Y0020805D01*
X0105771Y0021906D01*
X0103569Y0021906D01*
X0102468Y0020805D01*
X0102468Y0015300D02*
X0106872Y0015300D01*
X0089000Y0047400D02*
X0043000Y0047400D01*
X0028000Y0047400D01*
X0005000Y0047400D01*
X0014500Y0051100D02*
X0018500Y0051100D01*
X0014500Y0055100D01*
X0018500Y0055100D01*
X0014500Y0051100D01*
X0005000Y0058900D02*
X0028000Y0058900D01*
X0018500Y0064600D02*
X0016500Y0062600D01*
X0014500Y0064600D01*
X0016500Y0066600D01*
X0018500Y0064600D01*
X0016500Y0064600D02*
X0016500Y0066600D01*
X0032700Y0073901D02*
X0033801Y0072800D01*
X0036003Y0072800D01*
X0037104Y0073901D01*
X0037104Y0075002D01*
X0036003Y0076103D01*
X0034902Y0076103D01*
X0036003Y0076103D02*
X0037104Y0077204D01*
X0037104Y0078305D01*
X0036003Y0079406D01*
X0033801Y0079406D01*
X0032700Y0078305D01*
X0032700Y0084300D02*
X0037104Y0084300D01*
X0028000Y0093400D02*
X0028000Y0104900D01*
X0043000Y0104900D01*
X0089000Y0104900D01*
X0089000Y0116400D01*
X0098800Y0113906D02*
X0098800Y0107300D01*
X0103204Y0107300D02*
X0103204Y0113906D01*
X0101002Y0111704D01*
X0098800Y0113906D01*
X0105245Y0113906D02*
X0107447Y0111704D01*
X0109649Y0113906D01*
X0109649Y0107300D01*
X0105245Y0107300D02*
X0105245Y0113906D01*
X0105771Y0102406D02*
X0103569Y0102406D01*
X0102468Y0101305D01*
X0105771Y0102406D02*
X0106872Y0101305D01*
X0106872Y0100204D01*
X0102468Y0095800D01*
X0106872Y0095800D01*
X0108914Y0096901D02*
X0110015Y0095800D01*
X0112217Y0095800D01*
X0113317Y0096901D01*
X0113317Y0099103D01*
X0112217Y0100204D01*
X0111116Y0100204D01*
X0108914Y0099103D01*
X0108914Y0102406D01*
X0113317Y0102406D01*
X0113317Y0090906D02*
X0108914Y0090906D01*
X0108914Y0087603D01*
X0111116Y0088704D01*
X0112217Y0088704D01*
X0113317Y0087603D01*
X0113317Y0085401D01*
X0112217Y0084300D01*
X0110015Y0084300D01*
X0108914Y0085401D01*
X0106872Y0085401D02*
X0105771Y0084300D01*
X0103569Y0084300D01*
X0102468Y0085401D01*
X0100346Y0085401D02*
X0100346Y0084300D01*
X0099245Y0084300D01*
X0099245Y0085401D01*
X0100346Y0085401D01*
X0097204Y0085401D02*
X0096103Y0084300D01*
X0093901Y0084300D01*
X0092800Y0085401D01*
X0097204Y0089805D01*
X0097204Y0085401D01*
X0097204Y0089805D02*
X0096103Y0090906D01*
X0093901Y0090906D01*
X0092800Y0089805D01*
X0092800Y0085401D01*
X0093901Y0079406D02*
X0092800Y0078305D01*
X0092800Y0073901D01*
X0097204Y0078305D01*
X0097204Y0073901D01*
X0096103Y0072800D01*
X0093901Y0072800D01*
X0092800Y0073901D01*
X0093901Y0079406D02*
X0096103Y0079406D01*
X0097204Y0078305D01*
X0099245Y0073901D02*
X0100346Y0073901D01*
X0100346Y0072800D01*
X0099245Y0072800D01*
X0099245Y0073901D01*
X0102468Y0073901D02*
X0102468Y0072800D01*
X0102468Y0073901D02*
X0106872Y0078305D01*
X0106872Y0079406D01*
X0102468Y0079406D01*
X0108914Y0078305D02*
X0108914Y0073901D01*
X0113317Y0078305D01*
X0113317Y0073901D01*
X0112217Y0072800D01*
X0110015Y0072800D01*
X0108914Y0073901D01*
X0108914Y0078305D02*
X0110015Y0079406D01*
X0112217Y0079406D01*
X0113317Y0078305D01*
X0106872Y0085401D02*
X0106872Y0086502D01*
X0105771Y0087603D01*
X0104670Y0087603D01*
X0105771Y0087603D02*
X0106872Y0088704D01*
X0106872Y0089805D01*
X0105771Y0090906D01*
X0103569Y0090906D01*
X0102468Y0089805D01*
X0100346Y0095800D02*
X0099245Y0095800D01*
X0099245Y0096901D01*
X0100346Y0096901D01*
X0100346Y0095800D01*
X0097204Y0096901D02*
X0097204Y0101305D01*
X0092800Y0096901D01*
X0093901Y0095800D01*
X0096103Y0095800D01*
X0097204Y0096901D01*
X0097204Y0101305D02*
X0096103Y0102406D01*
X0093901Y0102406D01*
X0092800Y0101305D01*
X0092800Y0096901D01*
X0077162Y0067906D02*
X0078263Y0066805D01*
X0073859Y0062401D01*
X0074960Y0061300D01*
X0077162Y0061300D01*
X0078263Y0062401D01*
X0078263Y0066805D01*
X0077162Y0067906D02*
X0074960Y0067906D01*
X0073859Y0066805D01*
X0073859Y0062401D01*
X0071817Y0062401D02*
X0070717Y0061300D01*
X0068515Y0061300D01*
X0067414Y0062401D01*
X0071817Y0066805D01*
X0071817Y0062401D01*
X0067414Y0062401D02*
X0067414Y0066805D01*
X0068515Y0067906D01*
X0070717Y0067906D01*
X0071817Y0066805D01*
X0065292Y0062401D02*
X0065292Y0061300D01*
X0064191Y0061300D01*
X0064191Y0062401D01*
X0065292Y0062401D01*
X0073859Y0056406D02*
X0078263Y0056406D01*
X0078263Y0055305D01*
X0073859Y0050901D01*
X0073859Y0049800D01*
X0055704Y0062401D02*
X0054603Y0061300D01*
X0052401Y0061300D01*
X0051300Y0062401D01*
X0053502Y0064603D02*
X0054603Y0064603D01*
X0055704Y0063502D01*
X0055704Y0062401D01*
X0054603Y0064603D02*
X0055704Y0065704D01*
X0055704Y0066805D01*
X0054603Y0067906D01*
X0052401Y0067906D01*
X0051300Y0066805D01*
X0051300Y0072800D02*
X0055704Y0077204D01*
X0055704Y0078305D01*
X0054603Y0079406D01*
X0052401Y0079406D01*
X0051300Y0078305D01*
X0051300Y0072800D02*
X0055704Y0072800D01*
X0057745Y0072800D02*
X0057745Y0073901D01*
X0062149Y0078305D01*
X0062149Y0079406D01*
X0057745Y0079406D01*
X0037104Y0095800D02*
X0032700Y0095800D01*
X0034902Y0095800D02*
X0034902Y0102406D01*
X0032700Y0100204D01*
X0028000Y0104900D02*
X0028000Y0116400D01*
X0029800Y0113906D02*
X0034204Y0107300D01*
X0034204Y0113906D01*
X0036245Y0112805D02*
X0037346Y0113906D01*
X0038447Y0113906D01*
X0039548Y0112805D01*
X0039548Y0111704D01*
X0038447Y0110603D01*
X0037346Y0110603D01*
X0036245Y0111704D01*
X0036245Y0112805D01*
X0029800Y0113906D02*
X0029800Y0107300D01*
X0028000Y0104900D02*
X0005000Y0104900D01*
X0005000Y0116400D01*
X0007800Y0112805D02*
X0007800Y0111704D01*
X0008901Y0110603D01*
X0011103Y0110603D01*
X0012204Y0109502D01*
X0012204Y0108401D01*
X0011103Y0107300D01*
X0008901Y0107300D01*
X0007800Y0108401D01*
X0007800Y0112805D02*
X0008901Y0113906D01*
X0011103Y0113906D01*
X0012204Y0112805D01*
X0014245Y0111704D02*
X0014245Y0108401D01*
X0015346Y0107300D01*
X0018649Y0107300D01*
X0018649Y0106199D02*
X0017548Y0105098D01*
X0016447Y0105098D01*
X0018649Y0106199D02*
X0018649Y0111704D01*
X0020691Y0111704D02*
X0021792Y0111704D01*
X0022893Y0110603D01*
X0023994Y0111704D01*
X0025095Y0110603D01*
X0025095Y0107300D01*
X0022893Y0107300D02*
X0022893Y0110603D01*
X0020691Y0111704D02*
X0020691Y0107300D01*
X0016500Y0101100D02*
X0016500Y0097100D01*
X0014500Y0099100D02*
X0018500Y0099100D01*
X0043000Y0104900D02*
X0043000Y0116400D01*
X0095002Y0056406D02*
X0092800Y0054204D01*
X0108914Y0065704D02*
X0110015Y0064603D01*
X0113317Y0064603D01*
X0113317Y0066805D02*
X0112217Y0067906D01*
X0110015Y0067906D01*
X0108914Y0066805D01*
X0108914Y0065704D01*
X0064594Y0021906D02*
X0065695Y0020805D01*
X0065695Y0019704D01*
X0064594Y0018603D01*
X0062392Y0018603D02*
X0061291Y0019704D01*
X0061291Y0020805D01*
X0062392Y0021906D01*
X0064594Y0021906D01*
X0196900Y0053103D02*
X0201304Y0053103D01*
X0203345Y0061300D02*
X0207749Y0067906D01*
X0201304Y0064603D02*
X0196900Y0064603D01*
X0227006Y0010406D02*
X0229208Y0010406D01*
X0230308Y0009305D01*
X0225905Y0004901D01*
X0227006Y0003800D01*
X0229208Y0003800D01*
X0230308Y0004901D01*
X0230308Y0009305D01*
X0232350Y0010406D02*
X0232350Y0007103D01*
X0234552Y0008204D01*
X0235653Y0008204D01*
X0236754Y0007103D01*
X0236754Y0004901D01*
X0235653Y0003800D01*
X0233451Y0003800D01*
X0232350Y0004901D01*
X0232350Y0010406D02*
X0236754Y0010406D01*
X0238796Y0008204D02*
X0239897Y0008204D01*
X0240998Y0007103D01*
X0242099Y0008204D01*
X0243199Y0007103D01*
X0243199Y0003800D01*
X0245241Y0003800D02*
X0245241Y0008204D01*
X0246342Y0008204D01*
X0247443Y0007103D01*
X0248544Y0008204D01*
X0249645Y0007103D01*
X0249645Y0003800D01*
X0247443Y0003800D02*
X0247443Y0007103D01*
X0240998Y0007103D02*
X0240998Y0003800D01*
X0238796Y0003800D02*
X0238796Y0008204D01*
X0227006Y0010406D02*
X0225905Y0009305D01*
X0225905Y0004901D01*
X0223783Y0004901D02*
X0223783Y0003800D01*
X0222682Y0003800D01*
X0222682Y0004901D01*
X0223783Y0004901D01*
D12*
X0005000Y0001400D02*
X0005000Y0116400D01*
X0258000Y0116400D01*
X0258000Y0001400D01*
X0005000Y0001400D01*
M02*
