G75*
%MOIN*%
%OFA0B0*%
%FSLAX25Y25*%
%IPPOS*%
%LPD*%
%AMOC8*
5,1,8,0,0,1.08239X$1,22.5*
%
%ADD10C,0.00935*%
D10*
X0066632Y0122584D02*
X0069438Y0122584D01*
X0066632Y0122584D02*
X0066632Y0125586D01*
X0069438Y0125586D01*
X0069438Y0122584D01*
X0069438Y0123518D02*
X0066632Y0123518D01*
X0066632Y0124452D02*
X0069438Y0124452D01*
X0069438Y0125386D02*
X0066632Y0125386D01*
X0072932Y0122584D02*
X0075738Y0122584D01*
X0072932Y0122584D02*
X0072932Y0125586D01*
X0075738Y0125586D01*
X0075738Y0122584D01*
X0075738Y0123518D02*
X0072932Y0123518D01*
X0072932Y0124452D02*
X0075738Y0124452D01*
X0075738Y0125386D02*
X0072932Y0125386D01*
X0082686Y0125338D02*
X0082686Y0122532D01*
X0079684Y0122532D01*
X0079684Y0125338D01*
X0082686Y0125338D01*
X0082686Y0123466D02*
X0079684Y0123466D01*
X0079684Y0124400D02*
X0082686Y0124400D01*
X0082686Y0125334D02*
X0079684Y0125334D01*
X0082686Y0128832D02*
X0082686Y0131638D01*
X0082686Y0128832D02*
X0079684Y0128832D01*
X0079684Y0131638D01*
X0082686Y0131638D01*
X0082686Y0129766D02*
X0079684Y0129766D01*
X0079684Y0130700D02*
X0082686Y0130700D01*
X0082686Y0131634D02*
X0079684Y0131634D01*
X0075738Y0128584D02*
X0072932Y0128584D01*
X0072932Y0131586D01*
X0075738Y0131586D01*
X0075738Y0128584D01*
X0075738Y0129518D02*
X0072932Y0129518D01*
X0072932Y0130452D02*
X0075738Y0130452D01*
X0075738Y0131386D02*
X0072932Y0131386D01*
X0069438Y0128584D02*
X0066632Y0128584D01*
X0066632Y0131586D01*
X0069438Y0131586D01*
X0069438Y0128584D01*
X0069438Y0129518D02*
X0066632Y0129518D01*
X0066632Y0130452D02*
X0069438Y0130452D01*
X0069438Y0131386D02*
X0066632Y0131386D01*
M02*
